%YAML 1.1
%TAG !u! tag:unity3d.com,2011:
--- !u!74 &7400000
AnimationClip:
  m_ObjectHideFlags: 0
  m_PrefabParentObject: {fileID: 0}
  m_PrefabInternal: {fileID: 0}
  m_Name: "Butterfly_L@Idle"
  serializedVersion: 6
  m_Legacy: 0
  m_Compressed: 0
  m_UseHighQualityCurve: 0
  m_RotationCurves:
  - curve:
      serializedVersion: 2
      m_Curve:
      - serializedVersion: 3
        time: 0.06666667
        value: {x: 0.735089, y: 8.786092E-17, z: 6.787054E-17, w: 0.6779706}
        inSlope: {x: 0.02193331, y: 2.195469E-18, z: -2.844641E-18, w: -0.02380371}
        outSlope: {x: 0.02193331, y: 2.195469E-18, z: -2.844641E-18, w: -0.02380371}
        weightedMode: 0
        inWeight: { x: 0.3333333, y: 0.3333333, z: 0.3333333, w: 0.3333333}
        outWeight: { x: 0.3333333, y: 0.3333333, z: 0.3333333, w: 0.3333333}
      - serializedVersion: 3
        time: 1.3
        value: {x: 0.7271594, y: 8.706613E-17, z: 6.888716E-17, w: 0.6864687}
        inSlope: {x: -0.01971336, y: -1.978188E-18, z: 2.500206E-18, w: 0.02088102}
        outSlope: {x: -0.01971336, y: -1.978188E-18, z: 2.500206E-18, w: 0.02088102}
        weightedMode: 0
        inWeight: { x: 0.3333333, y: 0.3333333, z: 0.3333333, w: 0.3333333}
        outWeight: { x: 0.3333333, y: 0.3333333, z: 0.3333333, w: 0.3333333}
      - serializedVersion: 3
        time: 1.933333
        value: {x: 0.7321284, y: 8.756441E-17, z: 6.825267E-17, w: 0.6811666}
        inSlope: {x: 0, y: 0, z: 0, w: 0}
        outSlope: {x: 0, y: 0, z: 0, w: 0}
        weightedMode: 0
        inWeight: { x: 0.3333333, y: 0.3333333, z: 0.3333333, w: 0.3333333}
        outWeight: { x: 0.3333333, y: 0.3333333, z: 0.3333333, w: 0.3333333}
      m_PreInfinity: 2
      m_PostInfinity: 2
      m_RotationOrder: 4
    path: Rig/Root/Body
  - curve:
      serializedVersion: 2
      m_Curve:
      - serializedVersion: 3
        time: 0
        value: {x: -0.4399927, y: 0.2578738, z: 0.5195586, w: 0.6855409}
        inSlope: {x: -0.04089653, y: 0.1816016, z: -0.0001305342, w: -0.09552418}
        outSlope: {x: -0.04089653, y: 0.1816016, z: -0.0001305342, w: -0.09552418}
        weightedMode: 0
        inWeight: { x: 0.3333333, y: 0.3333333, z: 0.3333333, w: 0.3333333}
        outWeight: { x: 0.3333333, y: 0.3333333, z: 0.3333333, w: 0.3333333}
      - serializedVersion: 3
        time: 0.5
        value: {x: -0.4379467, y: 0.2520523, z: 0.5182024, w: 0.690028}
        inSlope: {x: 0.05381137, y: -0.2001225, z: -0.01404762, w: 0.1176971}
        outSlope: {x: 0.05381137, y: -0.2001225, z: -0.01404762, w: 0.1176971}
        weightedMode: 0
        inWeight: { x: 0.3333333, y: 0.3333333, z: 0.3333333, w: 0.3333333}
        outWeight: { x: 0.3333333, y: 0.3333333, z: 0.3333333, w: 0.3333333}
      - serializedVersion: 3
        time: 1.133333
        value: {x: -0.3981618, y: 0.1120822, z: 0.5158626, w: 0.7501937}
        inSlope: {x: 0.02970811, y: -0.09415381, z: 0.001350932, w: 0.02897945}
        outSlope: {x: 0.02970811, y: -0.09415381, z: 0.001350932, w: 0.02897945}
        weightedMode: 0
        inWeight: { x: 0.3333333, y: 0.3333333, z: 0.3333333, w: 0.3333333}
        outWeight: { x: 0.3333333, y: 0.3333333, z: 0.3333333, w: 0.3333333}
      - serializedVersion: 3
        time: 1.9
        value: {x: -0.4340833, y: 0.2375952, z: 0.5173904, w: 0.6981602}
        inSlope: {x: -0.06074494, y: 0.2329534, z: 0.007469065, w: -0.1225011}
        outSlope: {x: -0.06074494, y: 0.2329534, z: 0.007469065, w: -0.1225011}
        weightedMode: 0
        inWeight: { x: 0.3333333, y: 0.3333333, z: 0.3333333, w: 0.3333333}
        outWeight: { x: 0.3333333, y: 0.3333333, z: 0.3333333, w: 0.3333333}
      - serializedVersion: 3
        time: 1.966667
        value: {x: -0.4377741, y: 0.2523521, z: 0.5177299, w: 0.6903826}
        inSlope: {x: 0, y: 0, z: 0, w: 0}
        outSlope: {x: 0, y: 0, z: 0, w: 0}
        weightedMode: 0
        inWeight: { x: 0.3333333, y: 0.3333333, z: 0.3333333, w: 0.3333333}
        outWeight: { x: 0.3333333, y: 0.3333333, z: 0.3333333, w: 0.3333333}
      m_PreInfinity: 2
      m_PostInfinity: 2
      m_RotationOrder: 4
    path: Rig/Root/Body/Fin_L
  - curve:
      serializedVersion: 2
      m_Curve:
      - serializedVersion: 3
        time: 0
        value: {x: -0.0626161, y: 3.42934E-08, z: -2.006281E-08, w: 0.9980377}
        inSlope: {x: 0.8648697, y: -1.779856E-08, z: -2.944013E-08, w: 0.04174232}
        outSlope: {x: 0.8648697, y: -1.779856E-08, z: -2.944013E-08, w: 0.04174232}
        weightedMode: 0
        inWeight: { x: 0.3333333, y: 0.3333333, z: 0.3333333, w: 0.3333333}
        outWeight: { x: 0.3333333, y: 0.3333333, z: 0.3333333, w: 0.3333333}
      - serializedVersion: 3
        time: 0.3
        value: {x: 0.1836231, y: 2.83382E-08, z: -2.784781E-08, w: 0.9829968}
        inSlope: {x: 0.6715733, y: -1.900456E-08, z: -1.937434E-08, w: -0.1248193}
        outSlope: {x: 0.6715733, y: -1.900456E-08, z: -1.937434E-08, w: -0.1248193}
        weightedMode: 0
        inWeight: { x: 0.3333333, y: 0.3333333, z: 0.3333333, w: 0.3333333}
        outWeight: { x: 0.3333333, y: 0.3333333, z: 0.3333333, w: 0.3333333}
      - serializedVersion: 3
        time: 0.6666667
        value: {x: 0.2673643, y: 2.584193E-08, z: -3.01786E-08, w: 0.9635955}
        inSlope: {x: -0.3024025, y: 9.454117E-09, z: 8.121183E-09, w: 0.08339971}
        outSlope: {x: -0.3024025, y: 9.454117E-09, z: 8.121183E-09, w: 0.08339971}
        weightedMode: 0
        inWeight: { x: 0.3333333, y: 0.3333333, z: 0.3333333, w: 0.3333333}
        outWeight: { x: 0.3333333, y: 0.3333333, z: 0.3333333, w: 0.3333333}
      - serializedVersion: 3
        time: 1.066667
        value: {x: -0.004670759, y: 3.307305E-08, z: -2.201652E-08, w: 0.9999891}
        inSlope: {x: -0.8735528, y: 1.923285E-08, z: 2.889134E-08, w: -0.004079644}
        outSlope: {x: -0.8735528, y: 1.923285E-08, z: 2.889134E-08, w: -0.004079644}
        weightedMode: 0
        inWeight: { x: 0.3333333, y: 0.3333333, z: 0.3333333, w: 0.3333333}
        outWeight: { x: 0.3333333, y: 0.3333333, z: 0.3333333, w: 0.3333333}
      - serializedVersion: 3
        time: 1.466667
        value: {x: -0.2763539, y: 3.781285E-08, z: -1.219599E-08, w: 0.9610559}
        inSlope: {x: -0.3016075, y: 3.84423E-09, z: 1.185552E-08, w: -0.08622045}
        outSlope: {x: -0.3016075, y: 3.84423E-09, z: 1.185552E-08, w: -0.08622045}
        weightedMode: 0
        inWeight: { x: 0.3333333, y: 0.3333333, z: 0.3333333, w: 0.3333333}
        outWeight: { x: 0.3333333, y: 0.3333333, z: 0.3333333, w: 0.3333333}
      - serializedVersion: 3
        time: 1.833333
        value: {x: -0.1927975, y: 3.662576E-08, z: -1.53983E-08, w: 0.9812386}
        inSlope: {x: 0.6703777, y: -1.054089E-08, z: -2.500855E-08, w: 0.1310866}
        outSlope: {x: 0.6703777, y: -1.054089E-08, z: -2.500855E-08, w: 0.1310866}
        weightedMode: 0
        inWeight: { x: 0.3333333, y: 0.3333333, z: 0.3333333, w: 0.3333333}
        outWeight: { x: 0.3333333, y: 0.3333333, z: 0.3333333, w: 0.3333333}
      - serializedVersion: 3
        time: 1.966667
        value: {x: -0.09087661, y: 3.484823E-08, z: -1.908283E-08, w: 0.9958622}
        inSlope: {x: 0, y: 0, z: 0, w: 0}
        outSlope: {x: 0, y: 0, z: 0, w: 0}
        weightedMode: 0
        inWeight: { x: 0.3333333, y: 0.3333333, z: 0.3333333, w: 0.3333333}
        outWeight: { x: 0.3333333, y: 0.3333333, z: 0.3333333, w: 0.3333333}
      m_PreInfinity: 2
      m_PostInfinity: 2
      m_RotationOrder: 4
    path: Rig/Root/Body/Fin_L/Fin_L.002
  - curve:
      serializedVersion: 2
      m_Curve:
      - serializedVersion: 3
        time: 0
        value: {x: -0.4399927, y: -0.2578738, z: -0.5195586, w: 0.6855409}
        inSlope: {x: -0.04089653, y: -0.1816016, z: 0.0001305342, w: -0.09552418}
        outSlope: {x: -0.04089653, y: -0.1816016, z: 0.0001305342, w: -0.09552418}
        weightedMode: 0
        inWeight: { x: 0.3333333, y: 0.3333333, z: 0.3333333, w: 0.3333333}
        outWeight: { x: 0.3333333, y: 0.3333333, z: 0.3333333, w: 0.3333333}
      - serializedVersion: 3
        time: 0.5
        value: {x: -0.4379467, y: -0.2520523, z: -0.5182024, w: 0.690028}
        inSlope: {x: 0.05381137, y: 0.2001225, z: 0.01404762, w: 0.1176971}
        outSlope: {x: 0.05381137, y: 0.2001225, z: 0.01404762, w: 0.1176971}
        weightedMode: 0
        inWeight: { x: 0.3333333, y: 0.3333333, z: 0.3333333, w: 0.3333333}
        outWeight: { x: 0.3333333, y: 0.3333333, z: 0.3333333, w: 0.3333333}
      - serializedVersion: 3
        time: 1.133333
        value: {x: -0.3981618, y: -0.1120822, z: -0.5158626, w: 0.7501937}
        inSlope: {x: 0.02970811, y: 0.09415381, z: -0.001350932, w: 0.02897945}
        outSlope: {x: 0.02970811, y: 0.09415381, z: -0.001350932, w: 0.02897945}
        weightedMode: 0
        inWeight: { x: 0.3333333, y: 0.3333333, z: 0.3333333, w: 0.3333333}
        outWeight: { x: 0.3333333, y: 0.3333333, z: 0.3333333, w: 0.3333333}
      - serializedVersion: 3
        time: 1.9
        value: {x: -0.4340833, y: -0.2375952, z: -0.5173904, w: 0.6981602}
        inSlope: {x: -0.06074494, y: -0.2329534, z: -0.007469065, w: -0.1225011}
        outSlope: {x: -0.06074494, y: -0.2329534, z: -0.007469065, w: -0.1225011}
        weightedMode: 0
        inWeight: { x: 0.3333333, y: 0.3333333, z: 0.3333333, w: 0.3333333}
        outWeight: { x: 0.3333333, y: 0.3333333, z: 0.3333333, w: 0.3333333}
      - serializedVersion: 3
        time: 1.966667
        value: {x: -0.4377741, y: -0.2523521, z: -0.5177299, w: 0.6903826}
        inSlope: {x: 0, y: 0, z: 0, w: 0}
        outSlope: {x: 0, y: 0, z: 0, w: 0}
        weightedMode: 0
        inWeight: { x: 0.3333333, y: 0.3333333, z: 0.3333333, w: 0.3333333}
        outWeight: { x: 0.3333333, y: 0.3333333, z: 0.3333333, w: 0.3333333}
      m_PreInfinity: 2
      m_PostInfinity: 2
      m_RotationOrder: 4
    path: Rig/Root/Body/Fin_R
  - curve:
      serializedVersion: 2
      m_Curve:
      - serializedVersion: 3
        time: 0
        value: {x: -0.03365756, y: -3.42314E-08, z: 1.873013E-08, w: 0.9994335}
        inSlope: {x: 0.4327983, y: 8.216041E-09, z: 1.476152E-08, w: 0.01144767}
        outSlope: {x: 0.4327983, y: 8.216041E-09, z: 1.476152E-08, w: 0.01144767}
        weightedMode: 0
        inWeight: { x: 0.3333333, y: 0.3333333, z: 0.3333333, w: 0.3333333}
        outWeight: { x: 0.3333333, y: 0.3333333, z: 0.3333333, w: 0.3333333}
      - serializedVersion: 3
        time: 0.6666667
        value: {x: 0.1326013, y: -3.065004E-08, z: 2.414915E-08, w: 0.9911695}
        inSlope: {x: -0.1554789, y: -3.78396E-09, z: -4.810339E-09, w: 0.02067715}
        outSlope: {x: -0.1554789, y: -3.78396E-09, z: -4.810339E-09, w: 0.02067715}
        weightedMode: 0
        inWeight: { x: 0.3333333, y: 0.3333333, z: 0.3333333, w: 0.3333333}
        outWeight: { x: 0.3333333, y: 0.3333333, z: 0.3333333, w: 0.3333333}
      - serializedVersion: 3
        time: 1.2
        value: {x: -0.06158114, y: -3.474158E-08, z: 1.776596E-08, w: 0.9981021}
        inSlope: {x: -0.4049565, y: -7.211678E-09, z: -1.409349E-08, w: -0.0248802}
        outSlope: {x: -0.4049565, y: -7.211678E-09, z: -1.409349E-08, w: -0.0248802}
        weightedMode: 0
        inWeight: { x: 0.3333333, y: 0.3333333, z: 0.3333333, w: 0.3333333}
        outWeight: { x: 0.3333333, y: 0.3333333, z: 0.3333333, w: 0.3333333}
      - serializedVersion: 3
        time: 1.733333
        value: {x: -0.1285398, y: -3.585731E-08, z: 1.539025E-08, w: 0.9917043}
        inSlope: {x: 0.2404093, y: 3.736262E-09, z: 8.689363E-09, w: 0.03100184}
        outSlope: {x: 0.2404093, y: 3.736262E-09, z: 8.689363E-09, w: 0.03100184}
        weightedMode: 0
        inWeight: { x: 0.3333333, y: 0.3333333, z: 0.3333333, w: 0.3333333}
        outWeight: { x: 0.3333333, y: 0.3333333, z: 0.3333333, w: 0.3333333}
      - serializedVersion: 3
        time: 1.966667
        value: {x: -0.0478182, y: -3.44934E-08, z: 1.824312E-08, w: 0.9988561}
        inSlope: {x: 0, y: 0, z: 0, w: 0}
        outSlope: {x: 0, y: 0, z: 0, w: 0}
        weightedMode: 0
        inWeight: { x: 0.3333333, y: 0.3333333, z: 0.3333333, w: 0.3333333}
        outWeight: { x: 0.3333333, y: 0.3333333, z: 0.3333333, w: 0.3333333}
      m_PreInfinity: 2
      m_PostInfinity: 2
      m_RotationOrder: 4
    path: Rig/Root/Body/Fin_R/Fin_R.002
  - curve:
      serializedVersion: 2
      m_Curve:
      - serializedVersion: 3
        time: 0.06666667
        value: {x: -0.3467942, y: -0.5694241, z: 0.3866568, w: 0.6371707}
        inSlope: {x: -0.03705918, y: -0.02246797, z: -0.03315836, w: -0.02021849}
        outSlope: {x: -0.03705918, y: -0.02246797, z: -0.03315836, w: -0.02021849}
        weightedMode: 0
        inWeight: { x: 0.3333333, y: 0.3333333, z: 0.3333333, w: 0.3333333}
        outWeight: { x: 0.3333333, y: 0.3333333, z: 0.3333333, w: 0.3333333}
      - serializedVersion: 3
        time: 0.9
        value: {x: -0.3857759, y: -0.6363539, z: 0.348286, w: 0.5700243}
        inSlope: {x: -0.0189954, y: -0.03626258, z: -0.02762541, w: -0.03642619}
        outSlope: {x: -0.0189954, y: -0.03626258, z: -0.02762541, w: -0.03642619}
        weightedMode: 0
        inWeight: { x: 0.3333333, y: 0.3333333, z: 0.3333333, w: 0.3333333}
        outWeight: { x: 0.3333333, y: 0.3333333, z: 0.3333333, w: 0.3333333}
      - serializedVersion: 3
        time: 1.833333
        value: {x: -0.3503654, y: -0.5733212, z: 0.3842017, w: 0.633195}
        inSlope: {x: 0.03586826, y: 0.06038363, z: 0.03000764, w: 0.05635139}
        outSlope: {x: 0.03586826, y: 0.06038363, z: 0.03000764, w: 0.05635139}
        weightedMode: 0
        inWeight: { x: 0.3333333, y: 0.3333333, z: 0.3333333, w: 0.3333333}
        outWeight: { x: 0.3333333, y: 0.3333333, z: 0.3333333, w: 0.3333333}
      - serializedVersion: 3
        time: 1.933333
        value: {x: -0.3476186, y: -0.5689128, z: 0.3863173, w: 0.6373841}
        inSlope: {x: 0, y: 0, z: 0, w: 0}
        outSlope: {x: 0, y: 0, z: 0, w: 0}
        weightedMode: 0
        inWeight: { x: 0.3333333, y: 0.3333333, z: 0.3333333, w: 0.3333333}
        outWeight: { x: 0.3333333, y: 0.3333333, z: 0.3333333, w: 0.3333333}
      m_PreInfinity: 2
      m_PostInfinity: 2
      m_RotationOrder: 4
    path: Rig/Root/Body/Tail_01
  - curve:
      serializedVersion: 2
      m_Curve:
      - serializedVersion: 3
        time: 0
        value: {x: 0.0003324586, y: -0.001020208, z: 0.2511113, w: 0.9679577}
        inSlope: {x: 0.6224574, y: 0.1689007, z: -0.001232028, w: -0.00688076}
        outSlope: {x: 0.6224574, y: 0.1689007, z: -0.001232028, w: -0.00688076}
        weightedMode: 0
        inWeight: { x: 0.3333333, y: 0.3333333, z: 0.3333333, w: 0.3333333}
        outWeight: { x: 0.3333333, y: 0.3333333, z: 0.3333333, w: 0.3333333}
      - serializedVersion: 3
        time: 0.4
        value: {x: 0.1951582, y: 0.05183343, z: 0.2457061, w: 0.9480797}
        inSlope: {x: 0.2189692, y: 0.05935732, z: -0.01243673, w: -0.04481522}
        outSlope: {x: 0.2189692, y: 0.05935732, z: -0.01243673, w: -0.04481522}
        weightedMode: 0
        inWeight: { x: 0.3333333, y: 0.3333333, z: 0.3333333, w: 0.3333333}
        outWeight: { x: 0.3333333, y: 0.3333333, z: 0.3333333, w: 0.3333333}
      - serializedVersion: 3
        time: 1.033333
        value: {x: -0.02041631, y: -0.006649772, z: 0.2510263, w: 0.9677421}
        inSlope: {x: -0.6195517, y: -0.168086, z: -0.00440374, w: -0.01302034}
        outSlope: {x: -0.6195517, y: -0.168086, z: -0.00440374, w: -0.01302034}
        weightedMode: 0
        inWeight: { x: 0.3333333, y: 0.3333333, z: 0.3333333, w: 0.3333333}
        outWeight: { x: 0.3333333, y: 0.3333333, z: 0.3333333, w: 0.3333333}
      - serializedVersion: 3
        time: 1.6
        value: {x: -0.1945059, y: -0.05383163, z: 0.2452933, w: 0.9482093}
        inSlope: {x: 0.2189993, y: 0.05926215, z: 0.01290075, w: 0.04466948}
        outSlope: {x: 0.2189993, y: 0.05926215, z: 0.01290075, w: 0.04466948}
        weightedMode: 0
        inWeight: { x: 0.3333333, y: 0.3333333, z: 0.3333333, w: 0.3333333}
        outWeight: { x: 0.3333333, y: 0.3333333, z: 0.3333333, w: 0.3333333}
      - serializedVersion: 3
        time: 1.966667
        value: {x: -0.02041625, y: -0.006649752, z: 0.2510263, w: 0.9677421}
        inSlope: {x: 0, y: 0, z: 0, w: 0}
        outSlope: {x: 0, y: 0, z: 0, w: 0}
        weightedMode: 0
        inWeight: { x: 0.3333333, y: 0.3333333, z: 0.3333333, w: 0.3333333}
        outWeight: { x: 0.3333333, y: 0.3333333, z: 0.3333333, w: 0.3333333}
      m_PreInfinity: 2
      m_PostInfinity: 2
      m_RotationOrder: 4
    path: Rig/Root/Body/Tail_01/Tail_02
  - curve:
      serializedVersion: 2
      m_Curve:
      - serializedVersion: 3
        time: 0
        value: {x: -0.2239797, y: -0.6852638, z: 0.1161223, w: 0.6832}
        inSlope: {x: -0.05317166, y: -0.001094341, z: -0.1400567, w: 0.00472784}
        outSlope: {x: -0.05317166, y: -0.001094341, z: -0.1400567, w: 0.00472784}
        weightedMode: 0
        inWeight: { x: 0.3333333, y: 0.3333333, z: 0.3333333, w: 0.3333333}
        outWeight: { x: 0.3333333, y: 0.3333333, z: 0.3333333, w: 0.3333333}
      - serializedVersion: 3
        time: 0.5666667
        value: {x: -0.2047594, y: -0.6827424, z: 0.1672705, w: 0.6811439}
        inSlope: {x: 0.09888344, y: 0.02321631, z: 0.265399, w: -0.01223624}
        outSlope: {x: 0.09888344, y: 0.02321631, z: 0.265399, w: -0.01223624}
        weightedMode: 0
        inWeight: { x: 0.3333333, y: 0.3333333, z: 0.3333333, w: 0.3333333}
        outWeight: { x: 0.3333333, y: 0.3333333, z: 0.3333333, w: 0.3333333}
      - serializedVersion: 3
        time: 1.3
        value: {x: -0.1641777, y: -0.6638448, z: 0.2777784, w: 0.6746814}
        inSlope: {x: -0.04624982, y: -0.03234836, z: -0.1269017, w: 0.009089122}
        outSlope: {x: -0.04624982, y: -0.03234836, z: -0.1269017, w: 0.009089122}
        weightedMode: 0
        inWeight: { x: 0.3333333, y: 0.3333333, z: 0.3333333, w: 0.3333333}
        outWeight: { x: 0.3333333, y: 0.3333333, z: 0.3333333, w: 0.3333333}
      - serializedVersion: 3
        time: 1.9
        value: {x: -0.216948, y: -0.6847963, z: 0.1347279, w: 0.6825218}
        inSlope: {x: -0.08110628, y: -0.008481152, z: -0.2153677, w: 0.008328266}
        outSlope: {x: -0.08110628, y: -0.008481152, z: -0.2153677, w: 0.008328266}
        weightedMode: 0
        inWeight: { x: 0.3333333, y: 0.3333333, z: 0.3333333, w: 0.3333333}
        outWeight: { x: 0.3333333, y: 0.3333333, z: 0.3333333, w: 0.3333333}
      - serializedVersion: 3
        time: 1.966667
        value: {x: -0.2219004, y: -0.6851793, z: 0.1216104, w: 0.6830084}
        inSlope: {x: 0, y: 0, z: 0, w: 0}
        outSlope: {x: 0, y: 0, z: 0, w: 0}
        weightedMode: 0
        inWeight: { x: 0.3333333, y: 0.3333333, z: 0.3333333, w: 0.3333333}
        outWeight: { x: 0.3333333, y: 0.3333333, z: 0.3333333, w: 0.3333333}
      m_PreInfinity: 2
      m_PostInfinity: 2
      m_RotationOrder: 4
    path: Rig/Root/Body/Fin_Back
  - curve:
      serializedVersion: 2
      m_Curve:
      - serializedVersion: 3
        time: 0
        value: {x: -0.3856074, y: -0.3022717, z: 0.8454875, w: 0.2123432}
        inSlope: {x: -0.001152456, y: 0.2422428, z: 0.06931365, w: 0.06148383}
        outSlope: {x: -0.001152456, y: 0.2422428, z: 0.06931365, w: 0.06148383}
        weightedMode: 0
        inWeight: { x: 0.3333333, y: 0.3333333, z: 0.3333333, w: 0.3333333}
        outWeight: { x: 0.3333333, y: 0.3333333, z: 0.3333333, w: 0.3333333}
      - serializedVersion: 3
        time: 0.4333334
        value: {x: -0.3861463, y: -0.2797928, z: 0.8511788, w: 0.2193214}
        inSlope: {x: 0.0138773, y: -0.1983985, z: -0.03628225, w: -0.08836225}
        outSlope: {x: 0.0138773, y: -0.1983985, z: -0.03628225, w: -0.08836225}
        weightedMode: 0
        inWeight: { x: 0.3333333, y: 0.3333333, z: 0.3333333, w: 0.3333333}
        outWeight: { x: 0.3333333, y: 0.3333333, z: 0.3333333, w: 0.3333333}
      - serializedVersion: 3
        time: 0.9666667
        value: {x: -0.3670944, y: -0.4458392, z: 0.8022691, w: 0.1511072}
        inSlope: {x: 0.04493152, y: -0.2858281, z: -0.1179172, w: -0.1072438}
        outSlope: {x: 0.04493152, y: -0.2858281, z: -0.1179172, w: -0.1072438}
        weightedMode: 0
        inWeight: { x: 0.3333333, y: 0.3333333, z: 0.3333333, w: 0.3333333}
        outWeight: { x: 0.3333333, y: 0.3333333, z: 0.3333333, w: 0.3333333}
      - serializedVersion: 3
        time: 1.466667
        value: {x: -0.3629941, y: -0.4711031, z: 0.7913163, w: 0.1418299}
        inSlope: {x: -0.03653926, y: 0.2150437, z: 0.09707174, w: 0.0783515}
        outSlope: {x: -0.03653926, y: 0.2150437, z: 0.09707174, w: 0.0783515}
        weightedMode: 0
        inWeight: { x: 0.3333333, y: 0.3333333, z: 0.3333333, w: 0.3333333}
        outWeight: { x: 0.3333333, y: 0.3333333, z: 0.3333333, w: 0.3333333}
      - serializedVersion: 3
        time: 1.966667
        value: {x: -0.3835029, y: -0.3135341, z: 0.8442511, w: 0.2046022}
        inSlope: {x: 0, y: 0, z: 0, w: 0}
        outSlope: {x: 0, y: 0, z: 0, w: 0}
        weightedMode: 0
        inWeight: { x: 0.3333333, y: 0.3333333, z: 0.3333333, w: 0.3333333}
        outWeight: { x: 0.3333333, y: 0.3333333, z: 0.3333333, w: 0.3333333}
      m_PreInfinity: 2
      m_PostInfinity: 2
      m_RotationOrder: 4
    path: Rig/Root/Body/Fin_L.001
  - curve:
      serializedVersion: 2
      m_Curve:
      - serializedVersion: 3
        time: 0
        value: {x: 0.3856074, y: -0.3022717, z: 0.8454875, w: -0.2123432}
        inSlope: {x: 0.001152456, y: 0.2422428, z: 0.06931365, w: -0.06148383}
        outSlope: {x: 0.001152456, y: 0.2422428, z: 0.06931365, w: -0.06148383}
        weightedMode: 0
        inWeight: { x: 0.3333333, y: 0.3333333, z: 0.3333333, w: 0.3333333}
        outWeight: { x: 0.3333333, y: 0.3333333, z: 0.3333333, w: 0.3333333}
      - serializedVersion: 3
        time: 0.4333334
        value: {x: 0.3861462, y: -0.2797927, z: 0.8511788, w: -0.2193214}
        inSlope: {x: -0.01387641, y: -0.1983977, z: -0.03628314, w: 0.08836047}
        outSlope: {x: -0.01387641, y: -0.1983977, z: -0.03628314, w: 0.08836047}
        weightedMode: 0
        inWeight: { x: 0.3333333, y: 0.3333333, z: 0.3333333, w: 0.3333333}
        outWeight: { x: 0.3333333, y: 0.3333333, z: 0.3333333, w: 0.3333333}
      - serializedVersion: 3
        time: 0.9666667
        value: {x: 0.3670944, y: -0.4458392, z: 0.8022691, w: -0.1511072}
        inSlope: {x: -0.04493196, y: -0.2858281, z: -0.1179172, w: 0.1072435}
        outSlope: {x: -0.04493196, y: -0.2858281, z: -0.1179172, w: 0.1072435}
        weightedMode: 0
        inWeight: { x: 0.3333333, y: 0.3333333, z: 0.3333333, w: 0.3333333}
        outWeight: { x: 0.3333333, y: 0.3333333, z: 0.3333333, w: 0.3333333}
      - serializedVersion: 3
        time: 1.466667
        value: {x: 0.3629941, y: -0.4711031, z: 0.7913163, w: -0.1418299}
        inSlope: {x: 0.03653926, y: 0.2150437, z: 0.09707174, w: -0.0783515}
        outSlope: {x: 0.03653926, y: 0.2150437, z: 0.09707174, w: -0.0783515}
        weightedMode: 0
        inWeight: { x: 0.3333333, y: 0.3333333, z: 0.3333333, w: 0.3333333}
        outWeight: { x: 0.3333333, y: 0.3333333, z: 0.3333333, w: 0.3333333}
      - serializedVersion: 3
        time: 1.966667
        value: {x: 0.3835029, y: -0.3135341, z: 0.8442511, w: -0.2046022}
        inSlope: {x: 0, y: 0, z: 0, w: 0}
        outSlope: {x: 0, y: 0, z: 0, w: 0}
        weightedMode: 0
        inWeight: { x: 0.3333333, y: 0.3333333, z: 0.3333333, w: 0.3333333}
        outWeight: { x: 0.3333333, y: 0.3333333, z: 0.3333333, w: 0.3333333}
      m_PreInfinity: 2
      m_PostInfinity: 2
      m_RotationOrder: 4
    path: Rig/Root/Body/Fin_R.001
  m_CompressedRotationCurves: []
  m_EulerCurves:
  m_PositionCurves:
  - curve:
      serializedVersion: 2
      m_Curve:
      - serializedVersion: 3
        time: 0.03333334
        value: {x: 0, y: 0, z: 0.004034854}
        inSlope: {x: 0, y: 0, z: 0.0004944294}
        outSlope: {x: 0, y: 0, z: 0.0004944294}
        weightedMode: 0
        inWeight: { x: 0.3333333, y: 0.3333333, z: 0.3333333}
        outWeight: { x: 0.3333333, y: 0.3333333, z: 0.3333333}
      - serializedVersion: 3
        time: 0.9666666
        value: {x: 0, y: 0, z: 0.004825891}
        inSlope: {x: 0, y: 0, z: 0}
        outSlope: {x: 0, y: 0, z: 0}
        weightedMode: 0
        inWeight: { x: 0.3333333, y: 0.3333333, z: 0.3333333}
        outWeight: { x: 0.3333333, y: 0.3333333, z: 0.3333333}
      - serializedVersion: 3
        time: 1.633333
        value: {x: 0, y: 0, z: 0.004302174}
        inSlope: {x: 0, y: 0, z: -0.0009437272}
        outSlope: {x: 0, y: 0, z: -0.0009437272}
        weightedMode: 0
        inWeight: { x: 0.3333333, y: 0.3333333, z: 0.3333333}
        outWeight: { x: 0.3333333, y: 0.3333333, z: 0.3333333}
      - serializedVersion: 3
        time: 1.966667
        value: {x: 0, y: 0, z: 0.004034854}
        inSlope: {x: 0, y: 0, z: 0}
        outSlope: {x: 0, y: 0, z: 0}
        weightedMode: 0
        inWeight: { x: 0.3333333, y: 0.3333333, z: 0.3333333}
        outWeight: { x: 0.3333333, y: 0.3333333, z: 0.3333333}
      m_PreInfinity: 2
      m_PostInfinity: 2
      m_RotationOrder: 4
    path: Rig/Root/Body
  m_ScaleCurves:
  - curve:
      serializedVersion: 2
      m_Curve:
      - serializedVersion: 3
        time: 0
        value: {x: 0.9581239, y: 0.9999999, z: 0.9999999}
        inSlope: {x: 0.1254416, y: 0, z: 0}
        outSlope: {x: 0.1254416, y: 0, z: 0}
        weightedMode: 0
        inWeight: { x: 0.3333333, y: 0.3333333, z: 0.3333333}
        outWeight: { x: 0.3333333, y: 0.3333333, z: 0.3333333}
      - serializedVersion: 3
        time: 0.8000001
        value: {x: 0.9819095, y: 0.9999999, z: 0.9999999}
        inSlope: {x: -0.1053393, y: 0, z: 0}
        outSlope: {x: -0.1053393, y: 0, z: 0}
        weightedMode: 0
        inWeight: { x: 0.3333333, y: 0.3333333, z: 0.3333333}
        outWeight: { x: 0.3333333, y: 0.3333333, z: 0.3333333}
      - serializedVersion: 3
        time: 1.566667
        value: {x: 0.9193167, y: 0.9999999, z: 0.9999999}
        inSlope: {x: 0.0150141, y: 0, z: 0}
        outSlope: {x: 0.0150141, y: 0, z: 0}
        weightedMode: 0
        inWeight: { x: 0.3333333, y: 0.3333333, z: 0.3333333}
        outWeight: { x: 0.3333333, y: 0.3333333, z: 0.3333333}
      - serializedVersion: 3
        time: 1.966667
        value: {x: 0.9539425, y: 0.9999999, z: 0.9999999}
        inSlope: {x: 0, y: 0, z: 0}
        outSlope: {x: 0, y: 0, z: 0}
        weightedMode: 0
        inWeight: { x: 0.3333333, y: 0.3333333, z: 0.3333333}
        outWeight: { x: 0.3333333, y: 0.3333333, z: 0.3333333}
      m_PreInfinity: 2
      m_PostInfinity: 2
      m_RotationOrder: 4
    path: Rig/Root/Body/Tail_01/Tail_02
  - curve:
      serializedVersion: 2
      m_Curve:
      - serializedVersion: 3
        time: 0.06666667
        value: {x: 0.9982182, y: 0.9982183, z: 0.9982184}
        inSlope: {x: -0.01099348, y: -0.01099527, z: -0.01099527}
        outSlope: {x: -0.01099348, y: -0.01099527, z: -0.01099527}
        weightedMode: 0
        inWeight: { x: 0.3333333, y: 0.3333333, z: 0.3333333}
        outWeight: { x: 0.3333333, y: 0.3333333, z: 0.3333333}
      - serializedVersion: 3
        time: 0.7333333
        value: {x: 0.9618587, y: 0.9618587, z: 0.9618587}
        inSlope: {x: -0.09360821, y: -0.09361089, z: -0.0936091}
        outSlope: {x: -0.09360821, y: -0.09361089, z: -0.0936091}
        weightedMode: 0
        inWeight: { x: 0.3333333, y: 0.3333333, z: 0.3333333}
        outWeight: { x: 0.3333333, y: 0.3333333, z: 0.3333333}
      - serializedVersion: 3
        time: 1.6
        value: {x: 0.9618589, y: 0.9618588, z: 0.9618587}
        inSlope: {x: 0.09360723, y: 0.09360813, z: 0.09360902}
        outSlope: {x: 0.09360723, y: 0.09360813, z: 0.09360902}
        weightedMode: 0
        inWeight: { x: 0.3333333, y: 0.3333333, z: 0.3333333}
        outWeight: { x: 0.3333333, y: 0.3333333, z: 0.3333333}
      - serializedVersion: 3
        time: 1.966667
        value: {x: 0.9933825, y: 0.9933824, z: 0.9933823}
        inSlope: {x: 0, y: 0, z: 0}
        outSlope: {x: 0, y: 0, z: 0}
        weightedMode: 0
        inWeight: { x: 0.3333333, y: 0.3333333, z: 0.3333333}
        outWeight: { x: 0.3333333, y: 0.3333333, z: 0.3333333}
      m_PreInfinity: 2
      m_PostInfinity: 2
      m_RotationOrder: 4
    path: Rig/Root/Body/Fin_Back
  m_FloatCurves:
  m_PPtrCurves:
  m_SampleRate: 30
  m_WrapMode: 0
  m_Bounds:
    m_Center: {x: 0, y: 0, z: 0}
    m_Extent: {x: 0, y: 0, z: 0}
  m_MuscleClipSize: 8788
  m_MuscleClip:
    serializedVersion: 3
    m_DeltaPose:
      m_RootX:
        t: {x: 0, y: 0, z: 0}
        q: {x: 0, y: 0, z: 0, w: 1}
        s: {x: 1, y: 1, z: 1}
      m_LookAtPosition: {x: 0, y: 0, z: 0}
      m_LookAtWeight: {x: 0, y: 0, z: 0, w: 0}
      m_GoalArray:
      - m_X:
          t: {x: 0, y: 0, z: 0}
          q: {x: 0, y: 0, z: 0, w: 1}
          s: {x: 1, y: 1, z: 1}
          m_Weight: 
          m_WeightR: 0
          m_HintT: {x: 0, y: 0, z: 0}
          m_HintWeightT: 0
      - m_X:
          t: {x: 0, y: 0, z: 0}
          q: {x: 0, y: 0, z: 0, w: 1}
          s: {x: 1, y: 1, z: 1}
          m_Weight: 
          m_WeightR: 0
          m_HintT: {x: 0, y: 0, z: 0}
          m_HintWeightT: 0
      - m_X:
          t: {x: 0, y: 0, z: 0}
          q: {x: 0, y: 0, z: 0, w: 1}
          s: {x: 1, y: 1, z: 1}
          m_Weight: 
          m_WeightR: 0
          m_HintT: {x: 0, y: 0, z: 0}
          m_HintWeightT: 0
      - m_X:
          t: {x: 0, y: 0, z: 0}
          q: {x: 0, y: 0, z: 0, w: 1}
          s: {x: 1, y: 1, z: 1}
          m_Weight: 
          m_WeightR: 0
          m_HintT: {x: 0, y: 0, z: 0}
          m_HintWeightT: 0
      m_LeftHandPose:
        m_GrabX:
          t: {x: 0, y: 0, z: 0}
          q: {x: 0, y: 0, z: 0, w: 1}
          s: {x: 1, y: 1, z: 1}
        m_DoFArray:
        - 0
        - 0
        - 0
        - 0
        - 0
        - 0
        - 0
        - 0
        - 0
        - 0
        - 0
        - 0
        - 0
        - 0
        - 0
        - 0
        - 0
        - 0
        - 0
        - 0
        m_Override: 0
        m_CloseOpen: 0
        m_InOut: 0
        m_Grab: 0
      m_RightHandPose:
        m_GrabX:
          t: {x: 0, y: 0, z: 0}
          q: {x: 0, y: 0, z: 0, w: 1}
          s: {x: 1, y: 1, z: 1}
        m_DoFArray:
        - 0
        - 0
        - 0
        - 0
        - 0
        - 0
        - 0
        - 0
        - 0
        - 0
        - 0
        - 0
        - 0
        - 0
        - 0
        - 0
        - 0
        - 0
        - 0
        - 0
        m_Override: 0
        m_CloseOpen: 0
        m_InOut: 0
        m_Grab: 0
      m_DoFArray:
        - 0
        - 0
        - 0
        - 0
        - 0
        - 0
        - 0
        - 0
        - 0
        - 0
        - 0
        - 0
        - 0
        - 0
        - 0
        - 0
        - 0
        - 0
        - 0
        - 0
        - 0
        - 0
        - 0
        - 0
        - 0
        - 0
        - 0
        - 0
        - 0
        - 0
        - 0
        - 0
        - 0
        - 0
        - 0
        - 0
        - 0
        - 0
        - 0
        - 0
        - 0
        - 0
        - 0
        - 0
        - 0
        - 0
        - 0
        - 0
        - 0
        - 0
        - 0
        - 0
        - 0
        - 0
        - 0
      m_TDoFArray:
      - x: 0
        y: 0
        z: 0
      - x: 0
        y: 0
        z: 0
      - x: 0
        y: 0
        z: 0
      - x: 0
        y: 0
        z: 0
      - x: 0
        y: 0
        z: 0
      - x: 0
        y: 0
        z: 0
      - x: 0
        y: 0
        z: 0
      - x: 0
        y: 0
        z: 0
      - x: 0
        y: 0
        z: 0
      - x: 0
        y: 0
        z: 0
      - x: 0
        y: 0
        z: 0
      - x: 0
        y: 0
        z: 0
      - x: 0
        y: 0
        z: 0
      - x: 0
        y: 0
        z: 0
      - x: 0
        y: 0
        z: 0
      - x: 0
        y: 0
        z: 0
      - x: 0
        y: 0
        z: 0
      - x: 0
        y: 0
        z: 0
      - x: 0
        y: 0
        z: 0
      - x: 0
        y: 0
        z: 0
      - x: 0
        y: 0
        z: 0
    m_StartX:
      t: {x: 0, y: 0, z: 0}
      q: {x: 0, y: 0, z: 0, w: 1}
      s: {x: 1, y: 1, z: 1}
    m_StopX:
      t: {x: 0, y: 0, z: 0}
      q: {x: 0, y: 0, z: 0, w: 1}
      s: {x: 1, y: 1, z: 1}
    m_LeftFootStartX:
      t: {x: 0, y: 0, z: 0}
      q: {x: 0, y: 0, z: 0, w: 1}
      s: {x: 1, y: 1, z: 1}
    m_RightFootStartX:
      t: {x: 0, y: 0, z: 0}
      q: {x: 0, y: 0, z: 0, w: 1}
      s: {x: 1, y: 1, z: 1}
    m_AverageSpeed: {x: 0, y: 0, z: 0}
  m_ClipBindingConstant:
    genericBindings:
    - serializedVersion: 2
      path: 3045925566
      attribute: 1
      script: {fileID: 0}
      typeID: 4
      customType: 0
      isPPtrCurve: 0
    - serializedVersion: 2
      path: 3045925566
      attribute: 2
      script: {fileID: 0}
      typeID: 4
      customType: 0
      isPPtrCurve: 0
    - serializedVersion: 2
      path: 2445473110
      attribute: 2
      script: {fileID: 0}
      typeID: 4
      customType: 0
      isPPtrCurve: 0
    - serializedVersion: 2
      path: 4007845394
      attribute: 2
      script: {fileID: 0}
      typeID: 4
      customType: 0
      isPPtrCurve: 0
    - serializedVersion: 2
      path: 1808648245
      attribute: 2
      script: {fileID: 0}
      typeID: 4
      customType: 0
      isPPtrCurve: 0
    - serializedVersion: 2
      path: 3451000892
      attribute: 2
      script: {fileID: 0}
      typeID: 4
      customType: 0
      isPPtrCurve: 0
    - serializedVersion: 2
      path: 3166425161
      attribute: 2
      script: {fileID: 0}
      typeID: 4
      customType: 0
      isPPtrCurve: 0
    - serializedVersion: 2
      path: 4241371537
      attribute: 2
      script: {fileID: 0}
      typeID: 4
      customType: 0
      isPPtrCurve: 0
    - serializedVersion: 2
      path: 3064687477
      attribute: 2
      script: {fileID: 0}
      typeID: 4
      customType: 0
      isPPtrCurve: 0
    - serializedVersion: 2
      path: 3908510483
      attribute: 2
      script: {fileID: 0}
      typeID: 4
      customType: 0
      isPPtrCurve: 0
    - serializedVersion: 2
      path: 925305584
      attribute: 2
      script: {fileID: 0}
      typeID: 4
      customType: 0
      isPPtrCurve: 0
    - serializedVersion: 2
      path: 4241371537
      attribute: 3
      script: {fileID: 0}
      typeID: 4
      customType: 0
      isPPtrCurve: 0
    - serializedVersion: 2
      path: 3064687477
      attribute: 3
      script: {fileID: 0}
      typeID: 4
      customType: 0
      isPPtrCurve: 0
    pptrCurveMapping:
  m_AnimationClipSettings:
    serializedVersion: 2
    m_AdditiveReferencePoseClip: {fileID: 0}
    m_AdditiveReferencePoseTime: 
    m_StartTime: 0
    m_StopTime: 1.966667
    m_OrientationOffsetY: 0
    m_Level: 0
    m_CycleOffset: 0
    m_HasAdditiveReferencePose: 
    m_LoopTime: 1
    m_LoopBlend: 0
    m_LoopBlendOrientation: 0
    m_LoopBlendPositionY: 0
    m_LoopBlendPositionXZ: 0
    m_KeepOriginalOrientation: 0
    m_KeepOriginalPositionY: 1
    m_KeepOriginalPositionXZ: 0
    m_HeightFromFeet: 0
    m_Mirror: 0
    m_HasGenericRootTransform: 0
    m_HasMotionFloatCurves: 0
    m_GenerateMotionCurves: 0
  m_EditorCurves:
  - curve:
      serializedVersion: 2
      m_Curve:
      - serializedVersion: 2
        time: 0.03333334
        value: 0
        inSlope: 0
        outSlope: 0
        tangentMode: 0
      - serializedVersion: 2
        time: 0.9666666
        value: 0
        inSlope: 0
        outSlope: 0
        tangentMode: 0
      - serializedVersion: 2
        time: 1.633333
        value: 0
        inSlope: 0
        outSlope: 0
        tangentMode: 0
      - serializedVersion: 2
        time: 1.966667
        value: 0
        inSlope: 0
        outSlope: 0
        tangentMode: 0
      m_PreInfinity: 2
      m_PostInfinity: 2
      m_RotationOrder: 4
    attribute: m_LocalPosition.x
    path: Rig/Root/Body
    classID: 4
    script: {fileID: 0}
  - curve:
      serializedVersion: 2
      m_Curve:
      - serializedVersion: 2
        time: 0.03333334
        value: 0
        inSlope: 0
        outSlope: 0
        tangentMode: 0
      - serializedVersion: 2
        time: 0.9666666
        value: 0
        inSlope: 0
        outSlope: 0
        tangentMode: 0
      - serializedVersion: 2
        time: 1.633333
        value: 0
        inSlope: 0
        outSlope: 0
        tangentMode: 0
      - serializedVersion: 2
        time: 1.966667
        value: 0
        inSlope: 0
        outSlope: 0
        tangentMode: 0
      m_PreInfinity: 2
      m_PostInfinity: 2
      m_RotationOrder: 4
    attribute: m_LocalPosition.y
    path: Rig/Root/Body
    classID: 4
    script: {fileID: 0}
  - curve:
      serializedVersion: 2
      m_Curve:
      - serializedVersion: 2
        time: 0.03333334
        value: 0.004034854
        inSlope: 0.0004944294
        outSlope: 0.0004944294
        tangentMode: 0
      - serializedVersion: 2
        time: 0.9666666
        value: 0.004825891
        inSlope: 0
        outSlope: 0
        tangentMode: 0
      - serializedVersion: 2
        time: 1.633333
        value: 0.004302174
        inSlope: -0.0009437272
        outSlope: -0.0009437272
        tangentMode: 0
      - serializedVersion: 2
        time: 1.966667
        value: 0.004034854
        inSlope: 0
        outSlope: 0
        tangentMode: 0
      m_PreInfinity: 2
      m_PostInfinity: 2
      m_RotationOrder: 4
    attribute: m_LocalPosition.z
    path: Rig/Root/Body
    classID: 4
    script: {fileID: 0}
  - curve:
      serializedVersion: 2
      m_Curve:
      - serializedVersion: 2
        time: 0.06666667
        value: 0.735089
        inSlope: 0.02193331
        outSlope: 0.02193331
        tangentMode: 0
      - serializedVersion: 2
        time: 1.3
        value: 0.7271594
        inSlope: -0.01971336
        outSlope: -0.01971336
        tangentMode: 0
      - serializedVersion: 2
        time: 1.933333
        value: 0.7321284
        inSlope: 0
        outSlope: 0
        tangentMode: 0
      m_PreInfinity: 2
      m_PostInfinity: 2
      m_RotationOrder: 4
    attribute: m_LocalRotation.x
    path: Rig/Root/Body
    classID: 4
    script: {fileID: 0}
  - curve:
      serializedVersion: 2
      m_Curve:
      - serializedVersion: 2
        time: 0.06666667
        value: 8.786092E-17
        inSlope: 2.195469E-18
        outSlope: 2.195469E-18
        tangentMode: 0
      - serializedVersion: 2
        time: 1.3
        value: 8.706613E-17
        inSlope: -1.978188E-18
        outSlope: -1.978188E-18
        tangentMode: 0
      - serializedVersion: 2
        time: 1.933333
        value: 8.756441E-17
        inSlope: 0
        outSlope: 0
        tangentMode: 0
      m_PreInfinity: 2
      m_PostInfinity: 2
      m_RotationOrder: 4
    attribute: m_LocalRotation.y
    path: Rig/Root/Body
    classID: 4
    script: {fileID: 0}
  - curve:
      serializedVersion: 2
      m_Curve:
      - serializedVersion: 2
        time: 0.06666667
        value: 6.787054E-17
        inSlope: -2.844641E-18
        outSlope: -2.844641E-18
        tangentMode: 0
      - serializedVersion: 2
        time: 1.3
        value: 6.888716E-17
        inSlope: 2.500206E-18
        outSlope: 2.500206E-18
        tangentMode: 0
      - serializedVersion: 2
        time: 1.933333
        value: 6.825267E-17
        inSlope: 0
        outSlope: 0
        tangentMode: 0
      m_PreInfinity: 2
      m_PostInfinity: 2
      m_RotationOrder: 4
    attribute: m_LocalRotation.z
    path: Rig/Root/Body
    classID: 4
    script: {fileID: 0}
  - curve:
      serializedVersion: 2
      m_Curve:
      - serializedVersion: 2
        time: 0.06666667
        value: 0.6779706
        inSlope: -0.02380371
        outSlope: -0.02380371
        tangentMode: 0
      - serializedVersion: 2
        time: 1.3
        value: 0.6864687
        inSlope: 0.02088102
        outSlope: 0.02088102
        tangentMode: 0
      - serializedVersion: 2
        time: 1.933333
        value: 0.6811666
        inSlope: 0
        outSlope: 0
        tangentMode: 0
      m_PreInfinity: 2
      m_PostInfinity: 2
      m_RotationOrder: 4
    attribute: m_LocalRotation.w
    path: Rig/Root/Body
    classID: 4
    script: {fileID: 0}
  - curve:
      serializedVersion: 2
      m_Curve:
      - serializedVersion: 2
        time: 0
        value: -0.4399927
        inSlope: -0.04089653
        outSlope: -0.04089653
        tangentMode: 0
      - serializedVersion: 2
        time: 0.5
        value: -0.4379467
        inSlope: 0.05381137
        outSlope: 0.05381137
        tangentMode: 0
      - serializedVersion: 2
        time: 1.133333
        value: -0.3981618
        inSlope: 0.02970811
        outSlope: 0.02970811
        tangentMode: 0
      - serializedVersion: 2
        time: 1.9
        value: -0.4340833
        inSlope: -0.06074494
        outSlope: -0.06074494
        tangentMode: 0
      - serializedVersion: 2
        time: 1.966667
        value: -0.4377741
        inSlope: 0
        outSlope: 0
        tangentMode: 0
      m_PreInfinity: 2
      m_PostInfinity: 2
      m_RotationOrder: 4
    attribute: m_LocalRotation.x
    path: Rig/Root/Body/Fin_L
    classID: 4
    script: {fileID: 0}
  - curve:
      serializedVersion: 2
      m_Curve:
      - serializedVersion: 2
        time: 0
        value: 0.2578738
        inSlope: 0.1816016
        outSlope: 0.1816016
        tangentMode: 0
      - serializedVersion: 2
        time: 0.5
        value: 0.2520523
        inSlope: -0.2001225
        outSlope: -0.2001225
        tangentMode: 0
      - serializedVersion: 2
        time: 1.133333
        value: 0.1120822
        inSlope: -0.09415381
        outSlope: -0.09415381
        tangentMode: 0
      - serializedVersion: 2
        time: 1.9
        value: 0.2375952
        inSlope: 0.2329534
        outSlope: 0.2329534
        tangentMode: 0
      - serializedVersion: 2
        time: 1.966667
        value: 0.2523521
        inSlope: 0
        outSlope: 0
        tangentMode: 0
      m_PreInfinity: 2
      m_PostInfinity: 2
      m_RotationOrder: 4
    attribute: m_LocalRotation.y
    path: Rig/Root/Body/Fin_L
    classID: 4
    script: {fileID: 0}
  - curve:
      serializedVersion: 2
      m_Curve:
      - serializedVersion: 2
        time: 0
        value: 0.5195586
        inSlope: -0.0001305342
        outSlope: -0.0001305342
        tangentMode: 0
      - serializedVersion: 2
        time: 0.5
        value: 0.5182024
        inSlope: -0.01404762
        outSlope: -0.01404762
        tangentMode: 0
      - serializedVersion: 2
        time: 1.133333
        value: 0.5158626
        inSlope: 0.001350932
        outSlope: 0.001350932
        tangentMode: 0
      - serializedVersion: 2
        time: 1.9
        value: 0.5173904
        inSlope: 0.007469065
        outSlope: 0.007469065
        tangentMode: 0
      - serializedVersion: 2
        time: 1.966667
        value: 0.5177299
        inSlope: 0
        outSlope: 0
        tangentMode: 0
      m_PreInfinity: 2
      m_PostInfinity: 2
      m_RotationOrder: 4
    attribute: m_LocalRotation.z
    path: Rig/Root/Body/Fin_L
    classID: 4
    script: {fileID: 0}
  - curve:
      serializedVersion: 2
      m_Curve:
      - serializedVersion: 2
        time: 0
        value: 0.6855409
        inSlope: -0.09552418
        outSlope: -0.09552418
        tangentMode: 0
      - serializedVersion: 2
        time: 0.5
        value: 0.690028
        inSlope: 0.1176971
        outSlope: 0.1176971
        tangentMode: 0
      - serializedVersion: 2
        time: 1.133333
        value: 0.7501937
        inSlope: 0.02897945
        outSlope: 0.02897945
        tangentMode: 0
      - serializedVersion: 2
        time: 1.9
        value: 0.6981602
        inSlope: -0.1225011
        outSlope: -0.1225011
        tangentMode: 0
      - serializedVersion: 2
        time: 1.966667
        value: 0.6903826
        inSlope: 0
        outSlope: 0
        tangentMode: 0
      m_PreInfinity: 2
      m_PostInfinity: 2
      m_RotationOrder: 4
    attribute: m_LocalRotation.w
    path: Rig/Root/Body/Fin_L
    classID: 4
    script: {fileID: 0}
  - curve:
      serializedVersion: 2
      m_Curve:
      - serializedVersion: 2
        time: 0
        value: -0.0626161
        inSlope: 0.8648697
        outSlope: 0.8648697
        tangentMode: 0
      - serializedVersion: 2
        time: 0.3
        value: 0.1836231
        inSlope: 0.6715733
        outSlope: 0.6715733
        tangentMode: 0
      - serializedVersion: 2
        time: 0.6666667
        value: 0.2673643
        inSlope: -0.3024025
        outSlope: -0.3024025
        tangentMode: 0
      - serializedVersion: 2
        time: 1.066667
        value: -0.004670759
        inSlope: -0.8735528
        outSlope: -0.8735528
        tangentMode: 0
      - serializedVersion: 2
        time: 1.466667
        value: -0.2763539
        inSlope: -0.3016075
        outSlope: -0.3016075
        tangentMode: 0
      - serializedVersion: 2
        time: 1.833333
        value: -0.1927975
        inSlope: 0.6703777
        outSlope: 0.6703777
        tangentMode: 0
      - serializedVersion: 2
        time: 1.966667
        value: -0.09087661
        inSlope: 0
        outSlope: 0
        tangentMode: 0
      m_PreInfinity: 2
      m_PostInfinity: 2
      m_RotationOrder: 4
    attribute: m_LocalRotation.x
    path: Rig/Root/Body/Fin_L/Fin_L.002
    classID: 4
    script: {fileID: 0}
  - curve:
      serializedVersion: 2
      m_Curve:
      - serializedVersion: 2
        time: 0
        value: 3.42934E-08
        inSlope: -1.779856E-08
        outSlope: -1.779856E-08
        tangentMode: 0
      - serializedVersion: 2
        time: 0.3
        value: 2.83382E-08
        inSlope: -1.900456E-08
        outSlope: -1.900456E-08
        tangentMode: 0
      - serializedVersion: 2
        time: 0.6666667
        value: 2.584193E-08
        inSlope: 9.454117E-09
        outSlope: 9.454117E-09
        tangentMode: 0
      - serializedVersion: 2
        time: 1.066667
        value: 3.307305E-08
        inSlope: 1.923285E-08
        outSlope: 1.923285E-08
        tangentMode: 0
      - serializedVersion: 2
        time: 1.466667
        value: 3.781285E-08
        inSlope: 3.84423E-09
        outSlope: 3.84423E-09
        tangentMode: 0
      - serializedVersion: 2
        time: 1.833333
        value: 3.662576E-08
        inSlope: -1.054089E-08
        outSlope: -1.054089E-08
        tangentMode: 0
      - serializedVersion: 2
        time: 1.966667
        value: 3.484823E-08
        inSlope: 0
        outSlope: 0
        tangentMode: 0
      m_PreInfinity: 2
      m_PostInfinity: 2
      m_RotationOrder: 4
    attribute: m_LocalRotation.y
    path: Rig/Root/Body/Fin_L/Fin_L.002
    classID: 4
    script: {fileID: 0}
  - curve:
      serializedVersion: 2
      m_Curve:
      - serializedVersion: 2
        time: 0
        value: -2.006281E-08
        inSlope: -2.944013E-08
        outSlope: -2.944013E-08
        tangentMode: 0
      - serializedVersion: 2
        time: 0.3
        value: -2.784781E-08
        inSlope: -1.937434E-08
        outSlope: -1.937434E-08
        tangentMode: 0
      - serializedVersion: 2
        time: 0.6666667
        value: -3.01786E-08
        inSlope: 8.121183E-09
        outSlope: 8.121183E-09
        tangentMode: 0
      - serializedVersion: 2
        time: 1.066667
        value: -2.201652E-08
        inSlope: 2.889134E-08
        outSlope: 2.889134E-08
        tangentMode: 0
      - serializedVersion: 2
        time: 1.466667
        value: -1.219599E-08
        inSlope: 1.185552E-08
        outSlope: 1.185552E-08
        tangentMode: 0
      - serializedVersion: 2
        time: 1.833333
        value: -1.53983E-08
        inSlope: -2.500855E-08
        outSlope: -2.500855E-08
        tangentMode: 0
      - serializedVersion: 2
        time: 1.966667
        value: -1.908283E-08
        inSlope: 0
        outSlope: 0
        tangentMode: 0
      m_PreInfinity: 2
      m_PostInfinity: 2
      m_RotationOrder: 4
    attribute: m_LocalRotation.z
    path: Rig/Root/Body/Fin_L/Fin_L.002
    classID: 4
    script: {fileID: 0}
  - curve:
      serializedVersion: 2
      m_Curve:
      - serializedVersion: 2
        time: 0
        value: 0.9980377
        inSlope: 0.04174232
        outSlope: 0.04174232
        tangentMode: 0
      - serializedVersion: 2
        time: 0.3
        value: 0.9829968
        inSlope: -0.1248193
        outSlope: -0.1248193
        tangentMode: 0
      - serializedVersion: 2
        time: 0.6666667
        value: 0.9635955
        inSlope: 0.08339971
        outSlope: 0.08339971
        tangentMode: 0
      - serializedVersion: 2
        time: 1.066667
        value: 0.9999891
        inSlope: -0.004079644
        outSlope: -0.004079644
        tangentMode: 0
      - serializedVersion: 2
        time: 1.466667
        value: 0.9610559
        inSlope: -0.08622045
        outSlope: -0.08622045
        tangentMode: 0
      - serializedVersion: 2
        time: 1.833333
        value: 0.9812386
        inSlope: 0.1310866
        outSlope: 0.1310866
        tangentMode: 0
      - serializedVersion: 2
        time: 1.966667
        value: 0.9958622
        inSlope: 0
        outSlope: 0
        tangentMode: 0
      m_PreInfinity: 2
      m_PostInfinity: 2
      m_RotationOrder: 4
    attribute: m_LocalRotation.w
    path: Rig/Root/Body/Fin_L/Fin_L.002
    classID: 4
    script: {fileID: 0}
  - curve:
      serializedVersion: 2
      m_Curve:
      - serializedVersion: 2
        time: 0
        value: -0.4399927
        inSlope: -0.04089653
        outSlope: -0.04089653
        tangentMode: 0
      - serializedVersion: 2
        time: 0.5
        value: -0.4379467
        inSlope: 0.05381137
        outSlope: 0.05381137
        tangentMode: 0
      - serializedVersion: 2
        time: 1.133333
        value: -0.3981618
        inSlope: 0.02970811
        outSlope: 0.02970811
        tangentMode: 0
      - serializedVersion: 2
        time: 1.9
        value: -0.4340833
        inSlope: -0.06074494
        outSlope: -0.06074494
        tangentMode: 0
      - serializedVersion: 2
        time: 1.966667
        value: -0.4377741
        inSlope: 0
        outSlope: 0
        tangentMode: 0
      m_PreInfinity: 2
      m_PostInfinity: 2
      m_RotationOrder: 4
    attribute: m_LocalRotation.x
    path: Rig/Root/Body/Fin_R
    classID: 4
    script: {fileID: 0}
  - curve:
      serializedVersion: 2
      m_Curve:
      - serializedVersion: 2
        time: 0
        value: -0.2578738
        inSlope: -0.1816016
        outSlope: -0.1816016
        tangentMode: 0
      - serializedVersion: 2
        time: 0.5
        value: -0.2520523
        inSlope: 0.2001225
        outSlope: 0.2001225
        tangentMode: 0
      - serializedVersion: 2
        time: 1.133333
        value: -0.1120822
        inSlope: 0.09415381
        outSlope: 0.09415381
        tangentMode: 0
      - serializedVersion: 2
        time: 1.9
        value: -0.2375952
        inSlope: -0.2329534
        outSlope: -0.2329534
        tangentMode: 0
      - serializedVersion: 2
        time: 1.966667
        value: -0.2523521
        inSlope: 0
        outSlope: 0
        tangentMode: 0
      m_PreInfinity: 2
      m_PostInfinity: 2
      m_RotationOrder: 4
    attribute: m_LocalRotation.y
    path: Rig/Root/Body/Fin_R
    classID: 4
    script: {fileID: 0}
  - curve:
      serializedVersion: 2
      m_Curve:
      - serializedVersion: 2
        time: 0
        value: -0.5195586
        inSlope: 0.0001305342
        outSlope: 0.0001305342
        tangentMode: 0
      - serializedVersion: 2
        time: 0.5
        value: -0.5182024
        inSlope: 0.01404762
        outSlope: 0.01404762
        tangentMode: 0
      - serializedVersion: 2
        time: 1.133333
        value: -0.5158626
        inSlope: -0.001350932
        outSlope: -0.001350932
        tangentMode: 0
      - serializedVersion: 2
        time: 1.9
        value: -0.5173904
        inSlope: -0.007469065
        outSlope: -0.007469065
        tangentMode: 0
      - serializedVersion: 2
        time: 1.966667
        value: -0.5177299
        inSlope: 0
        outSlope: 0
        tangentMode: 0
      m_PreInfinity: 2
      m_PostInfinity: 2
      m_RotationOrder: 4
    attribute: m_LocalRotation.z
    path: Rig/Root/Body/Fin_R
    classID: 4
    script: {fileID: 0}
  - curve:
      serializedVersion: 2
      m_Curve:
      - serializedVersion: 2
        time: 0
        value: 0.6855409
        inSlope: -0.09552418
        outSlope: -0.09552418
        tangentMode: 0
      - serializedVersion: 2
        time: 0.5
        value: 0.690028
        inSlope: 0.1176971
        outSlope: 0.1176971
        tangentMode: 0
      - serializedVersion: 2
        time: 1.133333
        value: 0.7501937
        inSlope: 0.02897945
        outSlope: 0.02897945
        tangentMode: 0
      - serializedVersion: 2
        time: 1.9
        value: 0.6981602
        inSlope: -0.1225011
        outSlope: -0.1225011
        tangentMode: 0
      - serializedVersion: 2
        time: 1.966667
        value: 0.6903826
        inSlope: 0
        outSlope: 0
        tangentMode: 0
      m_PreInfinity: 2
      m_PostInfinity: 2
      m_RotationOrder: 4
    attribute: m_LocalRotation.w
    path: Rig/Root/Body/Fin_R
    classID: 4
    script: {fileID: 0}
  - curve:
      serializedVersion: 2
      m_Curve:
      - serializedVersion: 2
        time: 0
        value: -0.03365756
        inSlope: 0.4327983
        outSlope: 0.4327983
        tangentMode: 0
      - serializedVersion: 2
        time: 0.6666667
        value: 0.1326013
        inSlope: -0.1554789
        outSlope: -0.1554789
        tangentMode: 0
      - serializedVersion: 2
        time: 1.2
        value: -0.06158114
        inSlope: -0.4049565
        outSlope: -0.4049565
        tangentMode: 0
      - serializedVersion: 2
        time: 1.733333
        value: -0.1285398
        inSlope: 0.2404093
        outSlope: 0.2404093
        tangentMode: 0
      - serializedVersion: 2
        time: 1.966667
        value: -0.0478182
        inSlope: 0
        outSlope: 0
        tangentMode: 0
      m_PreInfinity: 2
      m_PostInfinity: 2
      m_RotationOrder: 4
    attribute: m_LocalRotation.x
    path: Rig/Root/Body/Fin_R/Fin_R.002
    classID: 4
    script: {fileID: 0}
  - curve:
      serializedVersion: 2
      m_Curve:
      - serializedVersion: 2
        time: 0
        value: -3.42314E-08
        inSlope: 8.216041E-09
        outSlope: 8.216041E-09
        tangentMode: 0
      - serializedVersion: 2
        time: 0.6666667
        value: -3.065004E-08
        inSlope: -3.78396E-09
        outSlope: -3.78396E-09
        tangentMode: 0
      - serializedVersion: 2
        time: 1.2
        value: -3.474158E-08
        inSlope: -7.211678E-09
        outSlope: -7.211678E-09
        tangentMode: 0
      - serializedVersion: 2
        time: 1.733333
        value: -3.585731E-08
        inSlope: 3.736262E-09
        outSlope: 3.736262E-09
        tangentMode: 0
      - serializedVersion: 2
        time: 1.966667
        value: -3.44934E-08
        inSlope: 0
        outSlope: 0
        tangentMode: 0
      m_PreInfinity: 2
      m_PostInfinity: 2
      m_RotationOrder: 4
    attribute: m_LocalRotation.y
    path: Rig/Root/Body/Fin_R/Fin_R.002
    classID: 4
    script: {fileID: 0}
  - curve:
      serializedVersion: 2
      m_Curve:
      - serializedVersion: 2
        time: 0
        value: 1.873013E-08
        inSlope: 1.476152E-08
        outSlope: 1.476152E-08
        tangentMode: 0
      - serializedVersion: 2
        time: 0.6666667
        value: 2.414915E-08
        inSlope: -4.810339E-09
        outSlope: -4.810339E-09
        tangentMode: 0
      - serializedVersion: 2
        time: 1.2
        value: 1.776596E-08
        inSlope: -1.409349E-08
        outSlope: -1.409349E-08
        tangentMode: 0
      - serializedVersion: 2
        time: 1.733333
        value: 1.539025E-08
        inSlope: 8.689363E-09
        outSlope: 8.689363E-09
        tangentMode: 0
      - serializedVersion: 2
        time: 1.966667
        value: 1.824312E-08
        inSlope: 0
        outSlope: 0
        tangentMode: 0
      m_PreInfinity: 2
      m_PostInfinity: 2
      m_RotationOrder: 4
    attribute: m_LocalRotation.z
    path: Rig/Root/Body/Fin_R/Fin_R.002
    classID: 4
    script: {fileID: 0}
  - curve:
      serializedVersion: 2
      m_Curve:
      - serializedVersion: 2
        time: 0
        value: 0.9994335
        inSlope: 0.01144767
        outSlope: 0.01144767
        tangentMode: 0
      - serializedVersion: 2
        time: 0.6666667
        value: 0.9911695
        inSlope: 0.02067715
        outSlope: 0.02067715
        tangentMode: 0
      - serializedVersion: 2
        time: 1.2
        value: 0.9981021
        inSlope: -0.0248802
        outSlope: -0.0248802
        tangentMode: 0
      - serializedVersion: 2
        time: 1.733333
        value: 0.9917043
        inSlope: 0.03100184
        outSlope: 0.03100184
        tangentMode: 0
      - serializedVersion: 2
        time: 1.966667
        value: 0.9988561
        inSlope: 0
        outSlope: 0
        tangentMode: 0
      m_PreInfinity: 2
      m_PostInfinity: 2
      m_RotationOrder: 4
    attribute: m_LocalRotation.w
    path: Rig/Root/Body/Fin_R/Fin_R.002
    classID: 4
    script: {fileID: 0}
  - curve:
      serializedVersion: 2
      m_Curve:
      - serializedVersion: 2
        time: 0.06666667
        value: -0.3467942
        inSlope: -0.03705918
        outSlope: -0.03705918
        tangentMode: 0
      - serializedVersion: 2
        time: 0.9
        value: -0.3857759
        inSlope: -0.0189954
        outSlope: -0.0189954
        tangentMode: 0
      - serializedVersion: 2
        time: 1.833333
        value: -0.3503654
        inSlope: 0.03586826
        outSlope: 0.03586826
        tangentMode: 0
      - serializedVersion: 2
        time: 1.933333
        value: -0.3476186
        inSlope: 0
        outSlope: 0
        tangentMode: 0
      m_PreInfinity: 2
      m_PostInfinity: 2
      m_RotationOrder: 4
    attribute: m_LocalRotation.x
    path: Rig/Root/Body/Tail_01
    classID: 4
    script: {fileID: 0}
  - curve:
      serializedVersion: 2
      m_Curve:
      - serializedVersion: 2
        time: 0.06666667
        value: -0.5694241
        inSlope: -0.02246797
        outSlope: -0.02246797
        tangentMode: 0
      - serializedVersion: 2
        time: 0.9
        value: -0.6363539
        inSlope: -0.03626258
        outSlope: -0.03626258
        tangentMode: 0
      - serializedVersion: 2
        time: 1.833333
        value: -0.5733212
        inSlope: 0.06038363
        outSlope: 0.06038363
        tangentMode: 0
      - serializedVersion: 2
        time: 1.933333
        value: -0.5689128
        inSlope: 0
        outSlope: 0
        tangentMode: 0
      m_PreInfinity: 2
      m_PostInfinity: 2
      m_RotationOrder: 4
    attribute: m_LocalRotation.y
    path: Rig/Root/Body/Tail_01
    classID: 4
    script: {fileID: 0}
  - curve:
      serializedVersion: 2
      m_Curve:
      - serializedVersion: 2
        time: 0.06666667
        value: 0.3866568
        inSlope: -0.03315836
        outSlope: -0.03315836
        tangentMode: 0
      - serializedVersion: 2
        time: 0.9
        value: 0.348286
        inSlope: -0.02762541
        outSlope: -0.02762541
        tangentMode: 0
      - serializedVersion: 2
        time: 1.833333
        value: 0.3842017
        inSlope: 0.03000764
        outSlope: 0.03000764
        tangentMode: 0
      - serializedVersion: 2
        time: 1.933333
        value: 0.3863173
        inSlope: 0
        outSlope: 0
        tangentMode: 0
      m_PreInfinity: 2
      m_PostInfinity: 2
      m_RotationOrder: 4
    attribute: m_LocalRotation.z
    path: Rig/Root/Body/Tail_01
    classID: 4
    script: {fileID: 0}
  - curve:
      serializedVersion: 2
      m_Curve:
      - serializedVersion: 2
        time: 0.06666667
        value: 0.6371707
        inSlope: -0.02021849
        outSlope: -0.02021849
        tangentMode: 0
      - serializedVersion: 2
        time: 0.9
        value: 0.5700243
        inSlope: -0.03642619
        outSlope: -0.03642619
        tangentMode: 0
      - serializedVersion: 2
        time: 1.833333
        value: 0.633195
        inSlope: 0.05635139
        outSlope: 0.05635139
        tangentMode: 0
      - serializedVersion: 2
        time: 1.933333
        value: 0.6373841
        inSlope: 0
        outSlope: 0
        tangentMode: 0
      m_PreInfinity: 2
      m_PostInfinity: 2
      m_RotationOrder: 4
    attribute: m_LocalRotation.w
    path: Rig/Root/Body/Tail_01
    classID: 4
    script: {fileID: 0}
  - curve:
      serializedVersion: 2
      m_Curve:
      - serializedVersion: 2
        time: 0
        value: 0.0003324586
        inSlope: 0.6224574
        outSlope: 0.6224574
        tangentMode: 0
      - serializedVersion: 2
        time: 0.4
        value: 0.1951582
        inSlope: 0.2189692
        outSlope: 0.2189692
        tangentMode: 0
      - serializedVersion: 2
        time: 1.033333
        value: -0.02041631
        inSlope: -0.6195517
        outSlope: -0.6195517
        tangentMode: 0
      - serializedVersion: 2
        time: 1.6
        value: -0.1945059
        inSlope: 0.2189993
        outSlope: 0.2189993
        tangentMode: 0
      - serializedVersion: 2
        time: 1.966667
        value: -0.02041625
        inSlope: 0
        outSlope: 0
        tangentMode: 0
      m_PreInfinity: 2
      m_PostInfinity: 2
      m_RotationOrder: 4
    attribute: m_LocalRotation.x
    path: Rig/Root/Body/Tail_01/Tail_02
    classID: 4
    script: {fileID: 0}
  - curve:
      serializedVersion: 2
      m_Curve:
      - serializedVersion: 2
        time: 0
        value: -0.001020208
        inSlope: 0.1689007
        outSlope: 0.1689007
        tangentMode: 0
      - serializedVersion: 2
        time: 0.4
        value: 0.05183343
        inSlope: 0.05935732
        outSlope: 0.05935732
        tangentMode: 0
      - serializedVersion: 2
        time: 1.033333
        value: -0.006649772
        inSlope: -0.168086
        outSlope: -0.168086
        tangentMode: 0
      - serializedVersion: 2
        time: 1.6
        value: -0.05383163
        inSlope: 0.05926215
        outSlope: 0.05926215
        tangentMode: 0
      - serializedVersion: 2
        time: 1.966667
        value: -0.006649752
        inSlope: 0
        outSlope: 0
        tangentMode: 0
      m_PreInfinity: 2
      m_PostInfinity: 2
      m_RotationOrder: 4
    attribute: m_LocalRotation.y
    path: Rig/Root/Body/Tail_01/Tail_02
    classID: 4
    script: {fileID: 0}
  - curve:
      serializedVersion: 2
      m_Curve:
      - serializedVersion: 2
        time: 0
        value: 0.2511113
        inSlope: -0.001232028
        outSlope: -0.001232028
        tangentMode: 0
      - serializedVersion: 2
        time: 0.4
        value: 0.2457061
        inSlope: -0.01243673
        outSlope: -0.01243673
        tangentMode: 0
      - serializedVersion: 2
        time: 1.033333
        value: 0.2510263
        inSlope: -0.00440374
        outSlope: -0.00440374
        tangentMode: 0
      - serializedVersion: 2
        time: 1.6
        value: 0.2452933
        inSlope: 0.01290075
        outSlope: 0.01290075
        tangentMode: 0
      - serializedVersion: 2
        time: 1.966667
        value: 0.2510263
        inSlope: 0
        outSlope: 0
        tangentMode: 0
      m_PreInfinity: 2
      m_PostInfinity: 2
      m_RotationOrder: 4
    attribute: m_LocalRotation.z
    path: Rig/Root/Body/Tail_01/Tail_02
    classID: 4
    script: {fileID: 0}
  - curve:
      serializedVersion: 2
      m_Curve:
      - serializedVersion: 2
        time: 0
        value: 0.9679577
        inSlope: -0.00688076
        outSlope: -0.00688076
        tangentMode: 0
      - serializedVersion: 2
        time: 0.4
        value: 0.9480797
        inSlope: -0.04481522
        outSlope: -0.04481522
        tangentMode: 0
      - serializedVersion: 2
        time: 1.033333
        value: 0.9677421
        inSlope: -0.01302034
        outSlope: -0.01302034
        tangentMode: 0
      - serializedVersion: 2
        time: 1.6
        value: 0.9482093
        inSlope: 0.04466948
        outSlope: 0.04466948
        tangentMode: 0
      - serializedVersion: 2
        time: 1.966667
        value: 0.9677421
        inSlope: 0
        outSlope: 0
        tangentMode: 0
      m_PreInfinity: 2
      m_PostInfinity: 2
      m_RotationOrder: 4
    attribute: m_LocalRotation.w
    path: Rig/Root/Body/Tail_01/Tail_02
    classID: 4
    script: {fileID: 0}
  - curve:
      serializedVersion: 2
      m_Curve:
      - serializedVersion: 2
        time: 0
        value: -0.2239797
        inSlope: -0.05317166
        outSlope: -0.05317166
        tangentMode: 0
      - serializedVersion: 2
        time: 0.5666667
        value: -0.2047594
        inSlope: 0.09888344
        outSlope: 0.09888344
        tangentMode: 0
      - serializedVersion: 2
        time: 1.3
        value: -0.1641777
        inSlope: -0.04624982
        outSlope: -0.04624982
        tangentMode: 0
      - serializedVersion: 2
        time: 1.9
        value: -0.216948
        inSlope: -0.08110628
        outSlope: -0.08110628
        tangentMode: 0
      - serializedVersion: 2
        time: 1.966667
        value: -0.2219004
        inSlope: 0
        outSlope: 0
        tangentMode: 0
      m_PreInfinity: 2
      m_PostInfinity: 2
      m_RotationOrder: 4
    attribute: m_LocalRotation.x
    path: Rig/Root/Body/Fin_Back
    classID: 4
    script: {fileID: 0}
  - curve:
      serializedVersion: 2
      m_Curve:
      - serializedVersion: 2
        time: 0
        value: -0.6852638
        inSlope: -0.001094341
        outSlope: -0.001094341
        tangentMode: 0
      - serializedVersion: 2
        time: 0.5666667
        value: -0.6827424
        inSlope: 0.02321631
        outSlope: 0.02321631
        tangentMode: 0
      - serializedVersion: 2
        time: 1.3
        value: -0.6638448
        inSlope: -0.03234836
        outSlope: -0.03234836
        tangentMode: 0
      - serializedVersion: 2
        time: 1.9
        value: -0.6847963
        inSlope: -0.008481152
        outSlope: -0.008481152
        tangentMode: 0
      - serializedVersion: 2
        time: 1.966667
        value: -0.6851793
        inSlope: 0
        outSlope: 0
        tangentMode: 0
      m_PreInfinity: 2
      m_PostInfinity: 2
      m_RotationOrder: 4
    attribute: m_LocalRotation.y
    path: Rig/Root/Body/Fin_Back
    classID: 4
    script: {fileID: 0}
  - curve:
      serializedVersion: 2
      m_Curve:
      - serializedVersion: 2
        time: 0
        value: 0.1161223
        inSlope: -0.1400567
        outSlope: -0.1400567
        tangentMode: 0
      - serializedVersion: 2
        time: 0.5666667
        value: 0.1672705
        inSlope: 0.265399
        outSlope: 0.265399
        tangentMode: 0
      - serializedVersion: 2
        time: 1.3
        value: 0.2777784
        inSlope: -0.1269017
        outSlope: -0.1269017
        tangentMode: 0
      - serializedVersion: 2
        time: 1.9
        value: 0.1347279
        inSlope: -0.2153677
        outSlope: -0.2153677
        tangentMode: 0
      - serializedVersion: 2
        time: 1.966667
        value: 0.1216104
        inSlope: 0
        outSlope: 0
        tangentMode: 0
      m_PreInfinity: 2
      m_PostInfinity: 2
      m_RotationOrder: 4
    attribute: m_LocalRotation.z
    path: Rig/Root/Body/Fin_Back
    classID: 4
    script: {fileID: 0}
  - curve:
      serializedVersion: 2
      m_Curve:
      - serializedVersion: 2
        time: 0
        value: 0.6832
        inSlope: 0.00472784
        outSlope: 0.00472784
        tangentMode: 0
      - serializedVersion: 2
        time: 0.5666667
        value: 0.6811439
        inSlope: -0.01223624
        outSlope: -0.01223624
        tangentMode: 0
      - serializedVersion: 2
        time: 1.3
        value: 0.6746814
        inSlope: 0.009089122
        outSlope: 0.009089122
        tangentMode: 0
      - serializedVersion: 2
        time: 1.9
        value: 0.6825218
        inSlope: 0.008328266
        outSlope: 0.008328266
        tangentMode: 0
      - serializedVersion: 2
        time: 1.966667
        value: 0.6830084
        inSlope: 0
        outSlope: 0
        tangentMode: 0
      m_PreInfinity: 2
      m_PostInfinity: 2
      m_RotationOrder: 4
    attribute: m_LocalRotation.w
    path: Rig/Root/Body/Fin_Back
    classID: 4
    script: {fileID: 0}
  - curve:
      serializedVersion: 2
      m_Curve:
      - serializedVersion: 2
        time: 0
        value: -0.3856074
        inSlope: -0.001152456
        outSlope: -0.001152456
        tangentMode: 0
      - serializedVersion: 2
        time: 0.4333334
        value: -0.3861463
        inSlope: 0.0138773
        outSlope: 0.0138773
        tangentMode: 0
      - serializedVersion: 2
        time: 0.9666667
        value: -0.3670944
        inSlope: 0.04493152
        outSlope: 0.04493152
        tangentMode: 0
      - serializedVersion: 2
        time: 1.466667
        value: -0.3629941
        inSlope: -0.03653926
        outSlope: -0.03653926
        tangentMode: 0
      - serializedVersion: 2
        time: 1.966667
        value: -0.3835029
        inSlope: 0
        outSlope: 0
        tangentMode: 0
      m_PreInfinity: 2
      m_PostInfinity: 2
      m_RotationOrder: 4
    attribute: m_LocalRotation.x
    path: Rig/Root/Body/Fin_L.001
    classID: 4
    script: {fileID: 0}
  - curve:
      serializedVersion: 2
      m_Curve:
      - serializedVersion: 2
        time: 0
        value: -0.3022717
        inSlope: 0.2422428
        outSlope: 0.2422428
        tangentMode: 0
      - serializedVersion: 2
        time: 0.4333334
        value: -0.2797928
        inSlope: -0.1983985
        outSlope: -0.1983985
        tangentMode: 0
      - serializedVersion: 2
        time: 0.9666667
        value: -0.4458392
        inSlope: -0.2858281
        outSlope: -0.2858281
        tangentMode: 0
      - serializedVersion: 2
        time: 1.466667
        value: -0.4711031
        inSlope: 0.2150437
        outSlope: 0.2150437
        tangentMode: 0
      - serializedVersion: 2
        time: 1.966667
        value: -0.3135341
        inSlope: 0
        outSlope: 0
        tangentMode: 0
      m_PreInfinity: 2
      m_PostInfinity: 2
      m_RotationOrder: 4
    attribute: m_LocalRotation.y
    path: Rig/Root/Body/Fin_L.001
    classID: 4
    script: {fileID: 0}
  - curve:
      serializedVersion: 2
      m_Curve:
      - serializedVersion: 2
        time: 0
        value: 0.8454875
        inSlope: 0.06931365
        outSlope: 0.06931365
        tangentMode: 0
      - serializedVersion: 2
        time: 0.4333334
        value: 0.8511788
        inSlope: -0.03628225
        outSlope: -0.03628225
        tangentMode: 0
      - serializedVersion: 2
        time: 0.9666667
        value: 0.8022691
        inSlope: -0.1179172
        outSlope: -0.1179172
        tangentMode: 0
      - serializedVersion: 2
        time: 1.466667
        value: 0.7913163
        inSlope: 0.09707174
        outSlope: 0.09707174
        tangentMode: 0
      - serializedVersion: 2
        time: 1.966667
        value: 0.8442511
        inSlope: 0
        outSlope: 0
        tangentMode: 0
      m_PreInfinity: 2
      m_PostInfinity: 2
      m_RotationOrder: 4
    attribute: m_LocalRotation.z
    path: Rig/Root/Body/Fin_L.001
    classID: 4
    script: {fileID: 0}
  - curve:
      serializedVersion: 2
      m_Curve:
      - serializedVersion: 2
        time: 0
        value: 0.2123432
        inSlope: 0.06148383
        outSlope: 0.06148383
        tangentMode: 0
      - serializedVersion: 2
        time: 0.4333334
        value: 0.2193214
        inSlope: -0.08836225
        outSlope: -0.08836225
        tangentMode: 0
      - serializedVersion: 2
        time: 0.9666667
        value: 0.1511072
        inSlope: -0.1072438
        outSlope: -0.1072438
        tangentMode: 0
      - serializedVersion: 2
        time: 1.466667
        value: 0.1418299
        inSlope: 0.0783515
        outSlope: 0.0783515
        tangentMode: 0
      - serializedVersion: 2
        time: 1.966667
        value: 0.2046022
        inSlope: 0
        outSlope: 0
        tangentMode: 0
      m_PreInfinity: 2
      m_PostInfinity: 2
      m_RotationOrder: 4
    attribute: m_LocalRotation.w
    path: Rig/Root/Body/Fin_L.001
    classID: 4
    script: {fileID: 0}
  - curve:
      serializedVersion: 2
      m_Curve:
      - serializedVersion: 2
        time: 0
        value: 0.3856074
        inSlope: 0.001152456
        outSlope: 0.001152456
        tangentMode: 0
      - serializedVersion: 2
        time: 0.4333334
        value: 0.3861462
        inSlope: -0.01387641
        outSlope: -0.01387641
        tangentMode: 0
      - serializedVersion: 2
        time: 0.9666667
        value: 0.3670944
        inSlope: -0.04493196
        outSlope: -0.04493196
        tangentMode: 0
      - serializedVersion: 2
        time: 1.466667
        value: 0.3629941
        inSlope: 0.03653926
        outSlope: 0.03653926
        tangentMode: 0
      - serializedVersion: 2
        time: 1.966667
        value: 0.3835029
        inSlope: 0
        outSlope: 0
        tangentMode: 0
      m_PreInfinity: 2
      m_PostInfinity: 2
      m_RotationOrder: 4
    attribute: m_LocalRotation.x
    path: Rig/Root/Body/Fin_R.001
    classID: 4
    script: {fileID: 0}
  - curve:
      serializedVersion: 2
      m_Curve:
      - serializedVersion: 2
        time: 0
        value: -0.3022717
        inSlope: 0.2422428
        outSlope: 0.2422428
        tangentMode: 0
      - serializedVersion: 2
        time: 0.4333334
        value: -0.2797927
        inSlope: -0.1983977
        outSlope: -0.1983977
        tangentMode: 0
      - serializedVersion: 2
        time: 0.9666667
        value: -0.4458392
        inSlope: -0.2858281
        outSlope: -0.2858281
        tangentMode: 0
      - serializedVersion: 2
        time: 1.466667
        value: -0.4711031
        inSlope: 0.2150437
        outSlope: 0.2150437
        tangentMode: 0
      - serializedVersion: 2
        time: 1.966667
        value: -0.3135341
        inSlope: 0
        outSlope: 0
        tangentMode: 0
      m_PreInfinity: 2
      m_PostInfinity: 2
      m_RotationOrder: 4
    attribute: m_LocalRotation.y
    path: Rig/Root/Body/Fin_R.001
    classID: 4
    script: {fileID: 0}
  - curve:
      serializedVersion: 2
      m_Curve:
      - serializedVersion: 2
        time: 0
        value: 0.8454875
        inSlope: 0.06931365
        outSlope: 0.06931365
        tangentMode: 0
      - serializedVersion: 2
        time: 0.4333334
        value: 0.8511788
        inSlope: -0.03628314
        outSlope: -0.03628314
        tangentMode: 0
      - serializedVersion: 2
        time: 0.9666667
        value: 0.8022691
        inSlope: -0.1179172
        outSlope: -0.1179172
        tangentMode: 0
      - serializedVersion: 2
        time: 1.466667
        value: 0.7913163
        inSlope: 0.09707174
        outSlope: 0.09707174
        tangentMode: 0
      - serializedVersion: 2
        time: 1.966667
        value: 0.8442511
        inSlope: 0
        outSlope: 0
        tangentMode: 0
      m_PreInfinity: 2
      m_PostInfinity: 2
      m_RotationOrder: 4
    attribute: m_LocalRotation.z
    path: Rig/Root/Body/Fin_R.001
    classID: 4
    script: {fileID: 0}
  - curve:
      serializedVersion: 2
      m_Curve:
      - serializedVersion: 2
        time: 0
        value: -0.2123432
        inSlope: -0.06148383
        outSlope: -0.06148383
        tangentMode: 0
      - serializedVersion: 2
        time: 0.4333334
        value: -0.2193214
        inSlope: 0.08836047
        outSlope: 0.08836047
        tangentMode: 0
      - serializedVersion: 2
        time: 0.9666667
        value: -0.1511072
        inSlope: 0.1072435
        outSlope: 0.1072435
        tangentMode: 0
      - serializedVersion: 2
        time: 1.466667
        value: -0.1418299
        inSlope: -0.0783515
        outSlope: -0.0783515
        tangentMode: 0
      - serializedVersion: 2
        time: 1.966667
        value: -0.2046022
        inSlope: 0
        outSlope: 0
        tangentMode: 0
      m_PreInfinity: 2
      m_PostInfinity: 2
      m_RotationOrder: 4
    attribute: m_LocalRotation.w
    path: Rig/Root/Body/Fin_R.001
    classID: 4
    script: {fileID: 0}
  - curve:
      serializedVersion: 2
      m_Curve:
      - serializedVersion: 2
        time: 0
        value: 0.9581239
        inSlope: 0.1254416
        outSlope: 0.1254416
        tangentMode: 0
      - serializedVersion: 2
        time: 0.8000001
        value: 0.9819095
        inSlope: -0.1053393
        outSlope: -0.1053393
        tangentMode: 0
      - serializedVersion: 2
        time: 1.566667
        value: 0.9193167
        inSlope: 0.0150141
        outSlope: 0.0150141
        tangentMode: 0
      - serializedVersion: 2
        time: 1.966667
        value: 0.9539425
        inSlope: 0
        outSlope: 0
        tangentMode: 0
      m_PreInfinity: 2
      m_PostInfinity: 2
      m_RotationOrder: 4
    attribute: m_LocalScale.x
    path: Rig/Root/Body/Tail_01/Tail_02
    classID: 4
    script: {fileID: 0}
  - curve:
      serializedVersion: 2
      m_Curve:
      - serializedVersion: 2
        time: 0
        value: 0.9999999
        inSlope: 0
        outSlope: 0
        tangentMode: 0
      - serializedVersion: 2
        time: 0.8000001
        value: 0.9999999
        inSlope: 0
        outSlope: 0
        tangentMode: 0
      - serializedVersion: 2
        time: 1.566667
        value: 0.9999999
        inSlope: 0
        outSlope: 0
        tangentMode: 0
      - serializedVersion: 2
        time: 1.966667
        value: 0.9999999
        inSlope: 0
        outSlope: 0
        tangentMode: 0
      m_PreInfinity: 2
      m_PostInfinity: 2
      m_RotationOrder: 4
    attribute: m_LocalScale.y
    path: Rig/Root/Body/Tail_01/Tail_02
    classID: 4
    script: {fileID: 0}
  - curve:
      serializedVersion: 2
      m_Curve:
      - serializedVersion: 2
        time: 0
        value: 0.9999999
        inSlope: 0
        outSlope: 0
        tangentMode: 0
      - serializedVersion: 2
        time: 0.8000001
        value: 0.9999999
        inSlope: 0
        outSlope: 0
        tangentMode: 0
      - serializedVersion: 2
        time: 1.566667
        value: 0.9999999
        inSlope: 0
        outSlope: 0
        tangentMode: 0
      - serializedVersion: 2
        time: 1.966667
        value: 0.9999999
        inSlope: 0
        outSlope: 0
        tangentMode: 0
      m_PreInfinity: 2
      m_PostInfinity: 2
      m_RotationOrder: 4
    attribute: m_LocalScale.z
    path: Rig/Root/Body/Tail_01/Tail_02
    classID: 4
    script: {fileID: 0}
  - curve:
      serializedVersion: 2
      m_Curve:
      - serializedVersion: 2
        time: 0.06666667
        value: 0.9982182
        inSlope: -0.01099348
        outSlope: -0.01099348
        tangentMode: 0
      - serializedVersion: 2
        time: 0.7333333
        value: 0.9618587
        inSlope: -0.09360821
        outSlope: -0.09360821
        tangentMode: 0
      - serializedVersion: 2
        time: 1.6
        value: 0.9618589
        inSlope: 0.09360723
        outSlope: 0.09360723
        tangentMode: 0
      - serializedVersion: 2
        time: 1.966667
        value: 0.9933825
        inSlope: 0
        outSlope: 0
        tangentMode: 0
      m_PreInfinity: 2
      m_PostInfinity: 2
      m_RotationOrder: 4
    attribute: m_LocalScale.x
    path: Rig/Root/Body/Fin_Back
    classID: 4
    script: {fileID: 0}
  - curve:
      serializedVersion: 2
      m_Curve:
      - serializedVersion: 2
        time: 0.06666667
        value: 0.9982183
        inSlope: -0.01099527
        outSlope: -0.01099527
        tangentMode: 0
      - serializedVersion: 2
        time: 0.7333333
        value: 0.9618587
        inSlope: -0.09361089
        outSlope: -0.09361089
        tangentMode: 0
      - serializedVersion: 2
        time: 1.6
        value: 0.9618588
        inSlope: 0.09360813
        outSlope: 0.09360813
        tangentMode: 0
      - serializedVersion: 2
        time: 1.966667
        value: 0.9933824
        inSlope: 0
        outSlope: 0
        tangentMode: 0
      m_PreInfinity: 2
      m_PostInfinity: 2
      m_RotationOrder: 4
    attribute: m_LocalScale.y
    path: Rig/Root/Body/Fin_Back
    classID: 4
    script: {fileID: 0}
  - curve:
      serializedVersion: 2
      m_Curve:
      - serializedVersion: 2
        time: 0.06666667
        value: 0.9982184
        inSlope: -0.01099527
        outSlope: -0.01099527
        tangentMode: 0
      - serializedVersion: 2
        time: 0.7333333
        value: 0.9618587
        inSlope: -0.0936091
        outSlope: -0.0936091
        tangentMode: 0
      - serializedVersion: 2
        time: 1.6
        value: 0.9618587
        inSlope: 0.09360902
        outSlope: 0.09360902
        tangentMode: 0
      - serializedVersion: 2
        time: 1.966667
        value: 0.9933823
        inSlope: 0
        outSlope: 0
        tangentMode: 0
      m_PreInfinity: 2
      m_PostInfinity: 2
      m_RotationOrder: 4
    attribute: m_LocalScale.z
    path: Rig/Root/Body/Fin_Back
    classID: 4
    script: {fileID: 0}
  m_Events:
