%YAML 1.1
%TAG !u! tag:unity3d.com,2011:
--- !u!74 &7400000
AnimationClip:
  m_ObjectHideFlags: 0
  m_PrefabParentObject: {fileID: 0}
  m_PrefabInternal: {fileID: 0}
  m_Name: "Clown_L@Idle"
  serializedVersion: 6
  m_Legacy: 0
  m_Compressed: 0
  m_UseHighQualityCurve: 1
  m_RotationCurves:
  - curve:
      serializedVersion: 2
      m_Curve:
      - serializedVersion: 3
        time: 0.2
        value: {x: 0.697876, y: -0.003410494, z: -0.003500049, w: 0.716202}
        inSlope: {x: 0.02508938, y: -0.0001226133, z: 0.0001196028, w: -0.02447427}
        outSlope: {x: 0.02508938, y: -0.0001226133, z: 0.0001196028, w: -0.02447427}
        weightedMode: 0
        inWeight: { x: 0.3333333, y: 0.3333333, z: 0.3333333, w: 0.3333333}
        outWeight: { x: 0.3333333, y: 0.3333333, z: 0.3333333, w: 0.3333333}
      - serializedVersion: 3
        time: 1.366667
        value: {x: 0.7115817, y: -0.003477473, z: -0.00343351, w: 0.7025864}
        inSlope: {x: -0.03198263, y: 0.0001562979, z: -0.0001582991, w: 0.03239122}
        outSlope: {x: -0.03198263, y: 0.0001562979, z: -0.0001582991, w: 0.03239122}
        weightedMode: 0
        inWeight: { x: 0.3333333, y: 0.3333333, z: 0.3333333, w: 0.3333333}
        outWeight: { x: 0.3333333, y: 0.3333333, z: 0.3333333, w: 0.3333333}
      - serializedVersion: 3
        time: 1.866667
        value: {x: 0.6965762, y: -0.003404142, z: -0.003506227, w: 0.7174662}
        inSlope: {x: 0, y: 0, z: 0, w: 0}
        outSlope: {x: 0, y: 0, z: 0, w: 0}
        weightedMode: 0
        inWeight: { x: 0.3333333, y: 0.3333333, z: 0.3333333, w: 0.3333333}
        outWeight: { x: 0.3333333, y: 0.3333333, z: 0.3333333, w: 0.3333333}
      m_PreInfinity: 2
      m_PostInfinity: 2
      m_RotationOrder: 4
    path: Rig/Root/Body
  - curve:
      serializedVersion: 2
      m_Curve:
      - serializedVersion: 3
        time: 0.03333334
        value: {x: -0.600559, y: -0.2893734, z: 0.3891518, w: 0.6357301}
        inSlope: {x: 0.002413988, y: -0.004869997, z: -0.004118979, w: 0.002583861}
        outSlope: {x: 0.002413988, y: -0.004869997, z: -0.004118979, w: 0.002583861}
        weightedMode: 0
        inWeight: { x: 0.3333333, y: 0.3333333, z: 0.3333333, w: 0.3333333}
        outWeight: { x: 0.3333333, y: 0.3333333, z: 0.3333333, w: 0.3333333}
      - serializedVersion: 3
        time: 0.8000001
        value: {x: -0.5121661, y: -0.2584109, z: 0.4102516, w: 0.7089453}
        inSlope: {x: 0.1001152, y: 0.03557056, z: 0.02021939, w: 0.07364273}
        outSlope: {x: 0.1001152, y: 0.03557056, z: 0.02021939, w: 0.07364273}
        weightedMode: 0
        inWeight: { x: 0.3333333, y: 0.3333333, z: 0.3333333, w: 0.3333333}
        outWeight: { x: 0.3333333, y: 0.3333333, z: 0.3333333, w: 0.3333333}
      - serializedVersion: 3
        time: 1.533333
        value: {x: -0.5580611, y: -0.2740151, z: 0.3994885, w: 0.6737155}
        inSlope: {x: -0.1490514, y: -0.05268668, z: -0.03555495, w: -0.1238028}
        outSlope: {x: -0.1490514, y: -0.05268668, z: -0.03555495, w: -0.1238028}
        weightedMode: 0
        inWeight: { x: 0.3333333, y: 0.3333333, z: 0.3333333, w: 0.3333333}
        outWeight: { x: 0.3333333, y: 0.3333333, z: 0.3333333, w: 0.3333333}
      - serializedVersion: 3
        time: 1.966667
        value: {x: -0.6008527, y: -0.2887632, z: 0.3885058, w: 0.6361251}
        inSlope: {x: 0, y: 0, z: 0, w: 0}
        outSlope: {x: 0, y: 0, z: 0, w: 0}
        weightedMode: 0
        inWeight: { x: 0.3333333, y: 0.3333333, z: 0.3333333, w: 0.3333333}
        outWeight: { x: 0.3333333, y: 0.3333333, z: 0.3333333, w: 0.3333333}
      m_PreInfinity: 2
      m_PostInfinity: 2
      m_RotationOrder: 4
    path: Rig/Root/Body/Fin_L
  - curve:
      serializedVersion: 2
      m_Curve:
      - serializedVersion: 3
        time: 0.03333334
        value: {x: -0.6005591, y: 0.2893734, z: -0.3891518, w: 0.63573}
        inSlope: {x: 0.002415776, y: 0.004870891, z: 0.004118979, w: 0.002583861}
        outSlope: {x: 0.002415776, y: 0.004870891, z: 0.004118979, w: 0.002583861}
        weightedMode: 0
        inWeight: { x: 0.3333333, y: 0.3333333, z: 0.3333333, w: 0.3333333}
        outWeight: { x: 0.3333333, y: 0.3333333, z: 0.3333333, w: 0.3333333}
      - serializedVersion: 3
        time: 0.8000001
        value: {x: -0.5121662, y: 0.2584107, z: -0.4102515, w: 0.7089453}
        inSlope: {x: 0.1001143, y: -0.03557056, z: -0.02021894, w: 0.07364094}
        outSlope: {x: 0.1001143, y: -0.03557056, z: -0.02021894, w: 0.07364094}
        weightedMode: 0
        inWeight: { x: 0.3333333, y: 0.3333333, z: 0.3333333, w: 0.3333333}
        outWeight: { x: 0.3333333, y: 0.3333333, z: 0.3333333, w: 0.3333333}
      - serializedVersion: 3
        time: 1.533333
        value: {x: -0.5580612, y: 0.2740149, z: -0.3994885, w: 0.6737154}
        inSlope: {x: -0.1490532, y: 0.05268713, z: 0.03555495, w: -0.1238028}
        outSlope: {x: -0.1490532, y: 0.05268713, z: 0.03555495, w: -0.1238028}
        weightedMode: 0
        inWeight: { x: 0.3333333, y: 0.3333333, z: 0.3333333, w: 0.3333333}
        outWeight: { x: 0.3333333, y: 0.3333333, z: 0.3333333, w: 0.3333333}
      - serializedVersion: 3
        time: 1.966667
        value: {x: -0.6008528, y: 0.2887631, z: -0.3885058, w: 0.636125}
        inSlope: {x: 0, y: 0, z: 0, w: 0}
        outSlope: {x: 0, y: 0, z: 0, w: 0}
        weightedMode: 0
        inWeight: { x: 0.3333333, y: 0.3333333, z: 0.3333333, w: 0.3333333}
        outWeight: { x: 0.3333333, y: 0.3333333, z: 0.3333333, w: 0.3333333}
      m_PreInfinity: 2
      m_PostInfinity: 2
      m_RotationOrder: 4
    path: Rig/Root/Body/Fin_R
  - curve:
      serializedVersion: 2
      m_Curve:
      - serializedVersion: 3
        time: 0
        value: {x: -0.6936586, y: 0.3539138, z: 0.3437301, w: 0.5248166}
        inSlope: {x: 0.003461838, y: 0.006780624, z: -0.005131065, w: 0.003359914}
        outSlope: {x: 0.003461838, y: 0.006780624, z: -0.005131065, w: 0.003359914}
        weightedMode: 0
        inWeight: { x: 0.3333333, y: 0.3333333, z: 0.3333333, w: 0.3333333}
        outWeight: { x: 0.3333333, y: 0.3333333, z: 0.3333333, w: 0.3333333}
      - serializedVersion: 3
        time: 0.8000001
        value: {x: -0.6452983, y: 0.4347135, z: 0.4029866, w: 0.4818881}
        inSlope: {x: 0.05549937, y: 0.08243233, z: 0.06155849, w: -0.05145058}
        outSlope: {x: 0.05549937, y: 0.08243233, z: 0.06155849, w: -0.05145058}
        weightedMode: 0
        inWeight: { x: 0.3333333, y: 0.3333333, z: 0.3333333, w: 0.3333333}
        outWeight: { x: 0.3333333, y: 0.3333333, z: 0.3333333, w: 0.3333333}
      - serializedVersion: 3
        time: 1.566667
        value: {x: -0.6726404, y: 0.3910761, z: 0.3702281, w: 0.5074894}
        inSlope: {x: -0.07692659, y: -0.1322905, z: -0.09980894, w: 0.0728237}
        outSlope: {x: -0.07692659, y: -0.1322905, z: -0.09980894, w: 0.0728237}
        weightedMode: 0
        inWeight: { x: 0.3333333, y: 0.3333333, z: 0.3333333, w: 0.3333333}
        outWeight: { x: 0.3333333, y: 0.3333333, z: 0.3333333, w: 0.3333333}
      - serializedVersion: 3
        time: 1.966667
        value: {x: -0.6928512, y: 0.354592, z: 0.3430924, w: 0.5258415}
        inSlope: {x: 0, y: 0, z: 0, w: 0}
        outSlope: {x: 0, y: 0, z: 0, w: 0}
        weightedMode: 0
        inWeight: { x: 0.3333333, y: 0.3333333, z: 0.3333333, w: 0.3333333}
        outWeight: { x: 0.3333333, y: 0.3333333, z: 0.3333333, w: 0.3333333}
      m_PreInfinity: 2
      m_PostInfinity: 2
      m_RotationOrder: 4
    path: Rig/Root/Body/Fin_02_L
  - curve:
      serializedVersion: 2
      m_Curve:
      - serializedVersion: 3
        time: 0
        value: {x: -0.6936586, y: -0.3539137, z: -0.3437302, w: 0.5248165}
        inSlope: {x: 0.003460049, y: -0.00677973, z: 0.005130171, w: 0.003358125}
        outSlope: {x: 0.003460049, y: -0.00677973, z: 0.005130171, w: 0.003358125}
        weightedMode: 0
        inWeight: { x: 0.3333333, y: 0.3333333, z: 0.3333333, w: 0.3333333}
        outWeight: { x: 0.3333333, y: 0.3333333, z: 0.3333333, w: 0.3333333}
      - serializedVersion: 3
        time: 0.8000001
        value: {x: -0.6452983, y: -0.4347135, z: -0.4029866, w: 0.4818881}
        inSlope: {x: 0.05549937, y: -0.08243188, z: -0.06155893, w: -0.05145192}
        outSlope: {x: 0.05549937, y: -0.08243188, z: -0.06155893, w: -0.05145192}
        weightedMode: 0
        inWeight: { x: 0.3333333, y: 0.3333333, z: 0.3333333, w: 0.3333333}
        outWeight: { x: 0.3333333, y: 0.3333333, z: 0.3333333, w: 0.3333333}
      - serializedVersion: 3
        time: 1.566667
        value: {x: -0.6726404, y: -0.3910761, z: -0.3702281, w: 0.5074894}
        inSlope: {x: -0.07692659, y: 0.1322909, z: 0.09981028, w: 0.0728246}
        outSlope: {x: -0.07692659, y: 0.1322909, z: 0.09981028, w: 0.0728246}
        weightedMode: 0
        inWeight: { x: 0.3333333, y: 0.3333333, z: 0.3333333, w: 0.3333333}
        outWeight: { x: 0.3333333, y: 0.3333333, z: 0.3333333, w: 0.3333333}
      - serializedVersion: 3
        time: 1.966667
        value: {x: -0.6928512, y: -0.354592, z: -0.3430924, w: 0.5258415}
        inSlope: {x: 0, y: 0, z: 0, w: 0}
        outSlope: {x: 0, y: 0, z: 0, w: 0}
        weightedMode: 0
        inWeight: { x: 0.3333333, y: 0.3333333, z: 0.3333333, w: 0.3333333}
        outWeight: { x: 0.3333333, y: 0.3333333, z: 0.3333333, w: 0.3333333}
      m_PreInfinity: 2
      m_PostInfinity: 2
      m_RotationOrder: 4
    path: Rig/Root/Body/Fin_02_R
  - curve:
      serializedVersion: 2
      m_Curve:
      - serializedVersion: 3
        time: 0
        value: {x: 0.5179248, y: 0.5680768, z: -0.4210574, w: -0.4814076}
        inSlope: {x: 0.3254038, y: 0.1222587, z: 0.1666376, w: 0.3581947}
        outSlope: {x: 0.3254038, y: 0.1222587, z: 0.1666376, w: 0.3581947}
        weightedMode: 0
        inWeight: { x: 0.3333333, y: 0.3333333, z: 0.3333333, w: 0.3333333}
        outWeight: { x: 0.3333333, y: 0.3333333, z: 0.3333333, w: 0.3333333}
      - serializedVersion: 3
        time: 0.4666667
        value: {x: 0.5817666, y: 0.574019, z: -0.4129198, w: -0.4019292}
        inSlope: {x: -0.09466237, y: -0.1178071, z: -0.1635925, w: -0.1366296}
        outSlope: {x: -0.09466237, y: -0.1178071, z: -0.1635925, w: -0.1366296}
        weightedMode: 0
        inWeight: { x: 0.3333333, y: 0.3333333, z: 0.3333333, w: 0.3333333}
        outWeight: { x: 0.3333333, y: 0.3333333, z: 0.3333333, w: 0.3333333}
      - serializedVersion: 3
        time: 0.9333334
        value: {x: 0.4493546, y: 0.4940864, z: -0.5058451, w: -0.5459669}
        inSlope: {x: -0.4004212, y: -0.1762167, z: -0.172226, w: -0.3296927}
        outSlope: {x: -0.4004212, y: -0.1762167, z: -0.172226, w: -0.3296927}
        weightedMode: 0
        inWeight: { x: 0.3333333, y: 0.3333333, z: 0.3333333, w: 0.3333333}
        outWeight: { x: 0.3333333, y: 0.3333333, z: 0.3333333, w: 0.3333333}
      - serializedVersion: 3
        time: 1.466667
        value: {x: 0.3368021, y: 0.4755017, z: -0.5233533, w: -0.6217425}
        inSlope: {x: 0.1460609, y: 0.1491508, z: 0.1356526, w: 0.07937184}
        outSlope: {x: 0.1460609, y: 0.1491508, z: 0.1356526, w: 0.07937184}
        weightedMode: 0
        inWeight: { x: 0.3333333, y: 0.3333333, z: 0.3333333, w: 0.3333333}
        outWeight: { x: 0.3333333, y: 0.3333333, z: 0.3333333, w: 0.3333333}
      - serializedVersion: 3
        time: 1.933333
        value: {x: 0.4942754, y: 0.5587268, z: -0.4333877, w: -0.5056592}
        inSlope: {x: 0.3709747, y: 0.151069, z: 0.1946348, w: 0.3624828}
        outSlope: {x: 0.3709747, y: 0.151069, z: 0.1946348, w: 0.3624828}
        weightedMode: 0
        inWeight: { x: 0.3333333, y: 0.3333333, z: 0.3333333, w: 0.3333333}
        outWeight: { x: 0.3333333, y: 0.3333333, z: 0.3333333, w: 0.3333333}
      - serializedVersion: 3
        time: 1.966667
        value: {x: 0.5063961, y: 0.5635908, z: -0.4270433, w: -0.4935205}
        inSlope: {x: 0, y: 0, z: 0, w: 0}
        outSlope: {x: 0, y: 0, z: 0, w: 0}
        weightedMode: 0
        inWeight: { x: 0.3333333, y: 0.3333333, z: 0.3333333, w: 0.3333333}
        outWeight: { x: 0.3333333, y: 0.3333333, z: 0.3333333, w: 0.3333333}
      m_PreInfinity: 2
      m_PostInfinity: 2
      m_RotationOrder: 4
    path: Rig/Root/Body/Tail_01
  - curve:
      serializedVersion: 2
      m_Curve:
      - serializedVersion: 3
        time: 0
        value: {x: 0.1001637, y: -0.05267348, z: 0.1081718, w: 0.9876698}
        inSlope: {x: -0.5647044, y: 0.2961457, z: -0.0538221, w: 0.07196008}
        outSlope: {x: -0.5647044, y: 0.2961457, z: -0.0538221, w: 0.07196008}
        weightedMode: 0
        inWeight: { x: 0.3333333, y: 0.3333333, z: 0.3333333, w: 0.3333333}
        outWeight: { x: 0.3333333, y: 0.3333333, z: 0.3333333, w: 0.3333333}
      - serializedVersion: 3
        time: 0.3666667
        value: {x: -0.1179962, y: 0.06200619, z: 0.1102223, w: 0.984928}
        inSlope: {x: -0.5173795, y: 0.270454, z: 0.06416982, w: -0.08581099}
        outSlope: {x: -0.5173795, y: 0.270454, z: 0.06416982, w: -0.08581099}
        weightedMode: 0
        inWeight: { x: 0.3333333, y: 0.3333333, z: 0.3333333, w: 0.3333333}
        outWeight: { x: 0.3333333, y: 0.3333333, z: 0.3333333, w: 0.3333333}
      - serializedVersion: 3
        time: 0.7666667
        value: {x: -0.1943861, y: 0.1016775, z: 0.1229812, w: 0.9678592}
        inSlope: {x: 0.2154476, y: -0.1110294, z: -0.04508063, w: 0.06033356}
        outSlope: {x: 0.2154476, y: -0.1110294, z: -0.04508063, w: 0.06033356}
        weightedMode: 0
        inWeight: { x: 0.3333333, y: 0.3333333, z: 0.3333333, w: 0.3333333}
        outWeight: { x: 0.3333333, y: 0.3333333, z: 0.3333333, w: 0.3333333}
      - serializedVersion: 3
        time: 1.2
        value: {x: 0.02084393, y: -0.01098065, z: 0.1031471, w: 0.994387}
        inSlope: {x: 0.6222459, y: -0.3277291, z: 0.01345397, w: -0.01798423}
        outSlope: {x: 0.6222459, y: -0.3277291, z: 0.01345397, w: -0.01798423}
        weightedMode: 0
        inWeight: { x: 0.3333333, y: 0.3333333, z: 0.3333333, w: 0.3333333}
        outWeight: { x: 0.3333333, y: 0.3333333, z: 0.3333333, w: 0.3333333}
      - serializedVersion: 3
        time: 1.766667
        value: {x: 0.1943863, y: -0.1016773, z: 0.1229812, w: 0.9678591}
        inSlope: {x: -0.2154471, y: 0.1110304, z: -0.04508083, w: 0.06033278}
        outSlope: {x: -0.2154471, y: 0.1110304, z: -0.04508083, w: 0.06033278}
        weightedMode: 0
        inWeight: { x: 0.3333333, y: 0.3333333, z: 0.3333333, w: 0.3333333}
        outWeight: { x: 0.3333333, y: 0.3333333, z: 0.3333333, w: 0.3333333}
      - serializedVersion: 3
        time: 1.966667
        value: {x: 0.1179964, y: -0.06200594, z: 0.1102223, w: 0.984928}
        inSlope: {x: 0, y: 0, z: 0, w: 0}
        outSlope: {x: 0, y: 0, z: 0, w: 0}
        weightedMode: 0
        inWeight: { x: 0.3333333, y: 0.3333333, z: 0.3333333, w: 0.3333333}
        outWeight: { x: 0.3333333, y: 0.3333333, z: 0.3333333, w: 0.3333333}
      m_PreInfinity: 2
      m_PostInfinity: 2
      m_RotationOrder: 4
    path: Rig/Root/Body/Tail_01/Tail_02
  m_CompressedRotationCurves: []
  m_EulerCurves:
  m_PositionCurves:
  - curve:
      serializedVersion: 2
      m_Curve:
      - serializedVersion: 3
        time: 0
        value: {x: -3.5109E-17, y: -0.002169232, z: 0.004330266}
        inSlope: {x: -2.46519E-31, y: -3.469447E-17, z: 0.001475179}
        outSlope: {x: -2.46519E-31, y: -3.469447E-17, z: 0.001475179}
        weightedMode: 0
        inWeight: { x: 0.3333333, y: 0.3333333, z: 0.3333333}
        outWeight: { x: 0.3333333, y: 0.3333333, z: 0.3333333}
      - serializedVersion: 3
        time: 0.5
        value: {x: -3.5109E-17, y: -0.002169232, z: 0.004540766}
        inSlope: {x: -2.465188E-31, y: -3.469444E-17, z: -0.001020499}
        outSlope: {x: -2.465188E-31, y: -3.469444E-17, z: -0.001020499}
        weightedMode: 0
        inWeight: { x: 0.3333333, y: 0.3333333, z: 0.3333333}
        outWeight: { x: 0.3333333, y: 0.3333333, z: 0.3333333}
      - serializedVersion: 3
        time: 1.333333
        value: {x: -3.5109E-17, y: -0.002169232, z: 0.003491973}
        inSlope: {x: -2.465193E-31, y: -3.46945E-17, z: 0}
        outSlope: {x: -2.465193E-31, y: -3.46945E-17, z: 0}
        weightedMode: 0
        inWeight: { x: 0.3333333, y: 0.3333333, z: 0.3333333}
        outWeight: { x: 0.3333333, y: 0.3333333, z: 0.3333333}
      - serializedVersion: 3
        time: 1.966667
        value: {x: -3.5109E-17, y: -0.002169232, z: 0.004278568}
        inSlope: {x: 0, y: 0, z: 0}
        outSlope: {x: 0, y: 0, z: 0}
        weightedMode: 0
        inWeight: { x: 0.3333333, y: 0.3333333, z: 0.3333333}
        outWeight: { x: 0.3333333, y: 0.3333333, z: 0.3333333}
      m_PreInfinity: 2
      m_PostInfinity: 2
      m_RotationOrder: 4
    path: Rig/Root/Body
  m_ScaleCurves:
  m_FloatCurves:
  m_PPtrCurves:
  m_SampleRate: 30
  m_WrapMode: 0
  m_Bounds:
    m_Center: {x: 0, y: 0, z: 0}
    m_Extent: {x: 0, y: 0, z: 0}
  m_MuscleClipSize: 6292
  m_MuscleClip:
    serializedVersion: 3
    m_DeltaPose:
      m_RootX:
        t: {x: 0, y: 0, z: 0}
        q: {x: 0, y: 0, z: 0, w: 1}
        s: {x: 1, y: 1, z: 1}
      m_LookAtPosition: {x: 0, y: 0, z: 0}
      m_LookAtWeight: {x: 0, y: 0, z: 0, w: 0}
      m_GoalArray:
      - m_X:
          t: {x: 0, y: 0, z: 0}
          q: {x: 0, y: 0, z: 0, w: 1}
          s: {x: 1, y: 1, z: 1}
          m_Weight: 
          m_WeightR: 0
          m_HintT: {x: 0, y: 0, z: 0}
          m_HintWeightT: 0
      - m_X:
          t: {x: 0, y: 0, z: 0}
          q: {x: 0, y: 0, z: 0, w: 1}
          s: {x: 1, y: 1, z: 1}
          m_Weight: 
          m_WeightR: 0
          m_HintT: {x: 0, y: 0, z: 0}
          m_HintWeightT: 0
      - m_X:
          t: {x: 0, y: 0, z: 0}
          q: {x: 0, y: 0, z: 0, w: 1}
          s: {x: 1, y: 1, z: 1}
          m_Weight: 
          m_WeightR: 0
          m_HintT: {x: 0, y: 0, z: 0}
          m_HintWeightT: 0
      - m_X:
          t: {x: 0, y: 0, z: 0}
          q: {x: 0, y: 0, z: 0, w: 1}
          s: {x: 1, y: 1, z: 1}
          m_Weight: 
          m_WeightR: 0
          m_HintT: {x: 0, y: 0, z: 0}
          m_HintWeightT: 0
      m_LeftHandPose:
        m_GrabX:
          t: {x: 0, y: 0, z: 0}
          q: {x: 0, y: 0, z: 0, w: 1}
          s: {x: 1, y: 1, z: 1}
        m_DoFArray:
        - 0
        - 0
        - 0
        - 0
        - 0
        - 0
        - 0
        - 0
        - 0
        - 0
        - 0
        - 0
        - 0
        - 0
        - 0
        - 0
        - 0
        - 0
        - 0
        - 0
        m_Override: 0
        m_CloseOpen: 0
        m_InOut: 0
        m_Grab: 0
      m_RightHandPose:
        m_GrabX:
          t: {x: 0, y: 0, z: 0}
          q: {x: 0, y: 0, z: 0, w: 1}
          s: {x: 1, y: 1, z: 1}
        m_DoFArray:
        - 0
        - 0
        - 0
        - 0
        - 0
        - 0
        - 0
        - 0
        - 0
        - 0
        - 0
        - 0
        - 0
        - 0
        - 0
        - 0
        - 0
        - 0
        - 0
        - 0
        m_Override: 0
        m_CloseOpen: 0
        m_InOut: 0
        m_Grab: 0
      m_DoFArray:
        - 0
        - 0
        - 0
        - 0
        - 0
        - 0
        - 0
        - 0
        - 0
        - 0
        - 0
        - 0
        - 0
        - 0
        - 0
        - 0
        - 0
        - 0
        - 0
        - 0
        - 0
        - 0
        - 0
        - 0
        - 0
        - 0
        - 0
        - 0
        - 0
        - 0
        - 0
        - 0
        - 0
        - 0
        - 0
        - 0
        - 0
        - 0
        - 0
        - 0
        - 0
        - 0
        - 0
        - 0
        - 0
        - 0
        - 0
        - 0
        - 0
        - 0
        - 0
        - 0
        - 0
        - 0
        - 0
      m_TDoFArray:
      - x: 0
        y: 0
        z: 0
      - x: 0
        y: 0
        z: 0
      - x: 0
        y: 0
        z: 0
      - x: 0
        y: 0
        z: 0
      - x: 0
        y: 0
        z: 0
      - x: 0
        y: 0
        z: 0
      - x: 0
        y: 0
        z: 0
      - x: 0
        y: 0
        z: 0
      - x: 0
        y: 0
        z: 0
      - x: 0
        y: 0
        z: 0
      - x: 0
        y: 0
        z: 0
      - x: 0
        y: 0
        z: 0
      - x: 0
        y: 0
        z: 0
      - x: 0
        y: 0
        z: 0
      - x: 0
        y: 0
        z: 0
      - x: 0
        y: 0
        z: 0
      - x: 0
        y: 0
        z: 0
      - x: 0
        y: 0
        z: 0
      - x: 0
        y: 0
        z: 0
      - x: 0
        y: 0
        z: 0
      - x: 0
        y: 0
        z: 0
    m_StartX:
      t: {x: 0, y: 0, z: 0}
      q: {x: 0, y: 0, z: 0, w: 1}
      s: {x: 1, y: 1, z: 1}
    m_StopX:
      t: {x: 0, y: 0, z: 0}
      q: {x: 0, y: 0, z: 0, w: 1}
      s: {x: 1, y: 1, z: 1}
    m_LeftFootStartX:
      t: {x: 0, y: 0, z: 0}
      q: {x: 0, y: 0, z: 0, w: 1}
      s: {x: 1, y: 1, z: 1}
    m_RightFootStartX:
      t: {x: 0, y: 0, z: 0}
      q: {x: 0, y: 0, z: 0, w: 1}
      s: {x: 1, y: 1, z: 1}
    m_AverageSpeed: {x: 0, y: 0, z: 0}
  m_ClipBindingConstant:
    genericBindings:
    - serializedVersion: 2
      path: 3045925566
      attribute: 1
      script: {fileID: 0}
      typeID: 4
      customType: 0
      isPPtrCurve: 0
    - serializedVersion: 2
      path: 3045925566
      attribute: 2
      script: {fileID: 0}
      typeID: 4
      customType: 0
      isPPtrCurve: 0
    - serializedVersion: 2
      path: 2445473110
      attribute: 2
      script: {fileID: 0}
      typeID: 4
      customType: 0
      isPPtrCurve: 0
    - serializedVersion: 2
      path: 1808648245
      attribute: 2
      script: {fileID: 0}
      typeID: 4
      customType: 0
      isPPtrCurve: 0
    - serializedVersion: 2
      path: 3483262751
      attribute: 2
      script: {fileID: 0}
      typeID: 4
      customType: 0
      isPPtrCurve: 0
    - serializedVersion: 2
      path: 898720380
      attribute: 2
      script: {fileID: 0}
      typeID: 4
      customType: 0
      isPPtrCurve: 0
    - serializedVersion: 2
      path: 3166425161
      attribute: 2
      script: {fileID: 0}
      typeID: 4
      customType: 0
      isPPtrCurve: 0
    - serializedVersion: 2
      path: 4241371537
      attribute: 2
      script: {fileID: 0}
      typeID: 4
      customType: 0
      isPPtrCurve: 0
    pptrCurveMapping:
  m_AnimationClipSettings:
    serializedVersion: 2
    m_AdditiveReferencePoseClip: {fileID: 0}
    m_AdditiveReferencePoseTime: 
    m_StartTime: 0
    m_StopTime: 1.966667
    m_OrientationOffsetY: 0
    m_Level: 0
    m_CycleOffset: 0
    m_HasAdditiveReferencePose: 
    m_LoopTime: 1
    m_LoopBlend: 0
    m_LoopBlendOrientation: 0
    m_LoopBlendPositionY: 0
    m_LoopBlendPositionXZ: 0
    m_KeepOriginalOrientation: 0
    m_KeepOriginalPositionY: 1
    m_KeepOriginalPositionXZ: 0
    m_HeightFromFeet: 0
    m_Mirror: 0
    m_HasGenericRootTransform: 0
    m_HasMotionFloatCurves: 0
    m_GenerateMotionCurves: 0
  m_EditorCurves:
  - curve:
      serializedVersion: 2
      m_Curve:
      - serializedVersion: 2
        time: 0
        value: -3.5109E-17
        inSlope: -2.46519E-31
        outSlope: -2.46519E-31
        tangentMode: 0
      - serializedVersion: 2
        time: 0.5
        value: -3.5109E-17
        inSlope: -2.465188E-31
        outSlope: -2.465188E-31
        tangentMode: 0
      - serializedVersion: 2
        time: 1.333333
        value: -3.5109E-17
        inSlope: -2.465193E-31
        outSlope: -2.465193E-31
        tangentMode: 0
      - serializedVersion: 2
        time: 1.966667
        value: -3.5109E-17
        inSlope: 0
        outSlope: 0
        tangentMode: 0
      m_PreInfinity: 2
      m_PostInfinity: 2
      m_RotationOrder: 4
    attribute: m_LocalPosition.x
    path: Rig/Root/Body
    classID: 4
    script: {fileID: 0}
  - curve:
      serializedVersion: 2
      m_Curve:
      - serializedVersion: 2
        time: 0
        value: -0.002169232
        inSlope: -3.469447E-17
        outSlope: -3.469447E-17
        tangentMode: 0
      - serializedVersion: 2
        time: 0.5
        value: -0.002169232
        inSlope: -3.469444E-17
        outSlope: -3.469444E-17
        tangentMode: 0
      - serializedVersion: 2
        time: 1.333333
        value: -0.002169232
        inSlope: -3.46945E-17
        outSlope: -3.46945E-17
        tangentMode: 0
      - serializedVersion: 2
        time: 1.966667
        value: -0.002169232
        inSlope: 0
        outSlope: 0
        tangentMode: 0
      m_PreInfinity: 2
      m_PostInfinity: 2
      m_RotationOrder: 4
    attribute: m_LocalPosition.y
    path: Rig/Root/Body
    classID: 4
    script: {fileID: 0}
  - curve:
      serializedVersion: 2
      m_Curve:
      - serializedVersion: 2
        time: 0
        value: 0.004330266
        inSlope: 0.001475179
        outSlope: 0.001475179
        tangentMode: 0
      - serializedVersion: 2
        time: 0.5
        value: 0.004540766
        inSlope: -0.001020499
        outSlope: -0.001020499
        tangentMode: 0
      - serializedVersion: 2
        time: 1.333333
        value: 0.003491973
        inSlope: 0
        outSlope: 0
        tangentMode: 0
      - serializedVersion: 2
        time: 1.966667
        value: 0.004278568
        inSlope: 0
        outSlope: 0
        tangentMode: 0
      m_PreInfinity: 2
      m_PostInfinity: 2
      m_RotationOrder: 4
    attribute: m_LocalPosition.z
    path: Rig/Root/Body
    classID: 4
    script: {fileID: 0}
  - curve:
      serializedVersion: 2
      m_Curve:
      - serializedVersion: 2
        time: 0.2
        value: 0.697876
        inSlope: 0.02508938
        outSlope: 0.02508938
        tangentMode: 0
      - serializedVersion: 2
        time: 1.366667
        value: 0.7115817
        inSlope: -0.03198263
        outSlope: -0.03198263
        tangentMode: 0
      - serializedVersion: 2
        time: 1.866667
        value: 0.6965762
        inSlope: 0
        outSlope: 0
        tangentMode: 0
      m_PreInfinity: 2
      m_PostInfinity: 2
      m_RotationOrder: 4
    attribute: m_LocalRotation.x
    path: Rig/Root/Body
    classID: 4
    script: {fileID: 0}
  - curve:
      serializedVersion: 2
      m_Curve:
      - serializedVersion: 2
        time: 0.2
        value: -0.003410494
        inSlope: -0.0001226133
        outSlope: -0.0001226133
        tangentMode: 0
      - serializedVersion: 2
        time: 1.366667
        value: -0.003477473
        inSlope: 0.0001562979
        outSlope: 0.0001562979
        tangentMode: 0
      - serializedVersion: 2
        time: 1.866667
        value: -0.003404142
        inSlope: 0
        outSlope: 0
        tangentMode: 0
      m_PreInfinity: 2
      m_PostInfinity: 2
      m_RotationOrder: 4
    attribute: m_LocalRotation.y
    path: Rig/Root/Body
    classID: 4
    script: {fileID: 0}
  - curve:
      serializedVersion: 2
      m_Curve:
      - serializedVersion: 2
        time: 0.2
        value: -0.003500049
        inSlope: 0.0001196028
        outSlope: 0.0001196028
        tangentMode: 0
      - serializedVersion: 2
        time: 1.366667
        value: -0.00343351
        inSlope: -0.0001582991
        outSlope: -0.0001582991
        tangentMode: 0
      - serializedVersion: 2
        time: 1.866667
        value: -0.003506227
        inSlope: 0
        outSlope: 0
        tangentMode: 0
      m_PreInfinity: 2
      m_PostInfinity: 2
      m_RotationOrder: 4
    attribute: m_LocalRotation.z
    path: Rig/Root/Body
    classID: 4
    script: {fileID: 0}
  - curve:
      serializedVersion: 2
      m_Curve:
      - serializedVersion: 2
        time: 0.2
        value: 0.716202
        inSlope: -0.02447427
        outSlope: -0.02447427
        tangentMode: 0
      - serializedVersion: 2
        time: 1.366667
        value: 0.7025864
        inSlope: 0.03239122
        outSlope: 0.03239122
        tangentMode: 0
      - serializedVersion: 2
        time: 1.866667
        value: 0.7174662
        inSlope: 0
        outSlope: 0
        tangentMode: 0
      m_PreInfinity: 2
      m_PostInfinity: 2
      m_RotationOrder: 4
    attribute: m_LocalRotation.w
    path: Rig/Root/Body
    classID: 4
    script: {fileID: 0}
  - curve:
      serializedVersion: 2
      m_Curve:
      - serializedVersion: 2
        time: 0.03333334
        value: -0.600559
        inSlope: 0.002413988
        outSlope: 0.002413988
        tangentMode: 0
      - serializedVersion: 2
        time: 0.8000001
        value: -0.5121661
        inSlope: 0.1001152
        outSlope: 0.1001152
        tangentMode: 0
      - serializedVersion: 2
        time: 1.533333
        value: -0.5580611
        inSlope: -0.1490514
        outSlope: -0.1490514
        tangentMode: 0
      - serializedVersion: 2
        time: 1.966667
        value: -0.6008527
        inSlope: 0
        outSlope: 0
        tangentMode: 0
      m_PreInfinity: 2
      m_PostInfinity: 2
      m_RotationOrder: 4
    attribute: m_LocalRotation.x
    path: Rig/Root/Body/Fin_L
    classID: 4
    script: {fileID: 0}
  - curve:
      serializedVersion: 2
      m_Curve:
      - serializedVersion: 2
        time: 0.03333334
        value: -0.2893734
        inSlope: -0.004869997
        outSlope: -0.004869997
        tangentMode: 0
      - serializedVersion: 2
        time: 0.8000001
        value: -0.2584109
        inSlope: 0.03557056
        outSlope: 0.03557056
        tangentMode: 0
      - serializedVersion: 2
        time: 1.533333
        value: -0.2740151
        inSlope: -0.05268668
        outSlope: -0.05268668
        tangentMode: 0
      - serializedVersion: 2
        time: 1.966667
        value: -0.2887632
        inSlope: 0
        outSlope: 0
        tangentMode: 0
      m_PreInfinity: 2
      m_PostInfinity: 2
      m_RotationOrder: 4
    attribute: m_LocalRotation.y
    path: Rig/Root/Body/Fin_L
    classID: 4
    script: {fileID: 0}
  - curve:
      serializedVersion: 2
      m_Curve:
      - serializedVersion: 2
        time: 0.03333334
        value: 0.3891518
        inSlope: -0.004118979
        outSlope: -0.004118979
        tangentMode: 0
      - serializedVersion: 2
        time: 0.8000001
        value: 0.4102516
        inSlope: 0.02021939
        outSlope: 0.02021939
        tangentMode: 0
      - serializedVersion: 2
        time: 1.533333
        value: 0.3994885
        inSlope: -0.03555495
        outSlope: -0.03555495
        tangentMode: 0
      - serializedVersion: 2
        time: 1.966667
        value: 0.3885058
        inSlope: 0
        outSlope: 0
        tangentMode: 0
      m_PreInfinity: 2
      m_PostInfinity: 2
      m_RotationOrder: 4
    attribute: m_LocalRotation.z
    path: Rig/Root/Body/Fin_L
    classID: 4
    script: {fileID: 0}
  - curve:
      serializedVersion: 2
      m_Curve:
      - serializedVersion: 2
        time: 0.03333334
        value: 0.6357301
        inSlope: 0.002583861
        outSlope: 0.002583861
        tangentMode: 0
      - serializedVersion: 2
        time: 0.8000001
        value: 0.7089453
        inSlope: 0.07364273
        outSlope: 0.07364273
        tangentMode: 0
      - serializedVersion: 2
        time: 1.533333
        value: 0.6737155
        inSlope: -0.1238028
        outSlope: -0.1238028
        tangentMode: 0
      - serializedVersion: 2
        time: 1.966667
        value: 0.6361251
        inSlope: 0
        outSlope: 0
        tangentMode: 0
      m_PreInfinity: 2
      m_PostInfinity: 2
      m_RotationOrder: 4
    attribute: m_LocalRotation.w
    path: Rig/Root/Body/Fin_L
    classID: 4
    script: {fileID: 0}
  - curve:
      serializedVersion: 2
      m_Curve:
      - serializedVersion: 2
        time: 0.03333334
        value: -0.6005591
        inSlope: 0.002415776
        outSlope: 0.002415776
        tangentMode: 0
      - serializedVersion: 2
        time: 0.8000001
        value: -0.5121662
        inSlope: 0.1001143
        outSlope: 0.1001143
        tangentMode: 0
      - serializedVersion: 2
        time: 1.533333
        value: -0.5580612
        inSlope: -0.1490532
        outSlope: -0.1490532
        tangentMode: 0
      - serializedVersion: 2
        time: 1.966667
        value: -0.6008528
        inSlope: 0
        outSlope: 0
        tangentMode: 0
      m_PreInfinity: 2
      m_PostInfinity: 2
      m_RotationOrder: 4
    attribute: m_LocalRotation.x
    path: Rig/Root/Body/Fin_R
    classID: 4
    script: {fileID: 0}
  - curve:
      serializedVersion: 2
      m_Curve:
      - serializedVersion: 2
        time: 0.03333334
        value: 0.2893734
        inSlope: 0.004870891
        outSlope: 0.004870891
        tangentMode: 0
      - serializedVersion: 2
        time: 0.8000001
        value: 0.2584107
        inSlope: -0.03557056
        outSlope: -0.03557056
        tangentMode: 0
      - serializedVersion: 2
        time: 1.533333
        value: 0.2740149
        inSlope: 0.05268713
        outSlope: 0.05268713
        tangentMode: 0
      - serializedVersion: 2
        time: 1.966667
        value: 0.2887631
        inSlope: 0
        outSlope: 0
        tangentMode: 0
      m_PreInfinity: 2
      m_PostInfinity: 2
      m_RotationOrder: 4
    attribute: m_LocalRotation.y
    path: Rig/Root/Body/Fin_R
    classID: 4
    script: {fileID: 0}
  - curve:
      serializedVersion: 2
      m_Curve:
      - serializedVersion: 2
        time: 0.03333334
        value: -0.3891518
        inSlope: 0.004118979
        outSlope: 0.004118979
        tangentMode: 0
      - serializedVersion: 2
        time: 0.8000001
        value: -0.4102515
        inSlope: -0.02021894
        outSlope: -0.02021894
        tangentMode: 0
      - serializedVersion: 2
        time: 1.533333
        value: -0.3994885
        inSlope: 0.03555495
        outSlope: 0.03555495
        tangentMode: 0
      - serializedVersion: 2
        time: 1.966667
        value: -0.3885058
        inSlope: 0
        outSlope: 0
        tangentMode: 0
      m_PreInfinity: 2
      m_PostInfinity: 2
      m_RotationOrder: 4
    attribute: m_LocalRotation.z
    path: Rig/Root/Body/Fin_R
    classID: 4
    script: {fileID: 0}
  - curve:
      serializedVersion: 2
      m_Curve:
      - serializedVersion: 2
        time: 0.03333334
        value: 0.63573
        inSlope: 0.002583861
        outSlope: 0.002583861
        tangentMode: 0
      - serializedVersion: 2
        time: 0.8000001
        value: 0.7089453
        inSlope: 0.07364094
        outSlope: 0.07364094
        tangentMode: 0
      - serializedVersion: 2
        time: 1.533333
        value: 0.6737154
        inSlope: -0.1238028
        outSlope: -0.1238028
        tangentMode: 0
      - serializedVersion: 2
        time: 1.966667
        value: 0.636125
        inSlope: 0
        outSlope: 0
        tangentMode: 0
      m_PreInfinity: 2
      m_PostInfinity: 2
      m_RotationOrder: 4
    attribute: m_LocalRotation.w
    path: Rig/Root/Body/Fin_R
    classID: 4
    script: {fileID: 0}
  - curve:
      serializedVersion: 2
      m_Curve:
      - serializedVersion: 2
        time: 0
        value: -0.6936586
        inSlope: 0.003461838
        outSlope: 0.003461838
        tangentMode: 0
      - serializedVersion: 2
        time: 0.8000001
        value: -0.6452983
        inSlope: 0.05549937
        outSlope: 0.05549937
        tangentMode: 0
      - serializedVersion: 2
        time: 1.566667
        value: -0.6726404
        inSlope: -0.07692659
        outSlope: -0.07692659
        tangentMode: 0
      - serializedVersion: 2
        time: 1.966667
        value: -0.6928512
        inSlope: 0
        outSlope: 0
        tangentMode: 0
      m_PreInfinity: 2
      m_PostInfinity: 2
      m_RotationOrder: 4
    attribute: m_LocalRotation.x
    path: Rig/Root/Body/Fin_02_L
    classID: 4
    script: {fileID: 0}
  - curve:
      serializedVersion: 2
      m_Curve:
      - serializedVersion: 2
        time: 0
        value: 0.3539138
        inSlope: 0.006780624
        outSlope: 0.006780624
        tangentMode: 0
      - serializedVersion: 2
        time: 0.8000001
        value: 0.4347135
        inSlope: 0.08243233
        outSlope: 0.08243233
        tangentMode: 0
      - serializedVersion: 2
        time: 1.566667
        value: 0.3910761
        inSlope: -0.1322905
        outSlope: -0.1322905
        tangentMode: 0
      - serializedVersion: 2
        time: 1.966667
        value: 0.354592
        inSlope: 0
        outSlope: 0
        tangentMode: 0
      m_PreInfinity: 2
      m_PostInfinity: 2
      m_RotationOrder: 4
    attribute: m_LocalRotation.y
    path: Rig/Root/Body/Fin_02_L
    classID: 4
    script: {fileID: 0}
  - curve:
      serializedVersion: 2
      m_Curve:
      - serializedVersion: 2
        time: 0
        value: 0.3437301
        inSlope: -0.005131065
        outSlope: -0.005131065
        tangentMode: 0
      - serializedVersion: 2
        time: 0.8000001
        value: 0.4029866
        inSlope: 0.06155849
        outSlope: 0.06155849
        tangentMode: 0
      - serializedVersion: 2
        time: 1.566667
        value: 0.3702281
        inSlope: -0.09980894
        outSlope: -0.09980894
        tangentMode: 0
      - serializedVersion: 2
        time: 1.966667
        value: 0.3430924
        inSlope: 0
        outSlope: 0
        tangentMode: 0
      m_PreInfinity: 2
      m_PostInfinity: 2
      m_RotationOrder: 4
    attribute: m_LocalRotation.z
    path: Rig/Root/Body/Fin_02_L
    classID: 4
    script: {fileID: 0}
  - curve:
      serializedVersion: 2
      m_Curve:
      - serializedVersion: 2
        time: 0
        value: 0.5248166
        inSlope: 0.003359914
        outSlope: 0.003359914
        tangentMode: 0
      - serializedVersion: 2
        time: 0.8000001
        value: 0.4818881
        inSlope: -0.05145058
        outSlope: -0.05145058
        tangentMode: 0
      - serializedVersion: 2
        time: 1.566667
        value: 0.5074894
        inSlope: 0.0728237
        outSlope: 0.0728237
        tangentMode: 0
      - serializedVersion: 2
        time: 1.966667
        value: 0.5258415
        inSlope: 0
        outSlope: 0
        tangentMode: 0
      m_PreInfinity: 2
      m_PostInfinity: 2
      m_RotationOrder: 4
    attribute: m_LocalRotation.w
    path: Rig/Root/Body/Fin_02_L
    classID: 4
    script: {fileID: 0}
  - curve:
      serializedVersion: 2
      m_Curve:
      - serializedVersion: 2
        time: 0
        value: -0.6936586
        inSlope: 0.003460049
        outSlope: 0.003460049
        tangentMode: 0
      - serializedVersion: 2
        time: 0.8000001
        value: -0.6452983
        inSlope: 0.05549937
        outSlope: 0.05549937
        tangentMode: 0
      - serializedVersion: 2
        time: 1.566667
        value: -0.6726404
        inSlope: -0.07692659
        outSlope: -0.07692659
        tangentMode: 0
      - serializedVersion: 2
        time: 1.966667
        value: -0.6928512
        inSlope: 0
        outSlope: 0
        tangentMode: 0
      m_PreInfinity: 2
      m_PostInfinity: 2
      m_RotationOrder: 4
    attribute: m_LocalRotation.x
    path: Rig/Root/Body/Fin_02_R
    classID: 4
    script: {fileID: 0}
  - curve:
      serializedVersion: 2
      m_Curve:
      - serializedVersion: 2
        time: 0
        value: -0.3539137
        inSlope: -0.00677973
        outSlope: -0.00677973
        tangentMode: 0
      - serializedVersion: 2
        time: 0.8000001
        value: -0.4347135
        inSlope: -0.08243188
        outSlope: -0.08243188
        tangentMode: 0
      - serializedVersion: 2
        time: 1.566667
        value: -0.3910761
        inSlope: 0.1322909
        outSlope: 0.1322909
        tangentMode: 0
      - serializedVersion: 2
        time: 1.966667
        value: -0.354592
        inSlope: 0
        outSlope: 0
        tangentMode: 0
      m_PreInfinity: 2
      m_PostInfinity: 2
      m_RotationOrder: 4
    attribute: m_LocalRotation.y
    path: Rig/Root/Body/Fin_02_R
    classID: 4
    script: {fileID: 0}
  - curve:
      serializedVersion: 2
      m_Curve:
      - serializedVersion: 2
        time: 0
        value: -0.3437302
        inSlope: 0.005130171
        outSlope: 0.005130171
        tangentMode: 0
      - serializedVersion: 2
        time: 0.8000001
        value: -0.4029866
        inSlope: -0.06155893
        outSlope: -0.06155893
        tangentMode: 0
      - serializedVersion: 2
        time: 1.566667
        value: -0.3702281
        inSlope: 0.09981028
        outSlope: 0.09981028
        tangentMode: 0
      - serializedVersion: 2
        time: 1.966667
        value: -0.3430924
        inSlope: 0
        outSlope: 0
        tangentMode: 0
      m_PreInfinity: 2
      m_PostInfinity: 2
      m_RotationOrder: 4
    attribute: m_LocalRotation.z
    path: Rig/Root/Body/Fin_02_R
    classID: 4
    script: {fileID: 0}
  - curve:
      serializedVersion: 2
      m_Curve:
      - serializedVersion: 2
        time: 0
        value: 0.5248165
        inSlope: 0.003358125
        outSlope: 0.003358125
        tangentMode: 0
      - serializedVersion: 2
        time: 0.8000001
        value: 0.4818881
        inSlope: -0.05145192
        outSlope: -0.05145192
        tangentMode: 0
      - serializedVersion: 2
        time: 1.566667
        value: 0.5074894
        inSlope: 0.0728246
        outSlope: 0.0728246
        tangentMode: 0
      - serializedVersion: 2
        time: 1.966667
        value: 0.5258415
        inSlope: 0
        outSlope: 0
        tangentMode: 0
      m_PreInfinity: 2
      m_PostInfinity: 2
      m_RotationOrder: 4
    attribute: m_LocalRotation.w
    path: Rig/Root/Body/Fin_02_R
    classID: 4
    script: {fileID: 0}
  - curve:
      serializedVersion: 2
      m_Curve:
      - serializedVersion: 2
        time: 0
        value: 0.5179248
        inSlope: 0.3254038
        outSlope: 0.3254038
        tangentMode: 0
      - serializedVersion: 2
        time: 0.4666667
        value: 0.5817666
        inSlope: -0.09466237
        outSlope: -0.09466237
        tangentMode: 0
      - serializedVersion: 2
        time: 0.9333334
        value: 0.4493546
        inSlope: -0.4004212
        outSlope: -0.4004212
        tangentMode: 0
      - serializedVersion: 2
        time: 1.466667
        value: 0.3368021
        inSlope: 0.1460609
        outSlope: 0.1460609
        tangentMode: 0
      - serializedVersion: 2
        time: 1.933333
        value: 0.4942754
        inSlope: 0.3709747
        outSlope: 0.3709747
        tangentMode: 0
      - serializedVersion: 2
        time: 1.966667
        value: 0.5063961
        inSlope: 0
        outSlope: 0
        tangentMode: 0
      m_PreInfinity: 2
      m_PostInfinity: 2
      m_RotationOrder: 4
    attribute: m_LocalRotation.x
    path: Rig/Root/Body/Tail_01
    classID: 4
    script: {fileID: 0}
  - curve:
      serializedVersion: 2
      m_Curve:
      - serializedVersion: 2
        time: 0
        value: 0.5680768
        inSlope: 0.1222587
        outSlope: 0.1222587
        tangentMode: 0
      - serializedVersion: 2
        time: 0.4666667
        value: 0.574019
        inSlope: -0.1178071
        outSlope: -0.1178071
        tangentMode: 0
      - serializedVersion: 2
        time: 0.9333334
        value: 0.4940864
        inSlope: -0.1762167
        outSlope: -0.1762167
        tangentMode: 0
      - serializedVersion: 2
        time: 1.466667
        value: 0.4755017
        inSlope: 0.1491508
        outSlope: 0.1491508
        tangentMode: 0
      - serializedVersion: 2
        time: 1.933333
        value: 0.5587268
        inSlope: 0.151069
        outSlope: 0.151069
        tangentMode: 0
      - serializedVersion: 2
        time: 1.966667
        value: 0.5635908
        inSlope: 0
        outSlope: 0
        tangentMode: 0
      m_PreInfinity: 2
      m_PostInfinity: 2
      m_RotationOrder: 4
    attribute: m_LocalRotation.y
    path: Rig/Root/Body/Tail_01
    classID: 4
    script: {fileID: 0}
  - curve:
      serializedVersion: 2
      m_Curve:
      - serializedVersion: 2
        time: 0
        value: -0.4210574
        inSlope: 0.1666376
        outSlope: 0.1666376
        tangentMode: 0
      - serializedVersion: 2
        time: 0.4666667
        value: -0.4129198
        inSlope: -0.1635925
        outSlope: -0.1635925
        tangentMode: 0
      - serializedVersion: 2
        time: 0.9333334
        value: -0.5058451
        inSlope: -0.172226
        outSlope: -0.172226
        tangentMode: 0
      - serializedVersion: 2
        time: 1.466667
        value: -0.5233533
        inSlope: 0.1356526
        outSlope: 0.1356526
        tangentMode: 0
      - serializedVersion: 2
        time: 1.933333
        value: -0.4333877
        inSlope: 0.1946348
        outSlope: 0.1946348
        tangentMode: 0
      - serializedVersion: 2
        time: 1.966667
        value: -0.4270433
        inSlope: 0
        outSlope: 0
        tangentMode: 0
      m_PreInfinity: 2
      m_PostInfinity: 2
      m_RotationOrder: 4
    attribute: m_LocalRotation.z
    path: Rig/Root/Body/Tail_01
    classID: 4
    script: {fileID: 0}
  - curve:
      serializedVersion: 2
      m_Curve:
      - serializedVersion: 2
        time: 0
        value: -0.4814076
        inSlope: 0.3581947
        outSlope: 0.3581947
        tangentMode: 0
      - serializedVersion: 2
        time: 0.4666667
        value: -0.4019292
        inSlope: -0.1366296
        outSlope: -0.1366296
        tangentMode: 0
      - serializedVersion: 2
        time: 0.9333334
        value: -0.5459669
        inSlope: -0.3296927
        outSlope: -0.3296927
        tangentMode: 0
      - serializedVersion: 2
        time: 1.466667
        value: -0.6217425
        inSlope: 0.07937184
        outSlope: 0.07937184
        tangentMode: 0
      - serializedVersion: 2
        time: 1.933333
        value: -0.5056592
        inSlope: 0.3624828
        outSlope: 0.3624828
        tangentMode: 0
      - serializedVersion: 2
        time: 1.966667
        value: -0.4935205
        inSlope: 0
        outSlope: 0
        tangentMode: 0
      m_PreInfinity: 2
      m_PostInfinity: 2
      m_RotationOrder: 4
    attribute: m_LocalRotation.w
    path: Rig/Root/Body/Tail_01
    classID: 4
    script: {fileID: 0}
  - curve:
      serializedVersion: 2
      m_Curve:
      - serializedVersion: 2
        time: 0
        value: 0.1001637
        inSlope: -0.5647044
        outSlope: -0.5647044
        tangentMode: 0
      - serializedVersion: 2
        time: 0.3666667
        value: -0.1179962
        inSlope: -0.5173795
        outSlope: -0.5173795
        tangentMode: 0
      - serializedVersion: 2
        time: 0.7666667
        value: -0.1943861
        inSlope: 0.2154476
        outSlope: 0.2154476
        tangentMode: 0
      - serializedVersion: 2
        time: 1.2
        value: 0.02084393
        inSlope: 0.6222459
        outSlope: 0.6222459
        tangentMode: 0
      - serializedVersion: 2
        time: 1.766667
        value: 0.1943863
        inSlope: -0.2154471
        outSlope: -0.2154471
        tangentMode: 0
      - serializedVersion: 2
        time: 1.966667
        value: 0.1179964
        inSlope: 0
        outSlope: 0
        tangentMode: 0
      m_PreInfinity: 2
      m_PostInfinity: 2
      m_RotationOrder: 4
    attribute: m_LocalRotation.x
    path: Rig/Root/Body/Tail_01/Tail_02
    classID: 4
    script: {fileID: 0}
  - curve:
      serializedVersion: 2
      m_Curve:
      - serializedVersion: 2
        time: 0
        value: -0.05267348
        inSlope: 0.2961457
        outSlope: 0.2961457
        tangentMode: 0
      - serializedVersion: 2
        time: 0.3666667
        value: 0.06200619
        inSlope: 0.270454
        outSlope: 0.270454
        tangentMode: 0
      - serializedVersion: 2
        time: 0.7666667
        value: 0.1016775
        inSlope: -0.1110294
        outSlope: -0.1110294
        tangentMode: 0
      - serializedVersion: 2
        time: 1.2
        value: -0.01098065
        inSlope: -0.3277291
        outSlope: -0.3277291
        tangentMode: 0
      - serializedVersion: 2
        time: 1.766667
        value: -0.1016773
        inSlope: 0.1110304
        outSlope: 0.1110304
        tangentMode: 0
      - serializedVersion: 2
        time: 1.966667
        value: -0.06200594
        inSlope: 0
        outSlope: 0
        tangentMode: 0
      m_PreInfinity: 2
      m_PostInfinity: 2
      m_RotationOrder: 4
    attribute: m_LocalRotation.y
    path: Rig/Root/Body/Tail_01/Tail_02
    classID: 4
    script: {fileID: 0}
  - curve:
      serializedVersion: 2
      m_Curve:
      - serializedVersion: 2
        time: 0
        value: 0.1081718
        inSlope: -0.0538221
        outSlope: -0.0538221
        tangentMode: 0
      - serializedVersion: 2
        time: 0.3666667
        value: 0.1102223
        inSlope: 0.06416982
        outSlope: 0.06416982
        tangentMode: 0
      - serializedVersion: 2
        time: 0.7666667
        value: 0.1229812
        inSlope: -0.04508063
        outSlope: -0.04508063
        tangentMode: 0
      - serializedVersion: 2
        time: 1.2
        value: 0.1031471
        inSlope: 0.01345397
        outSlope: 0.01345397
        tangentMode: 0
      - serializedVersion: 2
        time: 1.766667
        value: 0.1229812
        inSlope: -0.04508083
        outSlope: -0.04508083
        tangentMode: 0
      - serializedVersion: 2
        time: 1.966667
        value: 0.1102223
        inSlope: 0
        outSlope: 0
        tangentMode: 0
      m_PreInfinity: 2
      m_PostInfinity: 2
      m_RotationOrder: 4
    attribute: m_LocalRotation.z
    path: Rig/Root/Body/Tail_01/Tail_02
    classID: 4
    script: {fileID: 0}
  - curve:
      serializedVersion: 2
      m_Curve:
      - serializedVersion: 2
        time: 0
        value: 0.9876698
        inSlope: 0.07196008
        outSlope: 0.07196008
        tangentMode: 0
      - serializedVersion: 2
        time: 0.3666667
        value: 0.984928
        inSlope: -0.08581099
        outSlope: -0.08581099
        tangentMode: 0
      - serializedVersion: 2
        time: 0.7666667
        value: 0.9678592
        inSlope: 0.06033356
        outSlope: 0.06033356
        tangentMode: 0
      - serializedVersion: 2
        time: 1.2
        value: 0.994387
        inSlope: -0.01798423
        outSlope: -0.01798423
        tangentMode: 0
      - serializedVersion: 2
        time: 1.766667
        value: 0.9678591
        inSlope: 0.06033278
        outSlope: 0.06033278
        tangentMode: 0
      - serializedVersion: 2
        time: 1.966667
        value: 0.984928
        inSlope: 0
        outSlope: 0
        tangentMode: 0
      m_PreInfinity: 2
      m_PostInfinity: 2
      m_RotationOrder: 4
    attribute: m_LocalRotation.w
    path: Rig/Root/Body/Tail_01/Tail_02
    classID: 4
    script: {fileID: 0}
  m_Events:
