%YAML 1.1
%TAG !u! tag:unity3d.com,2011:
--- !u!74 &7400000
AnimationClip:
  m_ObjectHideFlags: 0
  m_PrefabParentObject: {fileID: 0}
  m_PrefabInternal: {fileID: 0}
  m_Name: "DiveBoard"
  serializedVersion: 6
  m_Legacy: 1
  m_Compressed: 0
  m_UseHighQualityCurve: 1
  m_RotationCurves:
  - curve:
      serializedVersion: 2
      m_Curve:
      - serializedVersion: 3
        time: 0
        value: {x: 0, y: 0, z: 0, w: 1}
        inSlope: {x: -1.295047, y: 0, z: 0, w: -0.0139761}
        outSlope: {x: -1.295047, y: 0, z: 0, w: -0.0139761}
        weightedMode: 0
        inWeight: {x: 0.3333333, y: 0.3333333, z: 0.3333333, w: 0.3333333}
        outWeight: {x: 0.3333333, y: 0.3333333, z: 0.3333333, w: 0.3333333}
      - serializedVersion: 3
        time: 0.01666667
        value: {x: -0.02158412, y: 0, z: 0, w: 0.9997671}
        inSlope: {x: -1.159569, y: 0, z: 0, w: -0.0224179}
        outSlope: {x: -1.159569, y: 0, z: 0, w: -0.0224179}
        weightedMode: 0
        inWeight: {x: 0.3333333, y: 0.3333333, z: 0.3333333, w: 0.3333333}
        outWeight: {x: 0.3333333, y: 0.3333333, z: 0.3333333, w: 0.3333333}
      - serializedVersion: 3
        time: 0.03333334
        value: {x: -0.03865229, y: 0, z: 0, w: 0.9992527}
        inSlope: {x: -0.8837122, y: 0, z: 0, w: -0.03211498}
        outSlope: {x: -0.8837122, y: 0, z: 0, w: -0.03211498}
        weightedMode: 0
        inWeight: {x: 0.3333333, y: 0.3333333, z: 0.3333333, w: 0.3333333}
        outWeight: {x: 0.3333333, y: 0.3333333, z: 0.3333333, w: 0.3333333}
      - serializedVersion: 3
        time: 0.05
        value: {x: -0.0510412, y: 0, z: 0, w: 0.9986966}
        inSlope: {x: -0.5981815, y: 0, z: 0, w: -0.02912164}
        outSlope: {x: -0.5981815, y: 0, z: 0, w: -0.02912164}
        weightedMode: 0
        inWeight: {x: 0.3333333, y: 0.3333333, z: 0.3333333, w: 0.3333333}
        outWeight: {x: 0.3333333, y: 0.3333333, z: 0.3333333, w: 0.3333333}
      - serializedVersion: 3
        time: 0.06666667
        value: {x: -0.05859168, y: 0, z: 0, w: 0.998282}
        inSlope: {x: -0.3030947, y: 0, z: 0, w: -0.01702845}
        outSlope: {x: -0.3030947, y: 0, z: 0, w: -0.01702845}
        weightedMode: 0
        inWeight: {x: 0.3333333, y: 0.3333333, z: 0.3333333, w: 0.3333333}
        outWeight: {x: 0.3333333, y: 0.3333333, z: 0.3333333, w: 0.3333333}
      - serializedVersion: 3
        time: 0.08333334
        value: {x: -0.06114436, y: 0, z: 0, w: 0.998129}
        inSlope: {x: 0.1262675, y: 0, z: 0, w: 0.007143617}
        outSlope: {x: 0.1262675, y: 0, z: 0, w: 0.007143617}
        weightedMode: 0
        inWeight: {x: 0.3333333, y: 0.3333333, z: 0.3333333, w: 0.3333333}
        outWeight: {x: 0.3333333, y: 0.3333333, z: 0.3333333, w: 0.3333333}
      - serializedVersion: 3
        time: 0.1
        value: {x: -0.05438276, y: 0, z: 0, w: 0.9985201}
        inSlope: {x: 0.7263048, y: 0, z: 0, w: 0.03566265}
        outSlope: {x: 0.7263048, y: 0, z: 0, w: 0.03566265}
        weightedMode: 0
        inWeight: {x: 0.3333333, y: 0.3333333, z: 0.3333333, w: 0.3333333}
        outWeight: {x: 0.3333333, y: 0.3333333, z: 0.3333333, w: 0.3333333}
      - serializedVersion: 3
        time: 0.1166667
        value: {x: -0.0369342, y: 0, z: 0, w: 0.9993177}
        inSlope: {x: 1.23972, y: 0, z: 0, w: 0.04183709}
        outSlope: {x: 1.23972, y: 0, z: 0, w: 0.04183709}
        weightedMode: 0
        inWeight: {x: 0.3333333, y: 0.3333333, z: 0.3333333, w: 0.3333333}
        outWeight: {x: 0.3333333, y: 0.3333333, z: 0.3333333, w: 0.3333333}
      - serializedVersion: 3
        time: 0.1333333
        value: {x: -0.01305876, y: 0, z: 0, w: 0.9999147}
        inSlope: {x: 1.496909, y: 0, z: 0, w: 0.01794755}
        outSlope: {x: 1.496909, y: 0, z: 0, w: 0.01794755}
        weightedMode: 0
        inWeight: {x: 0.3333333, y: 0.3333333, z: 0.3333333, w: 0.3333333}
        outWeight: {x: 0.3333333, y: 0.3333333, z: 0.3333333, w: 0.3333333}
      - serializedVersion: 3
        time: 0.15
        value: {x: 0.01296278, y: 0, z: 0, w: 0.999916}
        inSlope: {x: 1.496911, y: 0, z: 0, w: -0.01780451}
        outSlope: {x: 1.496911, y: 0, z: 0, w: -0.01780451}
        weightedMode: 0
        inWeight: {x: 0.3333333, y: 0.3333333, z: 0.3333333, w: 0.3333333}
        outWeight: {x: 0.3333333, y: 0.3333333, z: 0.3333333, w: 0.3333333}
      - serializedVersion: 3
        time: 0.1666667
        value: {x: 0.03683826, y: 0, z: 0, w: 0.9993212}
        inSlope: {x: 1.239724, y: 0, z: 0, w: -0.04171729}
        outSlope: {x: 1.239724, y: 0, z: 0, w: -0.04171729}
        weightedMode: 0
        inWeight: {x: 0.3333333, y: 0.3333333, z: 0.3333333, w: 0.3333333}
        outWeight: {x: 0.3333333, y: 0.3333333, z: 0.3333333, w: 0.3333333}
      - serializedVersion: 3
        time: 0.1833333
        value: {x: 0.0542869, y: 0, z: 0, w: 0.9985254}
        inSlope: {x: 0.7263086, y: 0, z: 0, w: -0.03559292}
        outSlope: {x: 0.7263086, y: 0, z: 0, w: -0.03559292}
        weightedMode: 0
        inWeight: {x: 0.3333333, y: 0.3333333, z: 0.3333333, w: 0.3333333}
        outWeight: {x: 0.3333333, y: 0.3333333, z: 0.3333333, w: 0.3333333}
      - serializedVersion: 3
        time: 0.2
        value: {x: 0.06104854, y: 0, z: 0, w: 0.9981348}
        inSlope: {x: -0.04179642, y: 0, z: 0, w: 0.002242327}
        outSlope: {x: -0.04179642, y: 0, z: 0, w: 0.002242327}
        weightedMode: 0
        inWeight: {x: 0.3333333, y: 0.3333333, z: 0.3333333, w: 0.3333333}
        outWeight: {x: 0.3333333, y: 0.3333333, z: 0.3333333, w: 0.3333333}
      - serializedVersion: 3
        time: 0.2166667
        value: {x: 0.05289369, y: 0, z: 0, w: 0.9986001}
        inSlope: {x: -0.828428, y: 0, z: 0, w: 0.0391835}
        outSlope: {x: -0.828428, y: 0, z: 0, w: 0.0391835}
        weightedMode: 0
        inWeight: {x: 0.3333333, y: 0.3333333, z: 0.3333333, w: 0.3333333}
        outWeight: {x: 0.3333333, y: 0.3333333, z: 0.3333333, w: 0.3333333}
      - serializedVersion: 3
        time: 0.2333333
        value: {x: 0.03343428, y: 0, z: 0, w: 0.9994409}
        inSlope: {x: -1.281034, y: 0, z: 0, w: 0.04043877}
        outSlope: {x: -1.281034, y: 0, z: 0, w: 0.04043877}
        weightedMode: 0
        inWeight: {x: 0.3333333, y: 0.3333333, z: 0.3333333, w: 0.3333333}
        outWeight: {x: 0.3333333, y: 0.3333333, z: 0.3333333, w: 0.3333333}
      - serializedVersion: 3
        time: 0.25
        value: {x: 0.01019255, y: 0, z: 0, w: 0.9999481}
        inSlope: {x: -1.281579, y: 0, z: 0, w: 0.01547992}
        outSlope: {x: -1.281579, y: 0, z: 0, w: 0.01547992}
        weightedMode: 0
        inWeight: {x: 0.3333333, y: 0.3333333, z: 0.3333333, w: 0.3333333}
        outWeight: {x: 0.3333333, y: 0.3333333, z: 0.3333333, w: 0.3333333}
      - serializedVersion: 3
        time: 0.2666667
        value: {x: -0.009285036, y: 0, z: 0, w: 0.9999569}
        inSlope: {x: -0.8293479, y: 0, z: 0, w: -0.003011224}
        outSlope: {x: -0.8293479, y: 0, z: 0, w: -0.003011224}
        weightedMode: 0
        inWeight: {x: 0.3333333, y: 0.3333333, z: 0.3333333, w: 0.3333333}
        outWeight: {x: 0.3333333, y: 0.3333333, z: 0.3333333, w: 0.3333333}
      - serializedVersion: 3
        time: 0.2833334
        value: {x: -0.01745241, y: 0, z: 0, w: 0.9998477}
        inSlope: {x: -0.1223166, y: 0, z: 0, w: -0.001385807}
        outSlope: {x: -0.1223166, y: 0, z: 0, w: -0.001385807}
        weightedMode: 0
        inWeight: {x: 0.3333333, y: 0.3333333, z: 0.3333333, w: 0.3333333}
        outWeight: {x: 0.3333333, y: 0.3333333, z: 0.3333333, w: 0.3333333}
      - serializedVersion: 3
        time: 0.3
        value: {x: -0.01336226, y: 0, z: 0, w: 0.9999107}
        inSlope: {x: 0.3926736, y: 0, z: 0, w: 0.00428259}
        outSlope: {x: 0.3926736, y: 0, z: 0, w: 0.00428259}
        weightedMode: 0
        inWeight: {x: 0.3333333, y: 0.3333333, z: 0.3333333, w: 0.3333333}
        outWeight: {x: 0.3333333, y: 0.3333333, z: 0.3333333, w: 0.3333333}
      - serializedVersion: 3
        time: 0.3166667
        value: {x: -0.004363276, y: 0, z: 0, w: 0.9999905}
        inSlope: {x: 0.5399487, y: 0, z: 0, w: 0.002356766}
        outSlope: {x: 0.5399487, y: 0, z: 0, w: 0.002356766}
        weightedMode: 0
        inWeight: {x: 0.3333333, y: 0.3333333, z: 0.3333333, w: 0.3333333}
        outWeight: {x: 0.3333333, y: 0.3333333, z: 0.3333333, w: 0.3333333}
      - serializedVersion: 3
        time: 0.3333334
        value: {x: 0.004636043, y: 0, z: 0, w: 0.9999893}
        inSlope: {x: 0.392694, y: 0, z: 0, w: -0.000856518}
        outSlope: {x: 0.392694, y: 0, z: 0, w: -0.000856518}
        weightedMode: 0
        inWeight: {x: 0.3333333, y: 0.3333333, z: 0.3333333, w: 0.3333333}
        outWeight: {x: 0.3333333, y: 0.3333333, z: 0.3333333, w: 0.3333333}
      - serializedVersion: 3
        time: 0.3500001
        value: {x: 0.008726535, y: 0, z: 0, w: 0.9999619}
        inSlope: {x: 0.06082785, y: 0, z: 0, w: -0.0003433225}
        outSlope: {x: 0.06082785, y: 0, z: 0, w: -0.0003433225}
        weightedMode: 0
        inWeight: {x: 0.3333333, y: 0.3333333, z: 0.3333333, w: 0.3333333}
        outWeight: {x: 0.3333333, y: 0.3333333, z: 0.3333333, w: 0.3333333}
      - serializedVersion: 3
        time: 0.3666668
        value: {x: 0.00666364, y: 0, z: 0, w: 0.9999778}
        inSlope: {x: -0.2617958, y: 0, z: 0, w: 0.00114262}
        outSlope: {x: -0.2617958, y: 0, z: 0, w: 0.00114262}
        weightedMode: 0
        inWeight: {x: 0.3333333, y: 0.3333333, z: 0.3333333, w: 0.3333333}
        outWeight: {x: 0.3333333, y: 0.3333333, z: 0.3333333, w: 0.3333333}
      - serializedVersion: 3
        time: 0.3833334
        value: {x: 0, y: 0, z: 0, w: 1}
        inSlope: {x: -0.199909, y: 0, z: 0, w: 0.0006651873}
        outSlope: {x: -0.199909, y: 0, z: 0, w: 0.0006651873}
        weightedMode: 0
        inWeight: {x: 0.3333333, y: 0.3333333, z: 0.3333333, w: 0.3333333}
        outWeight: {x: 0.3333333, y: 0.3333333, z: 0.3333333, w: 0.3333333}
      - serializedVersion: 3
        time: 0.4000001
        value: {x: 0, y: 0, z: 0, w: 1}
        inSlope: {x: 0, y: 0, z: 0, w: 0}
        outSlope: {x: 0, y: 0, z: 0, w: 0}
        weightedMode: 0
        inWeight: {x: 0.3333333, y: 0.3333333, z: 0.3333333, w: 0.3333333}
        outWeight: {x: 0.3333333, y: 0.3333333, z: 0.3333333, w: 0.3333333}
      - serializedVersion: 3
        time: 0.4166667
        value: {x: 0, y: 0, z: 0, w: 1}
        inSlope: {x: 0, y: 0, z: 0, w: 0}
        outSlope: {x: 0, y: 0, z: 0, w: 0}
        weightedMode: 0
        inWeight: {x: 0.3333333, y: 0.3333333, z: 0.3333333, w: 0.3333333}
        outWeight: {x: 0.3333333, y: 0.3333333, z: 0.3333333, w: 0.3333333}
      m_PreInfinity: 2
      m_PostInfinity: 2
      m_RotationOrder: 4
    path: 
  m_CompressedRotationCurves: []
  m_EulerCurves:
  m_PositionCurves:
  m_ScaleCurves:
  m_FloatCurves:
  m_PPtrCurves:
  m_SampleRate: 60
  m_WrapMode: 0
  m_Bounds:
    m_Center: {x: 0, y: 0, z: 0}
    m_Extent: {x: 0, y: 0, z: 0}
  m_MuscleClipSize: 0
  m_MuscleClip:
    serializedVersion: 3
    m_DeltaPose:
      m_RootX:
        t: {x: 0, y: 0, z: 0}
        q: {x: 0, y: 0, z: 0, w: 1}
        s: {x: 1, y: 1, z: 1}
      m_LookAtPosition: {x: 0, y: 0, z: 0}
      m_LookAtWeight: {x: 0, y: 0, z: 0, w: 0}
      m_GoalArray:
      - m_X:
          t: {x: 0, y: 0, z: 0}
          q: {x: 0, y: 0, z: 0, w: 1}
          s: {x: 1, y: 1, z: 1}
          m_Weight: 
          m_WeightR: 0
          m_HintT: {x: 0, y: 0, z: 0}
          m_HintWeightT: 0
      - m_X:
          t: {x: 0, y: 0, z: 0}
          q: {x: 0, y: 0, z: 0, w: 1}
          s: {x: 1, y: 1, z: 1}
          m_Weight: 
          m_WeightR: 0
          m_HintT: {x: 0, y: 0, z: 0}
          m_HintWeightT: 0
      - m_X:
          t: {x: 0, y: 0, z: 0}
          q: {x: 0, y: 0, z: 0, w: 1}
          s: {x: 1, y: 1, z: 1}
          m_Weight: 
          m_WeightR: 0
          m_HintT: {x: 0, y: 0, z: 0}
          m_HintWeightT: 0
      - m_X:
          t: {x: 0, y: 0, z: 0}
          q: {x: 0, y: 0, z: 0, w: 1}
          s: {x: 1, y: 1, z: 1}
          m_Weight: 
          m_WeightR: 0
          m_HintT: {x: 0, y: 0, z: 0}
          m_HintWeightT: 0
      m_LeftHandPose:
        m_GrabX:
          t: {x: 0, y: 0, z: 0}
          q: {x: 0, y: 0, z: 0, w: 1}
          s: {x: 1, y: 1, z: 1}
        m_DoFArray:
        - 0
        - 0
        - 0
        - 0
        - 0
        - 0
        - 0
        - 0
        - 0
        - 0
        - 0
        - 0
        - 0
        - 0
        - 0
        - 0
        - 0
        - 0
        - 0
        - 0
        m_Override: 0
        m_CloseOpen: 0
        m_InOut: 0
        m_Grab: 0
      m_RightHandPose:
        m_GrabX:
          t: {x: 0, y: 0, z: 0}
          q: {x: 0, y: 0, z: 0, w: 1}
          s: {x: 1, y: 1, z: 1}
        m_DoFArray:
        - 0
        - 0
        - 0
        - 0
        - 0
        - 0
        - 0
        - 0
        - 0
        - 0
        - 0
        - 0
        - 0
        - 0
        - 0
        - 0
        - 0
        - 0
        - 0
        - 0
        m_Override: 0
        m_CloseOpen: 0
        m_InOut: 0
        m_Grab: 0
      m_DoFArray:
        - 0
        - 0
        - 0
        - 0
        - 0
        - 0
        - 0
        - 0
        - 0
        - 0
        - 0
        - 0
        - 0
        - 0
        - 0
        - 0
        - 0
        - 0
        - 0
        - 0
        - 0
        - 0
        - 0
        - 0
        - 0
        - 0
        - 0
        - 0
        - 0
        - 0
        - 0
        - 0
        - 0
        - 0
        - 0
        - 0
        - 0
        - 0
        - 0
        - 0
        - 0
        - 0
        - 0
        - 0
        - 0
        - 0
        - 0
        - 0
        - 0
        - 0
        - 0
        - 0
        - 0
        - 0
        - 0
      m_TDoFArray:
      - x: 0
        y: 0
        z: 0
      - x: 0
        y: 0
        z: 0
      - x: 0
        y: 0
        z: 0
      - x: 0
        y: 0
        z: 0
      - x: 0
        y: 0
        z: 0
      - x: 0
        y: 0
        z: 0
      - x: 0
        y: 0
        z: 0
      - x: 0
        y: 0
        z: 0
      - x: 0
        y: 0
        z: 0
      - x: 0
        y: 0
        z: 0
      - x: 0
        y: 0
        z: 0
      - x: 0
        y: 0
        z: 0
      - x: 0
        y: 0
        z: 0
      - x: 0
        y: 0
        z: 0
      - x: 0
        y: 0
        z: 0
      - x: 0
        y: 0
        z: 0
      - x: 0
        y: 0
        z: 0
      - x: 0
        y: 0
        z: 0
      - x: 0
        y: 0
        z: 0
      - x: 0
        y: 0
        z: 0
      - x: 0
        y: 0
        z: 0
    m_StartX:
      t: {x: 0, y: 0, z: 0}
      q: {x: 0, y: 0, z: 0, w: 1}
      s: {x: 1, y: 1, z: 1}
    m_StopX:
      t: {x: 0, y: 0, z: 0}
      q: {x: 0, y: 0, z: 0, w: 1}
      s: {x: 1, y: 1, z: 1}
    m_LeftFootStartX:
      t: {x: 0, y: 0, z: 0}
      q: {x: 0, y: 0, z: 0, w: 1}
      s: {x: 1, y: 1, z: 1}
    m_RightFootStartX:
      t: {x: 0, y: 0, z: 0}
      q: {x: 0, y: 0, z: 0, w: 1}
      s: {x: 1, y: 1, z: 1}
    m_AverageSpeed: {x: 0, y: 0, z: 0}
  m_ClipBindingConstant:
    genericBindings:
    pptrCurveMapping:
  m_AnimationClipSettings:
    serializedVersion: 2
    m_AdditiveReferencePoseClip: {fileID: 0}
    m_AdditiveReferencePoseTime: 
    m_StartTime: 0
    m_StopTime: 1
    m_OrientationOffsetY: 0
    m_Level: 0
    m_CycleOffset: 0
    m_HasAdditiveReferencePose: 
    m_LoopTime: 0
    m_LoopBlend: 0
    m_LoopBlendOrientation: 0
    m_LoopBlendPositionY: 0
    m_LoopBlendPositionXZ: 0
    m_KeepOriginalOrientation: 0
    m_KeepOriginalPositionY: 1
    m_KeepOriginalPositionXZ: 0
    m_HeightFromFeet: 0
    m_Mirror: 0
    m_HasGenericRootTransform: 0
    m_HasMotionFloatCurves: 0
    m_GenerateMotionCurves: 0
  m_EditorCurves:
  - curve:
      serializedVersion: 2
      m_Curve:
      - serializedVersion: 2
        time: 0
        value: 0
        inSlope: -1.295047
        outSlope: -1.295047
        tangentMode: 0
      - serializedVersion: 2
        time: 0.01666667
        value: -0.02158412
        inSlope: -1.159569
        outSlope: -1.159569
        tangentMode: 0
      - serializedVersion: 2
        time: 0.03333334
        value: -0.03865229
        inSlope: -0.8837122
        outSlope: -0.8837122
        tangentMode: 0
      - serializedVersion: 2
        time: 0.05
        value: -0.0510412
        inSlope: -0.5981815
        outSlope: -0.5981815
        tangentMode: 0
      - serializedVersion: 2
        time: 0.06666667
        value: -0.05859168
        inSlope: -0.3030947
        outSlope: -0.3030947
        tangentMode: 0
      - serializedVersion: 2
        time: 0.08333334
        value: -0.06114436
        inSlope: 0.1262675
        outSlope: 0.1262675
        tangentMode: 0
      - serializedVersion: 2
        time: 0.1
        value: -0.05438276
        inSlope: 0.7263048
        outSlope: 0.7263048
        tangentMode: 0
      - serializedVersion: 2
        time: 0.1166667
        value: -0.0369342
        inSlope: 1.23972
        outSlope: 1.23972
        tangentMode: 0
      - serializedVersion: 2
        time: 0.1333333
        value: -0.01305876
        inSlope: 1.496909
        outSlope: 1.496909
        tangentMode: 0
      - serializedVersion: 2
        time: 0.15
        value: 0.01296278
        inSlope: 1.496911
        outSlope: 1.496911
        tangentMode: 0
      - serializedVersion: 2
        time: 0.1666667
        value: 0.03683826
        inSlope: 1.239724
        outSlope: 1.239724
        tangentMode: 0
      - serializedVersion: 2
        time: 0.1833333
        value: 0.0542869
        inSlope: 0.7263086
        outSlope: 0.7263086
        tangentMode: 0
      - serializedVersion: 2
        time: 0.2
        value: 0.06104854
        inSlope: -0.04179642
        outSlope: -0.04179642
        tangentMode: 0
      - serializedVersion: 2
        time: 0.2166667
        value: 0.05289369
        inSlope: -0.828428
        outSlope: -0.828428
        tangentMode: 0
      - serializedVersion: 2
        time: 0.2333333
        value: 0.03343428
        inSlope: -1.281034
        outSlope: -1.281034
        tangentMode: 0
      - serializedVersion: 2
        time: 0.25
        value: 0.01019255
        inSlope: -1.281579
        outSlope: -1.281579
        tangentMode: 0
      - serializedVersion: 2
        time: 0.2666667
        value: -0.009285036
        inSlope: -0.8293479
        outSlope: -0.8293479
        tangentMode: 0
      - serializedVersion: 2
        time: 0.2833334
        value: -0.01745241
        inSlope: -0.1223166
        outSlope: -0.1223166
        tangentMode: 0
      - serializedVersion: 2
        time: 0.3
        value: -0.01336226
        inSlope: 0.3926736
        outSlope: 0.3926736
        tangentMode: 0
      - serializedVersion: 2
        time: 0.3166667
        value: -0.004363276
        inSlope: 0.5399487
        outSlope: 0.5399487
        tangentMode: 0
      - serializedVersion: 2
        time: 0.3333334
        value: 0.004636043
        inSlope: 0.392694
        outSlope: 0.392694
        tangentMode: 0
      - serializedVersion: 2
        time: 0.3500001
        value: 0.008726535
        inSlope: 0.06082785
        outSlope: 0.06082785
        tangentMode: 0
      - serializedVersion: 2
        time: 0.3666668
        value: 0.00666364
        inSlope: -0.2617958
        outSlope: -0.2617958
        tangentMode: 0
      - serializedVersion: 2
        time: 0.3833334
        value: 0
        inSlope: -0.199909
        outSlope: -0.199909
        tangentMode: 0
      - serializedVersion: 2
        time: 0.4000001
        value: 0
        inSlope: 0
        outSlope: 0
        tangentMode: 0
      - serializedVersion: 2
        time: 0.4166667
        value: 0
        inSlope: 0
        outSlope: 0
        tangentMode: 0
      m_PreInfinity: 2
      m_PostInfinity: 2
      m_RotationOrder: 4
    attribute: m_LocalRotation.x
    path: 
    classID: 4
    script: 
  - curve:
      serializedVersion: 2
      m_Curve:
      - serializedVersion: 2
        time: 0
        value: 0
        inSlope: 0
        outSlope: 0
        tangentMode: 0
      - serializedVersion: 2
        time: 0.01666667
        value: 0
        inSlope: 0
        outSlope: 0
        tangentMode: 0
      - serializedVersion: 2
        time: 0.03333334
        value: 0
        inSlope: 0
        outSlope: 0
        tangentMode: 0
      - serializedVersion: 2
        time: 0.05
        value: 0
        inSlope: 0
        outSlope: 0
        tangentMode: 0
      - serializedVersion: 2
        time: 0.06666667
        value: 0
        inSlope: 0
        outSlope: 0
        tangentMode: 0
      - serializedVersion: 2
        time: 0.08333334
        value: 0
        inSlope: 0
        outSlope: 0
        tangentMode: 0
      - serializedVersion: 2
        time: 0.1
        value: 0
        inSlope: 0
        outSlope: 0
        tangentMode: 0
      - serializedVersion: 2
        time: 0.1166667
        value: 0
        inSlope: 0
        outSlope: 0
        tangentMode: 0
      - serializedVersion: 2
        time: 0.1333333
        value: 0
        inSlope: 0
        outSlope: 0
        tangentMode: 0
      - serializedVersion: 2
        time: 0.15
        value: 0
        inSlope: 0
        outSlope: 0
        tangentMode: 0
      - serializedVersion: 2
        time: 0.1666667
        value: 0
        inSlope: 0
        outSlope: 0
        tangentMode: 0
      - serializedVersion: 2
        time: 0.1833333
        value: 0
        inSlope: 0
        outSlope: 0
        tangentMode: 0
      - serializedVersion: 2
        time: 0.2
        value: 0
        inSlope: 0
        outSlope: 0
        tangentMode: 0
      - serializedVersion: 2
        time: 0.2166667
        value: 0
        inSlope: 0
        outSlope: 0
        tangentMode: 0
      - serializedVersion: 2
        time: 0.2333333
        value: 0
        inSlope: 0
        outSlope: 0
        tangentMode: 0
      - serializedVersion: 2
        time: 0.25
        value: 0
        inSlope: 0
        outSlope: 0
        tangentMode: 0
      - serializedVersion: 2
        time: 0.2666667
        value: 0
        inSlope: 0
        outSlope: 0
        tangentMode: 0
      - serializedVersion: 2
        time: 0.2833334
        value: 0
        inSlope: 0
        outSlope: 0
        tangentMode: 0
      - serializedVersion: 2
        time: 0.3
        value: 0
        inSlope: 0
        outSlope: 0
        tangentMode: 0
      - serializedVersion: 2
        time: 0.3166667
        value: 0
        inSlope: 0
        outSlope: 0
        tangentMode: 0
      - serializedVersion: 2
        time: 0.3333334
        value: 0
        inSlope: 0
        outSlope: 0
        tangentMode: 0
      - serializedVersion: 2
        time: 0.3500001
        value: 0
        inSlope: 0
        outSlope: 0
        tangentMode: 0
      - serializedVersion: 2
        time: 0.3666668
        value: 0
        inSlope: 0
        outSlope: 0
        tangentMode: 0
      - serializedVersion: 2
        time: 0.3833334
        value: 0
        inSlope: 0
        outSlope: 0
        tangentMode: 0
      - serializedVersion: 2
        time: 0.4000001
        value: 0
        inSlope: 0
        outSlope: 0
        tangentMode: 0
      - serializedVersion: 2
        time: 0.4166667
        value: 0
        inSlope: 0
        outSlope: 0
        tangentMode: 0
      m_PreInfinity: 2
      m_PostInfinity: 2
      m_RotationOrder: 4
    attribute: m_LocalRotation.y
    path: 
    classID: 4
    script: 
  - curve:
      serializedVersion: 2
      m_Curve:
      - serializedVersion: 2
        time: 0
        value: 0
        inSlope: 0
        outSlope: 0
        tangentMode: 0
      - serializedVersion: 2
        time: 0.01666667
        value: 0
        inSlope: 0
        outSlope: 0
        tangentMode: 0
      - serializedVersion: 2
        time: 0.03333334
        value: 0
        inSlope: 0
        outSlope: 0
        tangentMode: 0
      - serializedVersion: 2
        time: 0.05
        value: 0
        inSlope: 0
        outSlope: 0
        tangentMode: 0
      - serializedVersion: 2
        time: 0.06666667
        value: 0
        inSlope: 0
        outSlope: 0
        tangentMode: 0
      - serializedVersion: 2
        time: 0.08333334
        value: 0
        inSlope: 0
        outSlope: 0
        tangentMode: 0
      - serializedVersion: 2
        time: 0.1
        value: 0
        inSlope: 0
        outSlope: 0
        tangentMode: 0
      - serializedVersion: 2
        time: 0.1166667
        value: 0
        inSlope: 0
        outSlope: 0
        tangentMode: 0
      - serializedVersion: 2
        time: 0.1333333
        value: 0
        inSlope: 0
        outSlope: 0
        tangentMode: 0
      - serializedVersion: 2
        time: 0.15
        value: 0
        inSlope: 0
        outSlope: 0
        tangentMode: 0
      - serializedVersion: 2
        time: 0.1666667
        value: 0
        inSlope: 0
        outSlope: 0
        tangentMode: 0
      - serializedVersion: 2
        time: 0.1833333
        value: 0
        inSlope: 0
        outSlope: 0
        tangentMode: 0
      - serializedVersion: 2
        time: 0.2
        value: 0
        inSlope: 0
        outSlope: 0
        tangentMode: 0
      - serializedVersion: 2
        time: 0.2166667
        value: 0
        inSlope: 0
        outSlope: 0
        tangentMode: 0
      - serializedVersion: 2
        time: 0.2333333
        value: 0
        inSlope: 0
        outSlope: 0
        tangentMode: 0
      - serializedVersion: 2
        time: 0.25
        value: 0
        inSlope: 0
        outSlope: 0
        tangentMode: 0
      - serializedVersion: 2
        time: 0.2666667
        value: 0
        inSlope: 0
        outSlope: 0
        tangentMode: 0
      - serializedVersion: 2
        time: 0.2833334
        value: 0
        inSlope: 0
        outSlope: 0
        tangentMode: 0
      - serializedVersion: 2
        time: 0.3
        value: 0
        inSlope: 0
        outSlope: 0
        tangentMode: 0
      - serializedVersion: 2
        time: 0.3166667
        value: 0
        inSlope: 0
        outSlope: 0
        tangentMode: 0
      - serializedVersion: 2
        time: 0.3333334
        value: 0
        inSlope: 0
        outSlope: 0
        tangentMode: 0
      - serializedVersion: 2
        time: 0.3500001
        value: 0
        inSlope: 0
        outSlope: 0
        tangentMode: 0
      - serializedVersion: 2
        time: 0.3666668
        value: 0
        inSlope: 0
        outSlope: 0
        tangentMode: 0
      - serializedVersion: 2
        time: 0.3833334
        value: 0
        inSlope: 0
        outSlope: 0
        tangentMode: 0
      - serializedVersion: 2
        time: 0.4000001
        value: 0
        inSlope: 0
        outSlope: 0
        tangentMode: 0
      - serializedVersion: 2
        time: 0.4166667
        value: 0
        inSlope: 0
        outSlope: 0
        tangentMode: 0
      m_PreInfinity: 2
      m_PostInfinity: 2
      m_RotationOrder: 4
    attribute: m_LocalRotation.z
    path: 
    classID: 4
    script: 
  - curve:
      serializedVersion: 2
      m_Curve:
      - serializedVersion: 2
        time: 0
        value: 1
        inSlope: -0.0139761
        outSlope: -0.0139761
        tangentMode: 0
      - serializedVersion: 2
        time: 0.01666667
        value: 0.9997671
        inSlope: -0.0224179
        outSlope: -0.0224179
        tangentMode: 0
      - serializedVersion: 2
        time: 0.03333334
        value: 0.9992527
        inSlope: -0.03211498
        outSlope: -0.03211498
        tangentMode: 0
      - serializedVersion: 2
        time: 0.05
        value: 0.9986966
        inSlope: -0.02912164
        outSlope: -0.02912164
        tangentMode: 0
      - serializedVersion: 2
        time: 0.06666667
        value: 0.998282
        inSlope: -0.01702845
        outSlope: -0.01702845
        tangentMode: 0
      - serializedVersion: 2
        time: 0.08333334
        value: 0.998129
        inSlope: 0.007143617
        outSlope: 0.007143617
        tangentMode: 0
      - serializedVersion: 2
        time: 0.1
        value: 0.9985201
        inSlope: 0.03566265
        outSlope: 0.03566265
        tangentMode: 0
      - serializedVersion: 2
        time: 0.1166667
        value: 0.9993177
        inSlope: 0.04183709
        outSlope: 0.04183709
        tangentMode: 0
      - serializedVersion: 2
        time: 0.1333333
        value: 0.9999147
        inSlope: 0.01794755
        outSlope: 0.01794755
        tangentMode: 0
      - serializedVersion: 2
        time: 0.15
        value: 0.999916
        inSlope: -0.01780451
        outSlope: -0.01780451
        tangentMode: 0
      - serializedVersion: 2
        time: 0.1666667
        value: 0.9993212
        inSlope: -0.04171729
        outSlope: -0.04171729
        tangentMode: 0
      - serializedVersion: 2
        time: 0.1833333
        value: 0.9985254
        inSlope: -0.03559292
        outSlope: -0.03559292
        tangentMode: 0
      - serializedVersion: 2
        time: 0.2
        value: 0.9981348
        inSlope: 0.002242327
        outSlope: 0.002242327
        tangentMode: 0
      - serializedVersion: 2
        time: 0.2166667
        value: 0.9986001
        inSlope: 0.0391835
        outSlope: 0.0391835
        tangentMode: 0
      - serializedVersion: 2
        time: 0.2333333
        value: 0.9994409
        inSlope: 0.04043877
        outSlope: 0.04043877
        tangentMode: 0
      - serializedVersion: 2
        time: 0.25
        value: 0.9999481
        inSlope: 0.01547992
        outSlope: 0.01547992
        tangentMode: 0
      - serializedVersion: 2
        time: 0.2666667
        value: 0.9999569
        inSlope: -0.003011224
        outSlope: -0.003011224
        tangentMode: 0
      - serializedVersion: 2
        time: 0.2833334
        value: 0.9998477
        inSlope: -0.001385807
        outSlope: -0.001385807
        tangentMode: 0
      - serializedVersion: 2
        time: 0.3
        value: 0.9999107
        inSlope: 0.00428259
        outSlope: 0.00428259
        tangentMode: 0
      - serializedVersion: 2
        time: 0.3166667
        value: 0.9999905
        inSlope: 0.002356766
        outSlope: 0.002356766
        tangentMode: 0
      - serializedVersion: 2
        time: 0.3333334
        value: 0.9999893
        inSlope: -0.000856518
        outSlope: -0.000856518
        tangentMode: 0
      - serializedVersion: 2
        time: 0.3500001
        value: 0.9999619
        inSlope: -0.0003433225
        outSlope: -0.0003433225
        tangentMode: 0
      - serializedVersion: 2
        time: 0.3666668
        value: 0.9999778
        inSlope: 0.00114262
        outSlope: 0.00114262
        tangentMode: 0
      - serializedVersion: 2
        time: 0.3833334
        value: 1
        inSlope: 0.0006651873
        outSlope: 0.0006651873
        tangentMode: 0
      - serializedVersion: 2
        time: 0.4000001
        value: 1
        inSlope: 0
        outSlope: 0
        tangentMode: 0
      - serializedVersion: 2
        time: 0.4166667
        value: 1
        inSlope: 0
        outSlope: 0
        tangentMode: 0
      m_PreInfinity: 2
      m_PostInfinity: 2
      m_RotationOrder: 4
    attribute: m_LocalRotation.w
    path: 
    classID: 4
    script: 
  m_Events:
