%YAML 1.1
%TAG !u! tag:unity3d.com,2011:
--- !u!74 &7400000
AnimationClip:
  m_ObjectHideFlags: 0
  m_PrefabParentObject: {fileID: 0}
  m_PrefabInternal: {fileID: 0}
  m_Name: "Flower_L@Idle"
  serializedVersion: 6
  m_Legacy: 0
  m_Compressed: 0
  m_UseHighQualityCurve: 1
  m_RotationCurves:
  - curve:
      serializedVersion: 2
      m_Curve:
      - serializedVersion: 3
        time: 0
        value: {x: 0.7356244, y: 8.167071E-17, z: 7.520536E-17, w: 0.6773897}
        inSlope: {x: -0.03655135, y: -4.058015E-18, z: 4.399277E-18, w: 0.03962516}
        outSlope: {x: -0.03655135, y: -4.058015E-18, z: 4.399277E-18, w: 0.03962516}
        weightedMode: 0
        inWeight: { x: 0.3333333, y: 0.3333333, z: 0.3333333, w: 0.3333333}
        outWeight: { x: 0.3333333, y: 0.3333333, z: 0.3333333, w: 0.3333333}
      - serializedVersion: 3
        time: 1.1
        value: {x: 0.6822537, y: 7.574537E-17, z: 8.117013E-17, w: 0.7311155}
        inSlope: {x: 0.06109709, y: 6.783139E-18, z: -6.332095E-18, w: -0.05703444}
        outSlope: {x: 0.06109709, y: 6.783139E-18, z: -6.332095E-18, w: -0.05703444}
        weightedMode: 0
        inWeight: { x: 0.3333333, y: 0.3333333, z: 0.3333333, w: 0.3333333}
        outWeight: { x: 0.3333333, y: 0.3333333, z: 0.3333333, w: 0.3333333}
      - serializedVersion: 3
        time: 1.866667
        value: {x: 0.7370852, y: 8.183289E-17, z: 7.502886E-17, w: 0.6757999}
        inSlope: {x: 0, y: 0, z: 0, w: 0}
        outSlope: {x: 0, y: 0, z: 0, w: 0}
        weightedMode: 0
        inWeight: { x: 0.3333333, y: 0.3333333, z: 0.3333333, w: 0.3333333}
        outWeight: { x: 0.3333333, y: 0.3333333, z: 0.3333333, w: 0.3333333}
      m_PreInfinity: 2
      m_PostInfinity: 2
      m_RotationOrder: 4
    path: Rig/Root/Body
  - curve:
      serializedVersion: 2
      m_Curve:
      - serializedVersion: 3
        time: 0
        value: {x: -0.694776, y: -0.09311567, z: -0.09146892, w: 0.707283}
        inSlope: {x: 0.1017845, y: 0.004795119, z: 0.03140286, w: 0.1041537}
        outSlope: {x: 0.1017845, y: 0.004795119, z: 0.03140286, w: 0.1041537}
        weightedMode: 0
        inWeight: { x: 0.3333333, y: 0.3333333, z: 0.3333333, w: 0.3333333}
        outWeight: { x: 0.3333333, y: 0.3333333, z: 0.3333333, w: 0.3333333}
      - serializedVersion: 3
        time: 0.6
        value: {x: -0.6934505, y: 0.0278904, z: 0.02688221, w: 0.7194623}
        inSlope: {x: -0.08523881, y: 0.267212, z: 0.2647397, w: -0.1023486}
        outSlope: {x: -0.08523881, y: 0.267212, z: 0.2647397, w: -0.1023486}
        weightedMode: 0
        inWeight: { x: 0.3333333, y: 0.3333333, z: 0.3333333, w: 0.3333333}
        outWeight: { x: 0.3333333, y: 0.3333333, z: 0.3333333, w: 0.3333333}
      - serializedVersion: 3
        time: 1.166667
        value: {x: -0.7478665, y: 0.07328048, z: 0.0837399, w: 0.6544566}
        inSlope: {x: -0.07968582, y: -0.1502798, z: -0.1558396, w: -0.0544489}
        outSlope: {x: -0.07968582, y: -0.1502798, z: -0.1558396, w: -0.0544489}
        weightedMode: 0
        inWeight: { x: 0.3333333, y: 0.3333333, z: 0.3333333, w: 0.3333333}
        outWeight: { x: 0.3333333, y: 0.3333333, z: 0.3333333, w: 0.3333333}
      - serializedVersion: 3
        time: 1.7
        value: {x: -0.733067, y: -0.05036078, z: -0.05460488, w: 0.676088}
        inSlope: {x: 0.1243212, y: -0.2312018, z: -0.2334738, w: 0.09886525}
        outSlope: {x: 0.1243212, y: -0.2312018, z: -0.2334738, w: 0.09886525}
        weightedMode: 0
        inWeight: { x: 0.3333333, y: 0.3333333, z: 0.3333333, w: 0.3333333}
        outWeight: { x: 0.3333333, y: 0.3333333, z: 0.3333333, w: 0.3333333}
      - serializedVersion: 3
        time: 1.966667
        value: {x: -0.6984848, y: -0.09204327, z: -0.09135099, w: 0.7037769}
        inSlope: {x: 0, y: 0, z: 0, w: 0}
        outSlope: {x: 0, y: 0, z: 0, w: 0}
        weightedMode: 0
        inWeight: { x: 0.3333333, y: 0.3333333, z: 0.3333333, w: 0.3333333}
        outWeight: { x: 0.3333333, y: 0.3333333, z: 0.3333333, w: 0.3333333}
      m_PreInfinity: 2
      m_PostInfinity: 2
      m_RotationOrder: 4
    path: Rig/Root/Body/Tail_01
  - curve:
      serializedVersion: 2
      m_Curve:
      - serializedVersion: 3
        time: 0
        value: {x: -0.1265758, y: -3.967059E-09, z: 1.678132E-08, w: 0.9919569}
        inSlope: {x: 0.2245197, y: 0.06227027, z: -0.519075, w: 0.02320111}
        outSlope: {x: 0.2245197, y: 0.06227027, z: -0.519075, w: 0.02320111}
        weightedMode: 0
        inWeight: { x: 0.3333333, y: 0.3333333, z: 0.3333333, w: 0.3333333}
        outWeight: { x: 0.3333333, y: 0.3333333, z: 0.3333333, w: 0.3333333}
      - serializedVersion: 3
        time: 0.4333334
        value: {x: 0.01710825, y: -0.002938258, z: -0.1692412, w: 0.9854218}
        inSlope: {x: 0.355841, y: -0.06300357, z: -0.1266215, w: -0.02791822}
        outSlope: {x: 0.355841, y: -0.06300357, z: -0.1266215, w: -0.02791822}
        weightedMode: 0
        inWeight: { x: 0.3333333, y: 0.3333333, z: 0.3333333, w: 0.3333333}
        outWeight: { x: 0.3333333, y: 0.3333333, z: 0.3333333, w: 0.3333333}
      - serializedVersion: 3
        time: 0.9666667
        value: {x: 0.09348046, y: -0.001629289, z: -0.01735019, w: 0.9954686}
        inSlope: {x: -0.1720915, y: 0.05133525, z: 0.5178534, w: 0.02512249}
        outSlope: {x: -0.1720915, y: 0.05133525, z: 0.5178534, w: 0.02512249}
        weightedMode: 0
        inWeight: { x: 0.3333333, y: 0.3333333, z: 0.3333333, w: 0.3333333}
        outWeight: { x: 0.3333333, y: 0.3333333, z: 0.3333333, w: 0.3333333}
      - serializedVersion: 3
        time: 1.4
        value: {x: -0.04421273, y: -0.007351088, z: 0.1638499, w: 0.9854666}
        inSlope: {x: -0.3631117, y: -0.06853175, z: 0.1823092, w: -0.04689489}
        outSlope: {x: -0.3631117, y: -0.06853175, z: 0.1823092, w: -0.04689489}
        weightedMode: 0
        inWeight: { x: 0.3333333, y: 0.3333333, z: 0.3333333, w: 0.3333333}
        outWeight: { x: 0.3333333, y: 0.3333333, z: 0.3333333, w: 0.3333333}
      - serializedVersion: 3
        time: 1.933333
        value: {x: -0.1379731, y: -0.00478955, z: 0.03436055, w: 0.9898282}
        inSlope: {x: 0.1313691, y: 0.07513063, z: -0.507669, w: 0.03612665}
        outSlope: {x: 0.1313691, y: 0.07513063, z: -0.507669, w: 0.03612665}
        weightedMode: 0
        inWeight: { x: 0.3333333, y: 0.3333333, z: 0.3333333, w: 0.3333333}
        outWeight: { x: 0.3333333, y: 0.3333333, z: 0.3333333, w: 0.3333333}
      - serializedVersion: 3
        time: 1.966667
        value: {x: -0.1329071, y: -0.002316467, z: 0.01727191, w: 0.9909753}
        inSlope: {x: 0, y: 0, z: 0, w: 0}
        outSlope: {x: 0, y: 0, z: 0, w: 0}
        weightedMode: 0
        inWeight: { x: 0.3333333, y: 0.3333333, z: 0.3333333, w: 0.3333333}
        outWeight: { x: 0.3333333, y: 0.3333333, z: 0.3333333, w: 0.3333333}
      m_PreInfinity: 2
      m_PostInfinity: 2
      m_RotationOrder: 4
    path: Rig/Root/Body/Tail_01/Tail_02
  - curve:
      serializedVersion: 2
      m_Curve:
      - serializedVersion: 3
        time: 0
        value: {x: 0.6834435, y: -0.1835928, z: -0.6540787, w: -0.2671701}
        inSlope: {x: 0.05757808, y: -0.1048368, z: 0.1069611, w: -0.04080981}
        outSlope: {x: 0.05757808, y: -0.1048368, z: 0.1069611, w: -0.04080981}
        weightedMode: 0
        inWeight: { x: 0.3333333, y: 0.3333333, z: 0.3333333, w: 0.3333333}
        outWeight: { x: 0.3333333, y: 0.3333333, z: 0.3333333, w: 0.3333333}
      - serializedVersion: 3
        time: 0.4333334
        value: {x: 0.6565667, y: -0.1180457, z: -0.6997241, w: -0.2556786}
        inSlope: {x: -0.1603854, y: 0.3948925, z: -0.240216, w: 0.06406725}
        outSlope: {x: -0.1603854, y: 0.3948925, z: -0.240216, w: 0.06406725}
        weightedMode: 0
        inWeight: { x: 0.3333333, y: 0.3333333, z: 0.3333333, w: 0.3333333}
        outWeight: { x: 0.3333333, y: 0.3333333, z: 0.3333333, w: 0.3333333}
      - serializedVersion: 3
        time: 0.8666667
        value: {x: 0.5774923, y: 0.0770141, z: -0.7796715, w: -0.2295293}
        inSlope: {x: -0.1516593, y: 0.3694326, z: -0.08819371, w: 0.0407631}
        outSlope: {x: -0.1516593, y: 0.3694326, z: -0.08819371, w: 0.0407631}
        weightedMode: 0
        inWeight: { x: 0.3333333, y: 0.3333333, z: 0.3333333, w: 0.3333333}
        outWeight: { x: 0.3333333, y: 0.3333333, z: 0.3333333, w: 0.3333333}
      - serializedVersion: 3
        time: 1.3
        value: {x: 0.5726672, y: 0.08874863, z: -0.7823539, w: -0.2282506}
        inSlope: {x: 0.1367007, y: -0.3319818, z: 0.07320828, w: -0.03581133}
        outSlope: {x: 0.1367007, y: -0.3319818, z: 0.07320828, w: -0.03581133}
        weightedMode: 0
        inWeight: { x: 0.3333333, y: 0.3333333, z: 0.3333333, w: 0.3333333}
        outWeight: { x: 0.3333333, y: 0.3333333, z: 0.3333333, w: 0.3333333}
      - serializedVersion: 3
        time: 1.733333
        value: {x: 0.651051, y: -0.1044475, z: -0.707785, w: -0.2535033}
        inSlope: {x: 0.1698954, y: -0.4193224, z: 0.2415586, w: -0.06606409}
        outSlope: {x: 0.1698954, y: -0.4193224, z: 0.2415586, w: -0.06606409}
        weightedMode: 0
        inWeight: { x: 0.3333333, y: 0.3333333, z: 0.3333333, w: 0.3333333}
        outWeight: { x: 0.3333333, y: 0.3333333, z: 0.3333333, w: 0.3333333}
      - serializedVersion: 3
        time: 1.966667
        value: {x: 0.6811303, y: -0.1780143, z: -0.6584476, w: -0.2661187}
        inSlope: {x: 0, y: 0, z: 0, w: 0}
        outSlope: {x: 0, y: 0, z: 0, w: 0}
        weightedMode: 0
        inWeight: { x: 0.3333333, y: 0.3333333, z: 0.3333333, w: 0.3333333}
        outWeight: { x: 0.3333333, y: 0.3333333, z: 0.3333333, w: 0.3333333}
      m_PreInfinity: 2
      m_PostInfinity: 2
      m_RotationOrder: 4
    path: Rig/Root/Body/Fin_Front_L
  - curve:
      serializedVersion: 2
      m_Curve:
      - serializedVersion: 3
        time: 0
        value: {x: -0.3486272, y: 0.01232923, z: 0.6581264, w: 0.6672157}
        inSlope: {x: -0.02273977, y: -0.02243746, z: 0.0004059076, w: -0.01189828}
        outSlope: {x: -0.02273977, y: -0.02243746, z: 0.0004059076, w: -0.01189828}
        weightedMode: 0
        inWeight: { x: 0.3333333, y: 0.3333333, z: 0.3333333, w: 0.3333333}
        outWeight: { x: 0.3333333, y: 0.3333333, z: 0.3333333, w: 0.3333333}
      - serializedVersion: 3
        time: 0.5666667
        value: {x: -0.4794813, y: -0.1244943, z: 0.6463617, w: 0.580358}
        inSlope: {x: -0.2977279, y: -0.3315561, z: -0.06380707, w: -0.2458996}
        outSlope: {x: -0.2977279, y: -0.3315561, z: -0.06380707, w: -0.2458996}
        weightedMode: 0
        inWeight: { x: 0.3333333, y: 0.3333333, z: 0.3333333, w: 0.3333333}
        outWeight: { x: 0.3333333, y: 0.3333333, z: 0.3333333, w: 0.3333333}
      - serializedVersion: 3
        time: 1.133333
        value: {x: -0.5469285, y: -0.2026932, z: 0.6262569, w: 0.517288}
        inSlope: {x: 0.1247682, y: 0.1509569, z: 0.04871604, w: 0.1316928}
        outSlope: {x: 0.1247682, y: 0.1509569, z: 0.04871604, w: 0.1316928}
        weightedMode: 0
        inWeight: { x: 0.3333333, y: 0.3333333, z: 0.3333333, w: 0.3333333}
        outWeight: { x: 0.3333333, y: 0.3333333, z: 0.3333333, w: 0.3333333}
      - serializedVersion: 3
        time: 1.6
        value: {x: -0.4276931, y: -0.06833929, z: 0.6546847, w: 0.619513}
        inSlope: {x: 0.3105235, y: 0.3281978, z: 0.03433671, w: 0.2144827}
        outSlope: {x: 0.3105235, y: 0.3281978, z: 0.03433671, w: 0.2144827}
        weightedMode: 0
        inWeight: { x: 0.3333333, y: 0.3333333, z: 0.3333333, w: 0.3333333}
        outWeight: { x: 0.3333333, y: 0.3333333, z: 0.3333333, w: 0.3333333}
      - serializedVersion: 3
        time: 1.966667
        value: {x: -0.3493852, y: 0.01158132, z: 0.6581399, w: 0.6668191}
        inSlope: {x: 0, y: 0, z: 0, w: 0}
        outSlope: {x: 0, y: 0, z: 0, w: 0}
        weightedMode: 0
        inWeight: { x: 0.3333333, y: 0.3333333, z: 0.3333333, w: 0.3333333}
        outWeight: { x: 0.3333333, y: 0.3333333, z: 0.3333333, w: 0.3333333}
      m_PreInfinity: 2
      m_PostInfinity: 2
      m_RotationOrder: 4
    path: Rig/Root/Body/Fin_Back_L
  - curve:
      serializedVersion: 2
      m_Curve:
      - serializedVersion: 3
        time: 0
        value: {x: 0.6834435, y: 0.1835928, z: 0.6540787, w: -0.2671701}
        inSlope: {x: 0.05757987, y: 0.1048355, z: -0.1069593, w: -0.04080981}
        outSlope: {x: 0.05757987, y: 0.1048355, z: -0.1069593, w: -0.04080981}
        weightedMode: 0
        inWeight: { x: 0.3333333, y: 0.3333333, z: 0.3333333, w: 0.3333333}
        outWeight: { x: 0.3333333, y: 0.3333333, z: 0.3333333, w: 0.3333333}
      - serializedVersion: 3
        time: 0.4333334
        value: {x: 0.6565667, y: 0.1180457, z: 0.6997241, w: -0.2556786}
        inSlope: {x: -0.1603845, y: -0.3948964, z: 0.240216, w: 0.06406993}
        outSlope: {x: -0.1603845, y: -0.3948964, z: 0.240216, w: 0.06406993}
        weightedMode: 0
        inWeight: { x: 0.3333333, y: 0.3333333, z: 0.3333333, w: 0.3333333}
        outWeight: { x: 0.3333333, y: 0.3333333, z: 0.3333333, w: 0.3333333}
      - serializedVersion: 3
        time: 0.8666667
        value: {x: 0.5774924, y: -0.07701416, z: 0.7796717, w: -0.2295292}
        inSlope: {x: -0.1516593, y: -0.3694333, z: 0.08819461, w: 0.04076242}
        outSlope: {x: -0.1516593, y: -0.3694333, z: 0.08819461, w: 0.04076242}
        weightedMode: 0
        inWeight: { x: 0.3333333, y: 0.3333333, z: 0.3333333, w: 0.3333333}
        outWeight: { x: 0.3333333, y: 0.3333333, z: 0.3333333, w: 0.3333333}
      - serializedVersion: 3
        time: 1.3
        value: {x: 0.5726672, y: -0.0887486, z: 0.7823539, w: -0.2282506}
        inSlope: {x: 0.1366998, y: 0.3319801, z: -0.07320739, w: -0.03580999}
        outSlope: {x: 0.1366998, y: 0.3319801, z: -0.07320739, w: -0.03580999}
        weightedMode: 0
        inWeight: { x: 0.3333333, y: 0.3333333, z: 0.3333333, w: 0.3333333}
        outWeight: { x: 0.3333333, y: 0.3333333, z: 0.3333333, w: 0.3333333}
      - serializedVersion: 3
        time: 1.733333
        value: {x: 0.651051, y: 0.104447, z: 0.707785, w: -0.2535028}
        inSlope: {x: 0.1698954, y: 0.4193229, z: -0.2415586, w: -0.06606409}
        outSlope: {x: 0.1698954, y: 0.4193229, z: -0.2415586, w: -0.06606409}
        weightedMode: 0
        inWeight: { x: 0.3333333, y: 0.3333333, z: 0.3333333, w: 0.3333333}
        outWeight: { x: 0.3333333, y: 0.3333333, z: 0.3333333, w: 0.3333333}
      - serializedVersion: 3
        time: 1.966667
        value: {x: 0.6811301, y: 0.178015, z: 0.6584474, w: -0.2661195}
        inSlope: {x: 0, y: 0, z: 0, w: 0}
        outSlope: {x: 0, y: 0, z: 0, w: 0}
        weightedMode: 0
        inWeight: { x: 0.3333333, y: 0.3333333, z: 0.3333333, w: 0.3333333}
        outWeight: { x: 0.3333333, y: 0.3333333, z: 0.3333333, w: 0.3333333}
      m_PreInfinity: 2
      m_PostInfinity: 2
      m_RotationOrder: 4
    path: Rig/Root/Body/Fin_Front_R
  - curve:
      serializedVersion: 2
      m_Curve:
      - serializedVersion: 3
        time: 0
        value: {x: -0.3486272, y: -0.01232925, z: -0.6581264, w: 0.6672157}
        inSlope: {x: -0.02273977, y: 0.02243749, z: -0.0004076957, w: -0.01189828}
        outSlope: {x: -0.02273977, y: 0.02243749, z: -0.0004076957, w: -0.01189828}
        weightedMode: 0
        inWeight: { x: 0.3333333, y: 0.3333333, z: 0.3333333, w: 0.3333333}
        outWeight: { x: 0.3333333, y: 0.3333333, z: 0.3333333, w: 0.3333333}
      - serializedVersion: 3
        time: 0.5666667
        value: {x: -0.4794813, y: 0.1244943, z: -0.6463617, w: 0.580358}
        inSlope: {x: -0.2977284, y: 0.331556, z: 0.06380707, w: -0.2458996}
        outSlope: {x: -0.2977284, y: 0.331556, z: 0.06380707, w: -0.2458996}
        weightedMode: 0
        inWeight: { x: 0.3333333, y: 0.3333333, z: 0.3333333, w: 0.3333333}
        outWeight: { x: 0.3333333, y: 0.3333333, z: 0.3333333, w: 0.3333333}
      - serializedVersion: 3
        time: 1.133333
        value: {x: -0.5469285, y: 0.2026932, z: -0.6262569, w: 0.517288}
        inSlope: {x: 0.1247682, y: -0.1509571, z: -0.04871604, w: 0.1316928}
        outSlope: {x: 0.1247682, y: -0.1509571, z: -0.04871604, w: 0.1316928}
        weightedMode: 0
        inWeight: { x: 0.3333333, y: 0.3333333, z: 0.3333333, w: 0.3333333}
        outWeight: { x: 0.3333333, y: 0.3333333, z: 0.3333333, w: 0.3333333}
      - serializedVersion: 3
        time: 1.6
        value: {x: -0.4276931, y: 0.06833928, z: -0.6546847, w: 0.619513}
        inSlope: {x: 0.3105235, y: -0.3281977, z: -0.03433671, w: 0.2144827}
        outSlope: {x: 0.3105235, y: -0.3281977, z: -0.03433671, w: 0.2144827}
        weightedMode: 0
        inWeight: { x: 0.3333333, y: 0.3333333, z: 0.3333333, w: 0.3333333}
        outWeight: { x: 0.3333333, y: 0.3333333, z: 0.3333333, w: 0.3333333}
      - serializedVersion: 3
        time: 1.966667
        value: {x: -0.3493852, y: -0.01158133, z: -0.6581399, w: 0.6668191}
        inSlope: {x: 0, y: 0, z: 0, w: 0}
        outSlope: {x: 0, y: 0, z: 0, w: 0}
        weightedMode: 0
        inWeight: { x: 0.3333333, y: 0.3333333, z: 0.3333333, w: 0.3333333}
        outWeight: { x: 0.3333333, y: 0.3333333, z: 0.3333333, w: 0.3333333}
      m_PreInfinity: 2
      m_PostInfinity: 2
      m_RotationOrder: 4
    path: Rig/Root/Body/Fin_Back_R
  m_CompressedRotationCurves: []
  m_EulerCurves:
  m_PositionCurves:
  - curve:
      serializedVersion: 2
      m_Curve:
      - serializedVersion: 3
        time: 0
        value: {x: 0, y: 0, z: 0.4848533}
        inSlope: {x: 0, y: 0, z: -0.2269301}
        outSlope: {x: 0, y: 0, z: -0.2269301}
        weightedMode: 0
        inWeight: { x: 0.3333333, y: 0.3333333, z: 0.3333333}
        outWeight: { x: 0.3333333, y: 0.3333333, z: 0.3333333}
      - serializedVersion: 3
        time: 0.3333333
        value: {x: 0, y: 0, z: 0.4603381}
        inSlope: {x: 0, y: 0, z: 0.1396483}
        outSlope: {x: 0, y: 0, z: 0.1396483}
        weightedMode: 0
        inWeight: { x: 0.3333333, y: 0.3333333, z: 0.3333333}
        outWeight: { x: 0.3333333, y: 0.3333333, z: 0.3333333}
      - serializedVersion: 3
        time: 1.233333
        value: {x: 0, y: 0, z: 0.6792978}
        inSlope: {x: 0, y: 0, z: -0.0007116802}
        outSlope: {x: 0, y: 0, z: -0.0007116802}
        weightedMode: 0
        inWeight: { x: 0.3333333, y: 0.3333333, z: 0.3333333}
        outWeight: { x: 0.3333333, y: 0.3333333, z: 0.3333333}
      - serializedVersion: 3
        time: 1.966667
        value: {x: 0, y: 0, z: 0.4932042}
        inSlope: {x: 0, y: 0, z: 0}
        outSlope: {x: 0, y: 0, z: 0}
        weightedMode: 0
        inWeight: { x: 0.3333333, y: 0.3333333, z: 0.3333333}
        outWeight: { x: 0.3333333, y: 0.3333333, z: 0.3333333}
      m_PreInfinity: 2
      m_PostInfinity: 2
      m_RotationOrder: 4
    path: Rig/Root/Body
  m_ScaleCurves:
  m_FloatCurves:
  m_PPtrCurves:
  m_SampleRate: 30
  m_WrapMode: 0
  m_Bounds:
    m_Center: {x: 0, y: 0, z: 0}
    m_Extent: {x: 0, y: 0, z: 0}
  m_MuscleClipSize: 6692
  m_MuscleClip:
    serializedVersion: 3
    m_DeltaPose:
      m_RootX:
        t: {x: 0, y: 0, z: 0}
        q: {x: 0, y: 0, z: 0, w: 1}
        s: {x: 1, y: 1, z: 1}
      m_LookAtPosition: {x: 0, y: 0, z: 0}
      m_LookAtWeight: {x: 0, y: 0, z: 0, w: 0}
      m_GoalArray:
      - m_X:
          t: {x: 0, y: 0, z: 0}
          q: {x: 0, y: 0, z: 0, w: 1}
          s: {x: 1, y: 1, z: 1}
          m_Weight: 
          m_WeightR: 0
          m_HintT: {x: 0, y: 0, z: 0}
          m_HintWeightT: 0
      - m_X:
          t: {x: 0, y: 0, z: 0}
          q: {x: 0, y: 0, z: 0, w: 1}
          s: {x: 1, y: 1, z: 1}
          m_Weight: 
          m_WeightR: 0
          m_HintT: {x: 0, y: 0, z: 0}
          m_HintWeightT: 0
      - m_X:
          t: {x: 0, y: 0, z: 0}
          q: {x: 0, y: 0, z: 0, w: 1}
          s: {x: 1, y: 1, z: 1}
          m_Weight: 
          m_WeightR: 0
          m_HintT: {x: 0, y: 0, z: 0}
          m_HintWeightT: 0
      - m_X:
          t: {x: 0, y: 0, z: 0}
          q: {x: 0, y: 0, z: 0, w: 1}
          s: {x: 1, y: 1, z: 1}
          m_Weight: 
          m_WeightR: 0
          m_HintT: {x: 0, y: 0, z: 0}
          m_HintWeightT: 0
      m_LeftHandPose:
        m_GrabX:
          t: {x: 0, y: 0, z: 0}
          q: {x: 0, y: 0, z: 0, w: 1}
          s: {x: 1, y: 1, z: 1}
        m_DoFArray:
        - 0
        - 0
        - 0
        - 0
        - 0
        - 0
        - 0
        - 0
        - 0
        - 0
        - 0
        - 0
        - 0
        - 0
        - 0
        - 0
        - 0
        - 0
        - 0
        - 0
        m_Override: 0
        m_CloseOpen: 0
        m_InOut: 0
        m_Grab: 0
      m_RightHandPose:
        m_GrabX:
          t: {x: 0, y: 0, z: 0}
          q: {x: 0, y: 0, z: 0, w: 1}
          s: {x: 1, y: 1, z: 1}
        m_DoFArray:
        - 0
        - 0
        - 0
        - 0
        - 0
        - 0
        - 0
        - 0
        - 0
        - 0
        - 0
        - 0
        - 0
        - 0
        - 0
        - 0
        - 0
        - 0
        - 0
        - 0
        m_Override: 0
        m_CloseOpen: 0
        m_InOut: 0
        m_Grab: 0
      m_DoFArray:
        - 0
        - 0
        - 0
        - 0
        - 0
        - 0
        - 0
        - 0
        - 0
        - 0
        - 0
        - 0
        - 0
        - 0
        - 0
        - 0
        - 0
        - 0
        - 0
        - 0
        - 0
        - 0
        - 0
        - 0
        - 0
        - 0
        - 0
        - 0
        - 0
        - 0
        - 0
        - 0
        - 0
        - 0
        - 0
        - 0
        - 0
        - 0
        - 0
        - 0
        - 0
        - 0
        - 0
        - 0
        - 0
        - 0
        - 0
        - 0
        - 0
        - 0
        - 0
        - 0
        - 0
        - 0
        - 0
      m_TDoFArray:
      - x: 0
        y: 0
        z: 0
      - x: 0
        y: 0
        z: 0
      - x: 0
        y: 0
        z: 0
      - x: 0
        y: 0
        z: 0
      - x: 0
        y: 0
        z: 0
      - x: 0
        y: 0
        z: 0
      - x: 0
        y: 0
        z: 0
      - x: 0
        y: 0
        z: 0
      - x: 0
        y: 0
        z: 0
      - x: 0
        y: 0
        z: 0
      - x: 0
        y: 0
        z: 0
      - x: 0
        y: 0
        z: 0
      - x: 0
        y: 0
        z: 0
      - x: 0
        y: 0
        z: 0
      - x: 0
        y: 0
        z: 0
      - x: 0
        y: 0
        z: 0
      - x: 0
        y: 0
        z: 0
      - x: 0
        y: 0
        z: 0
      - x: 0
        y: 0
        z: 0
      - x: 0
        y: 0
        z: 0
      - x: 0
        y: 0
        z: 0
    m_StartX:
      t: {x: 0, y: 0, z: 0}
      q: {x: 0, y: 0, z: 0, w: 1}
      s: {x: 1, y: 1, z: 1}
    m_StopX:
      t: {x: 0, y: 0, z: 0}
      q: {x: 0, y: 0, z: 0, w: 1}
      s: {x: 1, y: 1, z: 1}
    m_LeftFootStartX:
      t: {x: 0, y: 0, z: 0}
      q: {x: 0, y: 0, z: 0, w: 1}
      s: {x: 1, y: 1, z: 1}
    m_RightFootStartX:
      t: {x: 0, y: 0, z: 0}
      q: {x: 0, y: 0, z: 0, w: 1}
      s: {x: 1, y: 1, z: 1}
    m_AverageSpeed: {x: 0, y: 0, z: 0}
  m_ClipBindingConstant:
    genericBindings:
    - serializedVersion: 2
      path: 3045925566
      attribute: 1
      script: {fileID: 0}
      typeID: 4
      customType: 0
      isPPtrCurve: 0
    - serializedVersion: 2
      path: 3045925566
      attribute: 2
      script: {fileID: 0}
      typeID: 4
      customType: 0
      isPPtrCurve: 0
    - serializedVersion: 2
      path: 3166425161
      attribute: 2
      script: {fileID: 0}
      typeID: 4
      customType: 0
      isPPtrCurve: 0
    - serializedVersion: 2
      path: 4241371537
      attribute: 2
      script: {fileID: 0}
      typeID: 4
      customType: 0
      isPPtrCurve: 0
    - serializedVersion: 2
      path: 4175724202
      attribute: 2
      script: {fileID: 0}
      typeID: 4
      customType: 0
      isPPtrCurve: 0
    - serializedVersion: 2
      path: 2344148247
      attribute: 2
      script: {fileID: 0}
      typeID: 4
      customType: 0
      isPPtrCurve: 0
    - serializedVersion: 2
      path: 48972745
      attribute: 2
      script: {fileID: 0}
      typeID: 4
      customType: 0
      isPPtrCurve: 0
    - serializedVersion: 2
      path: 1907875956
      attribute: 2
      script: {fileID: 0}
      typeID: 4
      customType: 0
      isPPtrCurve: 0
    pptrCurveMapping:
  m_AnimationClipSettings:
    serializedVersion: 2
    m_AdditiveReferencePoseClip: {fileID: 0}
    m_AdditiveReferencePoseTime: 
    m_StartTime: 0
    m_StopTime: 1.966667
    m_OrientationOffsetY: 0
    m_Level: 0
    m_CycleOffset: 0
    m_HasAdditiveReferencePose: 
    m_LoopTime: 1
    m_LoopBlend: 0
    m_LoopBlendOrientation: 0
    m_LoopBlendPositionY: 0
    m_LoopBlendPositionXZ: 0
    m_KeepOriginalOrientation: 0
    m_KeepOriginalPositionY: 1
    m_KeepOriginalPositionXZ: 0
    m_HeightFromFeet: 0
    m_Mirror: 0
    m_HasGenericRootTransform: 0
    m_HasMotionFloatCurves: 0
    m_GenerateMotionCurves: 0
  m_EditorCurves:
  - curve:
      serializedVersion: 2
      m_Curve:
      - serializedVersion: 2
        time: 0
        value: 0
        inSlope: 0
        outSlope: 0
        tangentMode: 0
      - serializedVersion: 2
        time: 0.3333333
        value: 0
        inSlope: 0
        outSlope: 0
        tangentMode: 0
      - serializedVersion: 2
        time: 1.233333
        value: 0
        inSlope: 0
        outSlope: 0
        tangentMode: 0
      - serializedVersion: 2
        time: 1.966667
        value: 0
        inSlope: 0
        outSlope: 0
        tangentMode: 0
      m_PreInfinity: 2
      m_PostInfinity: 2
      m_RotationOrder: 4
    attribute: m_LocalPosition.x
    path: Rig/Root/Body
    classID: 4
    script: {fileID: 0}
  - curve:
      serializedVersion: 2
      m_Curve:
      - serializedVersion: 2
        time: 0
        value: 0
        inSlope: 0
        outSlope: 0
        tangentMode: 0
      - serializedVersion: 2
        time: 0.3333333
        value: 0
        inSlope: 0
        outSlope: 0
        tangentMode: 0
      - serializedVersion: 2
        time: 1.233333
        value: 0
        inSlope: 0
        outSlope: 0
        tangentMode: 0
      - serializedVersion: 2
        time: 1.966667
        value: 0
        inSlope: 0
        outSlope: 0
        tangentMode: 0
      m_PreInfinity: 2
      m_PostInfinity: 2
      m_RotationOrder: 4
    attribute: m_LocalPosition.y
    path: Rig/Root/Body
    classID: 4
    script: {fileID: 0}
  - curve:
      serializedVersion: 2
      m_Curve:
      - serializedVersion: 2
        time: 0
        value: 0.4848533
        inSlope: -0.2269301
        outSlope: -0.2269301
        tangentMode: 0
      - serializedVersion: 2
        time: 0.3333333
        value: 0.4603381
        inSlope: 0.1396483
        outSlope: 0.1396483
        tangentMode: 0
      - serializedVersion: 2
        time: 1.233333
        value: 0.6792978
        inSlope: -0.0007116802
        outSlope: -0.0007116802
        tangentMode: 0
      - serializedVersion: 2
        time: 1.966667
        value: 0.4932042
        inSlope: 0
        outSlope: 0
        tangentMode: 0
      m_PreInfinity: 2
      m_PostInfinity: 2
      m_RotationOrder: 4
    attribute: m_LocalPosition.z
    path: Rig/Root/Body
    classID: 4
    script: {fileID: 0}
  - curve:
      serializedVersion: 2
      m_Curve:
      - serializedVersion: 2
        time: 0
        value: 0.7356244
        inSlope: -0.03655135
        outSlope: -0.03655135
        tangentMode: 0
      - serializedVersion: 2
        time: 1.1
        value: 0.6822537
        inSlope: 0.06109709
        outSlope: 0.06109709
        tangentMode: 0
      - serializedVersion: 2
        time: 1.866667
        value: 0.7370852
        inSlope: 0
        outSlope: 0
        tangentMode: 0
      m_PreInfinity: 2
      m_PostInfinity: 2
      m_RotationOrder: 4
    attribute: m_LocalRotation.x
    path: Rig/Root/Body
    classID: 4
    script: {fileID: 0}
  - curve:
      serializedVersion: 2
      m_Curve:
      - serializedVersion: 2
        time: 0
        value: 8.167071E-17
        inSlope: -4.058015E-18
        outSlope: -4.058015E-18
        tangentMode: 0
      - serializedVersion: 2
        time: 1.1
        value: 7.574537E-17
        inSlope: 6.783139E-18
        outSlope: 6.783139E-18
        tangentMode: 0
      - serializedVersion: 2
        time: 1.866667
        value: 8.183289E-17
        inSlope: 0
        outSlope: 0
        tangentMode: 0
      m_PreInfinity: 2
      m_PostInfinity: 2
      m_RotationOrder: 4
    attribute: m_LocalRotation.y
    path: Rig/Root/Body
    classID: 4
    script: {fileID: 0}
  - curve:
      serializedVersion: 2
      m_Curve:
      - serializedVersion: 2
        time: 0
        value: 7.520536E-17
        inSlope: 4.399277E-18
        outSlope: 4.399277E-18
        tangentMode: 0
      - serializedVersion: 2
        time: 1.1
        value: 8.117013E-17
        inSlope: -6.332095E-18
        outSlope: -6.332095E-18
        tangentMode: 0
      - serializedVersion: 2
        time: 1.866667
        value: 7.502886E-17
        inSlope: 0
        outSlope: 0
        tangentMode: 0
      m_PreInfinity: 2
      m_PostInfinity: 2
      m_RotationOrder: 4
    attribute: m_LocalRotation.z
    path: Rig/Root/Body
    classID: 4
    script: {fileID: 0}
  - curve:
      serializedVersion: 2
      m_Curve:
      - serializedVersion: 2
        time: 0
        value: 0.6773897
        inSlope: 0.03962516
        outSlope: 0.03962516
        tangentMode: 0
      - serializedVersion: 2
        time: 1.1
        value: 0.7311155
        inSlope: -0.05703444
        outSlope: -0.05703444
        tangentMode: 0
      - serializedVersion: 2
        time: 1.866667
        value: 0.6757999
        inSlope: 0
        outSlope: 0
        tangentMode: 0
      m_PreInfinity: 2
      m_PostInfinity: 2
      m_RotationOrder: 4
    attribute: m_LocalRotation.w
    path: Rig/Root/Body
    classID: 4
    script: {fileID: 0}
  - curve:
      serializedVersion: 2
      m_Curve:
      - serializedVersion: 2
        time: 0
        value: -0.694776
        inSlope: 0.1017845
        outSlope: 0.1017845
        tangentMode: 0
      - serializedVersion: 2
        time: 0.6
        value: -0.6934505
        inSlope: -0.08523881
        outSlope: -0.08523881
        tangentMode: 0
      - serializedVersion: 2
        time: 1.166667
        value: -0.7478665
        inSlope: -0.07968582
        outSlope: -0.07968582
        tangentMode: 0
      - serializedVersion: 2
        time: 1.7
        value: -0.733067
        inSlope: 0.1243212
        outSlope: 0.1243212
        tangentMode: 0
      - serializedVersion: 2
        time: 1.966667
        value: -0.6984848
        inSlope: 0
        outSlope: 0
        tangentMode: 0
      m_PreInfinity: 2
      m_PostInfinity: 2
      m_RotationOrder: 4
    attribute: m_LocalRotation.x
    path: Rig/Root/Body/Tail_01
    classID: 4
    script: {fileID: 0}
  - curve:
      serializedVersion: 2
      m_Curve:
      - serializedVersion: 2
        time: 0
        value: -0.09311567
        inSlope: 0.004795119
        outSlope: 0.004795119
        tangentMode: 0
      - serializedVersion: 2
        time: 0.6
        value: 0.0278904
        inSlope: 0.267212
        outSlope: 0.267212
        tangentMode: 0
      - serializedVersion: 2
        time: 1.166667
        value: 0.07328048
        inSlope: -0.1502798
        outSlope: -0.1502798
        tangentMode: 0
      - serializedVersion: 2
        time: 1.7
        value: -0.05036078
        inSlope: -0.2312018
        outSlope: -0.2312018
        tangentMode: 0
      - serializedVersion: 2
        time: 1.966667
        value: -0.09204327
        inSlope: 0
        outSlope: 0
        tangentMode: 0
      m_PreInfinity: 2
      m_PostInfinity: 2
      m_RotationOrder: 4
    attribute: m_LocalRotation.y
    path: Rig/Root/Body/Tail_01
    classID: 4
    script: {fileID: 0}
  - curve:
      serializedVersion: 2
      m_Curve:
      - serializedVersion: 2
        time: 0
        value: -0.09146892
        inSlope: 0.03140286
        outSlope: 0.03140286
        tangentMode: 0
      - serializedVersion: 2
        time: 0.6
        value: 0.02688221
        inSlope: 0.2647397
        outSlope: 0.2647397
        tangentMode: 0
      - serializedVersion: 2
        time: 1.166667
        value: 0.0837399
        inSlope: -0.1558396
        outSlope: -0.1558396
        tangentMode: 0
      - serializedVersion: 2
        time: 1.7
        value: -0.05460488
        inSlope: -0.2334738
        outSlope: -0.2334738
        tangentMode: 0
      - serializedVersion: 2
        time: 1.966667
        value: -0.09135099
        inSlope: 0
        outSlope: 0
        tangentMode: 0
      m_PreInfinity: 2
      m_PostInfinity: 2
      m_RotationOrder: 4
    attribute: m_LocalRotation.z
    path: Rig/Root/Body/Tail_01
    classID: 4
    script: {fileID: 0}
  - curve:
      serializedVersion: 2
      m_Curve:
      - serializedVersion: 2
        time: 0
        value: 0.707283
        inSlope: 0.1041537
        outSlope: 0.1041537
        tangentMode: 0
      - serializedVersion: 2
        time: 0.6
        value: 0.7194623
        inSlope: -0.1023486
        outSlope: -0.1023486
        tangentMode: 0
      - serializedVersion: 2
        time: 1.166667
        value: 0.6544566
        inSlope: -0.0544489
        outSlope: -0.0544489
        tangentMode: 0
      - serializedVersion: 2
        time: 1.7
        value: 0.676088
        inSlope: 0.09886525
        outSlope: 0.09886525
        tangentMode: 0
      - serializedVersion: 2
        time: 1.966667
        value: 0.7037769
        inSlope: 0
        outSlope: 0
        tangentMode: 0
      m_PreInfinity: 2
      m_PostInfinity: 2
      m_RotationOrder: 4
    attribute: m_LocalRotation.w
    path: Rig/Root/Body/Tail_01
    classID: 4
    script: {fileID: 0}
  - curve:
      serializedVersion: 2
      m_Curve:
      - serializedVersion: 2
        time: 0
        value: -0.1265758
        inSlope: 0.2245197
        outSlope: 0.2245197
        tangentMode: 0
      - serializedVersion: 2
        time: 0.4333334
        value: 0.01710825
        inSlope: 0.355841
        outSlope: 0.355841
        tangentMode: 0
      - serializedVersion: 2
        time: 0.9666667
        value: 0.09348046
        inSlope: -0.1720915
        outSlope: -0.1720915
        tangentMode: 0
      - serializedVersion: 2
        time: 1.4
        value: -0.04421273
        inSlope: -0.3631117
        outSlope: -0.3631117
        tangentMode: 0
      - serializedVersion: 2
        time: 1.933333
        value: -0.1379731
        inSlope: 0.1313691
        outSlope: 0.1313691
        tangentMode: 0
      - serializedVersion: 2
        time: 1.966667
        value: -0.1329071
        inSlope: 0
        outSlope: 0
        tangentMode: 0
      m_PreInfinity: 2
      m_PostInfinity: 2
      m_RotationOrder: 4
    attribute: m_LocalRotation.x
    path: Rig/Root/Body/Tail_01/Tail_02
    classID: 4
    script: {fileID: 0}
  - curve:
      serializedVersion: 2
      m_Curve:
      - serializedVersion: 2
        time: 0
        value: -3.967059E-09
        inSlope: 0.06227027
        outSlope: 0.06227027
        tangentMode: 0
      - serializedVersion: 2
        time: 0.4333334
        value: -0.002938258
        inSlope: -0.06300357
        outSlope: -0.06300357
        tangentMode: 0
      - serializedVersion: 2
        time: 0.9666667
        value: -0.001629289
        inSlope: 0.05133525
        outSlope: 0.05133525
        tangentMode: 0
      - serializedVersion: 2
        time: 1.4
        value: -0.007351088
        inSlope: -0.06853175
        outSlope: -0.06853175
        tangentMode: 0
      - serializedVersion: 2
        time: 1.933333
        value: -0.00478955
        inSlope: 0.07513063
        outSlope: 0.07513063
        tangentMode: 0
      - serializedVersion: 2
        time: 1.966667
        value: -0.002316467
        inSlope: 0
        outSlope: 0
        tangentMode: 0
      m_PreInfinity: 2
      m_PostInfinity: 2
      m_RotationOrder: 4
    attribute: m_LocalRotation.y
    path: Rig/Root/Body/Tail_01/Tail_02
    classID: 4
    script: {fileID: 0}
  - curve:
      serializedVersion: 2
      m_Curve:
      - serializedVersion: 2
        time: 0
        value: 1.678132E-08
        inSlope: -0.519075
        outSlope: -0.519075
        tangentMode: 0
      - serializedVersion: 2
        time: 0.4333334
        value: -0.1692412
        inSlope: -0.1266215
        outSlope: -0.1266215
        tangentMode: 0
      - serializedVersion: 2
        time: 0.9666667
        value: -0.01735019
        inSlope: 0.5178534
        outSlope: 0.5178534
        tangentMode: 0
      - serializedVersion: 2
        time: 1.4
        value: 0.1638499
        inSlope: 0.1823092
        outSlope: 0.1823092
        tangentMode: 0
      - serializedVersion: 2
        time: 1.933333
        value: 0.03436055
        inSlope: -0.507669
        outSlope: -0.507669
        tangentMode: 0
      - serializedVersion: 2
        time: 1.966667
        value: 0.01727191
        inSlope: 0
        outSlope: 0
        tangentMode: 0
      m_PreInfinity: 2
      m_PostInfinity: 2
      m_RotationOrder: 4
    attribute: m_LocalRotation.z
    path: Rig/Root/Body/Tail_01/Tail_02
    classID: 4
    script: {fileID: 0}
  - curve:
      serializedVersion: 2
      m_Curve:
      - serializedVersion: 2
        time: 0
        value: 0.9919569
        inSlope: 0.02320111
        outSlope: 0.02320111
        tangentMode: 0
      - serializedVersion: 2
        time: 0.4333334
        value: 0.9854218
        inSlope: -0.02791822
        outSlope: -0.02791822
        tangentMode: 0
      - serializedVersion: 2
        time: 0.9666667
        value: 0.9954686
        inSlope: 0.02512249
        outSlope: 0.02512249
        tangentMode: 0
      - serializedVersion: 2
        time: 1.4
        value: 0.9854666
        inSlope: -0.04689489
        outSlope: -0.04689489
        tangentMode: 0
      - serializedVersion: 2
        time: 1.933333
        value: 0.9898282
        inSlope: 0.03612665
        outSlope: 0.03612665
        tangentMode: 0
      - serializedVersion: 2
        time: 1.966667
        value: 0.9909753
        inSlope: 0
        outSlope: 0
        tangentMode: 0
      m_PreInfinity: 2
      m_PostInfinity: 2
      m_RotationOrder: 4
    attribute: m_LocalRotation.w
    path: Rig/Root/Body/Tail_01/Tail_02
    classID: 4
    script: {fileID: 0}
  - curve:
      serializedVersion: 2
      m_Curve:
      - serializedVersion: 2
        time: 0
        value: 0.6834435
        inSlope: 0.05757808
        outSlope: 0.05757808
        tangentMode: 0
      - serializedVersion: 2
        time: 0.4333334
        value: 0.6565667
        inSlope: -0.1603854
        outSlope: -0.1603854
        tangentMode: 0
      - serializedVersion: 2
        time: 0.8666667
        value: 0.5774923
        inSlope: -0.1516593
        outSlope: -0.1516593
        tangentMode: 0
      - serializedVersion: 2
        time: 1.3
        value: 0.5726672
        inSlope: 0.1367007
        outSlope: 0.1367007
        tangentMode: 0
      - serializedVersion: 2
        time: 1.733333
        value: 0.651051
        inSlope: 0.1698954
        outSlope: 0.1698954
        tangentMode: 0
      - serializedVersion: 2
        time: 1.966667
        value: 0.6811303
        inSlope: 0
        outSlope: 0
        tangentMode: 0
      m_PreInfinity: 2
      m_PostInfinity: 2
      m_RotationOrder: 4
    attribute: m_LocalRotation.x
    path: Rig/Root/Body/Fin_Front_L
    classID: 4
    script: {fileID: 0}
  - curve:
      serializedVersion: 2
      m_Curve:
      - serializedVersion: 2
        time: 0
        value: -0.1835928
        inSlope: -0.1048368
        outSlope: -0.1048368
        tangentMode: 0
      - serializedVersion: 2
        time: 0.4333334
        value: -0.1180457
        inSlope: 0.3948925
        outSlope: 0.3948925
        tangentMode: 0
      - serializedVersion: 2
        time: 0.8666667
        value: 0.0770141
        inSlope: 0.3694326
        outSlope: 0.3694326
        tangentMode: 0
      - serializedVersion: 2
        time: 1.3
        value: 0.08874863
        inSlope: -0.3319818
        outSlope: -0.3319818
        tangentMode: 0
      - serializedVersion: 2
        time: 1.733333
        value: -0.1044475
        inSlope: -0.4193224
        outSlope: -0.4193224
        tangentMode: 0
      - serializedVersion: 2
        time: 1.966667
        value: -0.1780143
        inSlope: 0
        outSlope: 0
        tangentMode: 0
      m_PreInfinity: 2
      m_PostInfinity: 2
      m_RotationOrder: 4
    attribute: m_LocalRotation.y
    path: Rig/Root/Body/Fin_Front_L
    classID: 4
    script: {fileID: 0}
  - curve:
      serializedVersion: 2
      m_Curve:
      - serializedVersion: 2
        time: 0
        value: -0.6540787
        inSlope: 0.1069611
        outSlope: 0.1069611
        tangentMode: 0
      - serializedVersion: 2
        time: 0.4333334
        value: -0.6997241
        inSlope: -0.240216
        outSlope: -0.240216
        tangentMode: 0
      - serializedVersion: 2
        time: 0.8666667
        value: -0.7796715
        inSlope: -0.08819371
        outSlope: -0.08819371
        tangentMode: 0
      - serializedVersion: 2
        time: 1.3
        value: -0.7823539
        inSlope: 0.07320828
        outSlope: 0.07320828
        tangentMode: 0
      - serializedVersion: 2
        time: 1.733333
        value: -0.707785
        inSlope: 0.2415586
        outSlope: 0.2415586
        tangentMode: 0
      - serializedVersion: 2
        time: 1.966667
        value: -0.6584476
        inSlope: 0
        outSlope: 0
        tangentMode: 0
      m_PreInfinity: 2
      m_PostInfinity: 2
      m_RotationOrder: 4
    attribute: m_LocalRotation.z
    path: Rig/Root/Body/Fin_Front_L
    classID: 4
    script: {fileID: 0}
  - curve:
      serializedVersion: 2
      m_Curve:
      - serializedVersion: 2
        time: 0
        value: -0.2671701
        inSlope: -0.04080981
        outSlope: -0.04080981
        tangentMode: 0
      - serializedVersion: 2
        time: 0.4333334
        value: -0.2556786
        inSlope: 0.06406725
        outSlope: 0.06406725
        tangentMode: 0
      - serializedVersion: 2
        time: 0.8666667
        value: -0.2295293
        inSlope: 0.0407631
        outSlope: 0.0407631
        tangentMode: 0
      - serializedVersion: 2
        time: 1.3
        value: -0.2282506
        inSlope: -0.03581133
        outSlope: -0.03581133
        tangentMode: 0
      - serializedVersion: 2
        time: 1.733333
        value: -0.2535033
        inSlope: -0.06606409
        outSlope: -0.06606409
        tangentMode: 0
      - serializedVersion: 2
        time: 1.966667
        value: -0.2661187
        inSlope: 0
        outSlope: 0
        tangentMode: 0
      m_PreInfinity: 2
      m_PostInfinity: 2
      m_RotationOrder: 4
    attribute: m_LocalRotation.w
    path: Rig/Root/Body/Fin_Front_L
    classID: 4
    script: {fileID: 0}
  - curve:
      serializedVersion: 2
      m_Curve:
      - serializedVersion: 2
        time: 0
        value: -0.3486272
        inSlope: -0.02273977
        outSlope: -0.02273977
        tangentMode: 0
      - serializedVersion: 2
        time: 0.5666667
        value: -0.4794813
        inSlope: -0.2977279
        outSlope: -0.2977279
        tangentMode: 0
      - serializedVersion: 2
        time: 1.133333
        value: -0.5469285
        inSlope: 0.1247682
        outSlope: 0.1247682
        tangentMode: 0
      - serializedVersion: 2
        time: 1.6
        value: -0.4276931
        inSlope: 0.3105235
        outSlope: 0.3105235
        tangentMode: 0
      - serializedVersion: 2
        time: 1.966667
        value: -0.3493852
        inSlope: 0
        outSlope: 0
        tangentMode: 0
      m_PreInfinity: 2
      m_PostInfinity: 2
      m_RotationOrder: 4
    attribute: m_LocalRotation.x
    path: Rig/Root/Body/Fin_Back_L
    classID: 4
    script: {fileID: 0}
  - curve:
      serializedVersion: 2
      m_Curve:
      - serializedVersion: 2
        time: 0
        value: 0.01232923
        inSlope: -0.02243746
        outSlope: -0.02243746
        tangentMode: 0
      - serializedVersion: 2
        time: 0.5666667
        value: -0.1244943
        inSlope: -0.3315561
        outSlope: -0.3315561
        tangentMode: 0
      - serializedVersion: 2
        time: 1.133333
        value: -0.2026932
        inSlope: 0.1509569
        outSlope: 0.1509569
        tangentMode: 0
      - serializedVersion: 2
        time: 1.6
        value: -0.06833929
        inSlope: 0.3281978
        outSlope: 0.3281978
        tangentMode: 0
      - serializedVersion: 2
        time: 1.966667
        value: 0.01158132
        inSlope: 0
        outSlope: 0
        tangentMode: 0
      m_PreInfinity: 2
      m_PostInfinity: 2
      m_RotationOrder: 4
    attribute: m_LocalRotation.y
    path: Rig/Root/Body/Fin_Back_L
    classID: 4
    script: {fileID: 0}
  - curve:
      serializedVersion: 2
      m_Curve:
      - serializedVersion: 2
        time: 0
        value: 0.6581264
        inSlope: 0.0004059076
        outSlope: 0.0004059076
        tangentMode: 0
      - serializedVersion: 2
        time: 0.5666667
        value: 0.6463617
        inSlope: -0.06380707
        outSlope: -0.06380707
        tangentMode: 0
      - serializedVersion: 2
        time: 1.133333
        value: 0.6262569
        inSlope: 0.04871604
        outSlope: 0.04871604
        tangentMode: 0
      - serializedVersion: 2
        time: 1.6
        value: 0.6546847
        inSlope: 0.03433671
        outSlope: 0.03433671
        tangentMode: 0
      - serializedVersion: 2
        time: 1.966667
        value: 0.6581399
        inSlope: 0
        outSlope: 0
        tangentMode: 0
      m_PreInfinity: 2
      m_PostInfinity: 2
      m_RotationOrder: 4
    attribute: m_LocalRotation.z
    path: Rig/Root/Body/Fin_Back_L
    classID: 4
    script: {fileID: 0}
  - curve:
      serializedVersion: 2
      m_Curve:
      - serializedVersion: 2
        time: 0
        value: 0.6672157
        inSlope: -0.01189828
        outSlope: -0.01189828
        tangentMode: 0
      - serializedVersion: 2
        time: 0.5666667
        value: 0.580358
        inSlope: -0.2458996
        outSlope: -0.2458996
        tangentMode: 0
      - serializedVersion: 2
        time: 1.133333
        value: 0.517288
        inSlope: 0.1316928
        outSlope: 0.1316928
        tangentMode: 0
      - serializedVersion: 2
        time: 1.6
        value: 0.619513
        inSlope: 0.2144827
        outSlope: 0.2144827
        tangentMode: 0
      - serializedVersion: 2
        time: 1.966667
        value: 0.6668191
        inSlope: 0
        outSlope: 0
        tangentMode: 0
      m_PreInfinity: 2
      m_PostInfinity: 2
      m_RotationOrder: 4
    attribute: m_LocalRotation.w
    path: Rig/Root/Body/Fin_Back_L
    classID: 4
    script: {fileID: 0}
  - curve:
      serializedVersion: 2
      m_Curve:
      - serializedVersion: 2
        time: 0
        value: 0.6834435
        inSlope: 0.05757987
        outSlope: 0.05757987
        tangentMode: 0
      - serializedVersion: 2
        time: 0.4333334
        value: 0.6565667
        inSlope: -0.1603845
        outSlope: -0.1603845
        tangentMode: 0
      - serializedVersion: 2
        time: 0.8666667
        value: 0.5774924
        inSlope: -0.1516593
        outSlope: -0.1516593
        tangentMode: 0
      - serializedVersion: 2
        time: 1.3
        value: 0.5726672
        inSlope: 0.1366998
        outSlope: 0.1366998
        tangentMode: 0
      - serializedVersion: 2
        time: 1.733333
        value: 0.651051
        inSlope: 0.1698954
        outSlope: 0.1698954
        tangentMode: 0
      - serializedVersion: 2
        time: 1.966667
        value: 0.6811301
        inSlope: 0
        outSlope: 0
        tangentMode: 0
      m_PreInfinity: 2
      m_PostInfinity: 2
      m_RotationOrder: 4
    attribute: m_LocalRotation.x
    path: Rig/Root/Body/Fin_Front_R
    classID: 4
    script: {fileID: 0}
  - curve:
      serializedVersion: 2
      m_Curve:
      - serializedVersion: 2
        time: 0
        value: 0.1835928
        inSlope: 0.1048355
        outSlope: 0.1048355
        tangentMode: 0
      - serializedVersion: 2
        time: 0.4333334
        value: 0.1180457
        inSlope: -0.3948964
        outSlope: -0.3948964
        tangentMode: 0
      - serializedVersion: 2
        time: 0.8666667
        value: -0.07701416
        inSlope: -0.3694333
        outSlope: -0.3694333
        tangentMode: 0
      - serializedVersion: 2
        time: 1.3
        value: -0.0887486
        inSlope: 0.3319801
        outSlope: 0.3319801
        tangentMode: 0
      - serializedVersion: 2
        time: 1.733333
        value: 0.104447
        inSlope: 0.4193229
        outSlope: 0.4193229
        tangentMode: 0
      - serializedVersion: 2
        time: 1.966667
        value: 0.178015
        inSlope: 0
        outSlope: 0
        tangentMode: 0
      m_PreInfinity: 2
      m_PostInfinity: 2
      m_RotationOrder: 4
    attribute: m_LocalRotation.y
    path: Rig/Root/Body/Fin_Front_R
    classID: 4
    script: {fileID: 0}
  - curve:
      serializedVersion: 2
      m_Curve:
      - serializedVersion: 2
        time: 0
        value: 0.6540787
        inSlope: -0.1069593
        outSlope: -0.1069593
        tangentMode: 0
      - serializedVersion: 2
        time: 0.4333334
        value: 0.6997241
        inSlope: 0.240216
        outSlope: 0.240216
        tangentMode: 0
      - serializedVersion: 2
        time: 0.8666667
        value: 0.7796717
        inSlope: 0.08819461
        outSlope: 0.08819461
        tangentMode: 0
      - serializedVersion: 2
        time: 1.3
        value: 0.7823539
        inSlope: -0.07320739
        outSlope: -0.07320739
        tangentMode: 0
      - serializedVersion: 2
        time: 1.733333
        value: 0.707785
        inSlope: -0.2415586
        outSlope: -0.2415586
        tangentMode: 0
      - serializedVersion: 2
        time: 1.966667
        value: 0.6584474
        inSlope: 0
        outSlope: 0
        tangentMode: 0
      m_PreInfinity: 2
      m_PostInfinity: 2
      m_RotationOrder: 4
    attribute: m_LocalRotation.z
    path: Rig/Root/Body/Fin_Front_R
    classID: 4
    script: {fileID: 0}
  - curve:
      serializedVersion: 2
      m_Curve:
      - serializedVersion: 2
        time: 0
        value: -0.2671701
        inSlope: -0.04080981
        outSlope: -0.04080981
        tangentMode: 0
      - serializedVersion: 2
        time: 0.4333334
        value: -0.2556786
        inSlope: 0.06406993
        outSlope: 0.06406993
        tangentMode: 0
      - serializedVersion: 2
        time: 0.8666667
        value: -0.2295292
        inSlope: 0.04076242
        outSlope: 0.04076242
        tangentMode: 0
      - serializedVersion: 2
        time: 1.3
        value: -0.2282506
        inSlope: -0.03580999
        outSlope: -0.03580999
        tangentMode: 0
      - serializedVersion: 2
        time: 1.733333
        value: -0.2535028
        inSlope: -0.06606409
        outSlope: -0.06606409
        tangentMode: 0
      - serializedVersion: 2
        time: 1.966667
        value: -0.2661195
        inSlope: 0
        outSlope: 0
        tangentMode: 0
      m_PreInfinity: 2
      m_PostInfinity: 2
      m_RotationOrder: 4
    attribute: m_LocalRotation.w
    path: Rig/Root/Body/Fin_Front_R
    classID: 4
    script: {fileID: 0}
  - curve:
      serializedVersion: 2
      m_Curve:
      - serializedVersion: 2
        time: 0
        value: -0.3486272
        inSlope: -0.02273977
        outSlope: -0.02273977
        tangentMode: 0
      - serializedVersion: 2
        time: 0.5666667
        value: -0.4794813
        inSlope: -0.2977284
        outSlope: -0.2977284
        tangentMode: 0
      - serializedVersion: 2
        time: 1.133333
        value: -0.5469285
        inSlope: 0.1247682
        outSlope: 0.1247682
        tangentMode: 0
      - serializedVersion: 2
        time: 1.6
        value: -0.4276931
        inSlope: 0.3105235
        outSlope: 0.3105235
        tangentMode: 0
      - serializedVersion: 2
        time: 1.966667
        value: -0.3493852
        inSlope: 0
        outSlope: 0
        tangentMode: 0
      m_PreInfinity: 2
      m_PostInfinity: 2
      m_RotationOrder: 4
    attribute: m_LocalRotation.x
    path: Rig/Root/Body/Fin_Back_R
    classID: 4
    script: {fileID: 0}
  - curve:
      serializedVersion: 2
      m_Curve:
      - serializedVersion: 2
        time: 0
        value: -0.01232925
        inSlope: 0.02243749
        outSlope: 0.02243749
        tangentMode: 0
      - serializedVersion: 2
        time: 0.5666667
        value: 0.1244943
        inSlope: 0.331556
        outSlope: 0.331556
        tangentMode: 0
      - serializedVersion: 2
        time: 1.133333
        value: 0.2026932
        inSlope: -0.1509571
        outSlope: -0.1509571
        tangentMode: 0
      - serializedVersion: 2
        time: 1.6
        value: 0.06833928
        inSlope: -0.3281977
        outSlope: -0.3281977
        tangentMode: 0
      - serializedVersion: 2
        time: 1.966667
        value: -0.01158133
        inSlope: 0
        outSlope: 0
        tangentMode: 0
      m_PreInfinity: 2
      m_PostInfinity: 2
      m_RotationOrder: 4
    attribute: m_LocalRotation.y
    path: Rig/Root/Body/Fin_Back_R
    classID: 4
    script: {fileID: 0}
  - curve:
      serializedVersion: 2
      m_Curve:
      - serializedVersion: 2
        time: 0
        value: -0.6581264
        inSlope: -0.0004076957
        outSlope: -0.0004076957
        tangentMode: 0
      - serializedVersion: 2
        time: 0.5666667
        value: -0.6463617
        inSlope: 0.06380707
        outSlope: 0.06380707
        tangentMode: 0
      - serializedVersion: 2
        time: 1.133333
        value: -0.6262569
        inSlope: -0.04871604
        outSlope: -0.04871604
        tangentMode: 0
      - serializedVersion: 2
        time: 1.6
        value: -0.6546847
        inSlope: -0.03433671
        outSlope: -0.03433671
        tangentMode: 0
      - serializedVersion: 2
        time: 1.966667
        value: -0.6581399
        inSlope: 0
        outSlope: 0
        tangentMode: 0
      m_PreInfinity: 2
      m_PostInfinity: 2
      m_RotationOrder: 4
    attribute: m_LocalRotation.z
    path: Rig/Root/Body/Fin_Back_R
    classID: 4
    script: {fileID: 0}
  - curve:
      serializedVersion: 2
      m_Curve:
      - serializedVersion: 2
        time: 0
        value: 0.6672157
        inSlope: -0.01189828
        outSlope: -0.01189828
        tangentMode: 0
      - serializedVersion: 2
        time: 0.5666667
        value: 0.580358
        inSlope: -0.2458996
        outSlope: -0.2458996
        tangentMode: 0
      - serializedVersion: 2
        time: 1.133333
        value: 0.517288
        inSlope: 0.1316928
        outSlope: 0.1316928
        tangentMode: 0
      - serializedVersion: 2
        time: 1.6
        value: 0.619513
        inSlope: 0.2144827
        outSlope: 0.2144827
        tangentMode: 0
      - serializedVersion: 2
        time: 1.966667
        value: 0.6668191
        inSlope: 0
        outSlope: 0
        tangentMode: 0
      m_PreInfinity: 2
      m_PostInfinity: 2
      m_RotationOrder: 4
    attribute: m_LocalRotation.w
    path: Rig/Root/Body/Fin_Back_R
    classID: 4
    script: {fileID: 0}
  m_Events:
