%YAML 1.1
%TAG !u! tag:unity3d.com,2011:
--- !u!74 &7400000
AnimationClip:
  m_ObjectHideFlags: 0
  m_PrefabParentObject: {fileID: 0}
  m_PrefabInternal: {fileID: 0}
  m_Name: "Icefish_L@Idle"
  serializedVersion: 6
  m_Legacy: 0
  m_Compressed: 0
  m_UseHighQualityCurve: 1
  m_RotationCurves:
  - curve:
      serializedVersion: 2
      m_Curve:
      - serializedVersion: 3
        time: 0
        value: {x: 0.7353789, y: 0.01899972, z: 0.01749564, w: 0.6771638}
        inSlope: {x: -0.03653884, y: -0.0009440258, z: 0.001023319, w: 0.03960907}
        outSlope: {x: -0.03653884, y: -0.0009440258, z: 0.001023319, w: 0.03960907}
        weightedMode: 0
        inWeight: { x: 0.3333333, y: 0.3333333, z: 0.3333333, w: 0.3333333}
        outWeight: { x: 0.3333333, y: 0.3333333, z: 0.3333333, w: 0.3333333}
      - serializedVersion: 3
        time: 1.1
        value: {x: 0.6820261, y: 0.01762126, z: 0.01888327, w: 0.7308716}
        inSlope: {x: 0.06107652, y: 0.001578004, z: -0.001473034, w: -0.05701477}
        outSlope: {x: 0.06107652, y: 0.001578004, z: -0.001473034, w: -0.05701477}
        weightedMode: 0
        inWeight: { x: 0.3333333, y: 0.3333333, z: 0.3333333, w: 0.3333333}
        outWeight: { x: 0.3333333, y: 0.3333333, z: 0.3333333, w: 0.3333333}
      - serializedVersion: 3
        time: 1.866667
        value: {x: 0.7368393, y: 0.01903745, z: 0.01745457, w: 0.6755745}
        inSlope: {x: 0, y: 0, z: 0, w: 0}
        outSlope: {x: 0, y: 0, z: 0, w: 0}
        weightedMode: 0
        inWeight: { x: 0.3333333, y: 0.3333333, z: 0.3333333, w: 0.3333333}
        outWeight: { x: 0.3333333, y: 0.3333333, z: 0.3333333, w: 0.3333333}
      m_PreInfinity: 2
      m_PostInfinity: 2
      m_RotationOrder: 4
    path: Rig/Root/Body
  - curve:
      serializedVersion: 2
      m_Curve:
      - serializedVersion: 3
        time: 0
        value: {x: -0.6666477, y: -0.08947551, z: -0.09503275, w: 0.7338554}
        inSlope: {x: 0.1057702, y: 0.00356622, z: 0.03156647, w: 0.1001018}
        outSlope: {x: 0.1057702, y: 0.00356622, z: 0.03156647, w: 0.1001018}
        weightedMode: 0
        inWeight: { x: 0.3333333, y: 0.3333333, z: 0.3333333, w: 0.3333333}
        outWeight: { x: 0.3333333, y: 0.3333333, z: 0.3333333, w: 0.3333333}
      - serializedVersion: 3
        time: 0.6
        value: {x: -0.664848, y: 0.02682018, z: 0.02795006, w: 0.7459736}
        inSlope: {x: -0.08916736, y: 0.2566781, z: 0.2749651, w: -0.09894401}
        outSlope: {x: -0.08916736, y: 0.2566781, z: 0.2749651, w: -0.09894401}
        weightedMode: 0
        inWeight: { x: 0.3333333, y: 0.3333333, z: 0.3333333, w: 0.3333333}
        outWeight: { x: 0.3333333, y: 0.3333333, z: 0.3333333, w: 0.3333333}
      - serializedVersion: 3
        time: 1.166667
        value: {x: -0.7217591, y: 0.06995703, z: 0.08653563, w: 0.6831409}
        inSlope: {x: -0.08174844, y: -0.1440841, z: -0.1615848, w: -0.05129909}
        outSlope: {x: -0.08174844, y: -0.1440841, z: -0.1615848, w: -0.05129909}
        weightedMode: 0
        inWeight: { x: 0.3333333, y: 0.3333333, z: 0.3333333, w: 0.3333333}
        outWeight: { x: 0.3333333, y: 0.3333333, z: 0.3333333, w: 0.3333333}
      - serializedVersion: 3
        time: 1.7
        value: {x: -0.7061269, y: -0.04819167, z: -0.05652844, w: 0.7041782}
        inSlope: {x: 0.1280834, y: -0.2219155, z: -0.242318, w: 0.09393893}
        outSlope: {x: 0.1280834, y: -0.2219155, z: -0.242318, w: 0.09393893}
        weightedMode: 0
        inWeight: { x: 0.3333333, y: 0.3333333, z: 0.3333333, w: 0.3333333}
        outWeight: { x: 0.3333333, y: 0.3333333, z: 0.3333333, w: 0.3333333}
      - serializedVersion: 3
        time: 1.966667
        value: {x: -0.6704906, y: -0.08840856, z: -0.09487308, w: 0.7304966}
        inSlope: {x: 0, y: 0, z: 0, w: 0}
        outSlope: {x: 0, y: 0, z: 0, w: 0}
        weightedMode: 0
        inWeight: { x: 0.3333333, y: 0.3333333, z: 0.3333333, w: 0.3333333}
        outWeight: { x: 0.3333333, y: 0.3333333, z: 0.3333333, w: 0.3333333}
      m_PreInfinity: 2
      m_PostInfinity: 2
      m_RotationOrder: 4
    path: Rig/Root/Body/Tail_01
  - curve:
      serializedVersion: 2
      m_Curve:
      - serializedVersion: 3
        time: 0
        value: {x: -0.1536718, y: -3.180998E-09, z: 1.390214E-08, w: 0.988122}
        inSlope: {x: 0.2237999, y: 0.04804322, z: -0.5205849, w: 0.02933442}
        outSlope: {x: 0.2237999, y: 0.04804322, z: -0.5205849, w: 0.02933442}
        weightedMode: 0
        inWeight: { x: 0.3333333, y: 0.3333333, z: 0.3333333, w: 0.3333333}
        outWeight: { x: 0.3333333, y: 0.3333333, z: 0.3333333, w: 0.3333333}
      - serializedVersion: 3
        time: 0.4333334
        value: {x: -0.009862741, y: -0.007568191, z: -0.1690975, w: 0.985521}
        inSlope: {x: 0.3564716, y: -0.06644483, z: -0.1248506, w: -0.01817107}
        outSlope: {x: 0.3564716, y: -0.06644483, z: -0.1248506, w: -0.01817107}
        weightedMode: 0
        inWeight: { x: 0.3333333, y: 0.3333333, z: 0.3333333, w: 0.3333333}
        outWeight: { x: 0.3333333, y: 0.3333333, z: 0.3333333, w: 0.3333333}
      - serializedVersion: 3
        time: 0.9666667
        value: {x: 0.06620597, y: -0.002103442, z: -0.01729914, w: 0.9976538}
        inSlope: {x: -0.1727143, y: 0.06548628, z: 0.5162549, w: 0.02040448}
        outSlope: {x: -0.1727143, y: 0.06548628, z: 0.5162549, w: 0.02040448}
        weightedMode: 0
        inWeight: { x: 0.3333333, y: 0.3333333, z: 0.3333333, w: 0.3333333}
        outWeight: { x: 0.3333333, y: 0.3333333, z: 0.3333333, w: 0.3333333}
      - serializedVersion: 3
        time: 1.4
        value: {x: -0.07116198, y: -0.002864829, z: 0.1639897, w: 0.9838878}
        inSlope: {x: -0.3616924, y: -0.06351738, z: 0.1841157, w: -0.05681371}
        outSlope: {x: -0.3616924, y: -0.06351738, z: 0.1841157, w: -0.05681371}
        weightedMode: 0
        inWeight: { x: 0.3333333, y: 0.3333333, z: 0.3333333, w: 0.3333333}
        outWeight: { x: 0.3333333, y: 0.3333333, z: 0.3333333, w: 0.3333333}
      - serializedVersion: 3
        time: 1.933333
        value: {x: -0.1650066, y: -0.003847531, z: 0.03447874, w: 0.9856821}
        inSlope: {x: 0.130332, y: 0.06121096, z: -0.5095348, w: 0.03970829}
        outSlope: {x: 0.130332, y: 0.06121096, z: -0.5095348, w: 0.03970829}
        weightedMode: 0
        inWeight: { x: 0.3333333, y: 0.3333333, z: 0.3333333, w: 0.3333333}
        outWeight: { x: 0.3333333, y: 0.3333333, z: 0.3333333, w: 0.3333333}
      - serializedVersion: 3
        time: 1.966667
        value: {x: -0.1599739, y: -0.001842975, z: 0.01732883, w: 0.9869674}
        inSlope: {x: 0, y: 0, z: 0, w: 0}
        outSlope: {x: 0, y: 0, z: 0, w: 0}
        weightedMode: 0
        inWeight: { x: 0.3333333, y: 0.3333333, z: 0.3333333, w: 0.3333333}
        outWeight: { x: 0.3333333, y: 0.3333333, z: 0.3333333, w: 0.3333333}
      m_PreInfinity: 2
      m_PostInfinity: 2
      m_RotationOrder: 4
    path: Rig/Root/Body/Tail_01/Tail_02
  - curve:
      serializedVersion: 2
      m_Curve:
      - serializedVersion: 3
        time: 0
        value: {x: -0.7369041, y: 0.03190094, z: 0.08526301, w: 0.6698395}
        inSlope: {x: 0.0567913, y: 0.10079, z: -0.09609952, w: 0.0692296}
        outSlope: {x: 0.0567913, y: 0.10079, z: -0.09609952, w: 0.0692296}
        weightedMode: 0
        inWeight: { x: 0.3333333, y: 0.3333333, z: 0.3333333, w: 0.3333333}
        outWeight: { x: 0.3333333, y: 0.3333333, z: 0.3333333, w: 0.3333333}
      - serializedVersion: 3
        time: 0.4333334
        value: {x: -0.7641917, y: -0.03048087, z: 0.1204058, w: 0.6329173}
        inSlope: {x: -0.1455009, y: -0.3692459, z: 0.1834506, w: -0.2287004}
        outSlope: {x: -0.1455009, y: -0.3692459, z: 0.1834506, w: -0.2287004}
        weightedMode: 0
        inWeight: { x: 0.3333333, y: 0.3333333, z: 0.3333333, w: 0.3333333}
        outWeight: { x: 0.3333333, y: 0.3333333, z: 0.3333333, w: 0.3333333}
      - serializedVersion: 3
        time: 0.8666667
        value: {x: -0.8139362, y: -0.2058877, z: 0.1804753, w: 0.5123934}
        inSlope: {x: -0.0565365, y: -0.3213322, z: 0.06509274, w: -0.2413148}
        outSlope: {x: -0.0565365, y: -0.3213322, z: 0.06509274, w: -0.2413148}
        weightedMode: 0
        inWeight: { x: 0.3333333, y: 0.3333333, z: 0.3333333, w: 0.3333333}
        outWeight: { x: 0.3333333, y: 0.3333333, z: 0.3333333, w: 0.3333333}
      - serializedVersion: 3
        time: 1.3
        value: {x: -0.815658, y: -0.2160749, z: 0.1824537, w: 0.5047023}
        inSlope: {x: 0.04703258, y: 0.2877796, z: -0.0539728, w: 0.2181733}
        outSlope: {x: 0.04703258, y: 0.2877796, z: -0.0539728, w: 0.2181733}
        weightedMode: 0
        inWeight: { x: 0.3333333, y: 0.3333333, z: 0.3333333, w: 0.3333333}
        outWeight: { x: 0.3333333, y: 0.3333333, z: 0.3333333, w: 0.3333333}
      - serializedVersion: 3
        time: 1.733333
        value: {x: -0.7690859, y: -0.04315643, z: 0.1265527, w: 0.625003}
        inSlope: {x: 0.1470314, y: 0.3895674, z: -0.1839244, w: 0.245362}
        outSlope: {x: 0.1470314, y: 0.3895674, z: -0.1839244, w: 0.245362}
        weightedMode: 0
        inWeight: { x: 0.3333333, y: 0.3333333, z: 0.3333333, w: 0.3333333}
        outWeight: { x: 0.3333333, y: 0.3333333, z: 0.3333333, w: 0.3333333}
      - serializedVersion: 3
        time: 1.966667
        value: {x: -0.7394867, y: 0.02649974, z: 0.08865037, w: 0.6667821}
        inSlope: {x: 0, y: 0, z: 0, w: 0}
        outSlope: {x: 0, y: 0, z: 0, w: 0}
        weightedMode: 0
        inWeight: { x: 0.3333333, y: 0.3333333, z: 0.3333333, w: 0.3333333}
        outWeight: { x: 0.3333333, y: 0.3333333, z: 0.3333333, w: 0.3333333}
      m_PreInfinity: 2
      m_PostInfinity: 2
      m_RotationOrder: 4
    path: Rig/Root/Body/Fin_Front_L
  - curve:
      serializedVersion: 2
      m_Curve:
      - serializedVersion: 3
        time: 0.03333334
        value: {x: -0.5230356, y: -0.4412819, z: 0.5548595, w: 0.473112}
        inSlope: {x: -0.04683673, y: -0.05495756, z: -0.04385769, w: -0.0519517}
        outSlope: {x: -0.04683673, y: -0.05495756, z: -0.04385769, w: -0.0519517}
        weightedMode: 0
        inWeight: { x: 0.3333333, y: 0.3333333, z: 0.3333333, w: 0.3333333}
        outWeight: { x: 0.3333333, y: 0.3333333, z: 0.3333333, w: 0.3333333}
      - serializedVersion: 3
        time: 0.5666667
        value: {x: -0.6094161, y: -0.5462934, z: 0.4518432, w: 0.3549834}
        inSlope: {x: -0.1821345, y: -0.2318126, z: -0.2801809, w: -0.3125668}
        outSlope: {x: -0.1821345, y: -0.2318126, z: -0.2801809, w: -0.3125668}
        weightedMode: 0
        inWeight: { x: 0.3333333, y: 0.3333333, z: 0.3333333, w: 0.3333333}
        outWeight: { x: 0.3333333, y: 0.3333333, z: 0.3333333, w: 0.3333333}
      - serializedVersion: 3
        time: 1.133333
        value: {x: -0.6482928, y: -0.5975037, z: 0.3815601, w: 0.2777007}
        inSlope: {x: 0.06705339, y: 0.09207124, z: 0.1439071, w: 0.1561675}
        outSlope: {x: 0.06705339, y: 0.09207124, z: 0.1439071, w: 0.1561675}
        weightedMode: 0
        inWeight: { x: 0.3333333, y: 0.3333333, z: 0.3333333, w: 0.3333333}
        outWeight: { x: 0.3333333, y: 0.3333333, z: 0.3333333, w: 0.3333333}
      - serializedVersion: 3
        time: 1.6
        value: {x: -0.5765636, y: -0.50533, z: 0.4972328, w: 0.4061719}
        inSlope: {x: 0.2035545, y: 0.2492137, z: 0.2533898, w: 0.28909}
        outSlope: {x: 0.2035545, y: 0.2492137, z: 0.2533898, w: 0.28909}
        weightedMode: 0
        inWeight: { x: 0.3333333, y: 0.3333333, z: 0.3333333, w: 0.3333333}
        outWeight: { x: 0.3333333, y: 0.3333333, z: 0.3333333, w: 0.3333333}
      - serializedVersion: 3
        time: 1.966667
        value: {x: -0.5230355, y: -0.4412818, z: 0.5548596, w: 0.4731121}
        inSlope: {x: 0, y: 0, z: 0, w: 0}
        outSlope: {x: 0, y: 0, z: 0, w: 0}
        weightedMode: 0
        inWeight: { x: 0.3333333, y: 0.3333333, z: 0.3333333, w: 0.3333333}
        outWeight: { x: 0.3333333, y: 0.3333333, z: 0.3333333, w: 0.3333333}
      m_PreInfinity: 2
      m_PostInfinity: 2
      m_RotationOrder: 4
    path: Rig/Root/Body/Fin_Back_L
  - curve:
      serializedVersion: 2
      m_Curve:
      - serializedVersion: 3
        time: 0
        value: {x: -0.7369041, y: -0.03190094, z: -0.08526301, w: 0.6698395}
        inSlope: {x: 0.0567913, y: -0.1007895, z: 0.09609929, w: 0.0692296}
        outSlope: {x: 0.0567913, y: -0.1007895, z: 0.09609929, w: 0.0692296}
        weightedMode: 0
        inWeight: { x: 0.3333333, y: 0.3333333, z: 0.3333333, w: 0.3333333}
        outWeight: { x: 0.3333333, y: 0.3333333, z: 0.3333333, w: 0.3333333}
      - serializedVersion: 3
        time: 0.4333334
        value: {x: -0.7641917, y: 0.03048087, z: -0.1204058, w: 0.6329173}
        inSlope: {x: -0.1455027, y: 0.3692472, z: -0.183451, w: -0.228703}
        outSlope: {x: -0.1455027, y: 0.3692472, z: -0.183451, w: -0.228703}
        weightedMode: 0
        inWeight: { x: 0.3333333, y: 0.3333333, z: 0.3333333, w: 0.3333333}
        outWeight: { x: 0.3333333, y: 0.3333333, z: 0.3333333, w: 0.3333333}
      - serializedVersion: 3
        time: 0.8666667
        value: {x: -0.8139362, y: 0.2058876, z: -0.1804755, w: 0.5123934}
        inSlope: {x: -0.0565365, y: 0.3213333, z: -0.06509319, w: -0.2413148}
        outSlope: {x: -0.0565365, y: 0.3213333, z: -0.06509319, w: -0.2413148}
        weightedMode: 0
        inWeight: { x: 0.3333333, y: 0.3333333, z: 0.3333333, w: 0.3333333}
        outWeight: { x: 0.3333333, y: 0.3333333, z: 0.3333333, w: 0.3333333}
      - serializedVersion: 3
        time: 1.3
        value: {x: -0.8156579, y: 0.2160749, z: -0.1824537, w: 0.5047024}
        inSlope: {x: 0.04703169, y: -0.2877781, z: 0.05397079, w: 0.2181711}
        outSlope: {x: 0.04703169, y: -0.2877781, z: 0.05397079, w: 0.2181711}
        weightedMode: 0
        inWeight: { x: 0.3333333, y: 0.3333333, z: 0.3333333, w: 0.3333333}
        outWeight: { x: 0.3333333, y: 0.3333333, z: 0.3333333, w: 0.3333333}
      - serializedVersion: 3
        time: 1.733333
        value: {x: -0.7690862, y: 0.04315652, z: -0.1265527, w: 0.6250026}
        inSlope: {x: 0.1470314, y: -0.3895673, z: 0.1839243, w: 0.245362}
        outSlope: {x: 0.1470314, y: -0.3895673, z: 0.1839243, w: 0.245362}
        weightedMode: 0
        inWeight: { x: 0.3333333, y: 0.3333333, z: 0.3333333, w: 0.3333333}
        outWeight: { x: 0.3333333, y: 0.3333333, z: 0.3333333, w: 0.3333333}
      - serializedVersion: 3
        time: 1.966667
        value: {x: -0.7394859, y: -0.02649985, z: -0.08865023, w: 0.6667829}
        inSlope: {x: 0, y: 0, z: 0, w: 0}
        outSlope: {x: 0, y: 0, z: 0, w: 0}
        weightedMode: 0
        inWeight: { x: 0.3333333, y: 0.3333333, z: 0.3333333, w: 0.3333333}
        outWeight: { x: 0.3333333, y: 0.3333333, z: 0.3333333, w: 0.3333333}
      m_PreInfinity: 2
      m_PostInfinity: 2
      m_RotationOrder: 4
    path: Rig/Root/Body/Fin_Front_R
  - curve:
      serializedVersion: 2
      m_Curve:
      - serializedVersion: 3
        time: 0.03333334
        value: {x: 0.5230356, y: -0.4412817, z: 0.5548596, w: -0.4731121}
        inSlope: {x: 0.04684031, y: -0.05496204, z: -0.04385948, w: 0.05195438}
        outSlope: {x: 0.04684031, y: -0.05496204, z: -0.04385948, w: 0.05195438}
        weightedMode: 0
        inWeight: { x: 0.3333333, y: 0.3333333, z: 0.3333333, w: 0.3333333}
        outWeight: { x: 0.3333333, y: 0.3333333, z: 0.3333333, w: 0.3333333}
      - serializedVersion: 3
        time: 0.5666667
        value: {x: 0.6094162, y: -0.5462933, z: 0.4518433, w: -0.3549834}
        inSlope: {x: 0.1821345, y: -0.2318126, z: -0.2801809, w: 0.3125668}
        outSlope: {x: 0.1821345, y: -0.2318126, z: -0.2801809, w: 0.3125668}
        weightedMode: 0
        inWeight: { x: 0.3333333, y: 0.3333333, z: 0.3333333, w: 0.3333333}
        outWeight: { x: 0.3333333, y: 0.3333333, z: 0.3333333, w: 0.3333333}
      - serializedVersion: 3
        time: 1.133333
        value: {x: 0.6482928, y: -0.5975036, z: 0.3815602, w: -0.2777007}
        inSlope: {x: -0.06705339, y: 0.09207213, z: 0.1439089, w: -0.1561693}
        outSlope: {x: -0.06705339, y: 0.09207213, z: 0.1439089, w: -0.1561693}
        weightedMode: 0
        inWeight: { x: 0.3333333, y: 0.3333333, z: 0.3333333, w: 0.3333333}
        outWeight: { x: 0.3333333, y: 0.3333333, z: 0.3333333, w: 0.3333333}
      - serializedVersion: 3
        time: 1.6
        value: {x: 0.5765637, y: -0.5053298, z: 0.4972328, w: -0.4061719}
        inSlope: {x: -0.2035553, y: 0.2492141, z: 0.2533903, w: -0.2890905}
        outSlope: {x: -0.2035553, y: 0.2492141, z: 0.2533903, w: -0.2890905}
        weightedMode: 0
        inWeight: { x: 0.3333333, y: 0.3333333, z: 0.3333333, w: 0.3333333}
        outWeight: { x: 0.3333333, y: 0.3333333, z: 0.3333333, w: 0.3333333}
      - serializedVersion: 3
        time: 1.966667
        value: {x: 0.5230356, y: -0.4412817, z: 0.5548596, w: -0.4731121}
        inSlope: {x: 0, y: 0, z: 0, w: 0}
        outSlope: {x: 0, y: 0, z: 0, w: 0}
        weightedMode: 0
        inWeight: { x: 0.3333333, y: 0.3333333, z: 0.3333333, w: 0.3333333}
        outWeight: { x: 0.3333333, y: 0.3333333, z: 0.3333333, w: 0.3333333}
      m_PreInfinity: 2
      m_PostInfinity: 2
      m_RotationOrder: 4
    path: Rig/Root/Body/Fin_Back_R
  - curve:
      serializedVersion: 2
      m_Curve:
      - serializedVersion: 3
        time: 0
        value: {x: -0.2566871, y: 1.231902E-08, z: -5.335473E-08, w: 0.9664946}
        inSlope: {x: 0, y: -0.0009859819, z: 0.00974556, w: -1.788139E-06}
        outSlope: {x: 0, y: -0.0009859819, z: 0.00974556, w: -1.788139E-06}
        weightedMode: 0
        inWeight: { x: 0.3333333, y: 0.3333333, z: 0.3333333, w: 0.3333333}
        outWeight: { x: 0.3333333, y: 0.3333333, z: 0.3333333, w: 0.3333333}
      - serializedVersion: 3
        time: 0.7
        value: {x: -0.3741738, y: -0.007929252, z: 0.07837371, w: 0.9240069}
        inSlope: {x: -0.183278, y: -0.01261993, z: 0.1247367, w: -0.08484006}
        outSlope: {x: -0.183278, y: -0.01261993, z: 0.1247367, w: -0.08484006}
        weightedMode: 0
        inWeight: { x: 0.3333333, y: 0.3333333, z: 0.3333333, w: 0.3333333}
        outWeight: { x: 0.3333333, y: 0.3333333, z: 0.3333333, w: 0.3333333}
      - serializedVersion: 3
        time: 1.266667
        value: {x: -0.3784918, y: -0.00822688, z: 0.08131552, w: 0.9219892}
        inSlope: {x: 0.1797128, y: 0.01239765, z: -0.1225407, w: 0.08461469}
        outSlope: {x: 0.1797128, y: 0.01239765, z: -0.1225407, w: 0.08461469}
        weightedMode: 0
        inWeight: { x: 0.3333333, y: 0.3333333, z: 0.3333333, w: 0.3333333}
        outWeight: { x: 0.3333333, y: 0.3333333, z: 0.3333333, w: 0.3333333}
      - serializedVersion: 3
        time: 1.9
        value: {x: -0.2582773, y: -0.0001372831, z: 0.00135698, w: 0.9660699}
        inSlope: {x: 0.06081781, y: 0.003996064, z: -0.03949822, w: 0.0163597}
        outSlope: {x: 0.06081781, y: 0.003996064, z: -0.03949822, w: 0.0163597}
        weightedMode: 0
        inWeight: { x: 0.3333333, y: 0.3333333, z: 0.3333333, w: 0.3333333}
        outWeight: { x: 0.3333333, y: 0.3333333, z: 0.3333333, w: 0.3333333}
      - serializedVersion: 3
        time: 1.966667
        value: {x: -0.2561865, y: 1.229139E-08, z: -5.33611E-08, w: 0.9666274}
        inSlope: {x: 0, y: 0, z: 0, w: 0}
        outSlope: {x: 0, y: 0, z: 0, w: 0}
        weightedMode: 0
        inWeight: { x: 0.3333333, y: 0.3333333, z: 0.3333333, w: 0.3333333}
        outWeight: { x: 0.3333333, y: 0.3333333, z: 0.3333333, w: 0.3333333}
      m_PreInfinity: 2
      m_PostInfinity: 2
      m_RotationOrder: 4
    path: Rig/Root/Body/Backfin.001/Backfin.002
  m_CompressedRotationCurves: []
  m_EulerCurves:
  m_PositionCurves:
  - curve:
      serializedVersion: 2
      m_Curve:
      - serializedVersion: 3
        time: 0
        value: {x: 0, y: 0, z: 0.004848532}
        inSlope: {x: 0, y: 0, z: -0.002269301}
        outSlope: {x: 0, y: 0, z: -0.002269301}
        weightedMode: 0
        inWeight: { x: 0.3333333, y: 0.3333333, z: 0.3333333}
        outWeight: { x: 0.3333333, y: 0.3333333, z: 0.3333333}
      - serializedVersion: 3
        time: 0.3333333
        value: {x: 0, y: 0, z: 0.00460338}
        inSlope: {x: 0, y: 0, z: 0.001396483}
        outSlope: {x: 0, y: 0, z: 0.001396483}
        weightedMode: 0
        inWeight: { x: 0.3333333, y: 0.3333333, z: 0.3333333}
        outWeight: { x: 0.3333333, y: 0.3333333, z: 0.3333333}
      - serializedVersion: 3
        time: 1.233333
        value: {x: 0, y: 0, z: 0.006792978}
        inSlope: {x: 0, y: 0, z: -7.116801E-06}
        outSlope: {x: 0, y: 0, z: -7.116801E-06}
        weightedMode: 0
        inWeight: { x: 0.3333333, y: 0.3333333, z: 0.3333333}
        outWeight: { x: 0.3333333, y: 0.3333333, z: 0.3333333}
      - serializedVersion: 3
        time: 1.966667
        value: {x: 0, y: 0, z: 0.004932042}
        inSlope: {x: 0, y: 0, z: 0}
        outSlope: {x: 0, y: 0, z: 0}
        weightedMode: 0
        inWeight: { x: 0.3333333, y: 0.3333333, z: 0.3333333}
        outWeight: { x: 0.3333333, y: 0.3333333, z: 0.3333333}
      m_PreInfinity: 2
      m_PostInfinity: 2
      m_RotationOrder: 4
    path: Rig/Root/Body
  m_ScaleCurves:
  m_FloatCurves:
  m_PPtrCurves:
  m_SampleRate: 30
  m_WrapMode: 0
  m_Bounds:
    m_Center: {x: 0, y: 0, z: 0}
    m_Extent: {x: 0, y: 0, z: 0}
  m_MuscleClipSize: 7236
  m_MuscleClip:
    serializedVersion: 3
    m_DeltaPose:
      m_RootX:
        t: {x: 0, y: 0, z: 0}
        q: {x: 0, y: 0, z: 0, w: 1}
        s: {x: 1, y: 1, z: 1}
      m_LookAtPosition: {x: 0, y: 0, z: 0}
      m_LookAtWeight: {x: 0, y: 0, z: 0, w: 0}
      m_GoalArray:
      - m_X:
          t: {x: 0, y: 0, z: 0}
          q: {x: 0, y: 0, z: 0, w: 1}
          s: {x: 1, y: 1, z: 1}
          m_Weight: 
          m_WeightR: 0
          m_HintT: {x: 0, y: 0, z: 0}
          m_HintWeightT: 0
      - m_X:
          t: {x: 0, y: 0, z: 0}
          q: {x: 0, y: 0, z: 0, w: 1}
          s: {x: 1, y: 1, z: 1}
          m_Weight: 
          m_WeightR: 0
          m_HintT: {x: 0, y: 0, z: 0}
          m_HintWeightT: 0
      - m_X:
          t: {x: 0, y: 0, z: 0}
          q: {x: 0, y: 0, z: 0, w: 1}
          s: {x: 1, y: 1, z: 1}
          m_Weight: 
          m_WeightR: 0
          m_HintT: {x: 0, y: 0, z: 0}
          m_HintWeightT: 0
      - m_X:
          t: {x: 0, y: 0, z: 0}
          q: {x: 0, y: 0, z: 0, w: 1}
          s: {x: 1, y: 1, z: 1}
          m_Weight: 
          m_WeightR: 0
          m_HintT: {x: 0, y: 0, z: 0}
          m_HintWeightT: 0
      m_LeftHandPose:
        m_GrabX:
          t: {x: 0, y: 0, z: 0}
          q: {x: 0, y: 0, z: 0, w: 1}
          s: {x: 1, y: 1, z: 1}
        m_DoFArray:
        - 0
        - 0
        - 0
        - 0
        - 0
        - 0
        - 0
        - 0
        - 0
        - 0
        - 0
        - 0
        - 0
        - 0
        - 0
        - 0
        - 0
        - 0
        - 0
        - 0
        m_Override: 0
        m_CloseOpen: 0
        m_InOut: 0
        m_Grab: 0
      m_RightHandPose:
        m_GrabX:
          t: {x: 0, y: 0, z: 0}
          q: {x: 0, y: 0, z: 0, w: 1}
          s: {x: 1, y: 1, z: 1}
        m_DoFArray:
        - 0
        - 0
        - 0
        - 0
        - 0
        - 0
        - 0
        - 0
        - 0
        - 0
        - 0
        - 0
        - 0
        - 0
        - 0
        - 0
        - 0
        - 0
        - 0
        - 0
        m_Override: 0
        m_CloseOpen: 0
        m_InOut: 0
        m_Grab: 0
      m_DoFArray:
        - 0
        - 0
        - 0
        - 0
        - 0
        - 0
        - 0
        - 0
        - 0
        - 0
        - 0
        - 0
        - 0
        - 0
        - 0
        - 0
        - 0
        - 0
        - 0
        - 0
        - 0
        - 0
        - 0
        - 0
        - 0
        - 0
        - 0
        - 0
        - 0
        - 0
        - 0
        - 0
        - 0
        - 0
        - 0
        - 0
        - 0
        - 0
        - 0
        - 0
        - 0
        - 0
        - 0
        - 0
        - 0
        - 0
        - 0
        - 0
        - 0
        - 0
        - 0
        - 0
        - 0
        - 0
        - 0
      m_TDoFArray:
      - x: 0
        y: 0
        z: 0
      - x: 0
        y: 0
        z: 0
      - x: 0
        y: 0
        z: 0
      - x: 0
        y: 0
        z: 0
      - x: 0
        y: 0
        z: 0
      - x: 0
        y: 0
        z: 0
      - x: 0
        y: 0
        z: 0
      - x: 0
        y: 0
        z: 0
      - x: 0
        y: 0
        z: 0
      - x: 0
        y: 0
        z: 0
      - x: 0
        y: 0
        z: 0
      - x: 0
        y: 0
        z: 0
      - x: 0
        y: 0
        z: 0
      - x: 0
        y: 0
        z: 0
      - x: 0
        y: 0
        z: 0
      - x: 0
        y: 0
        z: 0
      - x: 0
        y: 0
        z: 0
      - x: 0
        y: 0
        z: 0
      - x: 0
        y: 0
        z: 0
      - x: 0
        y: 0
        z: 0
      - x: 0
        y: 0
        z: 0
    m_StartX:
      t: {x: 0, y: 0, z: 0}
      q: {x: 0, y: 0, z: 0, w: 1}
      s: {x: 1, y: 1, z: 1}
    m_StopX:
      t: {x: 0, y: 0, z: 0}
      q: {x: 0, y: 0, z: 0, w: 1}
      s: {x: 1, y: 1, z: 1}
    m_LeftFootStartX:
      t: {x: 0, y: 0, z: 0}
      q: {x: 0, y: 0, z: 0, w: 1}
      s: {x: 1, y: 1, z: 1}
    m_RightFootStartX:
      t: {x: 0, y: 0, z: 0}
      q: {x: 0, y: 0, z: 0, w: 1}
      s: {x: 1, y: 1, z: 1}
    m_AverageSpeed: {x: 0, y: 0, z: 0}
  m_ClipBindingConstant:
    genericBindings:
    - serializedVersion: 2
      path: 3045925566
      attribute: 1
      script: {fileID: 0}
      typeID: 4
      customType: 0
      isPPtrCurve: 0
    - serializedVersion: 2
      path: 3045925566
      attribute: 2
      script: {fileID: 0}
      typeID: 4
      customType: 0
      isPPtrCurve: 0
    - serializedVersion: 2
      path: 3166425161
      attribute: 2
      script: {fileID: 0}
      typeID: 4
      customType: 0
      isPPtrCurve: 0
    - serializedVersion: 2
      path: 4241371537
      attribute: 2
      script: {fileID: 0}
      typeID: 4
      customType: 0
      isPPtrCurve: 0
    - serializedVersion: 2
      path: 4175724202
      attribute: 2
      script: {fileID: 0}
      typeID: 4
      customType: 0
      isPPtrCurve: 0
    - serializedVersion: 2
      path: 2344148247
      attribute: 2
      script: {fileID: 0}
      typeID: 4
      customType: 0
      isPPtrCurve: 0
    - serializedVersion: 2
      path: 48972745
      attribute: 2
      script: {fileID: 0}
      typeID: 4
      customType: 0
      isPPtrCurve: 0
    - serializedVersion: 2
      path: 1907875956
      attribute: 2
      script: {fileID: 0}
      typeID: 4
      customType: 0
      isPPtrCurve: 0
    - serializedVersion: 2
      path: 1745049047
      attribute: 2
      script: {fileID: 0}
      typeID: 4
      customType: 0
      isPPtrCurve: 0
    pptrCurveMapping:
  m_AnimationClipSettings:
    serializedVersion: 2
    m_AdditiveReferencePoseClip: {fileID: 0}
    m_AdditiveReferencePoseTime: 
    m_StartTime: 0
    m_StopTime: 1.966667
    m_OrientationOffsetY: 0
    m_Level: 0
    m_CycleOffset: 0
    m_HasAdditiveReferencePose: 
    m_LoopTime: 1
    m_LoopBlend: 0
    m_LoopBlendOrientation: 0
    m_LoopBlendPositionY: 0
    m_LoopBlendPositionXZ: 0
    m_KeepOriginalOrientation: 0
    m_KeepOriginalPositionY: 1
    m_KeepOriginalPositionXZ: 0
    m_HeightFromFeet: 0
    m_Mirror: 0
    m_HasGenericRootTransform: 0
    m_HasMotionFloatCurves: 0
    m_GenerateMotionCurves: 0
  m_EditorCurves:
  - curve:
      serializedVersion: 2
      m_Curve:
      - serializedVersion: 2
        time: 0
        value: 0
        inSlope: 0
        outSlope: 0
        tangentMode: 0
      - serializedVersion: 2
        time: 0.3333333
        value: 0
        inSlope: 0
        outSlope: 0
        tangentMode: 0
      - serializedVersion: 2
        time: 1.233333
        value: 0
        inSlope: 0
        outSlope: 0
        tangentMode: 0
      - serializedVersion: 2
        time: 1.966667
        value: 0
        inSlope: 0
        outSlope: 0
        tangentMode: 0
      m_PreInfinity: 2
      m_PostInfinity: 2
      m_RotationOrder: 4
    attribute: m_LocalPosition.x
    path: Rig/Root/Body
    classID: 4
    script: {fileID: 0}
  - curve:
      serializedVersion: 2
      m_Curve:
      - serializedVersion: 2
        time: 0
        value: 0
        inSlope: 0
        outSlope: 0
        tangentMode: 0
      - serializedVersion: 2
        time: 0.3333333
        value: 0
        inSlope: 0
        outSlope: 0
        tangentMode: 0
      - serializedVersion: 2
        time: 1.233333
        value: 0
        inSlope: 0
        outSlope: 0
        tangentMode: 0
      - serializedVersion: 2
        time: 1.966667
        value: 0
        inSlope: 0
        outSlope: 0
        tangentMode: 0
      m_PreInfinity: 2
      m_PostInfinity: 2
      m_RotationOrder: 4
    attribute: m_LocalPosition.y
    path: Rig/Root/Body
    classID: 4
    script: {fileID: 0}
  - curve:
      serializedVersion: 2
      m_Curve:
      - serializedVersion: 2
        time: 0
        value: 0.004848532
        inSlope: -0.002269301
        outSlope: -0.002269301
        tangentMode: 0
      - serializedVersion: 2
        time: 0.3333333
        value: 0.00460338
        inSlope: 0.001396483
        outSlope: 0.001396483
        tangentMode: 0
      - serializedVersion: 2
        time: 1.233333
        value: 0.006792978
        inSlope: -7.116801E-06
        outSlope: -7.116801E-06
        tangentMode: 0
      - serializedVersion: 2
        time: 1.966667
        value: 0.004932042
        inSlope: 0
        outSlope: 0
        tangentMode: 0
      m_PreInfinity: 2
      m_PostInfinity: 2
      m_RotationOrder: 4
    attribute: m_LocalPosition.z
    path: Rig/Root/Body
    classID: 4
    script: {fileID: 0}
  - curve:
      serializedVersion: 2
      m_Curve:
      - serializedVersion: 2
        time: 0
        value: 0.7353789
        inSlope: -0.03653884
        outSlope: -0.03653884
        tangentMode: 0
      - serializedVersion: 2
        time: 1.1
        value: 0.6820261
        inSlope: 0.06107652
        outSlope: 0.06107652
        tangentMode: 0
      - serializedVersion: 2
        time: 1.866667
        value: 0.7368393
        inSlope: 0
        outSlope: 0
        tangentMode: 0
      m_PreInfinity: 2
      m_PostInfinity: 2
      m_RotationOrder: 4
    attribute: m_LocalRotation.x
    path: Rig/Root/Body
    classID: 4
    script: {fileID: 0}
  - curve:
      serializedVersion: 2
      m_Curve:
      - serializedVersion: 2
        time: 0
        value: 0.01899972
        inSlope: -0.0009440258
        outSlope: -0.0009440258
        tangentMode: 0
      - serializedVersion: 2
        time: 1.1
        value: 0.01762126
        inSlope: 0.001578004
        outSlope: 0.001578004
        tangentMode: 0
      - serializedVersion: 2
        time: 1.866667
        value: 0.01903745
        inSlope: 0
        outSlope: 0
        tangentMode: 0
      m_PreInfinity: 2
      m_PostInfinity: 2
      m_RotationOrder: 4
    attribute: m_LocalRotation.y
    path: Rig/Root/Body
    classID: 4
    script: {fileID: 0}
  - curve:
      serializedVersion: 2
      m_Curve:
      - serializedVersion: 2
        time: 0
        value: 0.01749564
        inSlope: 0.001023319
        outSlope: 0.001023319
        tangentMode: 0
      - serializedVersion: 2
        time: 1.1
        value: 0.01888327
        inSlope: -0.001473034
        outSlope: -0.001473034
        tangentMode: 0
      - serializedVersion: 2
        time: 1.866667
        value: 0.01745457
        inSlope: 0
        outSlope: 0
        tangentMode: 0
      m_PreInfinity: 2
      m_PostInfinity: 2
      m_RotationOrder: 4
    attribute: m_LocalRotation.z
    path: Rig/Root/Body
    classID: 4
    script: {fileID: 0}
  - curve:
      serializedVersion: 2
      m_Curve:
      - serializedVersion: 2
        time: 0
        value: 0.6771638
        inSlope: 0.03960907
        outSlope: 0.03960907
        tangentMode: 0
      - serializedVersion: 2
        time: 1.1
        value: 0.7308716
        inSlope: -0.05701477
        outSlope: -0.05701477
        tangentMode: 0
      - serializedVersion: 2
        time: 1.866667
        value: 0.6755745
        inSlope: 0
        outSlope: 0
        tangentMode: 0
      m_PreInfinity: 2
      m_PostInfinity: 2
      m_RotationOrder: 4
    attribute: m_LocalRotation.w
    path: Rig/Root/Body
    classID: 4
    script: {fileID: 0}
  - curve:
      serializedVersion: 2
      m_Curve:
      - serializedVersion: 2
        time: 0
        value: -0.6666477
        inSlope: 0.1057702
        outSlope: 0.1057702
        tangentMode: 0
      - serializedVersion: 2
        time: 0.6
        value: -0.664848
        inSlope: -0.08916736
        outSlope: -0.08916736
        tangentMode: 0
      - serializedVersion: 2
        time: 1.166667
        value: -0.7217591
        inSlope: -0.08174844
        outSlope: -0.08174844
        tangentMode: 0
      - serializedVersion: 2
        time: 1.7
        value: -0.7061269
        inSlope: 0.1280834
        outSlope: 0.1280834
        tangentMode: 0
      - serializedVersion: 2
        time: 1.966667
        value: -0.6704906
        inSlope: 0
        outSlope: 0
        tangentMode: 0
      m_PreInfinity: 2
      m_PostInfinity: 2
      m_RotationOrder: 4
    attribute: m_LocalRotation.x
    path: Rig/Root/Body/Tail_01
    classID: 4
    script: {fileID: 0}
  - curve:
      serializedVersion: 2
      m_Curve:
      - serializedVersion: 2
        time: 0
        value: -0.08947551
        inSlope: 0.00356622
        outSlope: 0.00356622
        tangentMode: 0
      - serializedVersion: 2
        time: 0.6
        value: 0.02682018
        inSlope: 0.2566781
        outSlope: 0.2566781
        tangentMode: 0
      - serializedVersion: 2
        time: 1.166667
        value: 0.06995703
        inSlope: -0.1440841
        outSlope: -0.1440841
        tangentMode: 0
      - serializedVersion: 2
        time: 1.7
        value: -0.04819167
        inSlope: -0.2219155
        outSlope: -0.2219155
        tangentMode: 0
      - serializedVersion: 2
        time: 1.966667
        value: -0.08840856
        inSlope: 0
        outSlope: 0
        tangentMode: 0
      m_PreInfinity: 2
      m_PostInfinity: 2
      m_RotationOrder: 4
    attribute: m_LocalRotation.y
    path: Rig/Root/Body/Tail_01
    classID: 4
    script: {fileID: 0}
  - curve:
      serializedVersion: 2
      m_Curve:
      - serializedVersion: 2
        time: 0
        value: -0.09503275
        inSlope: 0.03156647
        outSlope: 0.03156647
        tangentMode: 0
      - serializedVersion: 2
        time: 0.6
        value: 0.02795006
        inSlope: 0.2749651
        outSlope: 0.2749651
        tangentMode: 0
      - serializedVersion: 2
        time: 1.166667
        value: 0.08653563
        inSlope: -0.1615848
        outSlope: -0.1615848
        tangentMode: 0
      - serializedVersion: 2
        time: 1.7
        value: -0.05652844
        inSlope: -0.242318
        outSlope: -0.242318
        tangentMode: 0
      - serializedVersion: 2
        time: 1.966667
        value: -0.09487308
        inSlope: 0
        outSlope: 0
        tangentMode: 0
      m_PreInfinity: 2
      m_PostInfinity: 2
      m_RotationOrder: 4
    attribute: m_LocalRotation.z
    path: Rig/Root/Body/Tail_01
    classID: 4
    script: {fileID: 0}
  - curve:
      serializedVersion: 2
      m_Curve:
      - serializedVersion: 2
        time: 0
        value: 0.7338554
        inSlope: 0.1001018
        outSlope: 0.1001018
        tangentMode: 0
      - serializedVersion: 2
        time: 0.6
        value: 0.7459736
        inSlope: -0.09894401
        outSlope: -0.09894401
        tangentMode: 0
      - serializedVersion: 2
        time: 1.166667
        value: 0.6831409
        inSlope: -0.05129909
        outSlope: -0.05129909
        tangentMode: 0
      - serializedVersion: 2
        time: 1.7
        value: 0.7041782
        inSlope: 0.09393893
        outSlope: 0.09393893
        tangentMode: 0
      - serializedVersion: 2
        time: 1.966667
        value: 0.7304966
        inSlope: 0
        outSlope: 0
        tangentMode: 0
      m_PreInfinity: 2
      m_PostInfinity: 2
      m_RotationOrder: 4
    attribute: m_LocalRotation.w
    path: Rig/Root/Body/Tail_01
    classID: 4
    script: {fileID: 0}
  - curve:
      serializedVersion: 2
      m_Curve:
      - serializedVersion: 2
        time: 0
        value: -0.1536718
        inSlope: 0.2237999
        outSlope: 0.2237999
        tangentMode: 0
      - serializedVersion: 2
        time: 0.4333334
        value: -0.009862741
        inSlope: 0.3564716
        outSlope: 0.3564716
        tangentMode: 0
      - serializedVersion: 2
        time: 0.9666667
        value: 0.06620597
        inSlope: -0.1727143
        outSlope: -0.1727143
        tangentMode: 0
      - serializedVersion: 2
        time: 1.4
        value: -0.07116198
        inSlope: -0.3616924
        outSlope: -0.3616924
        tangentMode: 0
      - serializedVersion: 2
        time: 1.933333
        value: -0.1650066
        inSlope: 0.130332
        outSlope: 0.130332
        tangentMode: 0
      - serializedVersion: 2
        time: 1.966667
        value: -0.1599739
        inSlope: 0
        outSlope: 0
        tangentMode: 0
      m_PreInfinity: 2
      m_PostInfinity: 2
      m_RotationOrder: 4
    attribute: m_LocalRotation.x
    path: Rig/Root/Body/Tail_01/Tail_02
    classID: 4
    script: {fileID: 0}
  - curve:
      serializedVersion: 2
      m_Curve:
      - serializedVersion: 2
        time: 0
        value: -3.180998E-09
        inSlope: 0.04804322
        outSlope: 0.04804322
        tangentMode: 0
      - serializedVersion: 2
        time: 0.4333334
        value: -0.007568191
        inSlope: -0.06644483
        outSlope: -0.06644483
        tangentMode: 0
      - serializedVersion: 2
        time: 0.9666667
        value: -0.002103442
        inSlope: 0.06548628
        outSlope: 0.06548628
        tangentMode: 0
      - serializedVersion: 2
        time: 1.4
        value: -0.002864829
        inSlope: -0.06351738
        outSlope: -0.06351738
        tangentMode: 0
      - serializedVersion: 2
        time: 1.933333
        value: -0.003847531
        inSlope: 0.06121096
        outSlope: 0.06121096
        tangentMode: 0
      - serializedVersion: 2
        time: 1.966667
        value: -0.001842975
        inSlope: 0
        outSlope: 0
        tangentMode: 0
      m_PreInfinity: 2
      m_PostInfinity: 2
      m_RotationOrder: 4
    attribute: m_LocalRotation.y
    path: Rig/Root/Body/Tail_01/Tail_02
    classID: 4
    script: {fileID: 0}
  - curve:
      serializedVersion: 2
      m_Curve:
      - serializedVersion: 2
        time: 0
        value: 1.390214E-08
        inSlope: -0.5205849
        outSlope: -0.5205849
        tangentMode: 0
      - serializedVersion: 2
        time: 0.4333334
        value: -0.1690975
        inSlope: -0.1248506
        outSlope: -0.1248506
        tangentMode: 0
      - serializedVersion: 2
        time: 0.9666667
        value: -0.01729914
        inSlope: 0.5162549
        outSlope: 0.5162549
        tangentMode: 0
      - serializedVersion: 2
        time: 1.4
        value: 0.1639897
        inSlope: 0.1841157
        outSlope: 0.1841157
        tangentMode: 0
      - serializedVersion: 2
        time: 1.933333
        value: 0.03447874
        inSlope: -0.5095348
        outSlope: -0.5095348
        tangentMode: 0
      - serializedVersion: 2
        time: 1.966667
        value: 0.01732883
        inSlope: 0
        outSlope: 0
        tangentMode: 0
      m_PreInfinity: 2
      m_PostInfinity: 2
      m_RotationOrder: 4
    attribute: m_LocalRotation.z
    path: Rig/Root/Body/Tail_01/Tail_02
    classID: 4
    script: {fileID: 0}
  - curve:
      serializedVersion: 2
      m_Curve:
      - serializedVersion: 2
        time: 0
        value: 0.988122
        inSlope: 0.02933442
        outSlope: 0.02933442
        tangentMode: 0
      - serializedVersion: 2
        time: 0.4333334
        value: 0.985521
        inSlope: -0.01817107
        outSlope: -0.01817107
        tangentMode: 0
      - serializedVersion: 2
        time: 0.9666667
        value: 0.9976538
        inSlope: 0.02040448
        outSlope: 0.02040448
        tangentMode: 0
      - serializedVersion: 2
        time: 1.4
        value: 0.9838878
        inSlope: -0.05681371
        outSlope: -0.05681371
        tangentMode: 0
      - serializedVersion: 2
        time: 1.933333
        value: 0.9856821
        inSlope: 0.03970829
        outSlope: 0.03970829
        tangentMode: 0
      - serializedVersion: 2
        time: 1.966667
        value: 0.9869674
        inSlope: 0
        outSlope: 0
        tangentMode: 0
      m_PreInfinity: 2
      m_PostInfinity: 2
      m_RotationOrder: 4
    attribute: m_LocalRotation.w
    path: Rig/Root/Body/Tail_01/Tail_02
    classID: 4
    script: {fileID: 0}
  - curve:
      serializedVersion: 2
      m_Curve:
      - serializedVersion: 2
        time: 0
        value: -0.7369041
        inSlope: 0.0567913
        outSlope: 0.0567913
        tangentMode: 0
      - serializedVersion: 2
        time: 0.4333334
        value: -0.7641917
        inSlope: -0.1455009
        outSlope: -0.1455009
        tangentMode: 0
      - serializedVersion: 2
        time: 0.8666667
        value: -0.8139362
        inSlope: -0.0565365
        outSlope: -0.0565365
        tangentMode: 0
      - serializedVersion: 2
        time: 1.3
        value: -0.815658
        inSlope: 0.04703258
        outSlope: 0.04703258
        tangentMode: 0
      - serializedVersion: 2
        time: 1.733333
        value: -0.7690859
        inSlope: 0.1470314
        outSlope: 0.1470314
        tangentMode: 0
      - serializedVersion: 2
        time: 1.966667
        value: -0.7394867
        inSlope: 0
        outSlope: 0
        tangentMode: 0
      m_PreInfinity: 2
      m_PostInfinity: 2
      m_RotationOrder: 4
    attribute: m_LocalRotation.x
    path: Rig/Root/Body/Fin_Front_L
    classID: 4
    script: {fileID: 0}
  - curve:
      serializedVersion: 2
      m_Curve:
      - serializedVersion: 2
        time: 0
        value: 0.03190094
        inSlope: 0.10079
        outSlope: 0.10079
        tangentMode: 0
      - serializedVersion: 2
        time: 0.4333334
        value: -0.03048087
        inSlope: -0.3692459
        outSlope: -0.3692459
        tangentMode: 0
      - serializedVersion: 2
        time: 0.8666667
        value: -0.2058877
        inSlope: -0.3213322
        outSlope: -0.3213322
        tangentMode: 0
      - serializedVersion: 2
        time: 1.3
        value: -0.2160749
        inSlope: 0.2877796
        outSlope: 0.2877796
        tangentMode: 0
      - serializedVersion: 2
        time: 1.733333
        value: -0.04315643
        inSlope: 0.3895674
        outSlope: 0.3895674
        tangentMode: 0
      - serializedVersion: 2
        time: 1.966667
        value: 0.02649974
        inSlope: 0
        outSlope: 0
        tangentMode: 0
      m_PreInfinity: 2
      m_PostInfinity: 2
      m_RotationOrder: 4
    attribute: m_LocalRotation.y
    path: Rig/Root/Body/Fin_Front_L
    classID: 4
    script: {fileID: 0}
  - curve:
      serializedVersion: 2
      m_Curve:
      - serializedVersion: 2
        time: 0
        value: 0.08526301
        inSlope: -0.09609952
        outSlope: -0.09609952
        tangentMode: 0
      - serializedVersion: 2
        time: 0.4333334
        value: 0.1204058
        inSlope: 0.1834506
        outSlope: 0.1834506
        tangentMode: 0
      - serializedVersion: 2
        time: 0.8666667
        value: 0.1804753
        inSlope: 0.06509274
        outSlope: 0.06509274
        tangentMode: 0
      - serializedVersion: 2
        time: 1.3
        value: 0.1824537
        inSlope: -0.0539728
        outSlope: -0.0539728
        tangentMode: 0
      - serializedVersion: 2
        time: 1.733333
        value: 0.1265527
        inSlope: -0.1839244
        outSlope: -0.1839244
        tangentMode: 0
      - serializedVersion: 2
        time: 1.966667
        value: 0.08865037
        inSlope: 0
        outSlope: 0
        tangentMode: 0
      m_PreInfinity: 2
      m_PostInfinity: 2
      m_RotationOrder: 4
    attribute: m_LocalRotation.z
    path: Rig/Root/Body/Fin_Front_L
    classID: 4
    script: {fileID: 0}
  - curve:
      serializedVersion: 2
      m_Curve:
      - serializedVersion: 2
        time: 0
        value: 0.6698395
        inSlope: 0.0692296
        outSlope: 0.0692296
        tangentMode: 0
      - serializedVersion: 2
        time: 0.4333334
        value: 0.6329173
        inSlope: -0.2287004
        outSlope: -0.2287004
        tangentMode: 0
      - serializedVersion: 2
        time: 0.8666667
        value: 0.5123934
        inSlope: -0.2413148
        outSlope: -0.2413148
        tangentMode: 0
      - serializedVersion: 2
        time: 1.3
        value: 0.5047023
        inSlope: 0.2181733
        outSlope: 0.2181733
        tangentMode: 0
      - serializedVersion: 2
        time: 1.733333
        value: 0.625003
        inSlope: 0.245362
        outSlope: 0.245362
        tangentMode: 0
      - serializedVersion: 2
        time: 1.966667
        value: 0.6667821
        inSlope: 0
        outSlope: 0
        tangentMode: 0
      m_PreInfinity: 2
      m_PostInfinity: 2
      m_RotationOrder: 4
    attribute: m_LocalRotation.w
    path: Rig/Root/Body/Fin_Front_L
    classID: 4
    script: {fileID: 0}
  - curve:
      serializedVersion: 2
      m_Curve:
      - serializedVersion: 2
        time: 0.03333334
        value: -0.5230356
        inSlope: -0.04683673
        outSlope: -0.04683673
        tangentMode: 0
      - serializedVersion: 2
        time: 0.5666667
        value: -0.6094161
        inSlope: -0.1821345
        outSlope: -0.1821345
        tangentMode: 0
      - serializedVersion: 2
        time: 1.133333
        value: -0.6482928
        inSlope: 0.06705339
        outSlope: 0.06705339
        tangentMode: 0
      - serializedVersion: 2
        time: 1.6
        value: -0.5765636
        inSlope: 0.2035545
        outSlope: 0.2035545
        tangentMode: 0
      - serializedVersion: 2
        time: 1.966667
        value: -0.5230355
        inSlope: 0
        outSlope: 0
        tangentMode: 0
      m_PreInfinity: 2
      m_PostInfinity: 2
      m_RotationOrder: 4
    attribute: m_LocalRotation.x
    path: Rig/Root/Body/Fin_Back_L
    classID: 4
    script: {fileID: 0}
  - curve:
      serializedVersion: 2
      m_Curve:
      - serializedVersion: 2
        time: 0.03333334
        value: -0.4412819
        inSlope: -0.05495756
        outSlope: -0.05495756
        tangentMode: 0
      - serializedVersion: 2
        time: 0.5666667
        value: -0.5462934
        inSlope: -0.2318126
        outSlope: -0.2318126
        tangentMode: 0
      - serializedVersion: 2
        time: 1.133333
        value: -0.5975037
        inSlope: 0.09207124
        outSlope: 0.09207124
        tangentMode: 0
      - serializedVersion: 2
        time: 1.6
        value: -0.50533
        inSlope: 0.2492137
        outSlope: 0.2492137
        tangentMode: 0
      - serializedVersion: 2
        time: 1.966667
        value: -0.4412818
        inSlope: 0
        outSlope: 0
        tangentMode: 0
      m_PreInfinity: 2
      m_PostInfinity: 2
      m_RotationOrder: 4
    attribute: m_LocalRotation.y
    path: Rig/Root/Body/Fin_Back_L
    classID: 4
    script: {fileID: 0}
  - curve:
      serializedVersion: 2
      m_Curve:
      - serializedVersion: 2
        time: 0.03333334
        value: 0.5548595
        inSlope: -0.04385769
        outSlope: -0.04385769
        tangentMode: 0
      - serializedVersion: 2
        time: 0.5666667
        value: 0.4518432
        inSlope: -0.2801809
        outSlope: -0.2801809
        tangentMode: 0
      - serializedVersion: 2
        time: 1.133333
        value: 0.3815601
        inSlope: 0.1439071
        outSlope: 0.1439071
        tangentMode: 0
      - serializedVersion: 2
        time: 1.6
        value: 0.4972328
        inSlope: 0.2533898
        outSlope: 0.2533898
        tangentMode: 0
      - serializedVersion: 2
        time: 1.966667
        value: 0.5548596
        inSlope: 0
        outSlope: 0
        tangentMode: 0
      m_PreInfinity: 2
      m_PostInfinity: 2
      m_RotationOrder: 4
    attribute: m_LocalRotation.z
    path: Rig/Root/Body/Fin_Back_L
    classID: 4
    script: {fileID: 0}
  - curve:
      serializedVersion: 2
      m_Curve:
      - serializedVersion: 2
        time: 0.03333334
        value: 0.473112
        inSlope: -0.0519517
        outSlope: -0.0519517
        tangentMode: 0
      - serializedVersion: 2
        time: 0.5666667
        value: 0.3549834
        inSlope: -0.3125668
        outSlope: -0.3125668
        tangentMode: 0
      - serializedVersion: 2
        time: 1.133333
        value: 0.2777007
        inSlope: 0.1561675
        outSlope: 0.1561675
        tangentMode: 0
      - serializedVersion: 2
        time: 1.6
        value: 0.4061719
        inSlope: 0.28909
        outSlope: 0.28909
        tangentMode: 0
      - serializedVersion: 2
        time: 1.966667
        value: 0.4731121
        inSlope: 0
        outSlope: 0
        tangentMode: 0
      m_PreInfinity: 2
      m_PostInfinity: 2
      m_RotationOrder: 4
    attribute: m_LocalRotation.w
    path: Rig/Root/Body/Fin_Back_L
    classID: 4
    script: {fileID: 0}
  - curve:
      serializedVersion: 2
      m_Curve:
      - serializedVersion: 2
        time: 0
        value: -0.7369041
        inSlope: 0.0567913
        outSlope: 0.0567913
        tangentMode: 0
      - serializedVersion: 2
        time: 0.4333334
        value: -0.7641917
        inSlope: -0.1455027
        outSlope: -0.1455027
        tangentMode: 0
      - serializedVersion: 2
        time: 0.8666667
        value: -0.8139362
        inSlope: -0.0565365
        outSlope: -0.0565365
        tangentMode: 0
      - serializedVersion: 2
        time: 1.3
        value: -0.8156579
        inSlope: 0.04703169
        outSlope: 0.04703169
        tangentMode: 0
      - serializedVersion: 2
        time: 1.733333
        value: -0.7690862
        inSlope: 0.1470314
        outSlope: 0.1470314
        tangentMode: 0
      - serializedVersion: 2
        time: 1.966667
        value: -0.7394859
        inSlope: 0
        outSlope: 0
        tangentMode: 0
      m_PreInfinity: 2
      m_PostInfinity: 2
      m_RotationOrder: 4
    attribute: m_LocalRotation.x
    path: Rig/Root/Body/Fin_Front_R
    classID: 4
    script: {fileID: 0}
  - curve:
      serializedVersion: 2
      m_Curve:
      - serializedVersion: 2
        time: 0
        value: -0.03190094
        inSlope: -0.1007895
        outSlope: -0.1007895
        tangentMode: 0
      - serializedVersion: 2
        time: 0.4333334
        value: 0.03048087
        inSlope: 0.3692472
        outSlope: 0.3692472
        tangentMode: 0
      - serializedVersion: 2
        time: 0.8666667
        value: 0.2058876
        inSlope: 0.3213333
        outSlope: 0.3213333
        tangentMode: 0
      - serializedVersion: 2
        time: 1.3
        value: 0.2160749
        inSlope: -0.2877781
        outSlope: -0.2877781
        tangentMode: 0
      - serializedVersion: 2
        time: 1.733333
        value: 0.04315652
        inSlope: -0.3895673
        outSlope: -0.3895673
        tangentMode: 0
      - serializedVersion: 2
        time: 1.966667
        value: -0.02649985
        inSlope: 0
        outSlope: 0
        tangentMode: 0
      m_PreInfinity: 2
      m_PostInfinity: 2
      m_RotationOrder: 4
    attribute: m_LocalRotation.y
    path: Rig/Root/Body/Fin_Front_R
    classID: 4
    script: {fileID: 0}
  - curve:
      serializedVersion: 2
      m_Curve:
      - serializedVersion: 2
        time: 0
        value: -0.08526301
        inSlope: 0.09609929
        outSlope: 0.09609929
        tangentMode: 0
      - serializedVersion: 2
        time: 0.4333334
        value: -0.1204058
        inSlope: -0.183451
        outSlope: -0.183451
        tangentMode: 0
      - serializedVersion: 2
        time: 0.8666667
        value: -0.1804755
        inSlope: -0.06509319
        outSlope: -0.06509319
        tangentMode: 0
      - serializedVersion: 2
        time: 1.3
        value: -0.1824537
        inSlope: 0.05397079
        outSlope: 0.05397079
        tangentMode: 0
      - serializedVersion: 2
        time: 1.733333
        value: -0.1265527
        inSlope: 0.1839243
        outSlope: 0.1839243
        tangentMode: 0
      - serializedVersion: 2
        time: 1.966667
        value: -0.08865023
        inSlope: 0
        outSlope: 0
        tangentMode: 0
      m_PreInfinity: 2
      m_PostInfinity: 2
      m_RotationOrder: 4
    attribute: m_LocalRotation.z
    path: Rig/Root/Body/Fin_Front_R
    classID: 4
    script: {fileID: 0}
  - curve:
      serializedVersion: 2
      m_Curve:
      - serializedVersion: 2
        time: 0
        value: 0.6698395
        inSlope: 0.0692296
        outSlope: 0.0692296
        tangentMode: 0
      - serializedVersion: 2
        time: 0.4333334
        value: 0.6329173
        inSlope: -0.228703
        outSlope: -0.228703
        tangentMode: 0
      - serializedVersion: 2
        time: 0.8666667
        value: 0.5123934
        inSlope: -0.2413148
        outSlope: -0.2413148
        tangentMode: 0
      - serializedVersion: 2
        time: 1.3
        value: 0.5047024
        inSlope: 0.2181711
        outSlope: 0.2181711
        tangentMode: 0
      - serializedVersion: 2
        time: 1.733333
        value: 0.6250026
        inSlope: 0.245362
        outSlope: 0.245362
        tangentMode: 0
      - serializedVersion: 2
        time: 1.966667
        value: 0.6667829
        inSlope: 0
        outSlope: 0
        tangentMode: 0
      m_PreInfinity: 2
      m_PostInfinity: 2
      m_RotationOrder: 4
    attribute: m_LocalRotation.w
    path: Rig/Root/Body/Fin_Front_R
    classID: 4
    script: {fileID: 0}
  - curve:
      serializedVersion: 2
      m_Curve:
      - serializedVersion: 2
        time: 0.03333334
        value: 0.5230356
        inSlope: 0.04684031
        outSlope: 0.04684031
        tangentMode: 0
      - serializedVersion: 2
        time: 0.5666667
        value: 0.6094162
        inSlope: 0.1821345
        outSlope: 0.1821345
        tangentMode: 0
      - serializedVersion: 2
        time: 1.133333
        value: 0.6482928
        inSlope: -0.06705339
        outSlope: -0.06705339
        tangentMode: 0
      - serializedVersion: 2
        time: 1.6
        value: 0.5765637
        inSlope: -0.2035553
        outSlope: -0.2035553
        tangentMode: 0
      - serializedVersion: 2
        time: 1.966667
        value: 0.5230356
        inSlope: 0
        outSlope: 0
        tangentMode: 0
      m_PreInfinity: 2
      m_PostInfinity: 2
      m_RotationOrder: 4
    attribute: m_LocalRotation.x
    path: Rig/Root/Body/Fin_Back_R
    classID: 4
    script: {fileID: 0}
  - curve:
      serializedVersion: 2
      m_Curve:
      - serializedVersion: 2
        time: 0.03333334
        value: -0.4412817
        inSlope: -0.05496204
        outSlope: -0.05496204
        tangentMode: 0
      - serializedVersion: 2
        time: 0.5666667
        value: -0.5462933
        inSlope: -0.2318126
        outSlope: -0.2318126
        tangentMode: 0
      - serializedVersion: 2
        time: 1.133333
        value: -0.5975036
        inSlope: 0.09207213
        outSlope: 0.09207213
        tangentMode: 0
      - serializedVersion: 2
        time: 1.6
        value: -0.5053298
        inSlope: 0.2492141
        outSlope: 0.2492141
        tangentMode: 0
      - serializedVersion: 2
        time: 1.966667
        value: -0.4412817
        inSlope: 0
        outSlope: 0
        tangentMode: 0
      m_PreInfinity: 2
      m_PostInfinity: 2
      m_RotationOrder: 4
    attribute: m_LocalRotation.y
    path: Rig/Root/Body/Fin_Back_R
    classID: 4
    script: {fileID: 0}
  - curve:
      serializedVersion: 2
      m_Curve:
      - serializedVersion: 2
        time: 0.03333334
        value: 0.5548596
        inSlope: -0.04385948
        outSlope: -0.04385948
        tangentMode: 0
      - serializedVersion: 2
        time: 0.5666667
        value: 0.4518433
        inSlope: -0.2801809
        outSlope: -0.2801809
        tangentMode: 0
      - serializedVersion: 2
        time: 1.133333
        value: 0.3815602
        inSlope: 0.1439089
        outSlope: 0.1439089
        tangentMode: 0
      - serializedVersion: 2
        time: 1.6
        value: 0.4972328
        inSlope: 0.2533903
        outSlope: 0.2533903
        tangentMode: 0
      - serializedVersion: 2
        time: 1.966667
        value: 0.5548596
        inSlope: 0
        outSlope: 0
        tangentMode: 0
      m_PreInfinity: 2
      m_PostInfinity: 2
      m_RotationOrder: 4
    attribute: m_LocalRotation.z
    path: Rig/Root/Body/Fin_Back_R
    classID: 4
    script: {fileID: 0}
  - curve:
      serializedVersion: 2
      m_Curve:
      - serializedVersion: 2
        time: 0.03333334
        value: -0.4731121
        inSlope: 0.05195438
        outSlope: 0.05195438
        tangentMode: 0
      - serializedVersion: 2
        time: 0.5666667
        value: -0.3549834
        inSlope: 0.3125668
        outSlope: 0.3125668
        tangentMode: 0
      - serializedVersion: 2
        time: 1.133333
        value: -0.2777007
        inSlope: -0.1561693
        outSlope: -0.1561693
        tangentMode: 0
      - serializedVersion: 2
        time: 1.6
        value: -0.4061719
        inSlope: -0.2890905
        outSlope: -0.2890905
        tangentMode: 0
      - serializedVersion: 2
        time: 1.966667
        value: -0.4731121
        inSlope: 0
        outSlope: 0
        tangentMode: 0
      m_PreInfinity: 2
      m_PostInfinity: 2
      m_RotationOrder: 4
    attribute: m_LocalRotation.w
    path: Rig/Root/Body/Fin_Back_R
    classID: 4
    script: {fileID: 0}
  - curve:
      serializedVersion: 2
      m_Curve:
      - serializedVersion: 2
        time: 0
        value: -0.2566871
        inSlope: 0
        outSlope: 0
        tangentMode: 0
      - serializedVersion: 2
        time: 0.7
        value: -0.3741738
        inSlope: -0.183278
        outSlope: -0.183278
        tangentMode: 0
      - serializedVersion: 2
        time: 1.266667
        value: -0.3784918
        inSlope: 0.1797128
        outSlope: 0.1797128
        tangentMode: 0
      - serializedVersion: 2
        time: 1.9
        value: -0.2582773
        inSlope: 0.06081781
        outSlope: 0.06081781
        tangentMode: 0
      - serializedVersion: 2
        time: 1.966667
        value: -0.2561865
        inSlope: 0
        outSlope: 0
        tangentMode: 0
      m_PreInfinity: 2
      m_PostInfinity: 2
      m_RotationOrder: 4
    attribute: m_LocalRotation.x
    path: Rig/Root/Body/Backfin.001/Backfin.002
    classID: 4
    script: {fileID: 0}
  - curve:
      serializedVersion: 2
      m_Curve:
      - serializedVersion: 2
        time: 0
        value: 1.231902E-08
        inSlope: -0.0009859819
        outSlope: -0.0009859819
        tangentMode: 0
      - serializedVersion: 2
        time: 0.7
        value: -0.007929252
        inSlope: -0.01261993
        outSlope: -0.01261993
        tangentMode: 0
      - serializedVersion: 2
        time: 1.266667
        value: -0.00822688
        inSlope: 0.01239765
        outSlope: 0.01239765
        tangentMode: 0
      - serializedVersion: 2
        time: 1.9
        value: -0.0001372831
        inSlope: 0.003996064
        outSlope: 0.003996064
        tangentMode: 0
      - serializedVersion: 2
        time: 1.966667
        value: 1.229139E-08
        inSlope: 0
        outSlope: 0
        tangentMode: 0
      m_PreInfinity: 2
      m_PostInfinity: 2
      m_RotationOrder: 4
    attribute: m_LocalRotation.y
    path: Rig/Root/Body/Backfin.001/Backfin.002
    classID: 4
    script: {fileID: 0}
  - curve:
      serializedVersion: 2
      m_Curve:
      - serializedVersion: 2
        time: 0
        value: -5.335473E-08
        inSlope: 0.00974556
        outSlope: 0.00974556
        tangentMode: 0
      - serializedVersion: 2
        time: 0.7
        value: 0.07837371
        inSlope: 0.1247367
        outSlope: 0.1247367
        tangentMode: 0
      - serializedVersion: 2
        time: 1.266667
        value: 0.08131552
        inSlope: -0.1225407
        outSlope: -0.1225407
        tangentMode: 0
      - serializedVersion: 2
        time: 1.9
        value: 0.00135698
        inSlope: -0.03949822
        outSlope: -0.03949822
        tangentMode: 0
      - serializedVersion: 2
        time: 1.966667
        value: -5.33611E-08
        inSlope: 0
        outSlope: 0
        tangentMode: 0
      m_PreInfinity: 2
      m_PostInfinity: 2
      m_RotationOrder: 4
    attribute: m_LocalRotation.z
    path: Rig/Root/Body/Backfin.001/Backfin.002
    classID: 4
    script: {fileID: 0}
  - curve:
      serializedVersion: 2
      m_Curve:
      - serializedVersion: 2
        time: 0
        value: 0.9664946
        inSlope: -1.788139E-06
        outSlope: -1.788139E-06
        tangentMode: 0
      - serializedVersion: 2
        time: 0.7
        value: 0.9240069
        inSlope: -0.08484006
        outSlope: -0.08484006
        tangentMode: 0
      - serializedVersion: 2
        time: 1.266667
        value: 0.9219892
        inSlope: 0.08461469
        outSlope: 0.08461469
        tangentMode: 0
      - serializedVersion: 2
        time: 1.9
        value: 0.9660699
        inSlope: 0.0163597
        outSlope: 0.0163597
        tangentMode: 0
      - serializedVersion: 2
        time: 1.966667
        value: 0.9666274
        inSlope: 0
        outSlope: 0
        tangentMode: 0
      m_PreInfinity: 2
      m_PostInfinity: 2
      m_RotationOrder: 4
    attribute: m_LocalRotation.w
    path: Rig/Root/Body/Backfin.001/Backfin.002
    classID: 4
    script: {fileID: 0}
  m_Events:
