%YAML 1.1
%TAG !u! tag:unity3d.com,2011:
--- !u!74 &7400000
AnimationClip:
  m_ObjectHideFlags: 0
  m_PrefabParentObject: {fileID: 0}
  m_PrefabInternal: {fileID: 0}
  m_Name: "Redzebra_L@Swim"
  serializedVersion: 6
  m_Legacy: 0
  m_Compressed: 0
  m_UseHighQualityCurve: 1
  m_RotationCurves:
  - curve:
      serializedVersion: 2
      m_Curve:
      - serializedVersion: 3
        time: 0
        value: {x: 0.7065583, y: 0.02784655, z: 0.02784655, w: 0.7065582}
        inSlope: {x: -0.01345396, y: 0.2907361, z: 0.2907361, w: -0.01345575}
        outSlope: {x: -0.01345396, y: 0.2907361, z: 0.2907361, w: -0.01345575}
        weightedMode: 0
        inWeight: { x: 0.3333333, y: 0.3333333, z: 0.3333333, w: 0.3333333}
        outWeight: { x: 0.3333333, y: 0.3333333, z: 0.3333333, w: 0.3333333}
      - serializedVersion: 3
        time: 0.2666667
        value: {x: 0.705623, y: 0.04578518, z: 0.04578518, w: 0.7056229}
        inSlope: {x: 0.01396358, y: -0.2196399, z: -0.2196399, w: 0.01396358}
        outSlope: {x: 0.01396358, y: -0.2196399, z: -0.2196399, w: 0.01396358}
        weightedMode: 0
        inWeight: { x: 0.3333333, y: 0.3333333, z: 0.3333333, w: 0.3333333}
        outWeight: { x: 0.3333333, y: 0.3333333, z: 0.3333333, w: 0.3333333}
      - serializedVersion: 3
        time: 0.6
        value: {x: 0.7051789, y: -0.05218039, z: -0.05218038, w: 0.7051788}
        inSlope: {x: -0.01143426, y: -0.1579659, z: -0.1579659, w: -0.01143336}
        outSlope: {x: -0.01143426, y: -0.1579659, z: -0.1579659, w: -0.01143336}
        weightedMode: 0
        inWeight: { x: 0.3333333, y: 0.3333333, z: 0.3333333, w: 0.3333333}
        outWeight: { x: 0.3333333, y: 0.3333333, z: 0.3333333, w: 0.3333333}
      - serializedVersion: 3
        time: 0.9666667
        value: {x: 0.7068995, y: 0.01712195, z: 0.01712195, w: 0.7068994}
        inSlope: {x: 0, y: 0, z: 0, w: 0}
        outSlope: {x: 0, y: 0, z: 0, w: 0}
        weightedMode: 0
        inWeight: { x: 0.3333333, y: 0.3333333, z: 0.3333333, w: 0.3333333}
        outWeight: { x: 0.3333333, y: 0.3333333, z: 0.3333333, w: 0.3333333}
      m_PreInfinity: 2
      m_PostInfinity: 2
      m_RotationOrder: 4
    path: Rig/Root/Body
  - curve:
      serializedVersion: 2
      m_Curve:
      - serializedVersion: 3
        time: 0
        value: {x: 0.9164723, y: -0.2368898, z: 0.2772836, w: 0.1645465}
        inSlope: {x: 0.2633446, y: 0.3853069, z: -0.688413, w: 0.174876}
        outSlope: {x: 0.2633446, y: 0.3853069, z: -0.688413, w: 0.174876}
        weightedMode: 0
        inWeight: { x: 0.3333333, y: 0.3333333, z: 0.3333333, w: 0.3333333}
        outWeight: { x: 0.3333333, y: 0.3333333, z: 0.3333333, w: 0.3333333}
      - serializedVersion: 3
        time: 0.1
        value: {x: 0.9252505, y: -0.2240462, z: 0.2543363, w: 0.1703758}
        inSlope: {x: -0.1750705, y: -0.2578233, z: 0.46821, w: -0.118169}
        outSlope: {x: -0.1750705, y: -0.2578233, z: 0.46821, w: -0.118169}
        weightedMode: 0
        inWeight: { x: 0.3333333, y: 0.3333333, z: 0.3333333, w: 0.3333333}
        outWeight: { x: 0.3333333, y: 0.3333333, z: 0.3333333, w: 0.3333333}
      - serializedVersion: 3
        time: 0.3
        value: {x: 0.7518709, y: -0.43597, z: 0.4854363, w: 0.09472035}
        inSlope: {x: -1.673755, y: -1.777349, z: 1.085253, w: -0.5288625}
        outSlope: {x: -1.673755, y: -1.777349, z: 1.085253, w: -0.5288625}
        weightedMode: 0
        inWeight: { x: 0.3333333, y: 0.3333333, z: 0.3333333, w: 0.3333333}
        outWeight: { x: 0.3333333, y: 0.3333333, z: 0.3333333, w: 0.3333333}
      - serializedVersion: 3
        time: 0.4
        value: {x: 0.5575019, y: -0.6213557, z: 0.548745, w: 0.044585}
        inSlope: {x: -2.022626, y: -1.726861, z: 0.1497691, w: -0.4263569}
        outSlope: {x: -2.022626, y: -1.726861, z: 0.1497691, w: -0.4263569}
        weightedMode: 0
        inWeight: { x: 0.3333333, y: 0.3333333, z: 0.3333333, w: 0.3333333}
        outWeight: { x: 0.3333333, y: 0.3333333, z: 0.3333333, w: 0.3333333}
      - serializedVersion: 3
        time: 0.5666667
        value: {x: 0.3400785, y: -0.7831445, z: 0.5205168, w: 0.009680892}
        inSlope: {x: -2.816319E-06, y: -1.624227E-06, z: 4.097819E-08, w: 1.9297E-06}
        outSlope: {x: -2.816319E-06, y: -1.624227E-06, z: 4.097819E-08, w: 1.9297E-06}
        weightedMode: 0
        inWeight: { x: 0.3333333, y: 0.3333333, z: 0.3333333, w: 0.3333333}
        outWeight: { x: 0.3333333, y: 0.3333333, z: 0.3333333, w: 0.3333333}
      - serializedVersion: 3
        time: 0.7333333
        value: {x: 0.5575019, y: -0.6213555, z: 0.548745, w: 0.04458498}
        inSlope: {x: 2.022627, y: 1.726862, z: -0.1497664, w: 0.4263546}
        outSlope: {x: 2.022627, y: 1.726862, z: -0.1497664, w: 0.4263546}
        weightedMode: 0
        inWeight: { x: 0.3333333, y: 0.3333333, z: 0.3333333, w: 0.3333333}
        outWeight: { x: 0.3333333, y: 0.3333333, z: 0.3333333, w: 0.3333333}
      - serializedVersion: 3
        time: 0.8333334
        value: {x: 0.7518709, y: -0.43597, z: 0.4854363, w: 0.09472038}
        inSlope: {x: 1.673757, y: 1.777354, z: -1.085252, w: 0.5288579}
        outSlope: {x: 1.673757, y: 1.777354, z: -1.085252, w: 0.5288579}
        weightedMode: 0
        inWeight: { x: 0.3333333, y: 0.3333333, z: 0.3333333, w: 0.3333333}
        outWeight: { x: 0.3333333, y: 0.3333333, z: 0.3333333, w: 0.3333333}
      - serializedVersion: 3
        time: 0.9333334
        value: {x: 0.8777553, y: -0.2893916, z: 0.3539503, w: 0.1432383}
        inSlope: {x: 0.8336028, y: 1.069236, z: -1.321901, w: 0.4004757}
        outSlope: {x: 0.8336028, y: 1.069236, z: -1.321901, w: 0.4004757}
        weightedMode: 0
        inWeight: { x: 0.3333333, y: 0.3333333, z: 0.3333333, w: 0.3333333}
        outWeight: { x: 0.3333333, y: 0.3333333, z: 0.3333333, w: 0.3333333}
      - serializedVersion: 3
        time: 0.9666667
        value: {x: 0.9010388, y: -0.2584997, z: 0.311721, w: 0.1553611}
        inSlope: {x: 0, y: 0, z: 0, w: 0}
        outSlope: {x: 0, y: 0, z: 0, w: 0}
        weightedMode: 0
        inWeight: { x: 0.3333333, y: 0.3333333, z: 0.3333333, w: 0.3333333}
        outWeight: { x: 0.3333333, y: 0.3333333, z: 0.3333333, w: 0.3333333}
      m_PreInfinity: 2
      m_PostInfinity: 2
      m_RotationOrder: 4
    path: Rig/Root/Body/Fin_01_L
  - curve:
      serializedVersion: 2
      m_Curve:
      - serializedVersion: 3
        time: 0
        value: {x: 0.9164723, y: 0.2368898, z: -0.2772835, w: 0.1645465}
        inSlope: {x: 0.2633446, y: -0.3853069, z: 0.6884148, w: 0.174876}
        outSlope: {x: 0.2633446, y: -0.3853069, z: 0.6884148, w: 0.174876}
        weightedMode: 0
        inWeight: { x: 0.3333333, y: 0.3333333, z: 0.3333333, w: 0.3333333}
        outWeight: { x: 0.3333333, y: 0.3333333, z: 0.3333333, w: 0.3333333}
      - serializedVersion: 3
        time: 0.1
        value: {x: 0.9252505, y: 0.2240462, z: -0.2543363, w: 0.1703759}
        inSlope: {x: -0.1750723, y: 0.2578227, z: -0.4682113, w: -0.1181708}
        outSlope: {x: -0.1750723, y: 0.2578227, z: -0.4682113, w: -0.1181708}
        weightedMode: 0
        inWeight: { x: 0.3333333, y: 0.3333333, z: 0.3333333, w: 0.3333333}
        outWeight: { x: 0.3333333, y: 0.3333333, z: 0.3333333, w: 0.3333333}
      - serializedVersion: 3
        time: 0.3
        value: {x: 0.7518709, y: 0.43597, z: -0.4854364, w: 0.09472036}
        inSlope: {x: -1.673756, y: 1.777352, z: -1.085254, w: -0.5288614}
        outSlope: {x: -1.673756, y: 1.777352, z: -1.085254, w: -0.5288614}
        weightedMode: 0
        inWeight: { x: 0.3333333, y: 0.3333333, z: 0.3333333, w: 0.3333333}
        outWeight: { x: 0.3333333, y: 0.3333333, z: 0.3333333, w: 0.3333333}
      - serializedVersion: 3
        time: 0.4
        value: {x: 0.5575017, y: 0.6213556, z: -0.5487452, w: 0.0445849}
        inSlope: {x: -2.022626, y: 1.72686, z: -0.1497691, w: -0.426356}
        outSlope: {x: -2.022626, y: 1.72686, z: -0.1497691, w: -0.426356}
        weightedMode: 0
        inWeight: { x: 0.3333333, y: 0.3333333, z: 0.3333333, w: 0.3333333}
        outWeight: { x: 0.3333333, y: 0.3333333, z: 0.3333333, w: 0.3333333}
      - serializedVersion: 3
        time: 0.5666667
        value: {x: 0.3400785, y: 0.7831445, z: -0.5205168, w: 0.009680892}
        inSlope: {x: -3.263354E-06, y: 1.624227E-06, z: -4.097819E-08, w: 4.768372E-07}
        outSlope: {x: -3.263354E-06, y: 1.624227E-06, z: -4.097819E-08, w: 4.768372E-07}
        weightedMode: 0
        inWeight: { x: 0.3333333, y: 0.3333333, z: 0.3333333, w: 0.3333333}
        outWeight: { x: 0.3333333, y: 0.3333333, z: 0.3333333, w: 0.3333333}
      - serializedVersion: 3
        time: 0.7333333
        value: {x: 0.5575019, y: 0.6213555, z: -0.548745, w: 0.044585}
        inSlope: {x: 2.022629, y: -1.726865, z: 0.1497637, w: 0.4263516}
        outSlope: {x: 2.022629, y: -1.726865, z: 0.1497637, w: 0.4263516}
        weightedMode: 0
        inWeight: { x: 0.3333333, y: 0.3333333, z: 0.3333333, w: 0.3333333}
        outWeight: { x: 0.3333333, y: 0.3333333, z: 0.3333333, w: 0.3333333}
      - serializedVersion: 3
        time: 0.8333334
        value: {x: 0.7518709, y: 0.43597, z: -0.4854363, w: 0.09472042}
        inSlope: {x: 1.673757, y: -1.777356, z: 1.085251, w: 0.5288556}
        outSlope: {x: 1.673757, y: -1.777356, z: 1.085251, w: 0.5288556}
        weightedMode: 0
        inWeight: { x: 0.3333333, y: 0.3333333, z: 0.3333333, w: 0.3333333}
        outWeight: { x: 0.3333333, y: 0.3333333, z: 0.3333333, w: 0.3333333}
      - serializedVersion: 3
        time: 0.9333334
        value: {x: 0.8777553, y: 0.2893917, z: -0.3539503, w: 0.1432382}
        inSlope: {x: 0.8336036, y: -1.069242, z: 1.321895, w: 0.4004679}
        outSlope: {x: 0.8336036, y: -1.069242, z: 1.321895, w: 0.4004679}
        weightedMode: 0
        inWeight: { x: 0.3333333, y: 0.3333333, z: 0.3333333, w: 0.3333333}
        outWeight: { x: 0.3333333, y: 0.3333333, z: 0.3333333, w: 0.3333333}
      - serializedVersion: 3
        time: 0.9666667
        value: {x: 0.9010388, y: 0.2584997, z: -0.311721, w: 0.1553611}
        inSlope: {x: 0, y: 0, z: 0, w: 0}
        outSlope: {x: 0, y: 0, z: 0, w: 0}
        weightedMode: 0
        inWeight: { x: 0.3333333, y: 0.3333333, z: 0.3333333, w: 0.3333333}
        outWeight: { x: 0.3333333, y: 0.3333333, z: 0.3333333, w: 0.3333333}
      m_PreInfinity: 2
      m_PostInfinity: 2
      m_RotationOrder: 4
    path: Rig/Root/Body/Fin_01_R
  - curve:
      serializedVersion: 2
      m_Curve:
      - serializedVersion: 3
        time: 0
        value: {x: -2.077408E-09, y: -1.191912E-07, z: -0.01742657, w: 0.9998482}
        inSlope: {x: 1.246446E-07, y: 0, z: 1.045594, w: 0}
        outSlope: {x: 1.246446E-07, y: 0, z: 1.045594, w: 0}
        weightedMode: 0
        inWeight: { x: 0.3333333, y: 0.3333333, z: 0.3333333, w: 0.3333333}
        outWeight: { x: 0.3333333, y: 0.3333333, z: 0.3333333, w: 0.3333333}
      - serializedVersion: 3
        time: 0.2
        value: {x: 1.870628E-08, y: -1.177324E-07, z: 0.1569197, w: 0.9876114}
        inSlope: {x: 5.628395E-08, y: 8.746069E-09, z: 0.472144, w: -0.07336734}
        outSlope: {x: 5.628395E-08, y: 8.746069E-09, z: 0.472144, w: -0.07336734}
        weightedMode: 0
        inWeight: { x: 0.3333333, y: 0.3333333, z: 0.3333333, w: 0.3333333}
        outWeight: { x: 0.3333333, y: 0.3333333, z: 0.3333333, w: 0.3333333}
      - serializedVersion: 3
        time: 0.4666667
        value: {x: 6.155816E-09, y: -1.190502E-07, z: 0.05163872, w: 0.9986659}
        inSlope: {x: -1.189272E-07, y: -6.038479E-09, z: -0.9976337, w: 0.05065443}
        outSlope: {x: -1.189272E-07, y: -6.038479E-09, z: -0.9976337, w: 0.05065443}
        weightedMode: 0
        inWeight: { x: 0.3333333, y: 0.3333333, z: 0.3333333, w: 0.3333333}
        outWeight: { x: 0.3333333, y: 0.3333333, z: 0.3333333, w: 0.3333333}
      - serializedVersion: 3
        time: 0.7
        value: {x: -1.870629E-08, y: -1.177324E-07, z: -0.1569197, w: 0.9876114}
        inSlope: {x: -5.628409E-08, y: 8.74607E-09, z: -0.4721452, w: -0.07336735}
        outSlope: {x: -5.628409E-08, y: 8.74607E-09, z: -0.4721452, w: -0.07336735}
        weightedMode: 0
        inWeight: { x: 0.3333333, y: 0.3333333, z: 0.3333333, w: 0.3333333}
        outWeight: { x: 0.3333333, y: 0.3333333, z: 0.3333333, w: 0.3333333}
      - serializedVersion: 3
        time: 0.9333334
        value: {x: -1.000588E-08, y: -1.187886E-07, z: -0.08393542, w: 0.9964712}
        inSlope: {x: 1.098331E-07, y: -9.079989E-09, z: 0.9213468, w: 0.07616847}
        outSlope: {x: 1.098331E-07, y: -9.079989E-09, z: 0.9213468, w: 0.07616847}
        weightedMode: 0
        inWeight: { x: 0.3333333, y: 0.3333333, z: 0.3333333, w: 0.3333333}
        outWeight: { x: 0.3333333, y: 0.3333333, z: 0.3333333, w: 0.3333333}
      - serializedVersion: 3
        time: 0.9666667
        value: {x: -6.155819E-09, y: -1.190502E-07, z: -0.05163876, w: 0.9986659}
        inSlope: {x: 0, y: 0, z: 0, w: 0}
        outSlope: {x: 0, y: 0, z: 0, w: 0}
        weightedMode: 0
        inWeight: { x: 0.3333333, y: 0.3333333, z: 0.3333333, w: 0.3333333}
        outWeight: { x: 0.3333333, y: 0.3333333, z: 0.3333333, w: 0.3333333}
      m_PreInfinity: 2
      m_PostInfinity: 2
      m_RotationOrder: 4
    path: Rig/Root/Body/Backfin_02
  - curve:
      serializedVersion: 2
      m_Curve:
      - serializedVersion: 3
        time: 0
        value: {x: -0.763899, y: -0.2013721, z: -0.2827643, w: 0.5440146}
        inSlope: {x: -0.07569551, y: 0.1476788, z: 0.2073678, w: 0.05390703}
        outSlope: {x: -0.07569551, y: 0.1476788, z: 0.2073678, w: 0.05390703}
        weightedMode: 0
        inWeight: { x: 0.3333333, y: 0.3333333, z: 0.3333333, w: 0.3333333}
        outWeight: { x: 0.3333333, y: 0.3333333, z: 0.3333333, w: 0.3333333}
      - serializedVersion: 3
        time: 0.1
        value: {x: -0.7826553, y: -0.1607454, z: -0.2257168, w: 0.557372}
        inSlope: {x: -0.298343, y: 0.7527201, z: 1.056961, w: 0.2124667}
        outSlope: {x: -0.298343, y: 0.7527201, z: 1.056961, w: 0.2124667}
        weightedMode: 0
        inWeight: { x: 0.3333333, y: 0.3333333, z: 0.3333333, w: 0.3333333}
        outWeight: { x: 0.3333333, y: 0.3333333, z: 0.3333333, w: 0.3333333}
      - serializedVersion: 3
        time: 0.2333333
        value: {x: -0.8140432, y: -0.02053052, z: -0.0288287, w: 0.579725}
        inSlope: {x: -0.05955756, y: 1.219383, z: 1.712243, w: 0.04241377}
        outSlope: {x: -0.05955756, y: 1.219383, z: 1.712243, w: 0.04241377}
        weightedMode: 0
        inWeight: { x: 0.3333333, y: 0.3333333, z: 0.3333333, w: 0.3333333}
        outWeight: { x: 0.3333333, y: 0.3333333, z: 0.3333333, w: 0.3333333}
      - serializedVersion: 3
        time: 0.3666667
        value: {x: -0.7930756, y: 0.1323314, z: 0.1858183, w: 0.5647929}
        inSlope: {x: 0.3009044, y: 0.9331123, z: 1.310265, w: -0.2142905}
        outSlope: {x: 0.3009044, y: 0.9331123, z: 1.310265, w: -0.2142905}
        weightedMode: 0
        inWeight: { x: 0.3333333, y: 0.3333333, z: 0.3333333, w: 0.3333333}
        outWeight: { x: 0.3333333, y: 0.3333333, z: 0.3333333, w: 0.3333333}
      - serializedVersion: 3
        time: 0.5333334
        value: {x: -0.7664222, y: 0.1964494, z: 0.2758521, w: 0.5458115}
        inSlope: {x: -0.1393067, y: -0.2828906, z: -0.3972317, w: 0.09920768}
        outSlope: {x: -0.1393067, y: -0.2828906, z: -0.3972317, w: 0.09920768}
        weightedMode: 0
        inWeight: { x: 0.3333333, y: 0.3333333, z: 0.3333333, w: 0.3333333}
        outWeight: { x: 0.3333333, y: 0.3333333, z: 0.3333333, w: 0.3333333}
      - serializedVersion: 3
        time: 0.7
        value: {x: -0.8100727, y: 0.06076154, z: 0.08532067, w: 0.5768974}
        inSlope: {x: -0.1699143, y: -1.170111, z: -1.643057, w: 0.1210051}
        outSlope: {x: -0.1699143, y: -1.170111, z: -1.643057, w: 0.1210051}
        weightedMode: 0
        inWeight: { x: 0.3333333, y: 0.3333333, z: 0.3333333, w: 0.3333333}
        outWeight: { x: 0.3333333, y: 0.3333333, z: 0.3333333, w: 0.3333333}
      - serializedVersion: 3
        time: 0.8333334
        value: {x: -0.8027155, y: -0.09853798, z: -0.1383659, w: 0.571658}
        inSlope: {x: 0.2549556, y: -1.073547, z: -1.507462, w: -0.1815685}
        outSlope: {x: 0.2549556, y: -1.073547, z: -1.507462, w: -0.1815685}
        weightedMode: 0
        inWeight: { x: 0.3333333, y: 0.3333333, z: 0.3333333, w: 0.3333333}
        outWeight: { x: 0.3333333, y: 0.3333333, z: 0.3333333, w: 0.3333333}
      - serializedVersion: 3
        time: 0.9333334
        value: {x: -0.7731861, y: -0.1825128, z: -0.2562823, w: 0.5506285}
        inSlope: {x: 0.2434954, y: -0.5355593, z: -0.752026, w: -0.1734066}
        outSlope: {x: 0.2434954, y: -0.5355593, z: -0.752026, w: -0.1734066}
        weightedMode: 0
        inWeight: { x: 0.3333333, y: 0.3333333, z: 0.3333333, w: 0.3333333}
        outWeight: { x: 0.3333333, y: 0.3333333, z: 0.3333333, w: 0.3333333}
      - serializedVersion: 3
        time: 0.9666667
        value: {x: -0.7664222, y: -0.1964494, z: -0.275852, w: 0.5458115}
        inSlope: {x: 0, y: 0, z: 0, w: 0}
        outSlope: {x: 0, y: 0, z: 0, w: 0}
        weightedMode: 0
        inWeight: { x: 0.3333333, y: 0.3333333, z: 0.3333333, w: 0.3333333}
        outWeight: { x: 0.3333333, y: 0.3333333, z: 0.3333333, w: 0.3333333}
      m_PreInfinity: 2
      m_PostInfinity: 2
      m_RotationOrder: 4
    path: Rig/Root/Body/Tail_01
  - curve:
      serializedVersion: 2
      m_Curve:
      - serializedVersion: 3
        time: 0
        value: {x: -0.0827549, y: -0.004059469, z: 0.04882663, w: 0.9953648}
        inSlope: {x: 0, y: 0.2435674, z: -2.929596, w: 0}
        outSlope: {x: 0, y: 0.2435674, z: -2.929596, w: 0}
        weightedMode: 0
        inWeight: { x: 0.3333333, y: 0.3333333, z: 0.3333333, w: 0.3333333}
        outWeight: { x: 0.3333333, y: 0.3333333, z: 0.3333333, w: 0.3333333}
      - serializedVersion: 3
        time: 0.03333334
        value: {x: -0.0827549, y: 0.004059444, z: -0.04882658, w: 0.9953648}
        inSlope: {x: 0.01160335, y: 0.2408366, z: -2.896751, w: -0.1395634}
        outSlope: {x: 0.01160335, y: 0.2408366, z: -2.896751, w: -0.1395634}
        weightedMode: 0
        inWeight: { x: 0.3333333, y: 0.3333333, z: 0.3333333, w: 0.3333333}
        outWeight: { x: 0.3333333, y: 0.3333333, z: 0.3333333, w: 0.3333333}
      - serializedVersion: 3
        time: 0.1666667
        value: {x: -0.07667141, y: 0.03140615, z: -0.3777492, w: 0.9221934}
        inSlope: {x: 0.05748767, y: 0.1435476, z: -1.726571, w: -0.6914537}
        outSlope: {x: 0.05748767, y: 0.1435476, z: -1.726571, w: -0.6914537}
        weightedMode: 0
        inWeight: { x: 0.3333333, y: 0.3333333, z: 0.3333333, w: 0.3333333}
        outWeight: { x: 0.3333333, y: 0.3333333, z: 0.3333333, w: 0.3333333}
      - serializedVersion: 3
        time: 0.2666667
        value: {x: -0.07307106, y: 0.03905729, z: -0.469776, w: 0.8788889}
        inSlope: {x: -1.117587E-07, y: -1.676381E-07, z: 2.235174E-06, w: 8.940697E-07}
        outSlope: {x: -1.117587E-07, y: -1.676381E-07, z: 2.235174E-06, w: 8.940697E-07}
        weightedMode: 0
        inWeight: { x: 0.3333333, y: 0.3333333, z: 0.3333333, w: 0.3333333}
        outWeight: { x: 0.3333333, y: 0.3333333, z: 0.3333333, w: 0.3333333}
      - serializedVersion: 3
        time: 0.4666667
        value: {x: -0.08198134, y: 0.01199629, z: -0.14429, w: 0.9860606}
        inSlope: {x: -0.03305768, y: -0.2301166, z: 2.767812, w: 0.3976153}
        outSlope: {x: -0.03305768, y: -0.2301166, z: 2.767812, w: 0.3976153}
        weightedMode: 0
        inWeight: { x: 0.3333333, y: 0.3333333, z: 0.3333333, w: 0.3333333}
        outWeight: { x: 0.3333333, y: 0.3333333, z: 0.3333333, w: 0.3333333}
      - serializedVersion: 3
        time: 0.5666667
        value: {x: -0.08198134, y: -0.01199634, z: 0.1442903, w: 0.9860606}
        inSlope: {x: 0.03305801, y: -0.2301165, z: 2.767811, w: -0.3976161}
        outSlope: {x: 0.03305801, y: -0.2301165, z: 2.767811, w: -0.3976161}
        weightedMode: 0
        inWeight: { x: 0.3333333, y: 0.3333333, z: 0.3333333, w: 0.3333333}
        outWeight: { x: 0.3333333, y: 0.3333333, z: 0.3333333, w: 0.3333333}
      - serializedVersion: 3
        time: 0.7666667
        value: {x: -0.07307105, y: -0.0390573, z: 0.4697759, w: 0.8788889}
        inSlope: {x: 0, y: 0, z: 0, w: 0}
        outSlope: {x: 0, y: 0, z: 0, w: 0}
        weightedMode: 0
        inWeight: { x: 0.3333333, y: 0.3333333, z: 0.3333333, w: 0.3333333}
        outWeight: { x: 0.3333333, y: 0.3333333, z: 0.3333333, w: 0.3333333}
      - serializedVersion: 3
        time: 0.9333334
        value: {x: -0.08055104, y: -0.01940056, z: 0.2333472, w: 0.9688572}
        inSlope: {x: -0.04947546, y: 0.2094319, z: -2.519019, w: 0.5950838}
        outSlope: {x: -0.04947546, y: 0.2094319, z: -2.519019, w: 0.5950838}
        weightedMode: 0
        inWeight: { x: 0.3333333, y: 0.3333333, z: 0.3333333, w: 0.3333333}
        outWeight: { x: 0.3333333, y: 0.3333333, z: 0.3333333, w: 0.3333333}
      - serializedVersion: 3
        time: 0.9666667
        value: {x: -0.08198133, y: -0.01199633, z: 0.1442901, w: 0.9860606}
        inSlope: {x: 0, y: 0, z: 0, w: 0}
        outSlope: {x: 0, y: 0, z: 0, w: 0}
        weightedMode: 0
        inWeight: { x: 0.3333333, y: 0.3333333, z: 0.3333333, w: 0.3333333}
        outWeight: { x: 0.3333333, y: 0.3333333, z: 0.3333333, w: 0.3333333}
      m_PreInfinity: 2
      m_PostInfinity: 2
      m_RotationOrder: 4
    path: Rig/Root/Body/Tail_01/Tail_02
  m_CompressedRotationCurves: []
  m_EulerCurves:
  m_PositionCurves:
  m_ScaleCurves:
  m_FloatCurves:
  m_PPtrCurves:
  m_SampleRate: 30
  m_WrapMode: 0
  m_Bounds:
    m_Center: {x: 0, y: 0, z: 0}
    m_Extent: {x: 0, y: 0, z: 0}
  m_MuscleClipSize: 7056
  m_MuscleClip:
    serializedVersion: 3
    m_DeltaPose:
      m_RootX:
        t: {x: 0, y: 0, z: 0}
        q: {x: 0, y: 0, z: 0, w: 1}
        s: {x: 1, y: 1, z: 1}
      m_LookAtPosition: {x: 0, y: 0, z: 0}
      m_LookAtWeight: {x: 0, y: 0, z: 0, w: 0}
      m_GoalArray:
      - m_X:
          t: {x: 0, y: 0, z: 0}
          q: {x: 0, y: 0, z: 0, w: 1}
          s: {x: 1, y: 1, z: 1}
          m_Weight: 
          m_WeightR: 0
          m_HintT: {x: 0, y: 0, z: 0}
          m_HintWeightT: 0
      - m_X:
          t: {x: 0, y: 0, z: 0}
          q: {x: 0, y: 0, z: 0, w: 1}
          s: {x: 1, y: 1, z: 1}
          m_Weight: 
          m_WeightR: 0
          m_HintT: {x: 0, y: 0, z: 0}
          m_HintWeightT: 0
      - m_X:
          t: {x: 0, y: 0, z: 0}
          q: {x: 0, y: 0, z: 0, w: 1}
          s: {x: 1, y: 1, z: 1}
          m_Weight: 
          m_WeightR: 0
          m_HintT: {x: 0, y: 0, z: 0}
          m_HintWeightT: 0
      - m_X:
          t: {x: 0, y: 0, z: 0}
          q: {x: 0, y: 0, z: 0, w: 1}
          s: {x: 1, y: 1, z: 1}
          m_Weight: 
          m_WeightR: 0
          m_HintT: {x: 0, y: 0, z: 0}
          m_HintWeightT: 0
      m_LeftHandPose:
        m_GrabX:
          t: {x: 0, y: 0, z: 0}
          q: {x: 0, y: 0, z: 0, w: 1}
          s: {x: 1, y: 1, z: 1}
        m_DoFArray:
        - 0
        - 0
        - 0
        - 0
        - 0
        - 0
        - 0
        - 0
        - 0
        - 0
        - 0
        - 0
        - 0
        - 0
        - 0
        - 0
        - 0
        - 0
        - 0
        - 0
        m_Override: 0
        m_CloseOpen: 0
        m_InOut: 0
        m_Grab: 0
      m_RightHandPose:
        m_GrabX:
          t: {x: 0, y: 0, z: 0}
          q: {x: 0, y: 0, z: 0, w: 1}
          s: {x: 1, y: 1, z: 1}
        m_DoFArray:
        - 0
        - 0
        - 0
        - 0
        - 0
        - 0
        - 0
        - 0
        - 0
        - 0
        - 0
        - 0
        - 0
        - 0
        - 0
        - 0
        - 0
        - 0
        - 0
        - 0
        m_Override: 0
        m_CloseOpen: 0
        m_InOut: 0
        m_Grab: 0
      m_DoFArray:
        - 0
        - 0
        - 0
        - 0
        - 0
        - 0
        - 0
        - 0
        - 0
        - 0
        - 0
        - 0
        - 0
        - 0
        - 0
        - 0
        - 0
        - 0
        - 0
        - 0
        - 0
        - 0
        - 0
        - 0
        - 0
        - 0
        - 0
        - 0
        - 0
        - 0
        - 0
        - 0
        - 0
        - 0
        - 0
        - 0
        - 0
        - 0
        - 0
        - 0
        - 0
        - 0
        - 0
        - 0
        - 0
        - 0
        - 0
        - 0
        - 0
        - 0
        - 0
        - 0
        - 0
        - 0
        - 0
      m_TDoFArray:
      - x: 0
        y: 0
        z: 0
      - x: 0
        y: 0
        z: 0
      - x: 0
        y: 0
        z: 0
      - x: 0
        y: 0
        z: 0
      - x: 0
        y: 0
        z: 0
      - x: 0
        y: 0
        z: 0
      - x: 0
        y: 0
        z: 0
      - x: 0
        y: 0
        z: 0
      - x: 0
        y: 0
        z: 0
      - x: 0
        y: 0
        z: 0
      - x: 0
        y: 0
        z: 0
      - x: 0
        y: 0
        z: 0
      - x: 0
        y: 0
        z: 0
      - x: 0
        y: 0
        z: 0
      - x: 0
        y: 0
        z: 0
      - x: 0
        y: 0
        z: 0
      - x: 0
        y: 0
        z: 0
      - x: 0
        y: 0
        z: 0
      - x: 0
        y: 0
        z: 0
      - x: 0
        y: 0
        z: 0
      - x: 0
        y: 0
        z: 0
    m_StartX:
      t: {x: 0, y: 0, z: 0}
      q: {x: 0, y: 0, z: 0, w: 1}
      s: {x: 1, y: 1, z: 1}
    m_StopX:
      t: {x: 0, y: 0, z: 0}
      q: {x: 0, y: 0, z: 0, w: 1}
      s: {x: 1, y: 1, z: 1}
    m_LeftFootStartX:
      t: {x: 0, y: 0, z: 0}
      q: {x: 0, y: 0, z: 0, w: 1}
      s: {x: 1, y: 1, z: 1}
    m_RightFootStartX:
      t: {x: 0, y: 0, z: 0}
      q: {x: 0, y: 0, z: 0, w: 1}
      s: {x: 1, y: 1, z: 1}
    m_AverageSpeed: {x: 0, y: 0, z: 0}
  m_ClipBindingConstant:
    genericBindings:
    - serializedVersion: 2
      path: 3045925566
      attribute: 2
      script: {fileID: 0}
      typeID: 4
      customType: 0
      isPPtrCurve: 0
    - serializedVersion: 2
      path: 3453542726
      attribute: 2
      script: {fileID: 0}
      typeID: 4
      customType: 0
      isPPtrCurve: 0
    - serializedVersion: 2
      path: 936893477
      attribute: 2
      script: {fileID: 0}
      typeID: 4
      customType: 0
      isPPtrCurve: 0
    - serializedVersion: 2
      path: 3594516934
      attribute: 2
      script: {fileID: 0}
      typeID: 4
      customType: 0
      isPPtrCurve: 0
    - serializedVersion: 2
      path: 3166425161
      attribute: 2
      script: {fileID: 0}
      typeID: 4
      customType: 0
      isPPtrCurve: 0
    - serializedVersion: 2
      path: 4241371537
      attribute: 2
      script: {fileID: 0}
      typeID: 4
      customType: 0
      isPPtrCurve: 0
    pptrCurveMapping:
  m_AnimationClipSettings:
    serializedVersion: 2
    m_AdditiveReferencePoseClip: {fileID: 0}
    m_AdditiveReferencePoseTime: 
    m_StartTime: 0
    m_StopTime: 0.9666667
    m_OrientationOffsetY: 0
    m_Level: 0
    m_CycleOffset: 0
    m_HasAdditiveReferencePose: 
    m_LoopTime: 1
    m_LoopBlend: 0
    m_LoopBlendOrientation: 0
    m_LoopBlendPositionY: 0
    m_LoopBlendPositionXZ: 0
    m_KeepOriginalOrientation: 0
    m_KeepOriginalPositionY: 1
    m_KeepOriginalPositionXZ: 0
    m_HeightFromFeet: 0
    m_Mirror: 0
    m_HasGenericRootTransform: 0
    m_HasMotionFloatCurves: 0
    m_GenerateMotionCurves: 0
  m_EditorCurves:
  - curve:
      serializedVersion: 2
      m_Curve:
      - serializedVersion: 2
        time: 0
        value: 0.7065583
        inSlope: -0.01345396
        outSlope: -0.01345396
        tangentMode: 0
      - serializedVersion: 2
        time: 0.2666667
        value: 0.705623
        inSlope: 0.01396358
        outSlope: 0.01396358
        tangentMode: 0
      - serializedVersion: 2
        time: 0.6
        value: 0.7051789
        inSlope: -0.01143426
        outSlope: -0.01143426
        tangentMode: 0
      - serializedVersion: 2
        time: 0.9666667
        value: 0.7068995
        inSlope: 0
        outSlope: 0
        tangentMode: 0
      m_PreInfinity: 2
      m_PostInfinity: 2
      m_RotationOrder: 4
    attribute: m_LocalRotation.x
    path: Rig/Root/Body
    classID: 4
    script: {fileID: 0}
  - curve:
      serializedVersion: 2
      m_Curve:
      - serializedVersion: 2
        time: 0
        value: 0.02784655
        inSlope: 0.2907361
        outSlope: 0.2907361
        tangentMode: 0
      - serializedVersion: 2
        time: 0.2666667
        value: 0.04578518
        inSlope: -0.2196399
        outSlope: -0.2196399
        tangentMode: 0
      - serializedVersion: 2
        time: 0.6
        value: -0.05218039
        inSlope: -0.1579659
        outSlope: -0.1579659
        tangentMode: 0
      - serializedVersion: 2
        time: 0.9666667
        value: 0.01712195
        inSlope: 0
        outSlope: 0
        tangentMode: 0
      m_PreInfinity: 2
      m_PostInfinity: 2
      m_RotationOrder: 4
    attribute: m_LocalRotation.y
    path: Rig/Root/Body
    classID: 4
    script: {fileID: 0}
  - curve:
      serializedVersion: 2
      m_Curve:
      - serializedVersion: 2
        time: 0
        value: 0.02784655
        inSlope: 0.2907361
        outSlope: 0.2907361
        tangentMode: 0
      - serializedVersion: 2
        time: 0.2666667
        value: 0.04578518
        inSlope: -0.2196399
        outSlope: -0.2196399
        tangentMode: 0
      - serializedVersion: 2
        time: 0.6
        value: -0.05218038
        inSlope: -0.1579659
        outSlope: -0.1579659
        tangentMode: 0
      - serializedVersion: 2
        time: 0.9666667
        value: 0.01712195
        inSlope: 0
        outSlope: 0
        tangentMode: 0
      m_PreInfinity: 2
      m_PostInfinity: 2
      m_RotationOrder: 4
    attribute: m_LocalRotation.z
    path: Rig/Root/Body
    classID: 4
    script: {fileID: 0}
  - curve:
      serializedVersion: 2
      m_Curve:
      - serializedVersion: 2
        time: 0
        value: 0.7065582
        inSlope: -0.01345575
        outSlope: -0.01345575
        tangentMode: 0
      - serializedVersion: 2
        time: 0.2666667
        value: 0.7056229
        inSlope: 0.01396358
        outSlope: 0.01396358
        tangentMode: 0
      - serializedVersion: 2
        time: 0.6
        value: 0.7051788
        inSlope: -0.01143336
        outSlope: -0.01143336
        tangentMode: 0
      - serializedVersion: 2
        time: 0.9666667
        value: 0.7068994
        inSlope: 0
        outSlope: 0
        tangentMode: 0
      m_PreInfinity: 2
      m_PostInfinity: 2
      m_RotationOrder: 4
    attribute: m_LocalRotation.w
    path: Rig/Root/Body
    classID: 4
    script: {fileID: 0}
  - curve:
      serializedVersion: 2
      m_Curve:
      - serializedVersion: 2
        time: 0
        value: 0.9164723
        inSlope: 0.2633446
        outSlope: 0.2633446
        tangentMode: 0
      - serializedVersion: 2
        time: 0.1
        value: 0.9252505
        inSlope: -0.1750705
        outSlope: -0.1750705
        tangentMode: 0
      - serializedVersion: 2
        time: 0.3
        value: 0.7518709
        inSlope: -1.673755
        outSlope: -1.673755
        tangentMode: 0
      - serializedVersion: 2
        time: 0.4
        value: 0.5575019
        inSlope: -2.022626
        outSlope: -2.022626
        tangentMode: 0
      - serializedVersion: 2
        time: 0.5666667
        value: 0.3400785
        inSlope: -2.816319E-06
        outSlope: -2.816319E-06
        tangentMode: 0
      - serializedVersion: 2
        time: 0.7333333
        value: 0.5575019
        inSlope: 2.022627
        outSlope: 2.022627
        tangentMode: 0
      - serializedVersion: 2
        time: 0.8333334
        value: 0.7518709
        inSlope: 1.673757
        outSlope: 1.673757
        tangentMode: 0
      - serializedVersion: 2
        time: 0.9333334
        value: 0.8777553
        inSlope: 0.8336028
        outSlope: 0.8336028
        tangentMode: 0
      - serializedVersion: 2
        time: 0.9666667
        value: 0.9010388
        inSlope: 0
        outSlope: 0
        tangentMode: 0
      m_PreInfinity: 2
      m_PostInfinity: 2
      m_RotationOrder: 4
    attribute: m_LocalRotation.x
    path: Rig/Root/Body/Fin_01_L
    classID: 4
    script: {fileID: 0}
  - curve:
      serializedVersion: 2
      m_Curve:
      - serializedVersion: 2
        time: 0
        value: -0.2368898
        inSlope: 0.3853069
        outSlope: 0.3853069
        tangentMode: 0
      - serializedVersion: 2
        time: 0.1
        value: -0.2240462
        inSlope: -0.2578233
        outSlope: -0.2578233
        tangentMode: 0
      - serializedVersion: 2
        time: 0.3
        value: -0.43597
        inSlope: -1.777349
        outSlope: -1.777349
        tangentMode: 0
      - serializedVersion: 2
        time: 0.4
        value: -0.6213557
        inSlope: -1.726861
        outSlope: -1.726861
        tangentMode: 0
      - serializedVersion: 2
        time: 0.5666667
        value: -0.7831445
        inSlope: -1.624227E-06
        outSlope: -1.624227E-06
        tangentMode: 0
      - serializedVersion: 2
        time: 0.7333333
        value: -0.6213555
        inSlope: 1.726862
        outSlope: 1.726862
        tangentMode: 0
      - serializedVersion: 2
        time: 0.8333334
        value: -0.43597
        inSlope: 1.777354
        outSlope: 1.777354
        tangentMode: 0
      - serializedVersion: 2
        time: 0.9333334
        value: -0.2893916
        inSlope: 1.069236
        outSlope: 1.069236
        tangentMode: 0
      - serializedVersion: 2
        time: 0.9666667
        value: -0.2584997
        inSlope: 0
        outSlope: 0
        tangentMode: 0
      m_PreInfinity: 2
      m_PostInfinity: 2
      m_RotationOrder: 4
    attribute: m_LocalRotation.y
    path: Rig/Root/Body/Fin_01_L
    classID: 4
    script: {fileID: 0}
  - curve:
      serializedVersion: 2
      m_Curve:
      - serializedVersion: 2
        time: 0
        value: 0.2772836
        inSlope: -0.688413
        outSlope: -0.688413
        tangentMode: 0
      - serializedVersion: 2
        time: 0.1
        value: 0.2543363
        inSlope: 0.46821
        outSlope: 0.46821
        tangentMode: 0
      - serializedVersion: 2
        time: 0.3
        value: 0.4854363
        inSlope: 1.085253
        outSlope: 1.085253
        tangentMode: 0
      - serializedVersion: 2
        time: 0.4
        value: 0.548745
        inSlope: 0.1497691
        outSlope: 0.1497691
        tangentMode: 0
      - serializedVersion: 2
        time: 0.5666667
        value: 0.5205168
        inSlope: 4.097819E-08
        outSlope: 4.097819E-08
        tangentMode: 0
      - serializedVersion: 2
        time: 0.7333333
        value: 0.548745
        inSlope: -0.1497664
        outSlope: -0.1497664
        tangentMode: 0
      - serializedVersion: 2
        time: 0.8333334
        value: 0.4854363
        inSlope: -1.085252
        outSlope: -1.085252
        tangentMode: 0
      - serializedVersion: 2
        time: 0.9333334
        value: 0.3539503
        inSlope: -1.321901
        outSlope: -1.321901
        tangentMode: 0
      - serializedVersion: 2
        time: 0.9666667
        value: 0.311721
        inSlope: 0
        outSlope: 0
        tangentMode: 0
      m_PreInfinity: 2
      m_PostInfinity: 2
      m_RotationOrder: 4
    attribute: m_LocalRotation.z
    path: Rig/Root/Body/Fin_01_L
    classID: 4
    script: {fileID: 0}
  - curve:
      serializedVersion: 2
      m_Curve:
      - serializedVersion: 2
        time: 0
        value: 0.1645465
        inSlope: 0.174876
        outSlope: 0.174876
        tangentMode: 0
      - serializedVersion: 2
        time: 0.1
        value: 0.1703758
        inSlope: -0.118169
        outSlope: -0.118169
        tangentMode: 0
      - serializedVersion: 2
        time: 0.3
        value: 0.09472035
        inSlope: -0.5288625
        outSlope: -0.5288625
        tangentMode: 0
      - serializedVersion: 2
        time: 0.4
        value: 0.044585
        inSlope: -0.4263569
        outSlope: -0.4263569
        tangentMode: 0
      - serializedVersion: 2
        time: 0.5666667
        value: 0.009680892
        inSlope: 1.9297E-06
        outSlope: 1.9297E-06
        tangentMode: 0
      - serializedVersion: 2
        time: 0.7333333
        value: 0.04458498
        inSlope: 0.4263546
        outSlope: 0.4263546
        tangentMode: 0
      - serializedVersion: 2
        time: 0.8333334
        value: 0.09472038
        inSlope: 0.5288579
        outSlope: 0.5288579
        tangentMode: 0
      - serializedVersion: 2
        time: 0.9333334
        value: 0.1432383
        inSlope: 0.4004757
        outSlope: 0.4004757
        tangentMode: 0
      - serializedVersion: 2
        time: 0.9666667
        value: 0.1553611
        inSlope: 0
        outSlope: 0
        tangentMode: 0
      m_PreInfinity: 2
      m_PostInfinity: 2
      m_RotationOrder: 4
    attribute: m_LocalRotation.w
    path: Rig/Root/Body/Fin_01_L
    classID: 4
    script: {fileID: 0}
  - curve:
      serializedVersion: 2
      m_Curve:
      - serializedVersion: 2
        time: 0
        value: 0.9164723
        inSlope: 0.2633446
        outSlope: 0.2633446
        tangentMode: 0
      - serializedVersion: 2
        time: 0.1
        value: 0.9252505
        inSlope: -0.1750723
        outSlope: -0.1750723
        tangentMode: 0
      - serializedVersion: 2
        time: 0.3
        value: 0.7518709
        inSlope: -1.673756
        outSlope: -1.673756
        tangentMode: 0
      - serializedVersion: 2
        time: 0.4
        value: 0.5575017
        inSlope: -2.022626
        outSlope: -2.022626
        tangentMode: 0
      - serializedVersion: 2
        time: 0.5666667
        value: 0.3400785
        inSlope: -3.263354E-06
        outSlope: -3.263354E-06
        tangentMode: 0
      - serializedVersion: 2
        time: 0.7333333
        value: 0.5575019
        inSlope: 2.022629
        outSlope: 2.022629
        tangentMode: 0
      - serializedVersion: 2
        time: 0.8333334
        value: 0.7518709
        inSlope: 1.673757
        outSlope: 1.673757
        tangentMode: 0
      - serializedVersion: 2
        time: 0.9333334
        value: 0.8777553
        inSlope: 0.8336036
        outSlope: 0.8336036
        tangentMode: 0
      - serializedVersion: 2
        time: 0.9666667
        value: 0.9010388
        inSlope: 0
        outSlope: 0
        tangentMode: 0
      m_PreInfinity: 2
      m_PostInfinity: 2
      m_RotationOrder: 4
    attribute: m_LocalRotation.x
    path: Rig/Root/Body/Fin_01_R
    classID: 4
    script: {fileID: 0}
  - curve:
      serializedVersion: 2
      m_Curve:
      - serializedVersion: 2
        time: 0
        value: 0.2368898
        inSlope: -0.3853069
        outSlope: -0.3853069
        tangentMode: 0
      - serializedVersion: 2
        time: 0.1
        value: 0.2240462
        inSlope: 0.2578227
        outSlope: 0.2578227
        tangentMode: 0
      - serializedVersion: 2
        time: 0.3
        value: 0.43597
        inSlope: 1.777352
        outSlope: 1.777352
        tangentMode: 0
      - serializedVersion: 2
        time: 0.4
        value: 0.6213556
        inSlope: 1.72686
        outSlope: 1.72686
        tangentMode: 0
      - serializedVersion: 2
        time: 0.5666667
        value: 0.7831445
        inSlope: 1.624227E-06
        outSlope: 1.624227E-06
        tangentMode: 0
      - serializedVersion: 2
        time: 0.7333333
        value: 0.6213555
        inSlope: -1.726865
        outSlope: -1.726865
        tangentMode: 0
      - serializedVersion: 2
        time: 0.8333334
        value: 0.43597
        inSlope: -1.777356
        outSlope: -1.777356
        tangentMode: 0
      - serializedVersion: 2
        time: 0.9333334
        value: 0.2893917
        inSlope: -1.069242
        outSlope: -1.069242
        tangentMode: 0
      - serializedVersion: 2
        time: 0.9666667
        value: 0.2584997
        inSlope: 0
        outSlope: 0
        tangentMode: 0
      m_PreInfinity: 2
      m_PostInfinity: 2
      m_RotationOrder: 4
    attribute: m_LocalRotation.y
    path: Rig/Root/Body/Fin_01_R
    classID: 4
    script: {fileID: 0}
  - curve:
      serializedVersion: 2
      m_Curve:
      - serializedVersion: 2
        time: 0
        value: -0.2772835
        inSlope: 0.6884148
        outSlope: 0.6884148
        tangentMode: 0
      - serializedVersion: 2
        time: 0.1
        value: -0.2543363
        inSlope: -0.4682113
        outSlope: -0.4682113
        tangentMode: 0
      - serializedVersion: 2
        time: 0.3
        value: -0.4854364
        inSlope: -1.085254
        outSlope: -1.085254
        tangentMode: 0
      - serializedVersion: 2
        time: 0.4
        value: -0.5487452
        inSlope: -0.1497691
        outSlope: -0.1497691
        tangentMode: 0
      - serializedVersion: 2
        time: 0.5666667
        value: -0.5205168
        inSlope: -4.097819E-08
        outSlope: -4.097819E-08
        tangentMode: 0
      - serializedVersion: 2
        time: 0.7333333
        value: -0.548745
        inSlope: 0.1497637
        outSlope: 0.1497637
        tangentMode: 0
      - serializedVersion: 2
        time: 0.8333334
        value: -0.4854363
        inSlope: 1.085251
        outSlope: 1.085251
        tangentMode: 0
      - serializedVersion: 2
        time: 0.9333334
        value: -0.3539503
        inSlope: 1.321895
        outSlope: 1.321895
        tangentMode: 0
      - serializedVersion: 2
        time: 0.9666667
        value: -0.311721
        inSlope: 0
        outSlope: 0
        tangentMode: 0
      m_PreInfinity: 2
      m_PostInfinity: 2
      m_RotationOrder: 4
    attribute: m_LocalRotation.z
    path: Rig/Root/Body/Fin_01_R
    classID: 4
    script: {fileID: 0}
  - curve:
      serializedVersion: 2
      m_Curve:
      - serializedVersion: 2
        time: 0
        value: 0.1645465
        inSlope: 0.174876
        outSlope: 0.174876
        tangentMode: 0
      - serializedVersion: 2
        time: 0.1
        value: 0.1703759
        inSlope: -0.1181708
        outSlope: -0.1181708
        tangentMode: 0
      - serializedVersion: 2
        time: 0.3
        value: 0.09472036
        inSlope: -0.5288614
        outSlope: -0.5288614
        tangentMode: 0
      - serializedVersion: 2
        time: 0.4
        value: 0.0445849
        inSlope: -0.426356
        outSlope: -0.426356
        tangentMode: 0
      - serializedVersion: 2
        time: 0.5666667
        value: 0.009680892
        inSlope: 4.768372E-07
        outSlope: 4.768372E-07
        tangentMode: 0
      - serializedVersion: 2
        time: 0.7333333
        value: 0.044585
        inSlope: 0.4263516
        outSlope: 0.4263516
        tangentMode: 0
      - serializedVersion: 2
        time: 0.8333334
        value: 0.09472042
        inSlope: 0.5288556
        outSlope: 0.5288556
        tangentMode: 0
      - serializedVersion: 2
        time: 0.9333334
        value: 0.1432382
        inSlope: 0.4004679
        outSlope: 0.4004679
        tangentMode: 0
      - serializedVersion: 2
        time: 0.9666667
        value: 0.1553611
        inSlope: 0
        outSlope: 0
        tangentMode: 0
      m_PreInfinity: 2
      m_PostInfinity: 2
      m_RotationOrder: 4
    attribute: m_LocalRotation.w
    path: Rig/Root/Body/Fin_01_R
    classID: 4
    script: {fileID: 0}
  - curve:
      serializedVersion: 2
      m_Curve:
      - serializedVersion: 2
        time: 0
        value: -2.077408E-09
        inSlope: 1.246446E-07
        outSlope: 1.246446E-07
        tangentMode: 0
      - serializedVersion: 2
        time: 0.2
        value: 1.870628E-08
        inSlope: 5.628395E-08
        outSlope: 5.628395E-08
        tangentMode: 0
      - serializedVersion: 2
        time: 0.4666667
        value: 6.155816E-09
        inSlope: -1.189272E-07
        outSlope: -1.189272E-07
        tangentMode: 0
      - serializedVersion: 2
        time: 0.7
        value: -1.870629E-08
        inSlope: -5.628409E-08
        outSlope: -5.628409E-08
        tangentMode: 0
      - serializedVersion: 2
        time: 0.9333334
        value: -1.000588E-08
        inSlope: 1.098331E-07
        outSlope: 1.098331E-07
        tangentMode: 0
      - serializedVersion: 2
        time: 0.9666667
        value: -6.155819E-09
        inSlope: 0
        outSlope: 0
        tangentMode: 0
      m_PreInfinity: 2
      m_PostInfinity: 2
      m_RotationOrder: 4
    attribute: m_LocalRotation.x
    path: Rig/Root/Body/Backfin_02
    classID: 4
    script: {fileID: 0}
  - curve:
      serializedVersion: 2
      m_Curve:
      - serializedVersion: 2
        time: 0
        value: -1.191912E-07
        inSlope: 0
        outSlope: 0
        tangentMode: 0
      - serializedVersion: 2
        time: 0.2
        value: -1.177324E-07
        inSlope: 8.746069E-09
        outSlope: 8.746069E-09
        tangentMode: 0
      - serializedVersion: 2
        time: 0.4666667
        value: -1.190502E-07
        inSlope: -6.038479E-09
        outSlope: -6.038479E-09
        tangentMode: 0
      - serializedVersion: 2
        time: 0.7
        value: -1.177324E-07
        inSlope: 8.74607E-09
        outSlope: 8.74607E-09
        tangentMode: 0
      - serializedVersion: 2
        time: 0.9333334
        value: -1.187886E-07
        inSlope: -9.079989E-09
        outSlope: -9.079989E-09
        tangentMode: 0
      - serializedVersion: 2
        time: 0.9666667
        value: -1.190502E-07
        inSlope: 0
        outSlope: 0
        tangentMode: 0
      m_PreInfinity: 2
      m_PostInfinity: 2
      m_RotationOrder: 4
    attribute: m_LocalRotation.y
    path: Rig/Root/Body/Backfin_02
    classID: 4
    script: {fileID: 0}
  - curve:
      serializedVersion: 2
      m_Curve:
      - serializedVersion: 2
        time: 0
        value: -0.01742657
        inSlope: 1.045594
        outSlope: 1.045594
        tangentMode: 0
      - serializedVersion: 2
        time: 0.2
        value: 0.1569197
        inSlope: 0.472144
        outSlope: 0.472144
        tangentMode: 0
      - serializedVersion: 2
        time: 0.4666667
        value: 0.05163872
        inSlope: -0.9976337
        outSlope: -0.9976337
        tangentMode: 0
      - serializedVersion: 2
        time: 0.7
        value: -0.1569197
        inSlope: -0.4721452
        outSlope: -0.4721452
        tangentMode: 0
      - serializedVersion: 2
        time: 0.9333334
        value: -0.08393542
        inSlope: 0.9213468
        outSlope: 0.9213468
        tangentMode: 0
      - serializedVersion: 2
        time: 0.9666667
        value: -0.05163876
        inSlope: 0
        outSlope: 0
        tangentMode: 0
      m_PreInfinity: 2
      m_PostInfinity: 2
      m_RotationOrder: 4
    attribute: m_LocalRotation.z
    path: Rig/Root/Body/Backfin_02
    classID: 4
    script: {fileID: 0}
  - curve:
      serializedVersion: 2
      m_Curve:
      - serializedVersion: 2
        time: 0
        value: 0.9998482
        inSlope: 0
        outSlope: 0
        tangentMode: 0
      - serializedVersion: 2
        time: 0.2
        value: 0.9876114
        inSlope: -0.07336734
        outSlope: -0.07336734
        tangentMode: 0
      - serializedVersion: 2
        time: 0.4666667
        value: 0.9986659
        inSlope: 0.05065443
        outSlope: 0.05065443
        tangentMode: 0
      - serializedVersion: 2
        time: 0.7
        value: 0.9876114
        inSlope: -0.07336735
        outSlope: -0.07336735
        tangentMode: 0
      - serializedVersion: 2
        time: 0.9333334
        value: 0.9964712
        inSlope: 0.07616847
        outSlope: 0.07616847
        tangentMode: 0
      - serializedVersion: 2
        time: 0.9666667
        value: 0.9986659
        inSlope: 0
        outSlope: 0
        tangentMode: 0
      m_PreInfinity: 2
      m_PostInfinity: 2
      m_RotationOrder: 4
    attribute: m_LocalRotation.w
    path: Rig/Root/Body/Backfin_02
    classID: 4
    script: {fileID: 0}
  - curve:
      serializedVersion: 2
      m_Curve:
      - serializedVersion: 2
        time: 0
        value: -0.763899
        inSlope: -0.07569551
        outSlope: -0.07569551
        tangentMode: 0
      - serializedVersion: 2
        time: 0.1
        value: -0.7826553
        inSlope: -0.298343
        outSlope: -0.298343
        tangentMode: 0
      - serializedVersion: 2
        time: 0.2333333
        value: -0.8140432
        inSlope: -0.05955756
        outSlope: -0.05955756
        tangentMode: 0
      - serializedVersion: 2
        time: 0.3666667
        value: -0.7930756
        inSlope: 0.3009044
        outSlope: 0.3009044
        tangentMode: 0
      - serializedVersion: 2
        time: 0.5333334
        value: -0.7664222
        inSlope: -0.1393067
        outSlope: -0.1393067
        tangentMode: 0
      - serializedVersion: 2
        time: 0.7
        value: -0.8100727
        inSlope: -0.1699143
        outSlope: -0.1699143
        tangentMode: 0
      - serializedVersion: 2
        time: 0.8333334
        value: -0.8027155
        inSlope: 0.2549556
        outSlope: 0.2549556
        tangentMode: 0
      - serializedVersion: 2
        time: 0.9333334
        value: -0.7731861
        inSlope: 0.2434954
        outSlope: 0.2434954
        tangentMode: 0
      - serializedVersion: 2
        time: 0.9666667
        value: -0.7664222
        inSlope: 0
        outSlope: 0
        tangentMode: 0
      m_PreInfinity: 2
      m_PostInfinity: 2
      m_RotationOrder: 4
    attribute: m_LocalRotation.x
    path: Rig/Root/Body/Tail_01
    classID: 4
    script: {fileID: 0}
  - curve:
      serializedVersion: 2
      m_Curve:
      - serializedVersion: 2
        time: 0
        value: -0.2013721
        inSlope: 0.1476788
        outSlope: 0.1476788
        tangentMode: 0
      - serializedVersion: 2
        time: 0.1
        value: -0.1607454
        inSlope: 0.7527201
        outSlope: 0.7527201
        tangentMode: 0
      - serializedVersion: 2
        time: 0.2333333
        value: -0.02053052
        inSlope: 1.219383
        outSlope: 1.219383
        tangentMode: 0
      - serializedVersion: 2
        time: 0.3666667
        value: 0.1323314
        inSlope: 0.9331123
        outSlope: 0.9331123
        tangentMode: 0
      - serializedVersion: 2
        time: 0.5333334
        value: 0.1964494
        inSlope: -0.2828906
        outSlope: -0.2828906
        tangentMode: 0
      - serializedVersion: 2
        time: 0.7
        value: 0.06076154
        inSlope: -1.170111
        outSlope: -1.170111
        tangentMode: 0
      - serializedVersion: 2
        time: 0.8333334
        value: -0.09853798
        inSlope: -1.073547
        outSlope: -1.073547
        tangentMode: 0
      - serializedVersion: 2
        time: 0.9333334
        value: -0.1825128
        inSlope: -0.5355593
        outSlope: -0.5355593
        tangentMode: 0
      - serializedVersion: 2
        time: 0.9666667
        value: -0.1964494
        inSlope: 0
        outSlope: 0
        tangentMode: 0
      m_PreInfinity: 2
      m_PostInfinity: 2
      m_RotationOrder: 4
    attribute: m_LocalRotation.y
    path: Rig/Root/Body/Tail_01
    classID: 4
    script: {fileID: 0}
  - curve:
      serializedVersion: 2
      m_Curve:
      - serializedVersion: 2
        time: 0
        value: -0.2827643
        inSlope: 0.2073678
        outSlope: 0.2073678
        tangentMode: 0
      - serializedVersion: 2
        time: 0.1
        value: -0.2257168
        inSlope: 1.056961
        outSlope: 1.056961
        tangentMode: 0
      - serializedVersion: 2
        time: 0.2333333
        value: -0.0288287
        inSlope: 1.712243
        outSlope: 1.712243
        tangentMode: 0
      - serializedVersion: 2
        time: 0.3666667
        value: 0.1858183
        inSlope: 1.310265
        outSlope: 1.310265
        tangentMode: 0
      - serializedVersion: 2
        time: 0.5333334
        value: 0.2758521
        inSlope: -0.3972317
        outSlope: -0.3972317
        tangentMode: 0
      - serializedVersion: 2
        time: 0.7
        value: 0.08532067
        inSlope: -1.643057
        outSlope: -1.643057
        tangentMode: 0
      - serializedVersion: 2
        time: 0.8333334
        value: -0.1383659
        inSlope: -1.507462
        outSlope: -1.507462
        tangentMode: 0
      - serializedVersion: 2
        time: 0.9333334
        value: -0.2562823
        inSlope: -0.752026
        outSlope: -0.752026
        tangentMode: 0
      - serializedVersion: 2
        time: 0.9666667
        value: -0.275852
        inSlope: 0
        outSlope: 0
        tangentMode: 0
      m_PreInfinity: 2
      m_PostInfinity: 2
      m_RotationOrder: 4
    attribute: m_LocalRotation.z
    path: Rig/Root/Body/Tail_01
    classID: 4
    script: {fileID: 0}
  - curve:
      serializedVersion: 2
      m_Curve:
      - serializedVersion: 2
        time: 0
        value: 0.5440146
        inSlope: 0.05390703
        outSlope: 0.05390703
        tangentMode: 0
      - serializedVersion: 2
        time: 0.1
        value: 0.557372
        inSlope: 0.2124667
        outSlope: 0.2124667
        tangentMode: 0
      - serializedVersion: 2
        time: 0.2333333
        value: 0.579725
        inSlope: 0.04241377
        outSlope: 0.04241377
        tangentMode: 0
      - serializedVersion: 2
        time: 0.3666667
        value: 0.5647929
        inSlope: -0.2142905
        outSlope: -0.2142905
        tangentMode: 0
      - serializedVersion: 2
        time: 0.5333334
        value: 0.5458115
        inSlope: 0.09920768
        outSlope: 0.09920768
        tangentMode: 0
      - serializedVersion: 2
        time: 0.7
        value: 0.5768974
        inSlope: 0.1210051
        outSlope: 0.1210051
        tangentMode: 0
      - serializedVersion: 2
        time: 0.8333334
        value: 0.571658
        inSlope: -0.1815685
        outSlope: -0.1815685
        tangentMode: 0
      - serializedVersion: 2
        time: 0.9333334
        value: 0.5506285
        inSlope: -0.1734066
        outSlope: -0.1734066
        tangentMode: 0
      - serializedVersion: 2
        time: 0.9666667
        value: 0.5458115
        inSlope: 0
        outSlope: 0
        tangentMode: 0
      m_PreInfinity: 2
      m_PostInfinity: 2
      m_RotationOrder: 4
    attribute: m_LocalRotation.w
    path: Rig/Root/Body/Tail_01
    classID: 4
    script: {fileID: 0}
  - curve:
      serializedVersion: 2
      m_Curve:
      - serializedVersion: 2
        time: 0
        value: -0.0827549
        inSlope: 0
        outSlope: 0
        tangentMode: 0
      - serializedVersion: 2
        time: 0.03333334
        value: -0.0827549
        inSlope: 0.01160335
        outSlope: 0.01160335
        tangentMode: 0
      - serializedVersion: 2
        time: 0.1666667
        value: -0.07667141
        inSlope: 0.05748767
        outSlope: 0.05748767
        tangentMode: 0
      - serializedVersion: 2
        time: 0.2666667
        value: -0.07307106
        inSlope: -1.117587E-07
        outSlope: -1.117587E-07
        tangentMode: 0
      - serializedVersion: 2
        time: 0.4666667
        value: -0.08198134
        inSlope: -0.03305768
        outSlope: -0.03305768
        tangentMode: 0
      - serializedVersion: 2
        time: 0.5666667
        value: -0.08198134
        inSlope: 0.03305801
        outSlope: 0.03305801
        tangentMode: 0
      - serializedVersion: 2
        time: 0.7666667
        value: -0.07307105
        inSlope: 0
        outSlope: 0
        tangentMode: 0
      - serializedVersion: 2
        time: 0.9333334
        value: -0.08055104
        inSlope: -0.04947546
        outSlope: -0.04947546
        tangentMode: 0
      - serializedVersion: 2
        time: 0.9666667
        value: -0.08198133
        inSlope: 0
        outSlope: 0
        tangentMode: 0
      m_PreInfinity: 2
      m_PostInfinity: 2
      m_RotationOrder: 4
    attribute: m_LocalRotation.x
    path: Rig/Root/Body/Tail_01/Tail_02
    classID: 4
    script: {fileID: 0}
  - curve:
      serializedVersion: 2
      m_Curve:
      - serializedVersion: 2
        time: 0
        value: -0.004059469
        inSlope: 0.2435674
        outSlope: 0.2435674
        tangentMode: 0
      - serializedVersion: 2
        time: 0.03333334
        value: 0.004059444
        inSlope: 0.2408366
        outSlope: 0.2408366
        tangentMode: 0
      - serializedVersion: 2
        time: 0.1666667
        value: 0.03140615
        inSlope: 0.1435476
        outSlope: 0.1435476
        tangentMode: 0
      - serializedVersion: 2
        time: 0.2666667
        value: 0.03905729
        inSlope: -1.676381E-07
        outSlope: -1.676381E-07
        tangentMode: 0
      - serializedVersion: 2
        time: 0.4666667
        value: 0.01199629
        inSlope: -0.2301166
        outSlope: -0.2301166
        tangentMode: 0
      - serializedVersion: 2
        time: 0.5666667
        value: -0.01199634
        inSlope: -0.2301165
        outSlope: -0.2301165
        tangentMode: 0
      - serializedVersion: 2
        time: 0.7666667
        value: -0.0390573
        inSlope: 0
        outSlope: 0
        tangentMode: 0
      - serializedVersion: 2
        time: 0.9333334
        value: -0.01940056
        inSlope: 0.2094319
        outSlope: 0.2094319
        tangentMode: 0
      - serializedVersion: 2
        time: 0.9666667
        value: -0.01199633
        inSlope: 0
        outSlope: 0
        tangentMode: 0
      m_PreInfinity: 2
      m_PostInfinity: 2
      m_RotationOrder: 4
    attribute: m_LocalRotation.y
    path: Rig/Root/Body/Tail_01/Tail_02
    classID: 4
    script: {fileID: 0}
  - curve:
      serializedVersion: 2
      m_Curve:
      - serializedVersion: 2
        time: 0
        value: 0.04882663
        inSlope: -2.929596
        outSlope: -2.929596
        tangentMode: 0
      - serializedVersion: 2
        time: 0.03333334
        value: -0.04882658
        inSlope: -2.896751
        outSlope: -2.896751
        tangentMode: 0
      - serializedVersion: 2
        time: 0.1666667
        value: -0.3777492
        inSlope: -1.726571
        outSlope: -1.726571
        tangentMode: 0
      - serializedVersion: 2
        time: 0.2666667
        value: -0.469776
        inSlope: 2.235174E-06
        outSlope: 2.235174E-06
        tangentMode: 0
      - serializedVersion: 2
        time: 0.4666667
        value: -0.14429
        inSlope: 2.767812
        outSlope: 2.767812
        tangentMode: 0
      - serializedVersion: 2
        time: 0.5666667
        value: 0.1442903
        inSlope: 2.767811
        outSlope: 2.767811
        tangentMode: 0
      - serializedVersion: 2
        time: 0.7666667
        value: 0.4697759
        inSlope: 0
        outSlope: 0
        tangentMode: 0
      - serializedVersion: 2
        time: 0.9333334
        value: 0.2333472
        inSlope: -2.519019
        outSlope: -2.519019
        tangentMode: 0
      - serializedVersion: 2
        time: 0.9666667
        value: 0.1442901
        inSlope: 0
        outSlope: 0
        tangentMode: 0
      m_PreInfinity: 2
      m_PostInfinity: 2
      m_RotationOrder: 4
    attribute: m_LocalRotation.z
    path: Rig/Root/Body/Tail_01/Tail_02
    classID: 4
    script: {fileID: 0}
  - curve:
      serializedVersion: 2
      m_Curve:
      - serializedVersion: 2
        time: 0
        value: 0.9953648
        inSlope: 0
        outSlope: 0
        tangentMode: 0
      - serializedVersion: 2
        time: 0.03333334
        value: 0.9953648
        inSlope: -0.1395634
        outSlope: -0.1395634
        tangentMode: 0
      - serializedVersion: 2
        time: 0.1666667
        value: 0.9221934
        inSlope: -0.6914537
        outSlope: -0.6914537
        tangentMode: 0
      - serializedVersion: 2
        time: 0.2666667
        value: 0.8788889
        inSlope: 8.940697E-07
        outSlope: 8.940697E-07
        tangentMode: 0
      - serializedVersion: 2
        time: 0.4666667
        value: 0.9860606
        inSlope: 0.3976153
        outSlope: 0.3976153
        tangentMode: 0
      - serializedVersion: 2
        time: 0.5666667
        value: 0.9860606
        inSlope: -0.3976161
        outSlope: -0.3976161
        tangentMode: 0
      - serializedVersion: 2
        time: 0.7666667
        value: 0.8788889
        inSlope: 0
        outSlope: 0
        tangentMode: 0
      - serializedVersion: 2
        time: 0.9333334
        value: 0.9688572
        inSlope: 0.5950838
        outSlope: 0.5950838
        tangentMode: 0
      - serializedVersion: 2
        time: 0.9666667
        value: 0.9860606
        inSlope: 0
        outSlope: 0
        tangentMode: 0
      m_PreInfinity: 2
      m_PostInfinity: 2
      m_RotationOrder: 4
    attribute: m_LocalRotation.w
    path: Rig/Root/Body/Tail_01/Tail_02
    classID: 4
    script: {fileID: 0}
  m_Events:
