%YAML 1.1
%TAG !u! tag:unity3d.com,2011:
--- !u!90 &9000000
Avatar:
  m_ObjectHideFlags: 0
  m_PrefabParentObject: {fileID: 0}
  m_PrefabInternal: {fileID: 0}
  m_Name: "12_SquidAvatar"
  m_AvatarSize: 1944
  m_Avatar:
    serializedVersion: 3
    m_AvatarSkeleton:
      data:
        m_Node:
        - m_ParentId: -1
          m_AxesId: -1
        - m_ParentId: 0
          m_AxesId: -1
        - m_ParentId: 0
          m_AxesId: -1
        - m_ParentId: 2
          m_AxesId: -1
        - m_ParentId: 3
          m_AxesId: -1
        - m_ParentId: 4
          m_AxesId: -1
        - m_ParentId: 4
          m_AxesId: -1
        - m_ParentId: 4
          m_AxesId: -1
        - m_ParentId: 4
          m_AxesId: -1
        - m_ParentId: 4
          m_AxesId: -1
        - m_ParentId: 4
          m_AxesId: -1
        - m_ParentId: 4
          m_AxesId: -1
        - m_ParentId: 4
          m_AxesId: -1
        - m_ParentId: 4
          m_AxesId: -1
        m_ID: 0000000068955d41d90790f79483df0d230f4e97b002a7100340b11ce8827a1a607dbee68bbf75e05afef71e39c3f8e46d94351f0ea93ae5
        m_AxesArray: []
    m_AvatarSkeletonPose:
      data:
        m_X:
        - t: {x: 0, y: 0, z: 0}
          q: {x: 0, y: 0, z: 0, w: 1}
          s: {x: 1, y: 1, z: 1}
        - t: {x: 0, y: 0, z: 0}
          q: {x: -0.7071068, y: 0, z: 0, w: 0.7071067}
          s: {x: 110, y: 110, z: 110}
        - t: {x: 0, y: 0, z: 0}
          q: {x: -0.7071068, y: 0, z: 0, w: 0.7071067}
          s: {x: 100, y: 100, z: 100}
        - t: {x: 0, y: 0, z: 0}
          q: {x: 0, y: 0, z: 0, w: 1}
          s: {x: 1, y: 1, z: 1}
        - t: {x: 0, y: 0.0004091325, z: 0.003376492}
          q: {x: 0.7071068, y: -8.42937E-08, z: -8.429369E-08, w: 0.7071067}
          s: {x: 1, y: 1, z: 1}
        - t: {x: -2.267172E-09, y: 0.004078164, z: -0.005973731}
          q: {x: -0.6998041, y: -3.210221E-14, z: 1.668463E-07, w: 0.7143348}
          s: {x: 1, y: 0.9999999, z: 0.9999999}
        - t: {x: -0.0005155471, y: 0.005163677, z: 0.007491335}
          q: {x: 0.549603, y: -0.04258285, z: 0.0689148, w: 0.831489}
          s: {x: 1, y: 1, z: 1}
        - t: {x: -0.0004815179, y: 0.001793016, z: 0.007478231}
          q: {x: 0.8035855, y: -0.02222124, z: 0.1172737, w: 0.5830982}
          s: {x: 0.9999999, y: 1, z: 0.9999999}
        - t: {x: 0.0005155508, y: 0.005163678, z: 0.007491336}
          q: {x: 0.5496031, y: 0.04258305, z: -0.06891493, w: 0.831489}
          s: {x: 1, y: 1, z: 1}
        - t: {x: 0.0004815214, y: 0.001793016, z: 0.00747823}
          q: {x: 0.8035854, y: 0.02222135, z: -0.1172739, w: 0.5830982}
          s: {x: 0.9999999, y: 1, z: 1}
        - t: {x: -0.001128861, y: 0.004308193, z: 0.007779757}
          q: {x: 0.6575528, y: -0.08388669, z: 0.1423198, w: 0.735073}
          s: {x: 1, y: 1, z: 0.9999999}
        - t: {x: 0.001128864, y: 0.004308193, z: 0.007779757}
          q: {x: 0.6575528, y: 0.08388692, z: -0.1423199, w: 0.735073}
          s: {x: 1, y: 1, z: 1}
        - t: {x: -0.001339746, y: 0.002950942, z: 0.007743096}
          q: {x: 0.7264947, y: -0.05710219, z: 0.156743, w: 0.6666156}
          s: {x: 1, y: 1, z: 1}
        - t: {x: 0.00133975, y: 0.002950942, z: 0.007743096}
          q: {x: 0.7264947, y: 0.05710232, z: -0.1567431, w: 0.6666155}
          s: {x: 1, y: 0.9999999, z: 0.9999999}
    m_DefaultPose:
      data:
        m_X:
        - t: {x: 0, y: 0, z: 0}
          q: {x: 0, y: 0, z: 0, w: 1}
          s: {x: 1, y: 1, z: 1}
        - t: {x: 0, y: 0, z: 0}
          q: {x: -0.7071068, y: 0, z: 0, w: 0.7071067}
          s: {x: 110, y: 110, z: 110}
        - t: {x: 0, y: 0, z: 0}
          q: {x: -0.7071068, y: 0, z: 0, w: 0.7071067}
          s: {x: 100, y: 100, z: 100}
        - t: {x: 0, y: 0, z: 0}
          q: {x: 0, y: 0, z: 0, w: 1}
          s: {x: 1, y: 1, z: 1}
        - t: {x: 0, y: 0.0004091325, z: 0.003376492}
          q: {x: 0.7071068, y: -8.42937E-08, z: -8.429369E-08, w: 0.7071067}
          s: {x: 1, y: 1, z: 1}
        - t: {x: -2.267172E-09, y: 0.004078164, z: -0.005973731}
          q: {x: -0.6998041, y: -3.210221E-14, z: 1.668463E-07, w: 0.7143348}
          s: {x: 1, y: 0.9999999, z: 0.9999999}
        - t: {x: -0.0005155471, y: 0.005163677, z: 0.007491335}
          q: {x: 0.549603, y: -0.04258285, z: 0.0689148, w: 0.831489}
          s: {x: 1, y: 1, z: 1}
        - t: {x: -0.0004815179, y: 0.001793016, z: 0.007478231}
          q: {x: 0.8035855, y: -0.02222124, z: 0.1172737, w: 0.5830982}
          s: {x: 0.9999999, y: 1, z: 0.9999999}
        - t: {x: 0.0005155508, y: 0.005163678, z: 0.007491336}
          q: {x: 0.5496031, y: 0.04258305, z: -0.06891493, w: 0.831489}
          s: {x: 1, y: 1, z: 1}
        - t: {x: 0.0004815214, y: 0.001793016, z: 0.00747823}
          q: {x: 0.8035854, y: 0.02222135, z: -0.1172739, w: 0.5830982}
          s: {x: 0.9999999, y: 1, z: 1}
        - t: {x: -0.001128861, y: 0.004308193, z: 0.007779757}
          q: {x: 0.6575528, y: -0.08388669, z: 0.1423198, w: 0.735073}
          s: {x: 1, y: 1, z: 0.9999999}
        - t: {x: 0.001128864, y: 0.004308193, z: 0.007779757}
          q: {x: 0.6575528, y: 0.08388692, z: -0.1423199, w: 0.735073}
          s: {x: 1, y: 1, z: 1}
        - t: {x: -0.001339746, y: 0.002950942, z: 0.007743096}
          q: {x: 0.7264947, y: -0.05710219, z: 0.156743, w: 0.6666156}
          s: {x: 1, y: 1, z: 1}
        - t: {x: 0.00133975, y: 0.002950942, z: 0.007743096}
          q: {x: 0.7264947, y: 0.05710232, z: -0.1567431, w: 0.6666155}
          s: {x: 1, y: 0.9999999, z: 0.9999999}
    m_SkeletonNameIDArray: 0000000068955d41d90790f75bf9f416b20ba8db1df77a1f67bb85e68c794ee004868a1cef44411a3e05c3e45d38cc1e096f01e56a520e1f
    m_Human:
      data:
        serializedVersion: 2
        m_RootX:
          t: {x: 0, y: 0, z: 0}
          q: {x: 0, y: 0, z: 0, w: 1}
          s: {x: 1, y: 1, z: 1}
        m_Skeleton:
          data:
            m_Node:
            m_ID: 
            m_AxesArray:
        m_SkeletonPose:
          data:
            m_X:
        m_LeftHand:
          data:
            m_HandBoneIndex: ffffffffffffffffffffffffffffffffffffffffffffffffffffffffffffffffffffffffffffffffffffffffffffffffffffffffffffffffffffffff
        m_RightHand:
          data:
            m_HandBoneIndex: ffffffffffffffffffffffffffffffffffffffffffffffffffffffffffffffffffffffffffffffffffffffffffffffffffffffffffffffffffffffff
        m_Handles:
        m_ColliderArray: []
        m_HumanBoneIndex: ffffffffffffffffffffffffffffffffffffffffffffffffffffffffffffffffffffffffffffffffffffffffffffffffffffffffffffffffffffffffffffffffffffffffffffffffffffffffffffffffffffffffffffffffffffffffffffffffffffffff
        m_HumanBoneMass:
        - 0.1454546
        - 0.1212121
        - 0.1212121
        - 0.04848485
        - 0.04848485
        - 0.009696971
        - 0.009696971
        - 0.03030303
        - 0.1454546
        - 0.1454546
        - 0.01212121
        - 0.04848485
        - 0.006060607
        - 0.006060607
        - 0.02424243
        - 0.02424243
        - 0.01818182
        - 0.01818182
        - 0.006060607
        - 0.006060607
        - 0.002424243
        - 0.002424243
        - 0
        - 0
        - 0
        m_ColliderIndex: 
        m_Scale: 1
        m_ArmTwist: 0.5
        m_ForeArmTwist: 0.5
        m_UpperLegTwist: 0.5
        m_LegTwist: 0.5
        m_ArmStretch: 0.05
        m_LegStretch: 0.05
        m_FeetSpacing: 0
        m_HasLeftHand: 0
        m_HasRightHand: 0
        m_HasTDoF: 0
    m_HumanSkeletonIndexArray: 
    m_HumanSkeletonReverseIndexArray: 
    m_RootMotionBoneIndex: -1
    m_RootMotionBoneX:
      t: {x: 0, y: 0, z: 0}
      q: {x: 0, y: 0, z: 0, w: 1}
      s: {x: 1, y: 1, z: 1}
    m_RootMotionSkeleton:
      data:
        m_Node:
        m_ID: 
        m_AxesArray: []
    m_RootMotionSkeletonPose:
      data:
        m_X:
    m_RootMotionSkeletonIndexArray: 
  m_TOS:
    481378307: Rig/root/body/tentacle.01.L
    3765813131: Rig/root/body/tentacle.04.R
    3841508153: Rig/root/body/tentacle.02.R
    3871243616: Rig/root/body/tentacle.01.R
    519568986: Rig/root/body/tentacle.02.L
    523605101: Rig/root/body/tentacle.03.L
    2538475299: Rig/root/body
    444236520: Rig/root/body/tentacle.04.L
    3845826830: Rig/root/body/tentacle.03.R
    0: 
    279380656: Rig/root/body/tail.01
    1096652136: Mesh
    232752020: Rig/root
    4153411545: Rig
