%YAML 1.1
%TAG !u! tag:unity3d.com,2011:
--- !u!90 &9000000
Avatar:
  m_ObjectHideFlags: 0
  m_PrefabParentObject: {fileID: 0}
  m_PrefabInternal: {fileID: 0}
  m_Name: "18_GreenAngelfishAvatar"
  m_AvatarSize: 1612
  m_Avatar:
    serializedVersion: 3
    m_AvatarSkeleton:
      data:
        m_Node:
        - m_ParentId: -1
          m_AxesId: -1
        - m_ParentId: 0
          m_AxesId: -1
        - m_ParentId: 1
          m_AxesId: -1
        - m_ParentId: 2
          m_AxesId: -1
        - m_ParentId: 3
          m_AxesId: -1
        - m_ParentId: 3
          m_AxesId: -1
        - m_ParentId: 3
          m_AxesId: -1
        - m_ParentId: 3
          m_AxesId: -1
        - m_ParentId: 3
          m_AxesId: -1
        - m_ParentId: 3
          m_AxesId: -1
        - m_ParentId: 0
          m_AxesId: -1
        m_ID: 00000000d90790f79483df0d230f4e97384dfad80de89931b002a7100a53ae89abafbfa1c892b05b68955d41
        m_AxesArray: []
    m_AvatarSkeletonPose:
      data:
        m_X:
        - t: {x: 0, y: 0, z: 0}
          q: {x: 0, y: 0, z: 0, w: 1}
          s: {x: 1, y: 1, z: 1}
        - t: {x: 0, y: 0, z: 0}
          q: {x: -0.7071067, y: -9.415696E-08, z: 9.415697E-08, w: 0.7071068}
          s: {x: 100, y: 100, z: 100}
        - t: {x: 0, y: 0, z: 0}
          q: {x: 2.744898E-15, y: 1, z: -3.774895E-08, w: 1.331581E-07}
          s: {x: 1, y: 1, z: 1}
        - t: {x: -5.944378E-10, y: -1.421085E-16, z: -0.009350472}
          q: {x: 7.16805E-08, y: 0.7071068, z: -0.7071067, w: -1.166334E-07}
          s: {x: 1, y: 1, z: 1}
        - t: {x: 1.089956E-10, y: 0.004948245, z: -0.001246761}
          q: {x: 1.051823E-07, y: 0.9999971, z: -0.002403787, w: -1.334113E-07}
          s: {x: 1, y: 0.9999999, z: 0.9999999}
        - t: {x: 4.053431E-11, y: -0.001667902, z: -0.0004636548}
          q: {x: 1.218872E-07, y: -0.2876886, z: 0.957724, w: -1.024225E-07}
          s: {x: 1, y: 1.000001, z: 1.000001}
        - t: {x: 3.986215E-10, y: 0.002108139, z: -0.004559695}
          q: {x: 2.89839E-08, y: 0.9180894, z: -0.3963734, w: 1.325248E-07}
          s: {x: 1, y: 1, z: 1}
        - t: {x: 3.98621E-10, y: 0.001097967, z: -0.004559696}
          q: {x: 9.989967E-08, y: -0.4125162, z: 0.9109502, w: -1.009362E-07}
          s: {x: 1, y: 0.9999999, z: 0.9999999}
        - t: {x: -0.003149905, y: 7.70467E-05, z: 0.002129784}
          q: {x: 0.09169021, y: -0.6364907, z: 0.7652771, w: 0.0286973}
          s: {x: 0.9999999, y: 0.9999999, z: 0.9999998}
        - t: {x: 0.003149905, y: 7.704616E-05, z: 0.002129785}
          q: {x: -0.1484596, y: -0.5979205, z: 0.7857166, w: -0.05567827}
          s: {x: 0.9999998, y: 0.9999999, z: 0.9999999}
        - t: {x: 0, y: 0, z: 0}
          q: {x: -0.7071067, y: -5.338507E-08, z: 5.338508E-08, w: 0.7071068}
          s: {x: 100, y: 100, z: 100}
    m_DefaultPose:
      data:
        m_X:
        - t: {x: 0, y: 0, z: 0}
          q: {x: 0, y: 0, z: 0, w: 1}
          s: {x: 1, y: 1, z: 1}
        - t: {x: 0, y: 0, z: 0}
          q: {x: -0.7071067, y: -9.415696E-08, z: 9.415697E-08, w: 0.7071068}
          s: {x: 100, y: 100, z: 100}
        - t: {x: 0, y: 0, z: 0}
          q: {x: 2.744898E-15, y: 1, z: -3.774895E-08, w: 1.331581E-07}
          s: {x: 1, y: 1, z: 1}
        - t: {x: -5.944378E-10, y: -1.421085E-16, z: -0.009350472}
          q: {x: 7.16805E-08, y: 0.7071068, z: -0.7071067, w: -1.166334E-07}
          s: {x: 1, y: 1, z: 1}
        - t: {x: 1.089956E-10, y: 0.004948245, z: -0.001246761}
          q: {x: 1.051823E-07, y: 0.9999971, z: -0.002403787, w: -1.334113E-07}
          s: {x: 1, y: 0.9999999, z: 0.9999999}
        - t: {x: 4.053431E-11, y: -0.001667902, z: -0.0004636548}
          q: {x: 1.218872E-07, y: -0.2876886, z: 0.957724, w: -1.024225E-07}
          s: {x: 1, y: 1.000001, z: 1.000001}
        - t: {x: 3.986215E-10, y: 0.002108139, z: -0.004559695}
          q: {x: 2.89839E-08, y: 0.9180894, z: -0.3963734, w: 1.325248E-07}
          s: {x: 1, y: 1, z: 1}
        - t: {x: 3.98621E-10, y: 0.001097967, z: -0.004559696}
          q: {x: 9.989967E-08, y: -0.4125162, z: 0.9109502, w: -1.009362E-07}
          s: {x: 1, y: 0.9999999, z: 0.9999999}
        - t: {x: -0.003149905, y: 7.70467E-05, z: 0.002129784}
          q: {x: 0.09169021, y: -0.6364907, z: 0.7652771, w: 0.0286973}
          s: {x: 0.9999999, y: 0.9999999, z: 0.9999998}
        - t: {x: 0.003149905, y: 7.704616E-05, z: 0.002129785}
          q: {x: -0.1484596, y: -0.5979205, z: 0.7857166, w: -0.05567827}
          s: {x: 0.9999998, y: 0.9999999, z: 0.9999999}
        - t: {x: 0, y: 0, z: 0}
          q: {x: -0.7071067, y: -5.338507E-08, z: 5.338508E-08, w: 0.7071068}
          s: {x: 100, y: 100, z: 100}
    m_SkeletonNameIDArray: 00000000d90790f75bf9f416b20ba8db71d4f605447195ec1df77a1fa7a67386c42f5aa0a712555a68955d41
    m_Human:
      data:
        serializedVersion: 2
        m_RootX:
          t: {x: 0, y: 0, z: 0}
          q: {x: 0, y: 0, z: 0, w: 1}
          s: {x: 1, y: 1, z: 1}
        m_Skeleton:
          data:
            m_Node:
            m_ID: 
            m_AxesArray:
        m_SkeletonPose:
          data:
            m_X:
        m_LeftHand:
          data:
            m_HandBoneIndex: ffffffffffffffffffffffffffffffffffffffffffffffffffffffffffffffffffffffffffffffffffffffffffffffffffffffffffffffffffffffff
        m_RightHand:
          data:
            m_HandBoneIndex: ffffffffffffffffffffffffffffffffffffffffffffffffffffffffffffffffffffffffffffffffffffffffffffffffffffffffffffffffffffffff
        m_Handles:
        m_ColliderArray: []
        m_HumanBoneIndex: ffffffffffffffffffffffffffffffffffffffffffffffffffffffffffffffffffffffffffffffffffffffffffffffffffffffffffffffffffffffffffffffffffffffffffffffffffffffffffffffffffffffffffffffffffffffffffffffffffffffff
        m_HumanBoneMass:
        - 0.1454546
        - 0.1212121
        - 0.1212121
        - 0.04848485
        - 0.04848485
        - 0.009696971
        - 0.009696971
        - 0.03030303
        - 0.1454546
        - 0.1454546
        - 0.01212121
        - 0.04848485
        - 0.006060607
        - 0.006060607
        - 0.02424243
        - 0.02424243
        - 0.01818182
        - 0.01818182
        - 0.006060607
        - 0.006060607
        - 0.002424243
        - 0.002424243
        - 0
        - 0
        - 0
        m_ColliderIndex: 
        m_Scale: 1
        m_ArmTwist: 0.5
        m_ForeArmTwist: 0.5
        m_UpperLegTwist: 0.5
        m_LegTwist: 0.5
        m_ArmStretch: 0.05
        m_LegStretch: 0.05
        m_FeetSpacing: 0
        m_HasLeftHand: 0
        m_HasRightHand: 0
        m_HasTDoF: 0
    m_HumanSkeletonIndexArray: 
    m_HumanSkeletonReverseIndexArray: 
    m_RootMotionBoneIndex: -1
    m_RootMotionBoneX:
      t: {x: 0, y: 0, z: 0}
      q: {x: 0, y: 0, z: 0, w: 1}
      s: {x: 1, y: 1, z: 1}
    m_RootMotionSkeleton:
      data:
        m_Node:
        m_ID: 
        m_AxesArray: []
    m_RootMotionSkeletonPose:
      data:
        m_X:
    m_RootMotionSkeletonIndexArray: 
  m_TOS:
    832169997: Rig/root/body/fin.04
    3640282424: Rig/root/body/fin.02
    2538475299: Rig/root/body
    1538298568: Rig/root/body/fin.R
    0: 
    279380656: Rig/root/body/tail.01
    2713694123: Rig/root/body/fin.L
    1096652136: Mesh
    232752020: Rig/root
    2309903114: Rig/root/body/tail.02
    4153411545: Rig
