%YAML 1.1
%TAG !u! tag:unity3d.com,2011:
--- !u!90 &9000000
Avatar:
  m_ObjectHideFlags: 0
  m_PrefabParentObject: {fileID: 0}
  m_PrefabInternal: {fileID: 0}
  m_Name: "8_PrawnAvatar"
  m_AvatarSize: 3188
  m_Avatar:
    serializedVersion: 3
    m_AvatarSkeleton:
      data:
        m_Node:
        - m_ParentId: -1
          m_AxesId: -1
        - m_ParentId: 0
          m_AxesId: -1
        - m_ParentId: 1
          m_AxesId: -1
        - m_ParentId: 2
          m_AxesId: -1
        - m_ParentId: 3
          m_AxesId: -1
        - m_ParentId: 3
          m_AxesId: -1
        - m_ParentId: 3
          m_AxesId: -1
        - m_ParentId: 3
          m_AxesId: -1
        - m_ParentId: 7
          m_AxesId: -1
        - m_ParentId: 3
          m_AxesId: -1
        - m_ParentId: 9
          m_AxesId: -1
        - m_ParentId: 3
          m_AxesId: -1
        - m_ParentId: 3
          m_AxesId: -1
        - m_ParentId: 3
          m_AxesId: -1
        - m_ParentId: 3
          m_AxesId: -1
        - m_ParentId: 14
          m_AxesId: -1
        - m_ParentId: 3
          m_AxesId: -1
        - m_ParentId: 16
          m_AxesId: -1
        - m_ParentId: 3
          m_AxesId: -1
        - m_ParentId: 18
          m_AxesId: -1
        - m_ParentId: 3
          m_AxesId: -1
        - m_ParentId: 20
          m_AxesId: -1
        - m_ParentId: 3
          m_AxesId: -1
        - m_ParentId: 22
          m_AxesId: -1
        - m_ParentId: 0
          m_AxesId: -1
        m_ID: 00000000d90790f79483df0d230f4e975e1f0995e44e000c727e077ba98bee0da93dbb4b85eae0e3a1482da6f23fcf25486ec6bcde5ec1cb05ab28bd6fb79cb529ca265367c20a58b002a71010a7fb7baaf533a9076b27fd06d5f5193a056f7a68955d41
        m_AxesArray: []
    m_AvatarSkeletonPose:
      data:
        m_X:
        - t: {x: 0, y: 0, z: 0}
          q: {x: 0, y: 0, z: 0, w: 1}
          s: {x: 1, y: 1, z: 1}
        - t: {x: 0, y: 0, z: 0}
          q: {x: -0.7071068, y: 0, z: 0, w: 0.7071067}
          s: {x: 100, y: 100, z: 100}
        - t: {x: 0, y: 0, z: 0}
          q: {x: 0, y: 0, z: -1.588897E-16, w: 1}
          s: {x: 1, y: 1, z: 1}
        - t: {x: 0, y: -1.192093E-09, z: 0.01139225}
          q: {x: 0.7071066, y: 4.867777E-08, z: 4.867774E-08, w: 0.7071069}
          s: {x: 1, y: 0.9999999, z: 0.9999999}
        - t: {x: -0.0009653433, y: -0.003590731, z: -0.002179254}
          q: {x: 0.06413168, y: 0.5351386, z: 0.8281649, w: 0.153807}
          s: {x: 0.9999965, y: 0.9999997, z: 0.9999988}
        - t: {x: -0.0009817911, y: -0.001881335, z: -0.001500977}
          q: {x: -0.0009169372, y: 0.3965538, z: 0.9139591, w: 0.08615699}
          s: {x: 0.9999955, y: 0.9999993, z: 0.999998}
        - t: {x: -0.001074972, y: -0.0009505234, z: -0.0002747226}
          q: {x: -0.01568152, y: 0.3407179, z: 0.9382859, w: 0.05731368}
          s: {x: 1.000015, y: 1, z: 0.9999999}
        - t: {x: -0.0009653438, y: -0.001540939, z: 0.00231152}
          q: {x: 0.03854766, y: 0.2555901, z: 0.9552138, w: 0.1440638}
          s: {x: 0.9999865, y: 0.9999915, z: 0.9999929}
        - t: {x: -1.730888E-10, y: 0.00184219, z: -3.539026E-10}
          q: {x: 0.1659465, y: 0.08714285, z: 0.1053245, w: 0.9766139}
          s: {x: 0.9999893, y: 0.9999923, z: 0.9999923}
        - t: {x: -0.0009653439, y: -0.001526014, z: 0.003624248}
          q: {x: 0.06456857, y: 0.3492697, z: 0.9192194, w: 0.1699335}
          s: {x: 0.999985, y: 0.9999909, z: 0.9999894}
        - t: {x: -1.664035E-10, y: 0.001632106, z: -1.117587E-10}
          q: {x: 0.2023498, y: 0.1120699, z: 0.08322617, w: 0.9693133}
          s: {x: 0.9999873, y: 0.9999887, z: 0.9999892}
        - t: {x: 0.0009653431, y: -0.003590731, z: -0.002179252}
          q: {x: -0.06413107, y: 0.5351388, z: 0.828165, w: -0.1538067}
          s: {x: 0.9999981, y: 0.9999999, z: 0.9999995}
        - t: {x: 0.0009817915, y: -0.001881335, z: -0.001500977}
          q: {x: 0.0009168168, y: 0.3965539, z: 0.9139591, w: -0.08615694}
          s: {x: 0.9999955, y: 0.9999993, z: 0.999998}
        - t: {x: 0.001074972, y: -0.0009505234, z: -0.0002747223}
          q: {x: 0.0156816, y: 0.340718, z: 0.9382859, w: -0.05731359}
          s: {x: 1.000013, y: 1, z: 0.9999998}
        - t: {x: 0.0009653433, y: -0.001540939, z: 0.002311521}
          q: {x: -0.03854794, y: 0.2555901, z: 0.9552138, w: -0.144064}
          s: {x: 0.9999863, y: 0.9999913, z: 0.9999921}
        - t: {x: -1.498073E-11, y: 0.00184219, z: 7.45058E-11}
          q: {x: 0.1659466, y: -0.08714289, z: -0.1053245, w: 0.9766139}
          s: {x: 0.9999892, y: 0.9999923, z: 0.9999923}
        - t: {x: 0.0009653429, y: -0.001526014, z: 0.003624248}
          q: {x: -0.06456871, y: 0.3492697, z: 0.9192193, w: -0.1699334}
          s: {x: 0.999985, y: 0.9999911, z: 0.9999896}
        - t: {x: 4.818187E-10, y: 0.001632107, z: 5.215406E-10}
          q: {x: 0.2023497, y: -0.11207, z: -0.08322621, w: 0.9693133}
          s: {x: 0.9999874, y: 0.9999887, z: 0.999989}
        - t: {x: 2.612577E-10, y: 0.0002056503, z: -0.00190723}
          q: {x: -1.085115E-07, y: -0.1058564, z: 0.9943814, w: -5.550991E-08}
          s: {x: 1, y: 1, z: 1}
        - t: {x: -8.326672E-18, y: 0.004978449, z: 2.980232E-10}
          q: {x: 0.5876803, y: -1.728522E-07, z: -7.427145E-08, w: 0.8090932}
          s: {x: 1, y: 1, z: 1}
        - t: {x: -0.0004073948, y: 0.001407615, z: 0.008484617}
          q: {x: 0.4755523, y: 0.1009653, z: 0.1814888, w: 0.8548204}
          s: {x: 0.9999926, y: 0.9999962, z: 0.9999969}
        - t: {x: -6.952235E-10, y: 0.003741613, z: 3.352761E-10}
          q: {x: -0.7252522, y: -0.04568518, z: -0.3100613, w: 0.6130123}
          s: {x: 0.9999937, y: 0.9999955, z: 0.9999944}
        - t: {x: 0.0004073925, y: 0.001407615, z: 0.008484617}
          q: {x: 0.4755523, y: -0.1009655, z: -0.1814887, w: 0.8548204}
          s: {x: 0.9999927, y: 0.9999962, z: 0.9999969}
        - t: {x: 2.977772E-10, y: 0.003741612, z: 2.980232E-10}
          q: {x: -0.7252523, y: 0.04568522, z: 0.3100614, w: 0.6130122}
          s: {x: 0.9999937, y: 0.9999955, z: 0.9999945}
        - t: {x: 0, y: 0, z: 0}
          q: {x: -0.7071068, y: 0, z: 0, w: 0.7071067}
          s: {x: 100, y: 100, z: 100}
    m_DefaultPose:
      data:
        m_X:
        - t: {x: 0, y: 0, z: 0}
          q: {x: 0, y: 0, z: 0, w: 1}
          s: {x: 1, y: 1, z: 1}
        - t: {x: 0, y: 0, z: 0}
          q: {x: -0.7071068, y: 0, z: 0, w: 0.7071067}
          s: {x: 100, y: 100, z: 100}
        - t: {x: 0, y: 0, z: 0}
          q: {x: 0, y: 0, z: -1.588897E-16, w: 1}
          s: {x: 1, y: 1, z: 1}
        - t: {x: 0, y: -1.192093E-09, z: 0.01139225}
          q: {x: 0.7071066, y: 4.867777E-08, z: 4.867774E-08, w: 0.7071069}
          s: {x: 1, y: 0.9999999, z: 0.9999999}
        - t: {x: -0.0009653433, y: -0.003590731, z: -0.002179254}
          q: {x: 0.06413168, y: 0.5351386, z: 0.8281649, w: 0.153807}
          s: {x: 0.9999965, y: 0.9999997, z: 0.9999988}
        - t: {x: -0.0009817911, y: -0.001881335, z: -0.001500977}
          q: {x: -0.0009169372, y: 0.3965538, z: 0.9139591, w: 0.08615699}
          s: {x: 0.9999955, y: 0.9999993, z: 0.999998}
        - t: {x: -0.001074972, y: -0.0009505234, z: -0.0002747226}
          q: {x: -0.01568152, y: 0.3407179, z: 0.9382859, w: 0.05731368}
          s: {x: 1.000015, y: 1, z: 0.9999999}
        - t: {x: -0.0009653438, y: -0.001540939, z: 0.00231152}
          q: {x: 0.03854766, y: 0.2555901, z: 0.9552138, w: 0.1440638}
          s: {x: 0.9999865, y: 0.9999915, z: 0.9999929}
        - t: {x: -1.730888E-10, y: 0.00184219, z: -3.539026E-10}
          q: {x: 0.1659465, y: 0.08714285, z: 0.1053245, w: 0.9766139}
          s: {x: 0.9999893, y: 0.9999923, z: 0.9999923}
        - t: {x: -0.0009653439, y: -0.001526014, z: 0.003624248}
          q: {x: 0.06456857, y: 0.3492697, z: 0.9192194, w: 0.1699335}
          s: {x: 0.999985, y: 0.9999909, z: 0.9999894}
        - t: {x: -1.664035E-10, y: 0.001632106, z: -1.117587E-10}
          q: {x: 0.2023498, y: 0.1120699, z: 0.08322617, w: 0.9693133}
          s: {x: 0.9999873, y: 0.9999887, z: 0.9999892}
        - t: {x: 0.0009653431, y: -0.003590731, z: -0.002179252}
          q: {x: -0.06413107, y: 0.5351388, z: 0.828165, w: -0.1538067}
          s: {x: 0.9999981, y: 0.9999999, z: 0.9999995}
        - t: {x: 0.0009817915, y: -0.001881335, z: -0.001500977}
          q: {x: 0.0009168168, y: 0.3965539, z: 0.9139591, w: -0.08615694}
          s: {x: 0.9999955, y: 0.9999993, z: 0.999998}
        - t: {x: 0.001074972, y: -0.0009505234, z: -0.0002747223}
          q: {x: 0.0156816, y: 0.340718, z: 0.9382859, w: -0.05731359}
          s: {x: 1.000013, y: 1, z: 0.9999998}
        - t: {x: 0.0009653433, y: -0.001540939, z: 0.002311521}
          q: {x: -0.03854794, y: 0.2555901, z: 0.9552138, w: -0.144064}
          s: {x: 0.9999863, y: 0.9999913, z: 0.9999921}
        - t: {x: -1.498073E-11, y: 0.00184219, z: 7.45058E-11}
          q: {x: 0.1659466, y: -0.08714289, z: -0.1053245, w: 0.9766139}
          s: {x: 0.9999892, y: 0.9999923, z: 0.9999923}
        - t: {x: 0.0009653429, y: -0.001526014, z: 0.003624248}
          q: {x: -0.06456871, y: 0.3492697, z: 0.9192193, w: -0.1699334}
          s: {x: 0.999985, y: 0.9999911, z: 0.9999896}
        - t: {x: 4.818187E-10, y: 0.001632107, z: 5.215406E-10}
          q: {x: 0.2023497, y: -0.11207, z: -0.08322621, w: 0.9693133}
          s: {x: 0.9999874, y: 0.9999887, z: 0.999989}
        - t: {x: 2.612577E-10, y: 0.0002056503, z: -0.00190723}
          q: {x: -1.085115E-07, y: -0.1058564, z: 0.9943814, w: -5.550991E-08}
          s: {x: 1, y: 1, z: 1}
        - t: {x: -8.326672E-18, y: 0.004978449, z: 2.980232E-10}
          q: {x: 0.5876803, y: -1.728522E-07, z: -7.427145E-08, w: 0.8090932}
          s: {x: 1, y: 1, z: 1}
        - t: {x: -0.0004073948, y: 0.001407615, z: 0.008484617}
          q: {x: 0.4755523, y: 0.1009653, z: 0.1814888, w: 0.8548204}
          s: {x: 0.9999926, y: 0.9999962, z: 0.9999969}
        - t: {x: -6.952235E-10, y: 0.003741613, z: 3.352761E-10}
          q: {x: -0.7252522, y: -0.04568518, z: -0.3100613, w: 0.6130123}
          s: {x: 0.9999937, y: 0.9999955, z: 0.9999944}
        - t: {x: 0.0004073925, y: 0.001407615, z: 0.008484617}
          q: {x: 0.4755523, y: -0.1009655, z: -0.1814887, w: 0.8548204}
          s: {x: 0.9999927, y: 0.9999962, z: 0.9999969}
        - t: {x: 2.977772E-10, y: 0.003741612, z: 2.980232E-10}
          q: {x: -0.7252523, y: 0.04568522, z: 0.3100614, w: 0.6130122}
          s: {x: 0.9999937, y: 0.9999955, z: 0.9999945}
        - t: {x: 0, y: 0, z: 0}
          q: {x: -0.7071068, y: 0, z: 0, w: 0.7071067}
          s: {x: 100, y: 100, z: 100}
    m_SkeletonNameIDArray: 00000000d90790f75bf9f416b20ba8dbfe1d613d444c68a4d27c6fd3098986a5b3d88f3c25e8884b867decd5523da78de86cae147e5ca963a5a940151ff8498c89c84efb2a5d2a651df77a1fa7a67386ce0e0753745f0eca622ec1e3d87fc87a68955d41
    m_Human:
      data:
        serializedVersion: 2
        m_RootX:
          t: {x: 0, y: 0, z: 0}
          q: {x: 0, y: 0, z: 0, w: 1}
          s: {x: 1, y: 1, z: 1}
        m_Skeleton:
          data:
            m_Node:
            m_ID: 
            m_AxesArray:
        m_SkeletonPose:
          data:
            m_X:
        m_LeftHand:
          data:
            m_HandBoneIndex: ffffffffffffffffffffffffffffffffffffffffffffffffffffffffffffffffffffffffffffffffffffffffffffffffffffffffffffffffffffffff
        m_RightHand:
          data:
            m_HandBoneIndex: ffffffffffffffffffffffffffffffffffffffffffffffffffffffffffffffffffffffffffffffffffffffffffffffffffffffffffffffffffffffff
        m_Handles:
        m_ColliderArray: []
        m_HumanBoneIndex: ffffffffffffffffffffffffffffffffffffffffffffffffffffffffffffffffffffffffffffffffffffffffffffffffffffffffffffffffffffffffffffffffffffffffffffffffffffffffffffffffffffffffffffffffffffffffffffffffffffffff
        m_HumanBoneMass:
        - 0.1454546
        - 0.1212121
        - 0.1212121
        - 0.04848485
        - 0.04848485
        - 0.009696971
        - 0.009696971
        - 0.03030303
        - 0.1454546
        - 0.1454546
        - 0.01212121
        - 0.04848485
        - 0.006060607
        - 0.006060607
        - 0.02424243
        - 0.02424243
        - 0.01818182
        - 0.01818182
        - 0.006060607
        - 0.006060607
        - 0.002424243
        - 0.002424243
        - 0
        - 0
        - 0
        m_ColliderIndex: 
        m_Scale: 1
        m_ArmTwist: 0.5
        m_ForeArmTwist: 0.5
        m_UpperLegTwist: 0.5
        m_LegTwist: 0.5
        m_ArmStretch: 0.05
        m_LegStretch: 0.05
        m_FeetSpacing: 0
        m_HasLeftHand: 0
        m_HasRightHand: 0
        m_HasTDoF: 0
    m_HumanSkeletonIndexArray: 
    m_HumanSkeletonReverseIndexArray: 
    m_RootMotionBoneIndex: -1
    m_RootMotionBoneX:
      t: {x: 0, y: 0, z: 0}
      q: {x: 0, y: 0, z: 0, w: 1}
      s: {x: 1, y: 1, z: 1}
    m_RootMotionSkeleton:
      data:
        m_Node:
        m_ID: 
        m_AxesArray: []
    m_RootMotionSkeletonPose:
      data:
        m_X:
    m_RootMotionSkeletonIndexArray: 
  m_TOS:
    3167120968: Rig/root/body/leg.R.02
    4247218951: Rig/root/body/antennae.L.01/antennae.L.02
    2787985569: Rig/root/body/arm.L.03/arm.L.04
    3418447582: Rig/root/body/leg.R.03
    201346788: Rig/root/body/leg.L.02
    1395051049: Rig/root/body/arm.R.03
    2054096186: Rig/root/body/antennae.R.01/antennae.R.02
    2538475299: Rig/root/body
    3823168133: Rig/root/body/arm.L.03
    2064088690: Rig/root/body/leg.L.03
    1477100135: Rig/root/body/arm.R.03/arm.R.04
    435541254: Rig/root/body/antennae.R.01
    634339314: Rig/root/body/leg.R.01
    2838754730: Rig/root/body/antennae.L.01
    0: 
    279380656: Rig/root/body/tail.01
    1270562217: Rig/root/body/arm.L.01/arm.L.02
    233737129: Rig/root/body/arm.L.01
    1096652136: Mesh
    232752020: Rig/root
    3173559045: Rig/root/body/arm.R.01
    2500403038: Rig/root/body/leg.L.01
    3046946671: Rig/root/body/arm.R.01/arm.R.02
    2080089872: Rig/root/body/tail.01/tail.02
    4153411545: Rig
