%YAML 1.1
%TAG !u! tag:unity3d.com,2011:
--- !u!90 &9000000
Avatar:
  m_ObjectHideFlags: 0
  m_PrefabParentObject: {fileID: 0}
  m_PrefabInternal: {fileID: 0}
  m_Name: "Arctic_CharAvatar"
  m_AvatarSize: 1944
  m_Avatar:
    serializedVersion: 3
    m_AvatarSkeleton:
      data:
        m_Node:
        - m_ParentId: -1
          m_AxesId: -1
        - m_ParentId: 0
          m_AxesId: -1
        - m_ParentId: 1
          m_AxesId: -1
        - m_ParentId: 2
          m_AxesId: -1
        - m_ParentId: 3
          m_AxesId: -1
        - m_ParentId: 3
          m_AxesId: -1
        - m_ParentId: 3
          m_AxesId: -1
        - m_ParentId: 3
          m_AxesId: -1
        - m_ParentId: 3
          m_AxesId: -1
        - m_ParentId: 3
          m_AxesId: -1
        - m_ParentId: 3
          m_AxesId: -1
        - m_ParentId: 3
          m_AxesId: -1
        - m_ParentId: 3
          m_AxesId: -1
        - m_ParentId: 0
          m_AxesId: -1
        m_ID: 00000000d90790f79483df0d230f4e97821cf341384dfad8ae7dfdaf0a53ae89b002a710abafbfa12a3866e4c892b05b8618a05468955d41
        m_AxesArray: []
    m_AvatarSkeletonPose:
      data:
        m_X:
        - t: {x: 0, y: 0, z: 0}
          q: {x: 0, y: 0, z: 0, w: 1}
          s: {x: 1, y: 1, z: 1}
        - t: {x: 0, y: 0, z: 0}
          q: {x: -0.7071067, y: -3.090862E-08, z: 3.090862E-08, w: 0.7071068}
          s: {x: 100, y: 100, z: 100}
        - t: {x: 0, y: 0, z: 0}
          q: {x: 2.442916E-14, y: -4.371133E-08, z: -3.683083E-07, w: 1}
          s: {x: 1, y: 1, z: 1}
        - t: {x: 3.907986E-16, y: 0, z: 0.00525959}
          q: {x: 0.7071068, y: 2.378178E-14, z: 6.029156E-14, w: 0.7071067}
          s: {x: 1, y: 0.9999999, z: 0.9999999}
        - t: {x: 8.089163E-11, y: 0.001552671, z: 0.002941904}
          q: {x: -0.2330206, y: -5.066666E-08, z: 1.911847E-08, w: 0.9724718}
          s: {x: 1, y: 1, z: 1}
        - t: {x: -4.403532E-11, y: 0.0003541189, z: -0.004712494}
          q: {x: -0.1587491, y: -8.881454E-08, z: 1.082704E-08, w: 0.987319}
          s: {x: 1, y: 1, z: 1}
        - t: {x: 6.516103E-11, y: -0.002042989, z: -0.003350502}
          q: {x: 1.605583E-07, y: -0.2753554, z: 0.9613425, w: -3.254544E-08}
          s: {x: 1, y: 1, z: 1}
        - t: {x: -2.857653E-10, y: -0.001292698, z: -0.009288791}
          q: {x: 2.445487E-08, y: -0.5458448, z: 0.8378863, w: -7.417395E-08}
          s: {x: 1, y: 1, z: 1}
        - t: {x: -2.857677E-10, y: 0.0009055614, z: -0.00928879}
          q: {x: -0.470879, y: 1.063786E-07, z: -6.921878E-08, w: 0.8821978}
          s: {x: 1, y: 1, z: 1}
        - t: {x: -0.00319182, y: -0.001307513, z: 0.005339012}
          q: {x: 0.06474961, y: -0.5078568, z: 0.8577548, w: -0.04632184}
          s: {x: 1, y: 0.9999998, z: 0.9999999}
        - t: {x: -0.001873618, y: -0.002151949, z: 0.002260908}
          q: {x: -0.00435048, y: -0.01429398, z: 0.9565606, w: 0.2911506}
          s: {x: 0.9999995, y: 1, z: 0.9999999}
        - t: {x: 0.003369334, y: -0.001307513, z: 0.005339012}
          q: {x: -0.04587781, y: -0.5048553, z: 0.8584468, w: 0.07800981}
          s: {x: 1, y: 0.9999998, z: 0.9999999}
        - t: {x: 0.001873618, y: -0.00215195, z: 0.002260908}
          q: {x: 0.004350439, y: -0.01429399, z: 0.9565606, w: -0.2911505}
          s: {x: 1, y: 1, z: 1}
        - t: {x: 0, y: 0, z: 0}
          q: {x: -0.7071067, y: -3.090862E-08, z: 3.090862E-08, w: 0.7071068}
          s: {x: 100, y: 100, z: 100}
    m_DefaultPose:
      data:
        m_X:
        - t: {x: 0, y: 0, z: 0}
          q: {x: 0, y: 0, z: 0, w: 1}
          s: {x: 1, y: 1, z: 1}
        - t: {x: 0, y: 0, z: 0}
          q: {x: -0.7071067, y: -3.090862E-08, z: 3.090862E-08, w: 0.7071068}
          s: {x: 100, y: 100, z: 100}
        - t: {x: 0, y: 0, z: 0}
          q: {x: 2.442916E-14, y: -4.371133E-08, z: -3.683083E-07, w: 1}
          s: {x: 1, y: 1, z: 1}
        - t: {x: 3.907986E-16, y: 0, z: 0.00525959}
          q: {x: 0.7071068, y: 2.378178E-14, z: 6.029156E-14, w: 0.7071067}
          s: {x: 1, y: 0.9999999, z: 0.9999999}
        - t: {x: 8.089163E-11, y: 0.001552671, z: 0.002941904}
          q: {x: -0.2330206, y: -5.066666E-08, z: 1.911847E-08, w: 0.9724718}
          s: {x: 1, y: 1, z: 1}
        - t: {x: -4.403532E-11, y: 0.0003541189, z: -0.004712494}
          q: {x: -0.1587491, y: -8.881454E-08, z: 1.082704E-08, w: 0.987319}
          s: {x: 1, y: 1, z: 1}
        - t: {x: 6.516103E-11, y: -0.002042989, z: -0.003350502}
          q: {x: 1.605583E-07, y: -0.2753554, z: 0.9613425, w: -3.254544E-08}
          s: {x: 1, y: 1, z: 1}
        - t: {x: -2.857653E-10, y: -0.001292698, z: -0.009288791}
          q: {x: 2.445487E-08, y: -0.5458448, z: 0.8378863, w: -7.417395E-08}
          s: {x: 1, y: 1, z: 1}
        - t: {x: -2.857677E-10, y: 0.0009055614, z: -0.00928879}
          q: {x: -0.470879, y: 1.063786E-07, z: -6.921878E-08, w: 0.8821978}
          s: {x: 1, y: 1, z: 1}
        - t: {x: -0.00319182, y: -0.001307513, z: 0.005339012}
          q: {x: 0.06474961, y: -0.5078568, z: 0.8577548, w: -0.04632184}
          s: {x: 1, y: 0.9999998, z: 0.9999999}
        - t: {x: -0.001873618, y: -0.002151949, z: 0.002260908}
          q: {x: -0.00435048, y: -0.01429398, z: 0.9565606, w: 0.2911506}
          s: {x: 0.9999995, y: 1, z: 0.9999999}
        - t: {x: 0.003369334, y: -0.001307513, z: 0.005339012}
          q: {x: -0.04587781, y: -0.5048553, z: 0.8584468, w: 0.07800981}
          s: {x: 1, y: 0.9999998, z: 0.9999999}
        - t: {x: 0.001873618, y: -0.00215195, z: 0.002260908}
          q: {x: 0.004350439, y: -0.01429399, z: 0.9565606, w: -0.2911505}
          s: {x: 1, y: 1, z: 1}
        - t: {x: 0, y: 0, z: 0}
          q: {x: -0.7071067, y: -3.090862E-08, z: 3.090862E-08, w: 0.7071068}
          s: {x: 100, y: 100, z: 100}
    m_SkeletonNameIDArray: 00000000d90790f75bf9f416b20ba8dbcb85ff9c71d4f605e7e4f172a7a673861df77a1fc42f5aa08a3a0e4ca712555a261ac8fc68955d41
    m_Human:
      data:
        serializedVersion: 2
        m_RootX:
          t: {x: 0, y: 0, z: 0}
          q: {x: 0, y: 0, z: 0, w: 1}
          s: {x: 1, y: 1, z: 1}
        m_Skeleton:
          data:
            m_Node:
            m_ID: 
            m_AxesArray:
        m_SkeletonPose:
          data:
            m_X:
        m_LeftHand:
          data:
            m_HandBoneIndex: ffffffffffffffffffffffffffffffffffffffffffffffffffffffffffffffffffffffffffffffffffffffffffffffffffffffffffffffffffffffff
        m_RightHand:
          data:
            m_HandBoneIndex: ffffffffffffffffffffffffffffffffffffffffffffffffffffffffffffffffffffffffffffffffffffffffffffffffffffffffffffffffffffffff
        m_Handles:
        m_ColliderArray: []
        m_HumanBoneIndex: ffffffffffffffffffffffffffffffffffffffffffffffffffffffffffffffffffffffffffffffffffffffffffffffffffffffffffffffffffffffffffffffffffffffffffffffffffffffffffffffffffffffffffffffffffffffffffffffffffffffff
        m_HumanBoneMass:
        - 0.1454546
        - 0.1212121
        - 0.1212121
        - 0.04848485
        - 0.04848485
        - 0.009696971
        - 0.009696971
        - 0.03030303
        - 0.1454546
        - 0.1454546
        - 0.01212121
        - 0.04848485
        - 0.006060607
        - 0.006060607
        - 0.02424243
        - 0.02424243
        - 0.01818182
        - 0.01818182
        - 0.006060607
        - 0.006060607
        - 0.002424243
        - 0.002424243
        - 0
        - 0
        - 0
        m_ColliderIndex: 
        m_Scale: 1
        m_ArmTwist: 0.5
        m_ForeArmTwist: 0.5
        m_UpperLegTwist: 0.5
        m_LegTwist: 0.5
        m_ArmStretch: 0.05
        m_LegStretch: 0.05
        m_FeetSpacing: 0
        m_HasLeftHand: 0
        m_HasRightHand: 0
        m_HasTDoF: 0
    m_HumanSkeletonIndexArray: 
    m_HumanSkeletonReverseIndexArray: 
    m_RootMotionBoneIndex: -1
    m_RootMotionBoneX:
      t: {x: 0, y: 0, z: 0}
      q: {x: 0, y: 0, z: 0, w: 1}
      s: {x: 1, y: 1, z: 1}
    m_RootMotionSkeleton:
      data:
        m_Node:
        m_ID: 
        m_AxesArray: []
    m_RootMotionSkeletonPose:
      data:
        m_X:
    m_RootMotionSkeletonIndexArray: 
  m_TOS:
    3831904298: Rig/root/body/fin.L.01
    1106451586: Rig/root/body/fin.01
    3640282424: Rig/root/body/fin.02
    2538475299: Rig/root/body
    1538298568: Rig/root/body/fin.R
    0: 
    279380656: Rig/root/body/tail.01
    2713694123: Rig/root/body/fin.L
    1096652136: Mesh
    232752020: Rig/root
    2309903114: Rig/root/body/tail.02
    2952625582: Rig/root/body/fin.03
    1419778182: Rig/root/body/fin.R.01
    4153411545: Rig
