%YAML 1.1
%TAG !u! tag:unity3d.com,2011:
--- !u!90 &9000000
Avatar:
  m_ObjectHideFlags: 0
  m_PrefabParentObject: {fileID: 0}
  m_PrefabInternal: {fileID: 0}
  m_Name: "BicolorAvatar"
  m_AvatarSize: 1396
  m_Avatar:
    serializedVersion: 3
    m_AvatarSkeleton:
      data:
        m_Node:
        - m_ParentId: -1
          m_AxesId: -1
        - m_ParentId: 0
          m_AxesId: -1
        - m_ParentId: 1
          m_AxesId: -1
        - m_ParentId: 2
          m_AxesId: -1
        - m_ParentId: 3
          m_AxesId: -1
        - m_ParentId: 3
          m_AxesId: -1
        - m_ParentId: 3
          m_AxesId: -1
        - m_ParentId: 3
          m_AxesId: -1
        - m_ParentId: 0
          m_AxesId: -1
        m_ID: 00000000d90790f79483df0d230f4e97b002a7100a53ae89abafbfa1c892b05b68955d41
        m_AxesArray: []
    m_AvatarSkeletonPose:
      data:
        m_X:
        - t: {x: 0, y: 0, z: 0}
          q: {x: 0, y: 0, z: 0, w: 1}
          s: {x: 1, y: 1, z: 1}
        - t: {x: 0, y: 0, z: 0}
          q: {x: -0.7071067, y: -9.415696E-08, z: 9.415697E-08, w: 0.7071068}
          s: {x: 100, y: 100, z: 100}
        - t: {x: 0, y: 0, z: 0}
          q: {x: 6.123235E-17, y: 1, z: -6.123235E-17, w: 1.331581E-07}
          s: {x: 1, y: 1, z: 1}
        - t: {x: -1.411882E-09, y: -1.421085E-16, z: -0.009350472}
          q: {x: -9.415695E-08, y: 0.7071068, z: -0.7071067, w: -9.415697E-08}
          s: {x: 1, y: 1, z: 1}
        - t: {x: 9.766736E-12, y: 0.0005402965, z: -0.008413095}
          q: {x: -1.10932E-08, y: 0.8603372, z: -0.5097253, w: 1.613467E-07}
          s: {x: 1, y: 1, z: 1}
        - t: {x: 9.766575E-12, y: -0.0004698759, z: -0.008413095}
          q: {x: 6.3072E-08, y: -0.5274848, z: 0.8495645, w: -1.175762E-07}
          s: {x: 1, y: 1, z: 1}
        - t: {x: -0.004570547, y: -0.001550552, z: 0.00517537}
          q: {x: 0.1836405, y: -0.5917548, z: 0.7772872, w: 0.1092111}
          s: {x: 0.9999999, y: 1, z: 0.9999999}
        - t: {x: 0.004570547, y: -0.001550552, z: 0.00517537}
          q: {x: -0.2411041, y: -0.549198, z: 0.7888762, w: -0.133883}
          s: {x: 0.9999999, y: 1, z: 0.9999999}
        - t: {x: 0, y: 0, z: 0}
          q: {x: -0.7071067, y: -3.090862E-08, z: 3.090862E-08, w: 0.7071068}
          s: {x: 100, y: 100, z: 100}
    m_DefaultPose:
      data:
        m_X:
        - t: {x: 0, y: 0, z: 0}
          q: {x: 0, y: 0, z: 0, w: 1}
          s: {x: 1, y: 1, z: 1}
        - t: {x: 0, y: 0, z: 0}
          q: {x: -0.7071067, y: -9.415696E-08, z: 9.415697E-08, w: 0.7071068}
          s: {x: 100, y: 100, z: 100}
        - t: {x: 0, y: 0, z: 0}
          q: {x: 6.123235E-17, y: 1, z: -6.123235E-17, w: 1.331581E-07}
          s: {x: 1, y: 1, z: 1}
        - t: {x: -1.411882E-09, y: -1.421085E-16, z: -0.009350472}
          q: {x: -9.415695E-08, y: 0.7071068, z: -0.7071067, w: -9.415697E-08}
          s: {x: 1, y: 1, z: 1}
        - t: {x: 9.766736E-12, y: 0.0005402965, z: -0.008413095}
          q: {x: -1.10932E-08, y: 0.8603372, z: -0.5097253, w: 1.613467E-07}
          s: {x: 1, y: 1, z: 1}
        - t: {x: 9.766575E-12, y: -0.0004698759, z: -0.008413095}
          q: {x: 6.3072E-08, y: -0.5274848, z: 0.8495645, w: -1.175762E-07}
          s: {x: 1, y: 1, z: 1}
        - t: {x: -0.004570547, y: -0.001550552, z: 0.00517537}
          q: {x: 0.1836405, y: -0.5917548, z: 0.7772872, w: 0.1092111}
          s: {x: 0.9999999, y: 1, z: 0.9999999}
        - t: {x: 0.004570547, y: -0.001550552, z: 0.00517537}
          q: {x: -0.2411041, y: -0.549198, z: 0.7888762, w: -0.133883}
          s: {x: 0.9999999, y: 1, z: 0.9999999}
        - t: {x: 0, y: 0, z: 0}
          q: {x: -0.7071067, y: -3.090862E-08, z: 3.090862E-08, w: 0.7071068}
          s: {x: 100, y: 100, z: 100}
    m_SkeletonNameIDArray: 00000000d90790f75bf9f416b20ba8db1df77a1fa7a67386c42f5aa0a712555a68955d41
    m_Human:
      data:
        serializedVersion: 2
        m_RootX:
          t: {x: 0, y: 0, z: 0}
          q: {x: 0, y: 0, z: 0, w: 1}
          s: {x: 1, y: 1, z: 1}
        m_Skeleton:
          data:
            m_Node:
            m_ID: 
            m_AxesArray:
        m_SkeletonPose:
          data:
            m_X:
        m_LeftHand:
          data:
            m_HandBoneIndex: ffffffffffffffffffffffffffffffffffffffffffffffffffffffffffffffffffffffffffffffffffffffffffffffffffffffffffffffffffffffff
        m_RightHand:
          data:
            m_HandBoneIndex: ffffffffffffffffffffffffffffffffffffffffffffffffffffffffffffffffffffffffffffffffffffffffffffffffffffffffffffffffffffffff
        m_Handles:
        m_ColliderArray: []
        m_HumanBoneIndex: ffffffffffffffffffffffffffffffffffffffffffffffffffffffffffffffffffffffffffffffffffffffffffffffffffffffffffffffffffffffffffffffffffffffffffffffffffffffffffffffffffffffffffffffffffffffffffffffffffffffff
        m_HumanBoneMass:
        - 0.1454546
        - 0.1212121
        - 0.1212121
        - 0.04848485
        - 0.04848485
        - 0.009696971
        - 0.009696971
        - 0.03030303
        - 0.1454546
        - 0.1454546
        - 0.01212121
        - 0.04848485
        - 0.006060607
        - 0.006060607
        - 0.02424243
        - 0.02424243
        - 0.01818182
        - 0.01818182
        - 0.006060607
        - 0.006060607
        - 0.002424243
        - 0.002424243
        - 0
        - 0
        - 0
        m_ColliderIndex: 
        m_Scale: 1
        m_ArmTwist: 0.5
        m_ForeArmTwist: 0.5
        m_UpperLegTwist: 0.5
        m_LegTwist: 0.5
        m_ArmStretch: 0.05
        m_LegStretch: 0.05
        m_FeetSpacing: 0
        m_HasLeftHand: 0
        m_HasRightHand: 0
        m_HasTDoF: 0
    m_HumanSkeletonIndexArray: 
    m_HumanSkeletonReverseIndexArray: 
    m_RootMotionBoneIndex: -1
    m_RootMotionBoneX:
      t: {x: 0, y: 0, z: 0}
      q: {x: 0, y: 0, z: 0, w: 1}
      s: {x: 1, y: 1, z: 1}
    m_RootMotionSkeleton:
      data:
        m_Node:
        m_ID: 
        m_AxesArray: []
    m_RootMotionSkeletonPose:
      data:
        m_X:
    m_RootMotionSkeletonIndexArray: 
  m_TOS:
    2538475299: Rig/root/body
    1538298568: Rig/root/body/fin.R
    0: 
    279380656: Rig/root/body/tail.01
    2713694123: Rig/root/body/fin.L
    1096652136: Mesh
    232752020: Rig/root
    2309903114: Rig/root/body/tail.02
    4153411545: Rig
