%YAML 1.1
%TAG !u! tag:unity3d.com,2011:
--- !u!90 &9000000
Avatar:
  m_ObjectHideFlags: 0
  m_PrefabParentObject: {fileID: 0}
  m_PrefabInternal: {fileID: 0}
  m_Name: "CH_ChineseAvatar"
  m_AvatarSize: 3520
  m_Avatar:
    serializedVersion: 3
    m_AvatarSkeleton:
      data:
        m_Node:
        - m_ParentId: -1
          m_AxesId: -1
        - m_ParentId: 0
          m_AxesId: -1
        - m_ParentId: 1
          m_AxesId: -1
        - m_ParentId: 2
          m_AxesId: -1
        - m_ParentId: 3
          m_AxesId: -1
        - m_ParentId: 4
          m_AxesId: -1
        - m_ParentId: 5
          m_AxesId: -1
        - m_ParentId: 6
          m_AxesId: -1
        - m_ParentId: 7
          m_AxesId: -1
        - m_ParentId: 5
          m_AxesId: -1
        - m_ParentId: 9
          m_AxesId: -1
        - m_ParentId: 10
          m_AxesId: -1
        - m_ParentId: 11
          m_AxesId: -1
        - m_ParentId: 5
          m_AxesId: -1
        - m_ParentId: 13
          m_AxesId: -1
        - m_ParentId: 14
          m_AxesId: -1
        - m_ParentId: 15
          m_AxesId: -1
        - m_ParentId: 2
          m_AxesId: -1
        - m_ParentId: 17
          m_AxesId: -1
        - m_ParentId: 18
          m_AxesId: -1
        - m_ParentId: 19
          m_AxesId: -1
        - m_ParentId: 20
          m_AxesId: -1
        - m_ParentId: 2
          m_AxesId: -1
        - m_ParentId: 22
          m_AxesId: -1
        - m_ParentId: 23
          m_AxesId: -1
        - m_ParentId: 24
          m_AxesId: -1
        - m_ParentId: 25
          m_AxesId: -1
        - m_ParentId: 0
          m_AxesId: -1
        m_ID: 00000000b28d6c7d89eb2d6cc7b048d3676a6707140bcf0b4e0c7fc8bdddef43fe8431e6952120f73e5bd35a01349195d355f801b56db4ae894d6287726e9334fdedf97b8c551f437c1eef0171cb48a429311c05406256e15051982c9a7301aa4e20b601d5081bbc52c411ce69ee4e9b
        m_AxesArray: []
    m_AvatarSkeletonPose:
      data:
        m_X:
        - t: {x: 0, y: 0, z: 0}
          q: {x: 0, y: 0, z: 0, w: 1}
          s: {x: 1, y: 1, z: 1}
        - t: {x: 0, y: 0, z: 0}
          q: {x: 8.146034E-08, y: -7.54979E-08, z: 8.723465E-15, w: 1}
          s: {x: 1, y: 1, z: 1}
        - t: {x: -1.595111E-09, y: 0.9357805, z: 0.003859744}
          q: {x: 5.966538E-08, y: -2.384185E-07, z: 1.914274E-14, w: 1}
          s: {x: 1, y: 0.9999999, z: 1}
        - t: {x: -5.142994E-11, y: 0.1173028, z: -0.0008089905}
          q: {x: -0.003448237, y: 6.963661E-13, z: 2.192118E-10, w: 0.9999941}
          s: {x: 1, y: 1, z: 1}
        - t: {x: 3.330669E-16, y: 0.1368563, z: 4.656617E-10}
          q: {x: -4.423782E-09, y: 2.842382E-14, z: -1.179612E-16, w: 1}
          s: {x: 1, y: 1, z: 1}
        - t: {x: 2.498002E-16, y: 0.1564071, z: -5.820764E-10}
          q: {x: -8.149073E-09, y: -2.842941E-14, z: 2.477185E-15, w: 1}
          s: {x: 1, y: 1, z: 1}
        - t: {x: 4.510281E-16, y: 0.1759582, z: 2.182787E-10}
          q: {x: 0.003448251, y: 7.815702E-13, z: -2.192086E-10, w: 0.9999941}
          s: {x: 1, y: 1, z: 1}
        - t: {x: -1.622915E-18, y: 0.08362687, z: -3.794335E-12}
          q: {x: -9.743832E-10, y: 1.445608E-34, z: 1.097437E-17, w: 1}
          s: {x: 1, y: 0.9999999, z: 1}
        - t: {x: 3.757918E-12, y: 0.6920284, z: 5.911427E-05}
          q: {x: 1.051426E-11, y: 0, z: 2.507218E-18, w: 1}
          s: {x: 1, y: 1, z: 1}
        - t: {x: -0.09166037, y: 0.1397934, z: -0.003922818}
          q: {x: 0.5722699, y: -0.4057612, z: 0.5973257, w: 0.3886735}
          s: {x: 1, y: 1, z: 1}
        - t: {x: 0, y: 0.1967076, z: -9.924406E-09}
          q: {x: -0.2132629, y: -0.09349241, z: -0.02050657, w: 0.972295}
          s: {x: 0.9999999, y: 0.9999998, z: 0.9999998}
        - t: {x: -5.806214E-09, y: 0.3002563, z: 6.780829E-08}
          q: {x: 0.0212109, y: 0.0003228284, z: 0.01520665, w: 0.9996594}
          s: {x: 1, y: 0.9999999, z: 1}
        - t: {x: -1.175795E-08, y: 0.2649203, z: -9.560608E-09}
          q: {x: 3.969034E-09, y: -7.96399E-09, z: 1.027365E-08, w: 1}
          s: {x: 1, y: 1, z: 1}
        - t: {x: 0.09166037, y: 0.1397353, z: 0.00451136}
          q: {x: 0.5992482, y: 0.3872416, z: -0.5704383, w: 0.4068731}
          s: {x: 0.9999997, y: 0.9999998, z: 0.9999999}
        - t: {x: 0, y: 0.1968007, z: -1.842272E-07}
          q: {x: -0.2148316, y: -0.11131, z: -0.02465319, w: 0.969974}
          s: {x: 1, y: 0.9999999, z: 1}
        - t: {x: 2.186607E-08, y: 0.3003846, z: -1.639642E-07}
          q: {x: 0.02283455, y: 0.0004198218, z: 0.01839151, w: 0.99957}
          s: {x: 1, y: 0.9999999, z: 1}
        - t: {x: 2.415618E-09, y: 0.2649202, z: 1.047374E-08}
          q: {x: 3.794412E-09, y: 3.07864E-09, z: 3.49246E-10, w: 1}
          s: {x: 1, y: 1, z: 1}
        - t: {x: -0.1660617, y: -0.06510586, z: -0.004629388}
          q: {x: 1.16442E-05, y: -0.0005493737, z: 0.9997709, w: 0.02139569}
          s: {x: 1.000001, y: 1, z: 0.9999999}
        - t: {x: 1.35933E-08, y: 0.423827, z: -2.413003E-11}
          q: {x: 0.002655995, y: -5.719673E-07, z: -0.0001290802, w: 0.9999965}
          s: {x: 0.9999999, y: 0.9999999, z: 0.9999999}
        - t: {x: -1.132943E-08, y: 0.4062749, z: -1.818989E-11}
          q: {x: 0.6902295, y: -0.008774966, z: 0.008371787, w: 0.7234888}
          s: {x: 1, y: 1, z: 1}
        - t: {x: -2.817251E-08, y: 0.04503481, z: -1.118751E-07}
          q: {x: 0.04394551, y: -0.0005734859, z: -0.01303192, w: 0.9989488}
          s: {x: 1, y: 1, z: 0.9999999}
        - t: {x: 1.997978E-08, y: 0.04374342, z: 2.328306E-09}
          q: {x: 1.129497E-07, y: 8.913522E-07, z: -6.869341E-07, w: 1}
          s: {x: 0.9999999, y: 1, z: 0.9999999}
        - t: {x: 0.1660617, y: -0.06510586, z: -0.002928659}
          q: {x: 4.850319E-05, y: 0.002296053, z: 0.9997685, w: -0.02139549}
          s: {x: 1.000001, y: 1, z: 1}
        - t: {x: -4.519393E-09, y: 0.4238313, z: 1.021476E-09}
          q: {x: -0.005339188, y: -8.999897E-07, z: 0.0001300463, w: 0.9999858}
          s: {x: 1, y: 1, z: 1}
        - t: {x: 2.255525E-08, y: 0.4062789, z: -1.091394E-10}
          q: {x: 0.6953865, y: 0.007984344, z: -0.007726823, w: 0.7185501}
          s: {x: 1, y: 1, z: 1}
        - t: {x: -8.847564E-09, y: 0.04966405, z: -5.704351E-09}
          q: {x: 0.04121269, y: 0.0004884811, z: 0.0118539, w: 0.99908}
          s: {x: 0.9999999, y: 0.9999999, z: 0.9999999}
        - t: {x: -1.683657E-08, y: 0.04523221, z: -9.313226E-10}
          q: {x: 5.045461E-07, y: 5.531438E-07, z: -3.087953E-07, w: 1}
          s: {x: 1, y: 1, z: 0.9999999}
        - t: {x: 0, y: 0, z: 0}
          q: {x: -0.7071067, y: 3.090862E-08, z: -3.090862E-08, w: 0.7071068}
          s: {x: 1, y: 1, z: 1}
    m_DefaultPose:
      data:
        m_X:
        - t: {x: 0, y: 0, z: 0}
          q: {x: 0, y: 0, z: 0, w: 1}
          s: {x: 1, y: 1, z: 1}
        - t: {x: 0, y: 0, z: 0}
          q: {x: 8.146034E-08, y: -7.54979E-08, z: 8.723465E-15, w: 1}
          s: {x: 1, y: 1, z: 1}
        - t: {x: -1.595111E-09, y: 0.9357805, z: 0.003859744}
          q: {x: 5.966538E-08, y: -2.384185E-07, z: 1.914274E-14, w: 1}
          s: {x: 1, y: 0.9999999, z: 1}
        - t: {x: -5.142994E-11, y: 0.1173028, z: -0.0008089905}
          q: {x: -0.003448237, y: 6.963661E-13, z: 2.192118E-10, w: 0.9999941}
          s: {x: 1, y: 1, z: 1}
        - t: {x: 3.330669E-16, y: 0.1368563, z: 4.656617E-10}
          q: {x: -4.423782E-09, y: 2.842382E-14, z: -1.179612E-16, w: 1}
          s: {x: 1, y: 1, z: 1}
        - t: {x: 2.498002E-16, y: 0.1564071, z: -5.820764E-10}
          q: {x: -8.149073E-09, y: -2.842941E-14, z: 2.477185E-15, w: 1}
          s: {x: 1, y: 1, z: 1}
        - t: {x: 4.510281E-16, y: 0.1759582, z: 2.182787E-10}
          q: {x: 0.003448251, y: 7.815702E-13, z: -2.192086E-10, w: 0.9999941}
          s: {x: 1, y: 1, z: 1}
        - t: {x: -1.622915E-18, y: 0.08362687, z: -3.794335E-12}
          q: {x: -9.743832E-10, y: 1.445608E-34, z: 1.097437E-17, w: 1}
          s: {x: 1, y: 0.9999999, z: 1}
        - t: {x: 3.757918E-12, y: 0.6920284, z: 5.911427E-05}
          q: {x: 1.051426E-11, y: 0, z: 2.507218E-18, w: 1}
          s: {x: 1, y: 1, z: 1}
        - t: {x: -0.09166037, y: 0.1397934, z: -0.003922818}
          q: {x: 0.5722699, y: -0.4057612, z: 0.5973257, w: 0.3886735}
          s: {x: 1, y: 1, z: 1}
        - t: {x: 0, y: 0.1967076, z: -9.924406E-09}
          q: {x: -0.2132629, y: -0.09349241, z: -0.02050657, w: 0.972295}
          s: {x: 0.9999999, y: 0.9999998, z: 0.9999998}
        - t: {x: -5.806214E-09, y: 0.3002563, z: 6.780829E-08}
          q: {x: 0.0212109, y: 0.0003228284, z: 0.01520665, w: 0.9996594}
          s: {x: 1, y: 0.9999999, z: 1}
        - t: {x: -1.175795E-08, y: 0.2649203, z: -9.560608E-09}
          q: {x: 3.969034E-09, y: -7.96399E-09, z: 1.027365E-08, w: 1}
          s: {x: 1, y: 1, z: 1}
        - t: {x: 0.09166037, y: 0.1397353, z: 0.00451136}
          q: {x: 0.5992482, y: 0.3872416, z: -0.5704383, w: 0.4068731}
          s: {x: 0.9999997, y: 0.9999998, z: 0.9999999}
        - t: {x: 0, y: 0.1968007, z: -1.842272E-07}
          q: {x: -0.2148316, y: -0.11131, z: -0.02465319, w: 0.969974}
          s: {x: 1, y: 0.9999999, z: 1}
        - t: {x: 2.186607E-08, y: 0.3003846, z: -1.639642E-07}
          q: {x: 0.02283455, y: 0.0004198218, z: 0.01839151, w: 0.99957}
          s: {x: 1, y: 0.9999999, z: 1}
        - t: {x: 2.415618E-09, y: 0.2649202, z: 1.047374E-08}
          q: {x: 3.794412E-09, y: 3.07864E-09, z: 3.49246E-10, w: 1}
          s: {x: 1, y: 1, z: 1}
        - t: {x: -0.1660617, y: -0.06510586, z: -0.004629388}
          q: {x: 1.16442E-05, y: -0.0005493737, z: 0.9997709, w: 0.02139569}
          s: {x: 1.000001, y: 1, z: 0.9999999}
        - t: {x: 1.35933E-08, y: 0.423827, z: -2.413003E-11}
          q: {x: 0.002655995, y: -5.719673E-07, z: -0.0001290802, w: 0.9999965}
          s: {x: 0.9999999, y: 0.9999999, z: 0.9999999}
        - t: {x: -1.132943E-08, y: 0.4062749, z: -1.818989E-11}
          q: {x: 0.6902295, y: -0.008774966, z: 0.008371787, w: 0.7234888}
          s: {x: 1, y: 1, z: 1}
        - t: {x: -2.817251E-08, y: 0.04503481, z: -1.118751E-07}
          q: {x: 0.04394551, y: -0.0005734859, z: -0.01303192, w: 0.9989488}
          s: {x: 1, y: 1, z: 0.9999999}
        - t: {x: 1.997978E-08, y: 0.04374342, z: 2.328306E-09}
          q: {x: 1.129497E-07, y: 8.913522E-07, z: -6.869341E-07, w: 1}
          s: {x: 0.9999999, y: 1, z: 0.9999999}
        - t: {x: 0.1660617, y: -0.06510586, z: -0.002928659}
          q: {x: 4.850319E-05, y: 0.002296053, z: 0.9997685, w: -0.02139549}
          s: {x: 1.000001, y: 1, z: 1}
        - t: {x: -4.519393E-09, y: 0.4238313, z: 1.021476E-09}
          q: {x: -0.005339188, y: -8.999897E-07, z: 0.0001300463, w: 0.9999858}
          s: {x: 1, y: 1, z: 1}
        - t: {x: 2.255525E-08, y: 0.4062789, z: -1.091394E-10}
          q: {x: 0.6953865, y: 0.007984344, z: -0.007726823, w: 0.7185501}
          s: {x: 1, y: 1, z: 1}
        - t: {x: -8.847564E-09, y: 0.04966405, z: -5.704351E-09}
          q: {x: 0.04121269, y: 0.0004884811, z: 0.0118539, w: 0.99908}
          s: {x: 0.9999999, y: 0.9999999, z: 0.9999999}
        - t: {x: -1.683657E-08, y: 0.04523221, z: -9.313226E-10}
          q: {x: 5.045461E-07, y: 5.531438E-07, z: -3.087953E-07, w: 1}
          s: {x: 1, y: 1, z: 0.9999999}
        - t: {x: 0, y: 0, z: 0}
          q: {x: -0.7071067, y: 3.090862E-08, z: -3.090862E-08, w: 0.7071068}
          s: {x: 1, y: 1, z: 1}
    m_SkeletonNameIDArray: 00000000b28d6c7d57f08b86987fe9ccbe1dc47d044ccde42b8f79d8e4af9b5fe7d40534ba0b6c602105cc56e070b311f797a79cc61cf205bc936141b8ca7d3f98d50e12581b9670fafb42bbebec4a7281de5a2175e30634d3ce15ad676defac84aee3fcd964940f2d59c81a69ee4e9b
    m_Human:
      data:
        serializedVersion: 2
        m_RootX:
          t: {x: 0, y: 0, z: 0}
          q: {x: 0, y: 0, z: 0, w: 1}
          s: {x: 1, y: 1, z: 1}
        m_Skeleton:
          data:
            m_Node:
            m_ID: 
            m_AxesArray:
        m_SkeletonPose:
          data:
            m_X:
        m_LeftHand:
          data:
            m_HandBoneIndex: ffffffffffffffffffffffffffffffffffffffffffffffffffffffffffffffffffffffffffffffffffffffffffffffffffffffffffffffffffffffff
        m_RightHand:
          data:
            m_HandBoneIndex: ffffffffffffffffffffffffffffffffffffffffffffffffffffffffffffffffffffffffffffffffffffffffffffffffffffffffffffffffffffffff
        m_Handles:
        m_ColliderArray: []
        m_HumanBoneIndex: ffffffffffffffffffffffffffffffffffffffffffffffffffffffffffffffffffffffffffffffffffffffffffffffffffffffffffffffffffffffffffffffffffffffffffffffffffffffffffffffffffffffffffffffffffffffffffffffffffffffff
        m_HumanBoneMass:
        - 0.1454546
        - 0.1212121
        - 0.1212121
        - 0.04848485
        - 0.04848485
        - 0.009696971
        - 0.009696971
        - 0.03030303
        - 0.1454546
        - 0.1454546
        - 0.01212121
        - 0.04848485
        - 0.006060607
        - 0.006060607
        - 0.02424243
        - 0.02424243
        - 0.01818182
        - 0.01818182
        - 0.006060607
        - 0.006060607
        - 0.002424243
        - 0.002424243
        - 0
        - 0
        - 0
        m_ColliderIndex: 
        m_Scale: 1
        m_ArmTwist: 0.5
        m_ForeArmTwist: 0.5
        m_UpperLegTwist: 0.5
        m_LegTwist: 0.5
        m_ArmStretch: 0.05
        m_LegStretch: 0.05
        m_FeetSpacing: 0
        m_HasLeftHand: 0
        m_HasRightHand: 0
        m_HasTDoF: 0
    m_HumanSkeletonIndexArray: 
    m_HumanSkeletonReverseIndexArray: 
    m_RootMotionBoneIndex: -1
    m_RootMotionBoneX:
      t: {x: 0, y: 0, z: 0}
      q: {x: 0, y: 0, z: 0, w: 1}
      s: {x: 1, y: 1, z: 1}
    m_RootMotionSkeleton:
      data:
        m_Node:
        m_ID: 
        m_AxesArray: []
    m_RootMotionSkeletonPose:
      data:
        m_X:
    m_RootMotionSkeletonIndexArray: 
  m_TOS:
    28713038: Armature/mixamorig:Hips/mixamorig:RightUpLeg/mixamorig:RightLeg/mixamorig:RightFoot
    2079976957: Armature/mixamorig:Hips/mixamorig:Spine/mixamorig:Spine1/mixamorig:Spine2/mixamorig:RightShoulder/mixamorig:RightArm/mixamorig:RightForeArm/mixamorig:RightHand
    33052115: Armature/mixamorig:Hips/mixamorig:Spine/mixamorig:Spine1/mixamorig:Spine2/mixamorig:LeftShoulder/mixamorig:LeftArm/mixamorig:LeftForeArm/mixamorig:LeftHand
    1126126988: Armature/mixamorig:Hips/mixamorig:LeftUpLeg
    1139793341: Armature/mixamorig:Hips/mixamorig:Spine/mixamorig:Spine1/mixamorig:Spine2/mixamorig:Neck/mixamorig:Head
    1814948745: Armature/mixamorig:Hips
    748179792: Armature/mixamorig:Hips/mixamorig:RightUpLeg
    198118164: Armature/mixamorig:Hips/mixamorig:Spine/mixamorig:Spine1/mixamorig:Spine2
    2931060149: Armature/mixamorig:Hips/mixamorig:Spine/mixamorig:Spine1/mixamorig:Spine2/mixamorig:RightShoulder
    32448124: Armature/mixamorig:Hips/mixamorig:LeftUpLeg/mixamorig:LeftLeg
    2271366537: Armature/mixamorig:Hips/mixamorig:Spine/mixamorig:Spine1/mixamorig:Spine2/mixamorig:RightShoulder/mixamorig:RightArm
    85733673: Armature/mixamorig:Hips/mixamorig:LeftUpLeg/mixamorig:LeftLeg/mixamorig:LeftFoot/mixamorig:LeftToeBase
    2756234097: Armature/mixamorig:Hips/mixamorig:LeftUpLeg/mixamorig:LeftLeg/mixamorig:LeftFoot
    3363769422: Armature/mixamorig:Hips/mixamorig:Spine/mixamorig:Spine1/mixamorig:Spine2/mixamorig:Neck
    2852221850: Armature/mixamorig:Hips/mixamorig:RightUpLeg/mixamorig:RightLeg
    1523800894: Armature/mixamorig:Hips/mixamorig:Spine/mixamorig:Spine1/mixamorig:Spine2/mixamorig:LeftShoulder/mixamorig:LeftArm
    0: 
    3780534848: Armature/mixamorig:Hips/mixamorig:LeftUpLeg/mixamorig:LeftLeg/mixamorig:LeftFoot/mixamorig:LeftToeBase/mixamorig:LeftToe_End
    882077298: Armature/mixamorig:Hips/mixamorig:Spine/mixamorig:Spine1/mixamorig:Spine2/mixamorig:RightShoulder/mixamorig:RightArm/mixamorig:RightForeArm
    4146078101: Armature/mixamorig:Hips/mixamorig:Spine/mixamorig:Spine1/mixamorig:Spine2/mixamorig:LeftShoulder
    3155888341: Armature/mixamorig:Hips/mixamorig:RightUpLeg/mixamorig:RightLeg/mixamorig:RightFoot/mixamorig:RightToeBase
    3457270866: Armature/mixamorig:Hips/mixamorig:RightUpLeg/mixamorig:RightLeg/mixamorig:RightFoot/mixamorig:RightToeBase/mixamorig:RightToe_End
    3544756423: Armature/mixamorig:Hips/mixamorig:Spine
    2605641321: Ch_chinese
    3862004990: Armature/mixamorig:Hips/mixamorig:Spine/mixamorig:Spine1/mixamorig:Spine2/mixamorig:Neck/mixamorig:Head/mixamorig:HeadTop_End
    124217959: Armature/mixamorig:Hips/mixamorig:Spine/mixamorig:Spine1
    2509321217: Armature/mixamorig:Hips/mixamorig:Spine/mixamorig:Spine1/mixamorig:Spine2/mixamorig:LeftShoulder/mixamorig:LeftArm/mixamorig:LeftForeArm
    2104266162: Armature
