%YAML 1.1
%TAG !u! tag:unity3d.com,2011:
--- !u!90 &9000000
Avatar:
  m_ObjectHideFlags: 0
  m_PrefabParentObject: {fileID: 0}
  m_PrefabInternal: {fileID: 0}
  m_Name: "Hammer_sharkAvatar"
  m_AvatarSize: 1496
  m_Avatar:
    serializedVersion: 3
    m_AvatarSkeleton:
      data:
        m_Node:
        - m_ParentId: -1
          m_AxesId: -1
        - m_ParentId: 0
          m_AxesId: -1
        - m_ParentId: 1
          m_AxesId: -1
        - m_ParentId: 2
          m_AxesId: -1
        - m_ParentId: 3
          m_AxesId: -1
        - m_ParentId: 4
          m_AxesId: -1
        - m_ParentId: 3
          m_AxesId: -1
        - m_ParentId: 3
          m_AxesId: -1
        - m_ParentId: 3
          m_AxesId: -1
        - m_ParentId: 0
          m_AxesId: -1
        m_ID: 00000000d90790f79483df0d230f4e97b002a71010a7fb7b821cf341abafbfa1c892b05b68955d41
        m_AxesArray: []
    m_AvatarSkeletonPose:
      data:
        m_X:
        - t: {x: 0, y: 0, z: 0}
          q: {x: 0, y: 0, z: 0, w: 1}
          s: {x: 1, y: 1, z: 1}
        - t: {x: 0, y: 0, z: 0}
          q: {x: -0.7071068, y: 5.302451E-33, z: 5.302452E-33, w: 0.7071067}
          s: {x: 100, y: 100, z: 100}
        - t: {x: 0, y: 0, z: 0}
          q: {x: 0, y: 0, z: 0, w: 1}
          s: {x: 1, y: 1, z: 1}
        - t: {x: -2.306633E-20, y: -8.038878E-05, z: 0.006684748}
          q: {x: 0.7055886, y: -0.04631196, z: -0.04631196, w: 0.7055886}
          s: {x: 1, y: 1, z: 1}
        - t: {x: -1.006992E-09, y: -0.0007857424, z: -0.009355926}
          q: {x: 0.08306111, y: -0.6464627, z: 0.752227, w: 0.09665035}
          s: {x: 0.9999999, y: 0.9999996, z: 0.9999998}
        - t: {x: 2.421439E-10, y: 0.005035419, z: 9.19681E-10}
          q: {x: 0.00559938, y: 0.0007194769, z: -0.127436, w: 0.9918307}
          s: {x: 1, y: 0.9999998, z: 1}
        - t: {x: -7.089693E-10, y: 0.004406993, z: 0.003325168}
          q: {x: -0.4337725, y: -2.703549E-08, z: 1.294068E-08, w: 0.9010224}
          s: {x: 1, y: 0.925127, z: 0.9889867}
        - t: {x: -0.00417239, y: -0.003322864, z: 0.004406787}
          q: {x: -0.3371059, y: -0.3392424, z: 0.7227463, w: 0.4989108}
          s: {x: 1, y: 0.9999998, z: 0.9999993}
        - t: {x: 0.004986424, y: -0.002909698, z: 0.005599222}
          q: {x: -0.01929928, y: -0.2111852, z: -0.7322228, w: 0.647208}
          s: {x: 1, y: 0.9999997, z: 0.9999999}
        - t: {x: 6.198883E-08, y: 1.144409E-07, z: 2.40344E-08}
          q: {x: -0.7071069, y: 3.164258E-08, z: -3.017466E-08, w: 0.7071066}
          s: {x: 99.99998, y: 100, z: 99.99998}
    m_DefaultPose:
      data:
        m_X:
        - t: {x: 0, y: 0, z: 0}
          q: {x: 0, y: 0, z: 0, w: 1}
          s: {x: 1, y: 1, z: 1}
        - t: {x: 0, y: 0, z: 0}
          q: {x: -0.7071068, y: 5.302451E-33, z: 5.302452E-33, w: 0.7071067}
          s: {x: 100, y: 100, z: 100}
        - t: {x: 0, y: 0, z: 0}
          q: {x: 0, y: 0, z: 0, w: 1}
          s: {x: 1, y: 1, z: 1}
        - t: {x: -2.306633E-20, y: -8.038878E-05, z: 0.006684748}
          q: {x: 0.7055886, y: -0.04631196, z: -0.04631196, w: 0.7055886}
          s: {x: 1, y: 1, z: 1}
        - t: {x: -1.006992E-09, y: -0.0007857424, z: -0.009355926}
          q: {x: 0.08306111, y: -0.6464627, z: 0.752227, w: 0.09665035}
          s: {x: 0.9999999, y: 0.9999996, z: 0.9999998}
        - t: {x: 2.421439E-10, y: 0.005035419, z: 9.19681E-10}
          q: {x: 0.00559938, y: 0.0007194769, z: -0.127436, w: 0.9918307}
          s: {x: 1, y: 0.9999998, z: 1}
        - t: {x: -7.089693E-10, y: 0.004406993, z: 0.003325168}
          q: {x: -0.4337725, y: -2.703549E-08, z: 1.294068E-08, w: 0.9010224}
          s: {x: 1, y: 0.925127, z: 0.9889867}
        - t: {x: -0.00417239, y: -0.003322864, z: 0.004406787}
          q: {x: -0.3371059, y: -0.3392424, z: 0.7227463, w: 0.4989108}
          s: {x: 1, y: 0.9999998, z: 0.9999993}
        - t: {x: 0.004986424, y: -0.002909698, z: 0.005599222}
          q: {x: -0.01929928, y: -0.2111852, z: -0.7322228, w: 0.647208}
          s: {x: 1, y: 0.9999997, z: 0.9999999}
        - t: {x: 6.198883E-08, y: 1.144409E-07, z: 2.40344E-08}
          q: {x: -0.7071069, y: 3.164258E-08, z: -3.017466E-08, w: 0.7071066}
          s: {x: 99.99998, y: 100, z: 99.99998}
    m_SkeletonNameIDArray: 00000000d90790f75bf9f416b20ba8db1df77a1fa7a67386cb85ff9cc42f5aa0a712555a68955d41
    m_Human:
      data:
        serializedVersion: 2
        m_RootX:
          t: {x: 0, y: 0, z: 0}
          q: {x: 0, y: 0, z: 0, w: 1}
          s: {x: 1, y: 1, z: 1}
        m_Skeleton:
          data:
            m_Node:
            m_ID: 
            m_AxesArray:
        m_SkeletonPose:
          data:
            m_X:
        m_LeftHand:
          data:
            m_HandBoneIndex: ffffffffffffffffffffffffffffffffffffffffffffffffffffffffffffffffffffffffffffffffffffffffffffffffffffffffffffffffffffffff
        m_RightHand:
          data:
            m_HandBoneIndex: ffffffffffffffffffffffffffffffffffffffffffffffffffffffffffffffffffffffffffffffffffffffffffffffffffffffffffffffffffffffff
        m_Handles:
        m_ColliderArray: []
        m_HumanBoneIndex: ffffffffffffffffffffffffffffffffffffffffffffffffffffffffffffffffffffffffffffffffffffffffffffffffffffffffffffffffffffffffffffffffffffffffffffffffffffffffffffffffffffffffffffffffffffffffffffffffffffffff
        m_HumanBoneMass:
        - 0.1454546
        - 0.1212121
        - 0.1212121
        - 0.04848485
        - 0.04848485
        - 0.009696971
        - 0.009696971
        - 0.03030303
        - 0.1454546
        - 0.1454546
        - 0.01212121
        - 0.04848485
        - 0.006060607
        - 0.006060607
        - 0.02424243
        - 0.02424243
        - 0.01818182
        - 0.01818182
        - 0.006060607
        - 0.006060607
        - 0.002424243
        - 0.002424243
        - 0
        - 0
        - 0
        m_ColliderIndex: 
        m_Scale: 1
        m_ArmTwist: 0.5
        m_ForeArmTwist: 0.5
        m_UpperLegTwist: 0.5
        m_LegTwist: 0.5
        m_ArmStretch: 0.05
        m_LegStretch: 0.05
        m_FeetSpacing: 0
        m_HasLeftHand: 0
        m_HasRightHand: 0
        m_HasTDoF: 0
    m_HumanSkeletonIndexArray: 
    m_HumanSkeletonReverseIndexArray: 
    m_RootMotionBoneIndex: -1
    m_RootMotionBoneX:
      t: {x: 0, y: 0, z: 0}
      q: {x: 0, y: 0, z: 0, w: 1}
      s: {x: 1, y: 1, z: 1}
    m_RootMotionSkeleton:
      data:
        m_Node:
        m_ID: 
        m_AxesArray: []
    m_RootMotionSkeletonPose:
      data:
        m_X:
    m_RootMotionSkeletonIndexArray: 
  m_TOS:
    1106451586: Rig/root/body/fin.01
    2538475299: Rig/root/body
    1538298568: Rig/root/body/fin.R
    0: 
    279380656: Rig/root/body/tail.01
    2713694123: Rig/root/body/fin.L
    1096652136: Mesh
    232752020: Rig/root
    2080089872: Rig/root/body/tail.01/tail.02
    4153411545: Rig
