%YAML 1.1
%TAG !u! tag:unity3d.com,2011:
--- !u!90 &9000000
Avatar:
  m_ObjectHideFlags: 0
  m_PrefabParentObject: {fileID: 0}
  m_PrefabInternal: {fileID: 0}
  m_Name: "JellyfishAvatar"
  m_AvatarSize: 1944
  m_Avatar:
    serializedVersion: 3
    m_AvatarSkeleton:
      data:
        m_Node:
        - m_ParentId: -1
          m_AxesId: -1
        - m_ParentId: 0
          m_AxesId: -1
        - m_ParentId: 1
          m_AxesId: -1
        - m_ParentId: 2
          m_AxesId: -1
        - m_ParentId: 3
          m_AxesId: -1
        - m_ParentId: 3
          m_AxesId: -1
        - m_ParentId: 5
          m_AxesId: -1
        - m_ParentId: 3
          m_AxesId: -1
        - m_ParentId: 7
          m_AxesId: -1
        - m_ParentId: 3
          m_AxesId: -1
        - m_ParentId: 9
          m_AxesId: -1
        - m_ParentId: 3
          m_AxesId: -1
        - m_ParentId: 3
          m_AxesId: -1
        - m_ParentId: 0
          m_AxesId: -1
        m_ID: 00000000d90790f7aa2cedadbe228db5c64f68426c3f60e7b84d1780bc45c0a0b312d6bb0c6ca09d75dab91b98caa5763092804568955d41
        m_AxesArray: []
    m_AvatarSkeletonPose:
      data:
        m_X:
        - t: {x: 0, y: 0, z: 0}
          q: {x: 0, y: 0, z: 0, w: 1}
          s: {x: 1, y: 1, z: 1}
        - t: {x: 0, y: 0, z: 0}
          q: {x: -0.7071067, y: 5.302452E-33, z: 5.302451E-33, w: 0.7071068}
          s: {x: 100, y: 100, z: 100}
        - t: {x: 0, y: 0, z: 0}
          q: {x: -4.381759E-15, y: 0.7071067, z: 4.381758E-15, w: 0.7071068}
          s: {x: 1, y: 0.9999999, z: 1}
        - t: {x: -0.009777009, y: 4.305306E-11, z: -1.592877E-09}
          q: {x: -0.5000002, y: 0.4999998, z: 0.4999998, w: 0.5000003}
          s: {x: 1, y: 0.9999999, z: 1}
        - t: {x: -1.755392E-11, y: -0.001910753, z: -6.443007E-10}
          q: {x: 0.7071051, y: -0.001178893, z: 0.7071065, w: 0.001178861}
          s: {x: 0.9689236, y: 0.9347591, z: 0.9689235}
        - t: {x: 0.003702068, y: 0.002908265, z: -0.002137387}
          q: {x: 0.8653595, y: -0.0196006, z: 0.499616, w: 0.03394919}
          s: {x: 1, y: 0.9999999, z: 1}
        - t: {x: -1.163356E-11, y: 0.010784, z: 1.024455E-10}
          q: {x: 0.405525, y: 5.332394E-08, z: -2.988896E-08, w: 0.914084}
          s: {x: 1, y: 0.9999999, z: 1}
        - t: {x: -3.554971E-09, y: 0.002412876, z: 0.004243242}
          q: {x: -4.004432E-07, y: -0.0667909, z: 0.997767, w: -2.680582E-08}
          s: {x: 1, y: 1, z: 1}
        - t: {x: 6.470484E-19, y: 0.010784, z: -1.303852E-10}
          q: {x: 0.3097536, y: -1.952289E-14, z: 3.221039E-14, w: 0.9508169}
          s: {x: 1, y: 1, z: 1}
        - t: {x: -0.00383712, y: 0.004358625, z: -0.002215367}
          q: {x: 0.8645352, y: 0.0293219, z: -0.4991391, w: 0.05078702}
          s: {x: 1, y: 1, z: 0.9999999}
        - t: {x: -1.115832E-11, y: 0.010784, z: -3.72529E-10}
          q: {x: 0.3776285, y: 8.432114E-08, z: -3.484101E-08, w: 0.9259572}
          s: {x: 1, y: 0.9999998, z: 0.9999999}
        - t: {x: 5.245121E-16, y: 0.002400491, z: -4.611984E-10}
          q: {x: 2.123544E-08, y: 9.536742E-07, z: 4.420389E-14, w: 1}
          s: {x: 0.7943701, y: 0.6748413, z: 0.7943702}
        - t: {x: 2.916192E-16, y: 0.005005653, z: -2.084951E-10}
          q: {x: 2.123544E-08, y: 9.536741E-07, z: 4.436867E-14, w: 1}
          s: {x: 1.009566, y: 0.9604893, z: 1.009566}
        - t: {x: 0, y: 0, z: 0}
          q: {x: -0.7071067, y: -3.090862E-08, z: 3.090862E-08, w: 0.7071068}
          s: {x: 100, y: 100, z: 100}
    m_DefaultPose:
      data:
        m_X:
        - t: {x: 0, y: 0, z: 0}
          q: {x: 0, y: 0, z: 0, w: 1}
          s: {x: 1, y: 1, z: 1}
        - t: {x: 0, y: 0, z: 0}
          q: {x: -0.7071067, y: 5.302452E-33, z: 5.302451E-33, w: 0.7071068}
          s: {x: 100, y: 100, z: 100}
        - t: {x: 0, y: 0, z: 0}
          q: {x: -4.381759E-15, y: 0.7071067, z: 4.381758E-15, w: 0.7071068}
          s: {x: 1, y: 0.9999999, z: 1}
        - t: {x: -0.009777009, y: 4.305306E-11, z: -1.592877E-09}
          q: {x: -0.5000002, y: 0.4999998, z: 0.4999998, w: 0.5000003}
          s: {x: 1, y: 0.9999999, z: 1}
        - t: {x: -1.755392E-11, y: -0.001910753, z: -6.443007E-10}
          q: {x: 0.7071051, y: -0.001178893, z: 0.7071065, w: 0.001178861}
          s: {x: 0.9689236, y: 0.9347591, z: 0.9689235}
        - t: {x: 0.003702068, y: 0.002908265, z: -0.002137387}
          q: {x: 0.8653595, y: -0.0196006, z: 0.499616, w: 0.03394919}
          s: {x: 1, y: 0.9999999, z: 1}
        - t: {x: -1.163356E-11, y: 0.010784, z: 1.024455E-10}
          q: {x: 0.405525, y: 5.332394E-08, z: -2.988896E-08, w: 0.914084}
          s: {x: 1, y: 0.9999999, z: 1}
        - t: {x: -3.554971E-09, y: 0.002412876, z: 0.004243242}
          q: {x: -4.004432E-07, y: -0.0667909, z: 0.997767, w: -2.680582E-08}
          s: {x: 1, y: 1, z: 1}
        - t: {x: 6.470484E-19, y: 0.010784, z: -1.303852E-10}
          q: {x: 0.3097536, y: -1.952289E-14, z: 3.221039E-14, w: 0.9508169}
          s: {x: 1, y: 1, z: 1}
        - t: {x: -0.00383712, y: 0.004358625, z: -0.002215367}
          q: {x: 0.8645352, y: 0.0293219, z: -0.4991391, w: 0.05078702}
          s: {x: 1, y: 1, z: 0.9999999}
        - t: {x: -1.115832E-11, y: 0.010784, z: -3.72529E-10}
          q: {x: 0.3776285, y: 8.432114E-08, z: -3.484101E-08, w: 0.9259572}
          s: {x: 1, y: 0.9999998, z: 0.9999999}
        - t: {x: 5.245121E-16, y: 0.002400491, z: -4.611984E-10}
          q: {x: 2.123544E-08, y: 9.536742E-07, z: 4.420389E-14, w: 1}
          s: {x: 0.7943701, y: 0.6748413, z: 0.7943702}
        - t: {x: 2.916192E-16, y: 0.005005653, z: -2.084951E-10}
          q: {x: 2.123544E-08, y: 9.536741E-07, z: 4.436867E-14, w: 1}
          s: {x: 1.009566, y: 0.9604893, z: 1.009566}
        - t: {x: 0, y: 0, z: 0}
          q: {x: -0.7071067, y: -3.090862E-08, z: 3.090862E-08, w: 0.7071068}
          s: {x: 100, y: 100, z: 100}
    m_SkeletonNameIDArray: 00000000d90790f76556c6b68ca49a7b6953277b09ce30a1b39f3938d9b490e663e5997f699df0dbd3ccf942a259c1075563d00368955d41
    m_Human:
      data:
        serializedVersion: 2
        m_RootX:
          t: {x: 0, y: 0, z: 0}
          q: {x: 0, y: 0, z: 0, w: 1}
          s: {x: 1, y: 1, z: 1}
        m_Skeleton:
          data:
            m_Node:
            m_ID: 
            m_AxesArray:
        m_SkeletonPose:
          data:
            m_X:
        m_LeftHand:
          data:
            m_HandBoneIndex: ffffffffffffffffffffffffffffffffffffffffffffffffffffffffffffffffffffffffffffffffffffffffffffffffffffffffffffffffffffffff
        m_RightHand:
          data:
            m_HandBoneIndex: ffffffffffffffffffffffffffffffffffffffffffffffffffffffffffffffffffffffffffffffffffffffffffffffffffffffffffffffffffffffff
        m_Handles:
        m_ColliderArray: []
        m_HumanBoneIndex: ffffffffffffffffffffffffffffffffffffffffffffffffffffffffffffffffffffffffffffffffffffffffffffffffffffffffffffffffffffffffffffffffffffffffffffffffffffffffffffffffffffffffffffffffffffffffffffffffffffffff
        m_HumanBoneMass:
        - 0.1454546
        - 0.1212121
        - 0.1212121
        - 0.04848485
        - 0.04848485
        - 0.009696971
        - 0.009696971
        - 0.03030303
        - 0.1454546
        - 0.1454546
        - 0.01212121
        - 0.04848485
        - 0.006060607
        - 0.006060607
        - 0.02424243
        - 0.02424243
        - 0.01818182
        - 0.01818182
        - 0.006060607
        - 0.006060607
        - 0.002424243
        - 0.002424243
        - 0
        - 0
        - 0
        m_ColliderIndex: 
        m_Scale: 1
        m_ArmTwist: 0.5
        m_ForeArmTwist: 0.5
        m_UpperLegTwist: 0.5
        m_LegTwist: 0.5
        m_ArmStretch: 0.05
        m_LegStretch: 0.05
        m_FeetSpacing: 0
        m_HasLeftHand: 0
        m_HasRightHand: 0
        m_HasTDoF: 0
    m_HumanSkeletonIndexArray: 
    m_HumanSkeletonReverseIndexArray: 
    m_RootMotionBoneIndex: -1
    m_RootMotionBoneX:
      t: {x: 0, y: 0, z: 0}
      q: {x: 0, y: 0, z: 0, w: 1}
      s: {x: 1, y: 1, z: 1}
    m_RootMotionSkeleton:
      data:
        m_Node:
        m_ID: 
        m_AxesArray: []
    m_RootMotionSkeletonPose:
      data:
        m_X:
    m_RootMotionSkeletonIndexArray: 
  m_TOS:
    1114132422: Rig/Root/Body/Strings
    2696955324: Rig/Root/Body/Leg2.001
    1166053936: Rig/Root/Body/Head.001
    2918001834: Rig/Root
    465164917: Rig/Root/Body/Leg3.001/Leg3.002
    0: 
    1990576792: Rig/Root/Body/Head
    2149010872: Rig/Root/Body/Leg1.001/Leg1.002
    1096652136: Mesh
    2644536332: Rig/Root/Body/Leg3.001
    3151368883: Rig/Root/Body/Leg2.001/Leg2.002
    3045925566: Rig/Root/Body
    4153411545: Rig
    3881844588: Rig/Root/Body/Leg1.001
