%YAML 1.1
%TAG !u! tag:unity3d.com,2011:
--- !u!90 &9000000
Avatar:
  m_ObjectHideFlags: 0
  m_PrefabParentObject: {fileID: 0}
  m_PrefabInternal: {fileID: 0}
  m_Name: "PseudochromisAvatar"
  m_AvatarSize: 1728
  m_Avatar:
    serializedVersion: 3
    m_AvatarSkeleton:
      data:
        m_Node:
        - m_ParentId: -1
          m_AxesId: -1
        - m_ParentId: 0
          m_AxesId: -1
        - m_ParentId: 1
          m_AxesId: -1
        - m_ParentId: 2
          m_AxesId: -1
        - m_ParentId: 3
          m_AxesId: -1
        - m_ParentId: 3
          m_AxesId: -1
        - m_ParentId: 3
          m_AxesId: -1
        - m_ParentId: 3
          m_AxesId: -1
        - m_ParentId: 3
          m_AxesId: -1
        - m_ParentId: 3
          m_AxesId: -1
        - m_ParentId: 3
          m_AxesId: -1
        - m_ParentId: 0
          m_AxesId: -1
        m_ID: 00000000d90790f79483df0d230f4e97821cf341384dfad8ae7dfdafabafbfa1b002a710c892b05b0a53ae8968955d41
        m_AxesArray: []
    m_AvatarSkeletonPose:
      data:
        m_X:
        - t: {x: 0, y: 0, z: 0}
          q: {x: 0, y: 0, z: 0, w: 1}
          s: {x: 1, y: 1, z: 1}
        - t: {x: 0, y: 0, z: 0}
          q: {x: -0.7071068, y: -3.090862E-08, z: 3.090862E-08, w: 0.7071067}
          s: {x: 100, y: 100, z: 100}
        - t: {x: 0, y: 0, z: 0}
          q: {x: 0, y: 0, z: -1.110223E-16, w: 1}
          s: {x: 1, y: 1, z: 1}
        - t: {x: 0, y: 0, z: 0.004984573}
          q: {x: 0.7071068, y: 7.850464E-17, z: 7.850463E-17, w: 0.7071067}
          s: {x: 1, y: 1, z: 1}
        - t: {x: 0, y: 0.001633159, z: -9.966978E-05}
          q: {x: 0, y: 0, z: 0, w: 1}
          s: {x: 1, y: 0.9999999, z: 1}
        - t: {x: -1.014135E-20, y: -0.002118379, z: -0.001027059}
          q: {x: 0.9592167, y: 8.261683E-16, z: 8.261685E-16, w: -0.2826717}
          s: {x: 1, y: 1, z: 0.9999997}
        - t: {x: -2.569142E-19, y: -0.001007013, z: -0.004894004}
          q: {x: 0.9883524, y: 8.214458E-16, z: 8.214436E-16, w: -0.1521827}
          s: {x: 1, y: 1, z: 0.9999996}
        - t: {x: -0.001652098, y: -0.001216154, z: 0.002989059}
          q: {x: -0.7301564, y: -0.01699874, z: -0.01699875, w: 0.6828571}
          s: {x: 1, y: 0.9999999, z: 1}
        - t: {x: -4.589671E-19, y: -9.704709E-05, z: -0.008910084}
          q: {x: -0.5081065, y: -2.092737E-16, z: -2.092737E-16, w: 0.8612943}
          s: {x: 1, y: 1, z: 1}
        - t: {x: 0.001652098, y: -0.001216154, z: 0.002989059}
          q: {x: -0.7301829, y: 0.01809807, z: 0.01582324, w: 0.6828287}
          s: {x: 1, y: 0.9999999, z: 0.9999999}
        - t: {x: -3.401993E-19, y: -0.000631929, z: -0.008926799}
          q: {x: -0.8603625, y: -6.075889E-08, z: 1.025632E-07, w: 0.5096825}
          s: {x: 1, y: 1, z: 0.9999999}
        - t: {x: -3.401993E-17, y: 5.722041E-08, z: 1.284654E-14}
          q: {x: -0.7071068, y: -3.090862E-08, z: 3.090862E-08, w: 0.7071067}
          s: {x: 100, y: 100, z: 100}
    m_DefaultPose:
      data:
        m_X:
        - t: {x: 0, y: 0, z: 0}
          q: {x: 0, y: 0, z: 0, w: 1}
          s: {x: 1, y: 1, z: 1}
        - t: {x: 0, y: 0, z: 0}
          q: {x: -0.7071068, y: -3.090862E-08, z: 3.090862E-08, w: 0.7071067}
          s: {x: 100, y: 100, z: 100}
        - t: {x: 0, y: 0, z: 0}
          q: {x: 0, y: 0, z: -1.110223E-16, w: 1}
          s: {x: 1, y: 1, z: 1}
        - t: {x: 0, y: 0, z: 0.004984573}
          q: {x: 0.7071068, y: 7.850464E-17, z: 7.850463E-17, w: 0.7071067}
          s: {x: 1, y: 1, z: 1}
        - t: {x: 0, y: 0.001633159, z: -9.966978E-05}
          q: {x: 0, y: 0, z: 0, w: 1}
          s: {x: 1, y: 0.9999999, z: 1}
        - t: {x: -1.014135E-20, y: -0.002118379, z: -0.001027059}
          q: {x: 0.9592167, y: 8.261683E-16, z: 8.261685E-16, w: -0.2826717}
          s: {x: 1, y: 1, z: 0.9999997}
        - t: {x: -2.569142E-19, y: -0.001007013, z: -0.004894004}
          q: {x: 0.9883524, y: 8.214458E-16, z: 8.214436E-16, w: -0.1521827}
          s: {x: 1, y: 1, z: 0.9999996}
        - t: {x: -0.001652098, y: -0.001216154, z: 0.002989059}
          q: {x: -0.7301564, y: -0.01699874, z: -0.01699875, w: 0.6828571}
          s: {x: 1, y: 0.9999999, z: 1}
        - t: {x: -4.589671E-19, y: -9.704709E-05, z: -0.008910084}
          q: {x: -0.5081065, y: -2.092737E-16, z: -2.092737E-16, w: 0.8612943}
          s: {x: 1, y: 1, z: 1}
        - t: {x: 0.001652098, y: -0.001216154, z: 0.002989059}
          q: {x: -0.7301829, y: 0.01809807, z: 0.01582324, w: 0.6828287}
          s: {x: 1, y: 0.9999999, z: 0.9999999}
        - t: {x: -3.401993E-19, y: -0.000631929, z: -0.008926799}
          q: {x: -0.8603625, y: -6.075889E-08, z: 1.025632E-07, w: 0.5096825}
          s: {x: 1, y: 1, z: 0.9999999}
        - t: {x: -3.401993E-17, y: 5.722041E-08, z: 1.284654E-14}
          q: {x: -0.7071068, y: -3.090862E-08, z: 3.090862E-08, w: 0.7071067}
          s: {x: 100, y: 100, z: 100}
    m_SkeletonNameIDArray: 00000000d90790f75bf9f416b20ba8dbcb85ff9c71d4f605e7e4f172c42f5aa01df77a1fa712555aa7a6738668955d41
    m_Human:
      data:
        serializedVersion: 2
        m_RootX:
          t: {x: 0, y: 0, z: 0}
          q: {x: 0, y: 0, z: 0, w: 1}
          s: {x: 1, y: 1, z: 1}
        m_Skeleton:
          data:
            m_Node:
            m_ID: 
            m_AxesArray:
        m_SkeletonPose:
          data:
            m_X:
        m_LeftHand:
          data:
            m_HandBoneIndex: ffffffffffffffffffffffffffffffffffffffffffffffffffffffffffffffffffffffffffffffffffffffffffffffffffffffffffffffffffffffff
        m_RightHand:
          data:
            m_HandBoneIndex: ffffffffffffffffffffffffffffffffffffffffffffffffffffffffffffffffffffffffffffffffffffffffffffffffffffffffffffffffffffffff
        m_Handles:
        m_ColliderArray: []
        m_HumanBoneIndex: ffffffffffffffffffffffffffffffffffffffffffffffffffffffffffffffffffffffffffffffffffffffffffffffffffffffffffffffffffffffffffffffffffffffffffffffffffffffffffffffffffffffffffffffffffffffffffffffffffffffff
        m_HumanBoneMass:
        - 0.1454546
        - 0.1212121
        - 0.1212121
        - 0.04848485
        - 0.04848485
        - 0.009696971
        - 0.009696971
        - 0.03030303
        - 0.1454546
        - 0.1454546
        - 0.01212121
        - 0.04848485
        - 0.006060607
        - 0.006060607
        - 0.02424243
        - 0.02424243
        - 0.01818182
        - 0.01818182
        - 0.006060607
        - 0.006060607
        - 0.002424243
        - 0.002424243
        - 0
        - 0
        - 0
        m_ColliderIndex: 
        m_Scale: 1
        m_ArmTwist: 0.5
        m_ForeArmTwist: 0.5
        m_UpperLegTwist: 0.5
        m_LegTwist: 0.5
        m_ArmStretch: 0.05
        m_LegStretch: 0.05
        m_FeetSpacing: 0
        m_HasLeftHand: 0
        m_HasRightHand: 0
        m_HasTDoF: 0
    m_HumanSkeletonIndexArray: 
    m_HumanSkeletonReverseIndexArray: 
    m_RootMotionBoneIndex: -1
    m_RootMotionBoneX:
      t: {x: 0, y: 0, z: 0}
      q: {x: 0, y: 0, z: 0, w: 1}
      s: {x: 1, y: 1, z: 1}
    m_RootMotionSkeleton:
      data:
        m_Node:
        m_ID: 
        m_AxesArray: []
    m_RootMotionSkeletonPose:
      data:
        m_X:
    m_RootMotionSkeletonIndexArray: 
  m_TOS:
    1106451586: Rig/root/body/fin.01
    3640282424: Rig/root/body/fin.02
    2538475299: Rig/root/body
    1538298568: Rig/root/body/fin.R
    0: 
    279380656: Rig/root/body/tail.01
    2713694123: Rig/root/body/fin.L
    1096652136: Mesh
    232752020: Rig/root
    2309903114: Rig/root/body/tail.02
    2952625582: Rig/root/body/fin.03
    4153411545: Rig
