%YAML 1.1
%TAG !u! tag:unity3d.com,2011:
--- !u!90 &9000000
Avatar:
  m_ObjectHideFlags: 0
  m_PrefabParentObject: {fileID: 0}
  m_PrefabInternal: {fileID: 0}
  m_Name: "WhaleAvatar"
  m_AvatarSize: 1396
  m_Avatar:
    serializedVersion: 3
    m_AvatarSkeleton:
      data:
        m_Node:
        - m_ParentId: -1
          m_AxesId: -1
        - m_ParentId: 0
          m_AxesId: -1
        - m_ParentId: 1
          m_AxesId: -1
        - m_ParentId: 2
          m_AxesId: -1
        - m_ParentId: 3
          m_AxesId: -1
        - m_ParentId: 3
          m_AxesId: -1
        - m_ParentId: 5
          m_AxesId: -1
        - m_ParentId: 3
          m_AxesId: -1
        - m_ParentId: 0
          m_AxesId: -1
        m_ID: 00000000d90790f79483df0d230f4e97abafbfa1b002a71010a7fb7bc892b05b68955d41
        m_AxesArray: []
    m_AvatarSkeletonPose:
      data:
        m_X:
        - t: {x: 0, y: 0, z: 0}
          q: {x: 0, y: 0, z: 0, w: 1}
          s: {x: 1, y: 1, z: 1}
        - t: {x: 0, y: 0, z: 0}
          q: {x: -0.7071068, y: 0, z: 0, w: 0.7071067}
          s: {x: 100, y: 100, z: 100}
        - t: {x: 0, y: 0, z: 0}
          q: {x: 0, y: 0, z: -6.42878E-17, w: 1}
          s: {x: 1, y: 1, z: 1}
        - t: {x: 0, y: 0, z: 0.01127799}
          q: {x: 0.7071068, y: 4.545835E-17, z: 4.545834E-17, w: 0.7071067}
          s: {x: 1, y: 1, z: 1}
        - t: {x: -0.0126735, y: -0.001104101, z: 0.005541957}
          q: {x: -0.08430548, y: -0.1596545, z: 0.8697534, w: 0.4592735}
          s: {x: 0.9999996, y: 1, z: 0.9999999}
        - t: {x: -4.073666E-19, y: 0.001446905, z: -0.01832424}
          q: {x: 5.392323E-08, y: -0.7000471, z: 0.7140967, w: -5.286272E-08}
          s: {x: 1, y: 1, z: 1}
        - t: {x: -5.577746E-17, y: 0.013034, z: 0}
          q: {x: -0.08470797, y: 3.167224E-08, z: 1.009798E-08, w: 0.9964058}
          s: {x: 1, y: 0.9999998, z: 0.9999998}
        - t: {x: 0.0126735, y: -0.001104101, z: 0.005541957}
          q: {x: 0.08430548, y: -0.1596545, z: 0.8697534, w: -0.4592735}
          s: {x: 0.9999997, y: 1, z: 0.9999999}
        - t: {x: 0, y: 0, z: 0}
          q: {x: -0.7071068, y: 0, z: 0, w: 0.7071067}
          s: {x: 100, y: 100, z: 100}
    m_DefaultPose:
      data:
        m_X:
        - t: {x: 0, y: 0, z: 0}
          q: {x: 0, y: 0, z: 0, w: 1}
          s: {x: 1, y: 1, z: 1}
        - t: {x: 0, y: 0, z: 0}
          q: {x: -0.7071068, y: 0, z: 0, w: 0.7071067}
          s: {x: 100, y: 100, z: 100}
        - t: {x: 0, y: 0, z: 0}
          q: {x: 0, y: 0, z: -6.42878E-17, w: 1}
          s: {x: 1, y: 1, z: 1}
        - t: {x: 0, y: 0, z: 0.01127799}
          q: {x: 0.7071068, y: 4.545835E-17, z: 4.545834E-17, w: 0.7071067}
          s: {x: 1, y: 1, z: 1}
        - t: {x: -0.0126735, y: -0.001104101, z: 0.005541957}
          q: {x: -0.08430548, y: -0.1596545, z: 0.8697534, w: 0.4592735}
          s: {x: 0.9999996, y: 1, z: 0.9999999}
        - t: {x: -4.073666E-19, y: 0.001446905, z: -0.01832424}
          q: {x: 5.392323E-08, y: -0.7000471, z: 0.7140967, w: -5.286272E-08}
          s: {x: 1, y: 1, z: 1}
        - t: {x: -5.577746E-17, y: 0.013034, z: 0}
          q: {x: -0.08470797, y: 3.167224E-08, z: 1.009798E-08, w: 0.9964058}
          s: {x: 1, y: 0.9999998, z: 0.9999998}
        - t: {x: 0.0126735, y: -0.001104101, z: 0.005541957}
          q: {x: 0.08430548, y: -0.1596545, z: 0.8697534, w: -0.4592735}
          s: {x: 0.9999997, y: 1, z: 0.9999999}
        - t: {x: 0, y: 0, z: 0}
          q: {x: -0.7071068, y: 0, z: 0, w: 0.7071067}
          s: {x: 100, y: 100, z: 100}
    m_SkeletonNameIDArray: 00000000d90790f75bf9f416b20ba8dbc42f5aa01df77a1fa7a67386a712555a68955d41
    m_Human:
      data:
        serializedVersion: 2
        m_RootX:
          t: {x: 0, y: 0, z: 0}
          q: {x: 0, y: 0, z: 0, w: 1}
          s: {x: 1, y: 1, z: 1}
        m_Skeleton:
          data:
            m_Node:
            m_ID: 
            m_AxesArray:
        m_SkeletonPose:
          data:
            m_X:
        m_LeftHand:
          data:
            m_HandBoneIndex: ffffffffffffffffffffffffffffffffffffffffffffffffffffffffffffffffffffffffffffffffffffffffffffffffffffffffffffffffffffffff
        m_RightHand:
          data:
            m_HandBoneIndex: ffffffffffffffffffffffffffffffffffffffffffffffffffffffffffffffffffffffffffffffffffffffffffffffffffffffffffffffffffffffff
        m_Handles:
        m_ColliderArray: []
        m_HumanBoneIndex: ffffffffffffffffffffffffffffffffffffffffffffffffffffffffffffffffffffffffffffffffffffffffffffffffffffffffffffffffffffffffffffffffffffffffffffffffffffffffffffffffffffffffffffffffffffffffffffffffffffffff
        m_HumanBoneMass:
        - 0.1454546
        - 0.1212121
        - 0.1212121
        - 0.04848485
        - 0.04848485
        - 0.009696971
        - 0.009696971
        - 0.03030303
        - 0.1454546
        - 0.1454546
        - 0.01212121
        - 0.04848485
        - 0.006060607
        - 0.006060607
        - 0.02424243
        - 0.02424243
        - 0.01818182
        - 0.01818182
        - 0.006060607
        - 0.006060607
        - 0.002424243
        - 0.002424243
        - 0
        - 0
        - 0
        m_ColliderIndex: 
        m_Scale: 1
        m_ArmTwist: 0.5
        m_ForeArmTwist: 0.5
        m_UpperLegTwist: 0.5
        m_LegTwist: 0.5
        m_ArmStretch: 0.05
        m_LegStretch: 0.05
        m_FeetSpacing: 0
        m_HasLeftHand: 0
        m_HasRightHand: 0
        m_HasTDoF: 0
    m_HumanSkeletonIndexArray: 
    m_HumanSkeletonReverseIndexArray: 
    m_RootMotionBoneIndex: -1
    m_RootMotionBoneX:
      t: {x: 0, y: 0, z: 0}
      q: {x: 0, y: 0, z: 0, w: 1}
      s: {x: 1, y: 1, z: 1}
    m_RootMotionSkeleton:
      data:
        m_Node:
        m_ID: 
        m_AxesArray: []
    m_RootMotionSkeletonPose:
      data:
        m_X:
    m_RootMotionSkeletonIndexArray: 
  m_TOS:
    2538475299: Rig/root/body
    1538298568: Rig/root/body/fin.R
    0: 
    279380656: Rig/root/body/tail.01
    2713694123: Rig/root/body/fin.L
    1096652136: Mesh
    232752020: Rig/root
    2080089872: Rig/root/body/tail.01/tail.02
    4153411545: Rig
