#Plane.051_6760_25.obj

v 6.39463E-06 0.5287421 1.886851E-07
v 6.282336E-06 1.230495 -0.4628256
v 0.3515226 1.07535 -0.2185348
v 0.5213566 0.6502874 0.0701858
v 6.52116E-06 -9.202416E-06 4.118522E-07
v 0.3850751 0.1955809 0.1321368
v -0.3850636 0.1955833 0.1321362
v 6.39463E-06 0.5287421 1.886851E-07
v 6.52116E-06 -9.202416E-06 4.118522E-07
v -0.5213439 0.6502937 0.07018543
v 6.282336E-06 1.230495 -0.4628256
v -0.351507 1.075353 -0.218535

vn 0.194458 0.9711914 -0.1374512
vn 0.3981934 0.9174805 -0.0003395081
vn 0.5214844 0.8212891 -0.2304688
vn 0.3652344 0.8701172 -0.3310547
vn 0.0219574 0.9702148 -0.241333
vn 0.1464844 0.8852539 -0.4411621
vn -0.1039429 0.9941406 -0.02613831
vn 0.194458 0.9711914 -0.1374512
vn 0.0219574 0.9702148 -0.241333
vn 0.09313965 0.9882813 0.1200562
vn 0.3981934 0.9174805 -0.0003395081
vn 0.2440186 0.9418945 0.2297363

vt 0.3666992 0.2399902
vt 0.3666992 0.4250488
vt 0.3666992 0.4250488
vt 0.3666992 0.4250488
vt 0.3666992 0.2399902
vt 0.3666992 0.4250488
vt 0.3666992 0.4250488
vt 0.3666992 0.2399902
vt 0.3666992 0.2399902
vt 0.3666992 0.4250488
vt 0.3666992 0.4250488
vt 0.3666992 0.4250488

g Plane.051_6760_25
usemtl Plane.051_6760_25
usemap Plane.051_6760_25
f 1/1/1 3/3/3 2/2/2
f 1/1/1 4/4/4 3/3/3
f 5/5/5 4/4/4 1/1/1
f 5/5/5 6/6/6 4/4/4
f 7/7/7 9/9/9 8/8/8
f 7/7/7 8/8/8 10/10/10
f 10/10/10 8/8/8 11/11/11
f 10/10/10 11/11/11 12/12/12
