#Rocks-GEO.034_6663_6.obj

v -2.66825 3.985101 1.342601
v -3.285494 3.878783 1.143255
v -3.178056 4.756104 1.013099
v -2.68506 4.99407 1.085566
v -2.082985 3.878 1.065375
v -2.206072 4.755062 0.9503995
v -2.124363 5.03705 0.4265349
v -2.725638 5.113803 0.4650453
v -2.725638 5.113803 0.4650453
v -2.273223 4.756101 -0.08300871
v -2.766217 4.994065 -0.1554753
v -3.326916 5.037054 0.5035553
v -3.245206 4.755062 -0.02030915
v -3.178056 4.756104 1.013099
v -2.68506 4.99407 1.085566
v -0.9451027 3.070091 2.645534
v -2.581965 3.049186 2.544171
v -2.399272 3.395981 2.32197
v -0.9837809 3.458059 2.429593
v -1.006805 3.607477 1.337262
v -2.922234 3.498985 1.604997
v -0.6454332 3.396047 0.6699755
v -2.436509 3.393514 0.5923733
v 0.382382 3.211659 1.329516
v -0.02987771 4.27846 0.7875926
v 0.7915986 3.089782 1.294489
v 0.3768933 3.014322 2.430784
v 0.06386679 3.3704 2.20152
v 0.382382 3.211659 1.329516
v -0.9837809 3.458059 2.429593
v 0.382382 3.211659 1.329516
v -1.006805 3.607477 1.337262
v 0.826441 4.249588 1.27133
v 1.05098 4.501696 0.5606518
v 1.184258 4.311675 0.751423
v 0.5969703 4.267076 1.227206
v 0.4054613 4.592704 -0.4033728
v -0.02987771 4.27846 0.7875926
v 0.05623521 4.403635 -0.4129283
v -0.2283315 4.065108 -0.3980223
v 1.039627 4.530891 -0.577591
v 1.501025 4.504989 -0.04249523
v 1.003156 4.98532 -0.6356775
v 0.1996502 5.072448 -0.4782763
v 1.592383 4.580247 -0.7513772
v 1.90819 4.580247 -0.2730892
v 2.11703 4.439517 -0.1051749
v 1.582009 4.378984 0.2045989
v 0.3768933 3.014322 2.430784
v -0.9451027 3.070091 2.645534
v -0.9837809 3.458059 2.429593
v 0.06386679 3.3704 2.20152
v -2.581965 3.049186 2.544171
v -3.168573 3.086642 1.58435
v -2.922234 3.498985 1.604997
v -2.399272 3.395981 2.32197
v 1.646985 4.933231 -0.8306419
v 1.592383 4.580247 -0.7513772
v 1.039627 4.530891 -0.577591
v 1.003156 4.98532 -0.6356775
v 0.1996502 5.072448 -0.4782763
v 0.6212397 5.000645 -1.305245
v 1.003156 4.98532 -0.6356775
v -0.2493457 5.104308 -1.209073
v 0.3934062 5.030262 -2.150197
v -0.240351 5.104774 -1.747653
v -0.783845 5.032572 -1.151744
v -0.6770136 5.026621 -1.758686
v 1.284877 4.923199 -1.929512
v 1.618153 4.906579 -1.422391
v 0.3374516 4.906599 -2.404953
v 1.418557 4.778154 -2.139354
v 1.618153 4.906579 -1.422391
v 1.84956 4.743992 -1.498138
v 1.003156 4.98532 -0.6356775
v 0.6212397 5.000645 -1.305245
v 1.646985 4.933231 -0.8306419
v 1.84956 4.743992 -1.498138
v 1.870188 4.784803 -0.9209402
v 4.326907 3.074877 0.4355987
v 3.921112 3.073869 0.1001271
v 4.054738 3.399744 0.01386841
v 4.39191 3.459064 0.2130312
v 4.749163 3.685879 -0.5227362
v 4.314614 3.55328 -0.4983863
v 5.158315 3.498532 -1.725151
v 5.589535 3.620405 -1.197743
v 5.095184 3.684805 -1.356504
v 5.856166 3.444313 -1.375625
v 5.572699 3.568372 -0.3730685
v 5.763974 3.362754 -0.2930175
v 4.586343 3.424062 -1.434539
v 5.158315 3.498532 -1.725151
v 5.095184 3.684805 -1.356504
v 4.658446 3.594785 -1.188084
v 4.314614 3.55328 -0.4983863
v 4.749163 3.685879 -0.5227362
v 5.589535 3.620405 -1.197743
v 5.572699 3.568372 -0.3730685
v 4.39191 3.459064 0.2130312
v 5.166615 3.435438 0.1854885
v 5.763974 3.362754 -0.2930175
v 5.267676 3.227403 0.3863561
v 4.326907 3.074877 0.4355987
v 0.1996502 5.072448 -0.4782763
v 0.4054613 4.592704 -0.4033728
v 0.05623521 4.403635 -0.4129283
v -0.05354772 5.008732 -0.5064703
v -0.6454332 3.396047 0.6699755
v -0.7811301 3.576532 -0.1773471
v -0.2283315 4.065108 -0.3980223
v -0.02987771 4.27846 0.7875926
v -0.2493457 5.104308 -1.209073
v 0.1996502 5.072448 -0.4782763
v -0.05354772 5.008732 -0.5064703
v -0.783845 5.032572 -1.151744
v 0.3934062 5.030262 -2.150197
v -0.240351 5.104774 -1.747653
v -0.6770136 5.026621 -1.758686
v 0.3374516 4.906599 -2.404953
v 1.05098 4.501696 0.5606518
v 1.501025 4.504989 -0.04249523
v 1.582009 4.378984 0.2045989
v 1.184258 4.311675 0.751423
v -0.02987771 4.27846 0.7875926
v 0.5969703 4.267076 1.227206
v 0.382382 3.211659 1.329516
v 0.7915986 3.089782 1.294489
v 0.826441 4.249588 1.27133
v -5.400823 4.545496 0.4474372
v -5.569216 4.90197 -0.2289969
v -5.306627 4.792747 0.3760058
v -5.763078 4.603233 -0.2841805
v -5.089892 4.961366 -0.8099951
v -5.117507 4.745464 -0.9018173
v -4.148427 5.109052 -0.8155226
v -4.469553 5.115133 -0.1597658
v -3.335491 5.10392 -0.3273835
v -4.123877 4.878449 -1.005002
v -3.143222 4.927775 -0.4947546
v -3.213427 5.103154 0.3711493
v -4.477143 4.903131 0.6026526
v -2.723615 5.185645 0.3447083
v -2.772968 5.204032 -0.09103581
v -3.709601 4.953885 0.8373058
v -3.662155 4.715034 0.8083815
v -4.460654 4.603909 0.8079212
v -2.439483 4.820598 1.005371
v -2.641604 5.015564 0.9006805
v -2.5485 5.655004 0.762636
v -2.302415 5.802771 1.027185
v -2.337104 5.722478 0.1544969
v -2.583863 5.594984 0.2688177
v -2.772968 5.204032 -0.09103581
v -2.643512 5.554124 -0.1551393
v -1.807437 5.743669 1.026019
v -1.77192 4.697505 1.084298
v -2.337104 5.722478 0.1544969
v -1.112977 5.737244 0.8121114
v -0.9158913 5.404882 0.9026358
v -1.780441 5.620585 0.04827191
v -0.963887 5.612463 0.09067201
v -0.8261381 5.388588 0.09692677
v -2.637175 5.612546 -0.4040487
v -2.583863 5.594984 0.2688177
v -2.643512 5.554124 -0.1551393
v -1.898715 5.574558 -0.7418531
v -1.148336 5.536569 -0.4151875
v -1.091693 5.324728 -0.6148022
v -2.053437 5.206542 -0.9063061
v -2.804613 5.088356 -0.4095889
v -2.637175 5.612546 -0.4040487
v -2.772968 5.204032 -0.09103581
v -4.469553 5.115133 -0.1597658
v -5.306627 4.792747 0.3760058
v -5.569216 4.90197 -0.2289969
v -4.477143 4.903131 0.6026526
v -4.460654 4.603909 0.8079212
v -5.400823 4.545496 0.4474372
v -5.117507 4.745464 -0.9018173
v -4.123877 4.878449 -1.005002
v -4.148427 5.109052 -0.8155226
v -5.089892 4.961366 -0.8099951
v -3.143222 4.927775 -0.4947546
v -2.804613 5.088356 -0.4095889
v -2.772968 5.204032 -0.09103581
v -3.335491 5.10392 -0.3273835
v -3.213427 5.103154 0.3711493
v -2.723615 5.185645 0.3447083
v -2.641604 5.015564 0.9006805
v -3.709601 4.953885 0.8373058

vn 0.9575195 0.2198486 -0.1876221
vn 0.8266602 0.2265625 0.5151367
vn 0.7460938 0.5136719 0.423584
vn 0.7016602 0.6987305 -0.1374512
vn 0.5717773 0.2263184 -0.7885742
vn 0.5322266 0.5126953 -0.6738281
vn -0.1281738 0.7426758 -0.6577148
vn -5.960464E-08 1 0
vn -5.960464E-08 1 0
vn -0.6210938 0.6870117 -0.3771973
vn -0.6899414 0.7114258 0.1351318
vn 0.1281738 0.7426758 0.6577148
vn -0.4338379 0.6860352 0.5839844
vn 0.7460938 0.5136719 0.423584
vn 0.7016602 0.6987305 -0.1374512
vn 0.8178711 0.550293 -0.1688232
vn 0.7592773 0.5581055 0.3337402
vn 0.5795898 0.7880859 0.2071533
vn 0.5209961 0.8427734 -0.1362305
vn -0.06573486 0.9960938 -0.06292725
vn 0.1541748 0.8662109 0.4755859
vn -0.2266846 0.9604492 -0.1619873
vn -0.4682617 0.8466797 0.2526855
vn 0.6235352 0.7617188 -0.1760254
vn 0.4633789 0.6782227 0.5703125
vn 0.5986328 0.5859375 -0.5463867
vn 0.4128418 0.7851563 -0.4616699
vn 0.333252 0.8730469 -0.3557129
vn 0.6235352 0.7617188 -0.1760254
vn 0.5209961 0.8427734 -0.1362305
vn 0.6235352 0.7617188 -0.1760254
vn -0.06573486 0.9960938 -0.06292725
vn 0.5732422 0.4675293 -0.6728516
vn 0.2452393 0.9526367 -0.1801758
vn -0.4189453 0.7041016 -0.5737305
vn 0.7670898 0.6005859 0.2254639
vn 0.7255859 0.6879883 0.003936768
vn 0.4633789 0.6782227 0.5703125
vn 0.6015625 0.1004028 0.7924805
vn -0.3005371 0.5712891 0.7636719
vn 0.5898438 0.7680664 -0.25
vn 0.2171631 0.9663086 -0.1386719
vn 0.5771484 0.7548828 -0.3120117
vn 0.6518555 0.75 -0.1135864
vn 0.7182617 0.6884766 -0.09942627
vn 0.5415039 0.8100586 0.2249756
vn 0.3676758 0.7158203 0.59375
vn -0.09558105 0.9726563 0.2125244
vn 0.4128418 0.7851563 -0.4616699
vn 0.8178711 0.550293 -0.1688232
vn 0.5209961 0.8427734 -0.1362305
vn 0.333252 0.8730469 -0.3557129
vn 0.7592773 0.5581055 0.3337402
vn 0.298584 0.5888672 0.7509766
vn 0.1541748 0.8662109 0.4755859
vn 0.5795898 0.7880859 0.2071533
vn 0.3842773 0.9228516 0.0231781
vn 0.7182617 0.6884766 -0.09942627
vn 0.5898438 0.7680664 -0.25
vn 0.5771484 0.7548828 -0.3120117
vn 0.6518555 0.75 -0.1135864
vn -0.03186035 0.9941406 -0.1020508
vn 0.5771484 0.7548828 -0.3120117
vn 0.05230713 0.9980469 0.0401001
vn -0.2868652 0.9575195 -0.02879333
vn -0.1621094 0.9833984 0.08166504
vn -0.2734375 0.78125 -0.5610352
vn 0.2541504 0.7880859 -0.5610352
vn -0.2724609 0.934082 -0.2310791
vn -0.1602783 0.9301758 -0.3300781
vn 0.3730469 0.8999023 -0.2249756
vn 0.3327637 0.9389648 0.08673096
vn -0.1602783 0.9301758 -0.3300781
vn 0.0927124 0.965332 0.2437744
vn 0.5771484 0.7548828 -0.3120117
vn -0.03186035 0.9941406 -0.1020508
vn 0.3842773 0.9228516 0.0231781
vn 0.0927124 0.965332 0.2437744
vn -0.3947754 0.9038086 0.166626
vn 0.7216797 0.6821289 0.1168213
vn 0.4060059 0.671875 0.6196289
vn 0.2668457 0.7705078 0.5791016
vn 0.5253906 0.8422852 0.1209717
vn 0.1081543 0.9912109 0.07543945
vn -0.01216888 0.8486328 0.5288086
vn -0.4567871 0.887207 0.0657959
vn -0.1558838 0.921875 -0.3552246
vn -0.2700195 0.9594727 0.08007813
vn -0.2401123 0.8608398 -0.4484863
vn 0.1968994 0.8833008 -0.425293
vn 0.2497559 0.7441406 -0.6196289
vn -0.3439941 0.7773438 0.5263672
vn -0.4567871 0.887207 0.0657959
vn -0.2700195 0.9594727 0.08007813
vn -0.2103271 0.8520508 0.4790039
vn -0.01216888 0.8486328 0.5288086
vn 0.1081543 0.9912109 0.07543945
vn -0.1558838 0.921875 -0.3552246
vn 0.1968994 0.8833008 -0.425293
vn 0.5253906 0.8422852 0.1209717
vn 0.4975586 0.8217773 -0.2783203
vn 0.2497559 0.7441406 -0.6196289
vn 0.6088867 0.7114258 -0.3508301
vn 0.7216797 0.6821289 0.1168213
vn 0.6518555 0.75 -0.1135864
vn 0.7255859 0.6879883 0.003936768
vn 0.6015625 0.1004028 0.7924805
vn 0.3408203 0.8300781 -0.4416504
vn -0.2266846 0.9604492 -0.1619873
vn -0.9633789 0.02128601 0.2680664
vn -0.3005371 0.5712891 0.7636719
vn 0.4633789 0.6782227 0.5703125
vn 0.05230713 0.9980469 0.0401001
vn 0.6518555 0.75 -0.1135864
vn 0.3408203 0.8300781 -0.4416504
vn -0.2734375 0.78125 -0.5610352
vn -0.2868652 0.9575195 -0.02879333
vn -0.1621094 0.9833984 0.08166504
vn 0.2541504 0.7880859 -0.5610352
vn 0.3730469 0.8999023 -0.2249756
vn 0.2452393 0.9526367 -0.1801758
vn 0.2171631 0.9663086 -0.1386719
vn -0.09558105 0.9726563 0.2125244
vn -0.4189453 0.7041016 -0.5737305
vn 0.4633789 0.6782227 0.5703125
vn 0.7670898 0.6005859 0.2254639
vn 0.6235352 0.7617188 -0.1760254
vn 0.5986328 0.5859375 -0.5463867
vn 0.5732422 0.4675293 -0.6728516
vn 0.7192383 0.4707031 0.5107422
vn 0.06988525 0.762207 0.6435547
vn 0.6015625 0.6972656 0.3891602
vn 0.05270386 0.512207 0.8574219
vn -0.4714355 0.7783203 0.4147949
vn -0.6699219 0.5175781 0.5327148
vn -0.4699707 0.8823242 0.01768494
vn 0.1052856 0.9882813 0.1115112
vn -0.3032227 0.9526367 -0.02230835
vn -0.769043 0.6386719 0.01110077
vn -0.5869141 0.809082 -0.03256226
vn 0.1706543 0.9819336 0.08337402
vn 0.644043 0.7519531 0.1390381
vn 0.2480469 0.7314453 0.6347656
vn 0.03973389 0.7397461 0.6713867
vn 0.737793 0.6723633 0.05535889
vn 0.980957 0.192627 0.0196228
vn 0.9179688 0.3752441 0.1270752
vn 0.9892578 0.07952881 0.1213989
vn 0.8398438 0.3764648 0.3913574
vn 0.3969727 0.5571289 0.7294922
vn 0.6767578 0.7143555 0.1796875
vn -0.04904175 0.9829102 0.1765137
vn 0.1572266 0.6289063 0.7617188
vn 0.03973389 0.7397461 0.6713867
vn 0.1636963 0.5932617 0.7880859
vn 0.6621094 0.7275391 -0.1800537
vn 0.9838867 0.06835938 -0.1651611
vn -0.04904175 0.9829102 0.1765137
vn 0.3894043 0.7890625 -0.4753418
vn 0.6279297 0.3811035 -0.6782227
vn -0.1300049 0.9907227 -0.0428772
vn -0.2122803 0.8251953 -0.5229492
vn -0.236084 0.5288086 -0.8154297
vn -0.3078613 0.7294922 0.6108398
vn 0.1572266 0.6289063 0.7617188
vn 0.1636963 0.5932617 0.7880859
vn -0.6411133 0.7631836 0.08001709
vn -0.4865723 0.7851563 -0.3833008
vn -0.7612305 0.5170898 -0.3913574
vn -0.8496094 0.4094238 0.3320313
vn -0.4819336 0.6743164 0.5595703
vn -0.3078613 0.7294922 0.6108398
vn 0.03973389 0.7397461 0.6713867
vn 0.1052856 0.9882813 0.1115112
vn 0.6015625 0.6972656 0.3891602
vn 0.06988525 0.762207 0.6435547
vn 0.644043 0.7519531 0.1390381
vn 0.9179688 0.3752441 0.1270752
vn 0.7192383 0.4707031 0.5107422
vn -0.6699219 0.5175781 0.5327148
vn -0.769043 0.6386719 0.01110077
vn -0.4699707 0.8823242 0.01768494
vn -0.4714355 0.7783203 0.4147949
vn -0.5869141 0.809082 -0.03256226
vn -0.4819336 0.6743164 0.5595703
vn 0.03973389 0.7397461 0.6713867
vn -0.3032227 0.9526367 -0.02230835
vn 0.1706543 0.9819336 0.08337402
vn 0.2480469 0.7314453 0.6347656
vn 0.8398438 0.3764648 0.3913574
vn 0.737793 0.6723633 0.05535889

vt 0.3674316 0.4052734
vt 0.3674316 0.4052734
vt 0.3674316 0.5732422
vt 0.3674316 0.5732422
vt 0.3674316 0.4052734
vt 0.3674316 0.5732422
vt 0.3674316 0.5732422
vt 0.3674316 0.5732422
vt 0.3674316 0.5732422
vt 0.3674316 0.5732422
vt 0.3674316 0.5732422
vt 0.3674316 0.5732422
vt 0.3674316 0.5732422
vt 0.3674316 0.5732422
vt 0.3674316 0.5732422
vt 0.3674316 0.4052734
vt 0.3674316 0.4052734
vt 0.3674316 0.5732422
vt 0.3674316 0.5732422
vt 0.3674316 0.5732422
vt 0.3674316 0.4052734
vt 0.3674316 0.4052734
vt 0.3674316 0.4052734
vt 0.3674316 0.5732422
vt 0.3674316 0.5732422
vt 0.3674316 0.4052734
vt 0.3674316 0.4052734
vt 0.3674316 0.5732422
vt 0.3674316 0.5732422
vt 0.3674316 0.5732422
vt 0.3674316 0.5732422
vt 0.3674316 0.5732422
vt 0.3674316 0.4052734
vt 0.3674316 0.5732422
vt 0.3674316 0.4052734
vt 0.3674316 0.5732422
vt 0.3674316 0.5732422
vt 0.3674316 0.5732422
vt 0.3674316 0.4052734
vt 0.3674316 0.4052734
vt 0.3674316 0.5732422
vt 0.3674316 0.5732422
vt 0.3674316 0.5732422
vt 0.3674316 0.5732422
vt 0.3674316 0.4052734
vt 0.3674316 0.4052734
vt 0.3674316 0.4052734
vt 0.3674316 0.4052734
vt 0.3674316 0.4052734
vt 0.3674316 0.4052734
vt 0.3674316 0.5732422
vt 0.3674316 0.5732422
vt 0.3674316 0.4052734
vt 0.3674316 0.4052734
vt 0.3674316 0.4052734
vt 0.3674316 0.5732422
vt 0.3674316 0.4052734
vt 0.3674316 0.4052734
vt 0.3674316 0.5732422
vt 0.3674316 0.5732422
vt 0.3674316 0.5732422
vt 0.3674316 0.5732422
vt 0.3674316 0.5732422
vt 0.3674316 0.5732422
vt 0.3674316 0.5732422
vt 0.3674316 0.5732422
vt 0.3674316 0.4052734
vt 0.3674316 0.4052734
vt 0.3674316 0.5732422
vt 0.3674316 0.5732422
vt 0.3674316 0.4052734
vt 0.3674316 0.4052734
vt 0.3674316 0.5732422
vt 0.3674316 0.4052734
vt 0.3674316 0.5732422
vt 0.3674316 0.5732422
vt 0.3674316 0.4052734
vt 0.3674316 0.4052734
vt 0.3674316 0.4052734
vt 0.3674316 0.4052734
vt 0.3674316 0.4052734
vt 0.3674316 0.5732422
vt 0.3674316 0.5732422
vt 0.3674316 0.5732422
vt 0.3674316 0.5732422
vt 0.3674316 0.4052734
vt 0.3674316 0.5732422
vt 0.3674316 0.5732422
vt 0.3674316 0.4052734
vt 0.3674316 0.5732422
vt 0.3674316 0.4052734
vt 0.3674316 0.4052734
vt 0.3674316 0.4052734
vt 0.3674316 0.5732422
vt 0.3674316 0.5732422
vt 0.3674316 0.5732422
vt 0.3674316 0.5732422
vt 0.3674316 0.5732422
vt 0.3674316 0.5732422
vt 0.3674316 0.5732422
vt 0.3674316 0.5732422
vt 0.3674316 0.4052734
vt 0.3674316 0.4052734
vt 0.3674316 0.4052734
vt 0.3674316 0.5732422
vt 0.3674316 0.5732422
vt 0.3674316 0.4052734
vt 0.3674316 0.4052734
vt 0.3674316 0.4052734
vt 0.3674316 0.4052734
vt 0.3674316 0.4052734
vt 0.3674316 0.5732422
vt 0.3674316 0.5732422
vt 0.3674316 0.5732422
vt 0.3674316 0.4052734
vt 0.3674316 0.4052734
vt 0.3674316 0.5732422
vt 0.3674316 0.5732422
vt 0.3674316 0.4052734
vt 0.3674316 0.4052734
vt 0.3674316 0.5732422
vt 0.3674316 0.5732422
vt 0.3674316 0.4052734
vt 0.3674316 0.4052734
vt 0.3674316 0.5732422
vt 0.3674316 0.5732422
vt 0.3674316 0.5732422
vt 0.3674316 0.4052734
vt 0.3674316 0.4052734
vt 0.3674316 0.4052734
vt 0.3674316 0.5732422
vt 0.3674316 0.5732422
vt 0.3674316 0.4052734
vt 0.3674316 0.5732422
vt 0.3674316 0.4052734
vt 0.3674316 0.5732422
vt 0.3674316 0.5732422
vt 0.3674316 0.5732422
vt 0.3674316 0.4052734
vt 0.3674316 0.4052734
vt 0.3674316 0.5732422
vt 0.3674316 0.5732422
vt 0.3674316 0.5732422
vt 0.3674316 0.5732422
vt 0.3674316 0.5732422
vt 0.3674316 0.4052734
vt 0.3674316 0.4052734
vt 0.3674316 0.4052734
vt 0.3674316 0.5732422
vt 0.3674316 0.5732422
vt 0.3674316 0.5732422
vt 0.3674316 0.5732422
vt 0.3674316 0.5732422
vt 0.3674316 0.5732422
vt 0.3674316 0.5732422
vt 0.3674316 0.5732422
vt 0.3674316 0.4052734
vt 0.3674316 0.5732422
vt 0.3674316 0.5732422
vt 0.3674316 0.4052734
vt 0.3674316 0.5732422
vt 0.3674316 0.5732422
vt 0.3674316 0.4052734
vt 0.3674316 0.5732422
vt 0.3674316 0.5732422
vt 0.3674316 0.5732422
vt 0.3674316 0.5732422
vt 0.3674316 0.5732422
vt 0.3674316 0.4052734
vt 0.3674316 0.4052734
vt 0.3674316 0.4052734
vt 0.3674316 0.5732422
vt 0.3674316 0.5732422
vt 0.3674316 0.5732422
vt 0.3674316 0.5732422
vt 0.3674316 0.5732422
vt 0.3674316 0.5732422
vt 0.3674316 0.4052734
vt 0.3674316 0.4052734
vt 0.3674316 0.4052734
vt 0.3674316 0.4052734
vt 0.3674316 0.5732422
vt 0.3674316 0.5732422
vt 0.3674316 0.4052734
vt 0.3674316 0.4052734
vt 0.3674316 0.5732422
vt 0.3674316 0.5732422
vt 0.3674316 0.5732422
vt 0.3674316 0.5732422
vt 0.3674316 0.5732422
vt 0.3674316 0.5732422

g Rocks-GEO.034_6663_6
usemtl Rocks-GEO.034_6663_6
usemap Rocks-GEO.034_6663_6
f 1/1/1 3/3/3 2/2/2
f 1/1/1 4/4/4 3/3/3
f 5/5/5 4/4/4 1/1/1
f 5/5/5 6/6/6 4/4/4
f 4/4/4 6/6/6 7/7/7
f 4/4/4 7/7/7 8/8/8
f 9/9/9 7/7/7 10/10/10
f 9/9/9 10/10/10 11/11/11
f 12/12/12 9/9/9 11/11/11
f 12/12/12 11/11/11 13/13/13
f 14/14/14 9/9/9 12/12/12
f 14/14/14 15/15/15 9/9/9
f 16/16/16 18/18/18 17/17/17
f 16/16/16 19/19/19 18/18/18
f 18/18/18 19/19/19 20/20/20
f 18/18/18 20/20/20 21/21/21
f 21/21/21 20/20/20 22/22/22
f 21/21/21 22/22/22 23/23/23
f 20/20/20 24/24/24 22/22/22
f 22/22/22 24/24/24 25/25/25
f 26/26/26 28/28/28 27/27/27
f 26/26/26 29/29/29 28/28/28
f 30/30/30 28/28/28 31/31/31
f 30/30/30 31/31/31 32/32/32
f 33/33/33 35/35/35 34/34/34
f 33/33/33 34/34/34 36/36/36
f 36/36/36 34/34/34 37/37/37
f 36/36/36 37/37/37 38/38/38
f 38/38/38 37/37/37 39/39/39
f 38/38/38 39/39/39 40/40/40
f 41/41/41 37/37/37 34/34/34
f 41/41/41 34/34/34 42/42/42
f 43/43/43 37/37/37 41/41/41
f 43/43/43 44/44/44 37/37/37
f 45/45/45 41/41/41 42/42/42
f 45/45/45 42/42/42 46/46/46
f 42/42/42 47/47/47 46/46/46
f 42/42/42 48/48/48 47/47/47
f 49/49/49 51/51/51 50/50/50
f 49/49/49 52/52/52 51/51/51
f 53/53/53 55/55/55 54/54/54
f 53/53/53 56/56/56 55/55/55
f 57/57/57 59/59/59 58/58/58
f 57/57/57 60/60/60 59/59/59
f 61/61/61 63/63/63 62/62/62
f 61/61/61 62/62/62 64/64/64
f 64/64/64 62/62/62 65/65/65
f 64/64/64 65/65/65 66/66/66
f 66/66/66 67/67/67 64/64/64
f 66/66/66 68/68/68 67/67/67
f 62/62/62 69/69/69 65/65/65
f 62/62/62 70/70/70 69/69/69
f 69/69/69 71/71/71 65/65/65
f 69/69/69 72/72/72 71/71/71
f 73/73/73 72/72/72 69/69/69
f 73/73/73 74/74/74 72/72/72
f 75/75/75 73/73/73 76/76/76
f 75/75/75 77/77/77 73/73/73
f 77/77/77 78/78/78 73/73/73
f 77/77/77 79/79/79 78/78/78
f 80/80/80 82/82/82 81/81/81
f 80/80/80 83/83/83 82/82/82
f 82/82/82 83/83/83 84/84/84
f 82/82/82 84/84/84 85/85/85
f 86/86/86 88/88/88 87/87/87
f 86/86/86 87/87/87 89/89/89
f 89/89/89 87/87/87 90/90/90
f 89/89/89 90/90/90 91/91/91
f 92/92/92 94/94/94 93/93/93
f 92/92/92 95/95/95 94/94/94
f 96/96/96 94/94/94 95/95/95
f 96/96/96 97/97/97 94/94/94
f 97/97/97 98/98/98 94/94/94
f 97/97/97 99/99/99 98/98/98
f 100/100/100 99/99/99 97/97/97
f 100/100/100 101/101/101 99/99/99
f 102/102/102 99/99/99 101/101/101
f 102/102/102 101/101/101 103/103/103
f 103/103/103 101/101/101 100/100/100
f 103/103/103 100/100/100 104/104/104
f 105/105/105 107/107/107 106/106/106
f 105/105/105 108/108/108 107/107/107
f 109/109/109 111/111/111 110/110/110
f 109/109/109 112/112/112 111/111/111
f 113/113/113 115/115/115 114/114/114
f 113/113/113 116/116/116 115/115/115
f 117/117/117 119/119/119 118/118/118
f 117/117/117 120/120/120 119/119/119
f 121/121/121 123/123/123 122/122/122
f 121/121/121 124/124/124 123/123/123
f 125/125/125 127/127/127 126/126/126
f 128/128/128 126/126/126 127/127/127
f 128/128/128 129/129/129 126/126/126
f 130/130/130 132/132/132 131/131/131
f 130/130/130 131/131/131 133/133/133
f 133/133/133 131/131/131 134/134/134
f 133/133/133 134/134/134 135/135/135
f 136/136/136 134/134/134 131/131/131
f 136/136/136 131/131/131 137/137/137
f 138/138/138 136/136/136 137/137/137
f 139/139/139 136/136/136 138/138/138
f 139/139/139 138/138/138 140/140/140
f 138/138/138 137/137/137 141/141/141
f 141/141/141 137/137/137 142/142/142
f 138/138/138 141/141/141 143/143/143
f 138/138/138 143/143/143 144/144/144
f 141/141/141 142/142/142 145/145/145
f 146/146/146 145/145/145 142/142/142
f 146/146/146 142/142/142 147/147/147
f 145/145/145 146/146/146 148/148/148
f 145/145/145 148/148/148 149/149/149
f 143/143/143 149/149/149 150/150/150
f 149/149/149 148/148/148 151/151/151
f 149/149/149 151/151/151 150/150/150
f 152/152/152 150/150/150 151/151/151
f 152/152/152 153/153/153 150/150/150
f 143/143/143 150/150/150 153/153/153
f 154/154/154 143/143/143 153/153/153
f 154/154/154 153/153/153 155/155/155
f 156/156/156 151/151/151 148/148/148
f 156/156/156 148/148/148 157/157/157
f 158/158/158 151/151/151 156/156/156
f 159/159/159 156/156/156 157/157/157
f 159/159/159 157/157/157 160/160/160
f 158/158/158 156/156/156 161/161/161
f 161/161/161 156/156/156 159/159/159
f 162/162/162 159/159/159 160/160/160
f 161/161/161 159/159/159 162/162/162
f 162/162/162 160/160/160 163/163/163
f 164/164/164 158/158/158 161/161/161
f 164/164/164 165/165/165 158/158/158
f 164/164/164 166/166/166 165/165/165
f 167/167/167 161/161/161 162/162/162
f 164/164/164 161/161/161 167/167/167
f 168/168/168 162/162/162 163/163/163
f 167/167/167 162/162/162 168/168/168
f 168/168/168 163/163/163 169/169/169
f 167/167/167 168/168/168 169/169/169
f 167/167/167 169/169/169 170/170/170
f 164/164/164 167/167/167 170/170/170
f 164/164/164 170/170/170 171/171/171
f 171/171/171 155/155/155 172/172/172
f 171/171/171 173/173/173 155/155/155
f 174/174/174 176/176/176 175/175/175
f 174/174/174 175/175/175 177/177/177
f 178/178/178 177/177/177 175/175/175
f 178/178/178 175/175/175 179/179/179
f 180/180/180 182/182/182 181/181/181
f 180/180/180 183/183/183 182/182/182
f 184/184/184 186/186/186 185/185/185
f 184/184/184 187/187/187 186/186/186
f 188/188/188 190/190/190 189/189/189
f 188/188/188 191/191/191 190/190/190
