#Rocks-GEO.033_6889_17.obj

v -2.668251 3.985101 1.342603
v -3.285492 3.878783 1.143251
v -3.178056 4.756105 1.013104
v -2.685058 4.99407 1.085564
v -2.082985 3.878 1.065375
v -2.206071 4.755062 0.9503961
v -2.124361 5.03705 0.4265313
v -2.725637 5.113803 0.4650421
v -2.725637 5.113803 0.4650421
v -2.273221 4.756101 -0.08301305
v -2.766215 4.994065 -0.1554799
v -3.326914 5.037055 0.5035521
v -3.245206 4.755063 -0.02030511
v -3.178056 4.756105 1.013104
v -2.685058 4.99407 1.085564
v -0.9451003 3.070091 2.645526
v -2.581966 3.049186 2.544177
v -2.399272 3.395981 2.32197
v -0.9837801 3.458059 2.429595
v -1.006805 3.607478 1.337264
v -2.922232 3.498985 1.60499
v -0.6454313 3.396047 0.6699708
v -2.436507 3.393514 0.5923668
v 0.3823822 3.211659 1.329516
v -0.02987647 4.278461 0.7875924
v 0.7916005 3.089783 1.294484
v 0.3768955 3.014322 2.430779
v 0.06386808 3.3704 2.201515
v 0.3823822 3.211659 1.329516
v -0.9837801 3.458059 2.429595
v 0.3823822 3.211659 1.329516
v -1.006805 3.607478 1.337264
v 0.8264425 4.249588 1.271325
v 1.050981 4.501696 0.5606508
v 1.184258 4.311676 0.7514272
v 0.5969709 4.267076 1.227207
v 0.4054626 4.592704 -0.4033723
v -0.02987647 4.278461 0.7875924
v 0.05623513 4.403635 -0.4129249
v -0.2283314 4.065108 -0.3980186
v 1.039629 4.530891 -0.5775917
v 1.501026 4.504989 -0.04249196
v 1.003157 4.98532 -0.6356784
v 0.1996529 5.072448 -0.4782826
v 1.592384 4.580247 -0.7513757
v 1.908191 4.580247 -0.2730884
v 2.117032 4.439517 -0.1051739
v 1.582011 4.378985 0.2045976
v 0.3768955 3.014322 2.430779
v -0.9451003 3.070091 2.645526
v -0.9837801 3.458059 2.429595
v 0.06386808 3.3704 2.201515
v -2.581966 3.049186 2.544177
v -3.168573 3.086642 1.584346
v -2.922232 3.498985 1.60499
v -2.399272 3.395981 2.32197
v 1.646987 4.933231 -0.8306435
v 1.592384 4.580247 -0.7513757
v 1.039629 4.530891 -0.5775917
v 1.003157 4.98532 -0.6356784
v 0.1996529 5.072448 -0.4782826
v 0.6212399 5.000644 -1.30524
v 1.003157 4.98532 -0.6356784
v -0.2493444 5.104307 -1.209074
v 0.393407 5.030262 -2.150199
v -0.2403514 5.104774 -1.747652
v -0.7838456 5.032571 -1.151741
v -0.6770124 5.02662 -1.758688
v 1.28488 4.923198 -1.929518
v 1.618156 4.906579 -1.422398
v 0.3374535 4.906599 -2.404957
v 1.418558 4.778154 -2.139354
v 1.618156 4.906579 -1.422398
v 1.849563 4.743992 -1.498144
v 1.003157 4.98532 -0.6356784
v 0.6212399 5.000644 -1.30524
v 1.646987 4.933231 -0.8306435
v 1.849563 4.743992 -1.498144
v 1.87019 4.784803 -0.9209417
v 4.326908 3.074877 0.4355971
v 3.921115 3.073869 0.1001199
v 4.054739 3.399744 0.01386568
v 4.391912 3.459064 0.2130291
v 4.749165 3.685878 -0.5227376
v 4.314615 3.55328 -0.4983863
v 5.158316 3.498532 -1.725149
v 5.589536 3.620405 -1.197744
v 5.095187 3.684804 -1.356506
v 5.856168 3.444313 -1.375624
v 5.572703 3.568372 -0.3730762
v 5.763976 3.362754 -0.2930152
v 4.586345 3.424061 -1.434538
v 5.158316 3.498532 -1.725149
v 5.095187 3.684804 -1.356506
v 4.658448 3.594785 -1.188084
v 4.314615 3.55328 -0.4983863
v 4.749165 3.685878 -0.5227376
v 5.589536 3.620405 -1.197744
v 5.572703 3.568372 -0.3730762
v 4.391912 3.459064 0.2130291
v 5.166617 3.435438 0.1854877
v 5.763976 3.362754 -0.2930152
v 5.267677 3.227403 0.3863589
v 4.326908 3.074877 0.4355971
v 0.1996529 5.072448 -0.4782826
v 0.4054626 4.592704 -0.4033723
v 0.05623513 4.403635 -0.4129249
v -0.05354613 5.008732 -0.5064692
v -0.6454313 3.396047 0.6699708
v -0.7811277 3.576532 -0.1773498
v -0.2283314 4.065108 -0.3980186
v -0.02987647 4.278461 0.7875924
v -0.2493444 5.104307 -1.209074
v 0.1996529 5.072448 -0.4782826
v -0.05354613 5.008732 -0.5064692
v -0.7838456 5.032571 -1.151741
v 0.393407 5.030262 -2.150199
v -0.2403514 5.104774 -1.747652
v -0.6770124 5.02662 -1.758688
v 0.3374535 4.906599 -2.404957
v 1.050981 4.501696 0.5606508
v 1.501026 4.504989 -0.04249196
v 1.582011 4.378985 0.2045976
v 1.184258 4.311676 0.7514272
v -0.02987647 4.278461 0.7875924
v 0.5969709 4.267076 1.227207
v 0.3823822 3.211659 1.329516
v 0.7916005 3.089783 1.294484
v 0.8264425 4.249588 1.271325
v -5.400823 4.545496 0.4474386
v -5.569215 4.90197 -0.2290014
v -5.306627 4.792747 0.3760079
v -5.763075 4.603233 -0.2841846
v -5.08989 4.961366 -0.8100039
v -5.117506 4.745463 -0.9018236
v -4.148426 5.109052 -0.8155268
v -4.469553 5.115134 -0.1597667
v -3.33549 5.10392 -0.3273822
v -4.123877 4.878449 -1.005
v -3.14322 4.927775 -0.4947562
v -3.213428 5.103154 0.3711502
v -4.477142 4.903131 0.6026499
v -2.723615 5.185645 0.3447058
v -2.772968 5.204032 -0.09103443
v -3.709601 4.953886 0.8373033
v -3.662155 4.715035 0.8083826
v -4.460653 4.603909 0.8079181
v -2.439482 4.820598 1.005369
v -2.641605 5.015564 0.9006833
v -2.548498 5.655004 0.7626288
v -2.302414 5.802771 1.027182
v -2.337101 5.722478 0.1544906
v -2.583862 5.594984 0.2688159
v -2.772968 5.204032 -0.09103443
v -2.64351 5.554124 -0.1551452
v -1.807436 5.743669 1.026019
v -1.77192 4.697505 1.084297
v -2.337101 5.722478 0.1544906
v -1.112976 5.737244 0.8121125
v -0.9158918 5.404882 0.90264
v -1.78044 5.620585 0.04827024
v -0.9638849 5.612463 0.09066744
v -0.8261378 5.388588 0.09692772
v -2.637172 5.612546 -0.4040563
v -2.583862 5.594984 0.2688159
v -2.64351 5.554124 -0.1551452
v -1.898713 5.574558 -0.7418578
v -1.148335 5.536569 -0.4151857
v -1.091692 5.324728 -0.6147991
v -2.053436 5.206542 -0.9063092
v -2.804613 5.088356 -0.4095879
v -2.637172 5.612546 -0.4040563
v -2.772968 5.204032 -0.09103443
v -4.469553 5.115134 -0.1597667
v -5.306627 4.792747 0.3760079
v -5.569215 4.90197 -0.2290014
v -4.477142 4.903131 0.6026499
v -4.460653 4.603909 0.8079181
v -5.400823 4.545496 0.4474386
v -5.117506 4.745463 -0.9018236
v -4.123877 4.878449 -1.005
v -4.148426 5.109052 -0.8155268
v -5.08989 4.961366 -0.8100039
v -3.14322 4.927775 -0.4947562
v -2.804613 5.088356 -0.4095879
v -2.772968 5.204032 -0.09103443
v -3.33549 5.10392 -0.3273822
v -3.213428 5.103154 0.3711502
v -2.723615 5.185645 0.3447058
v -2.641605 5.015564 0.9006833
v -3.709601 4.953886 0.8373033

vn 0.890625 0.2198486 -0.3984375
vn 0.9213867 0.2265625 0.315918
vn 0.8222656 0.5136719 0.244751
vn 0.652832 0.6987305 -0.2919922
vn 0.3796387 0.2263184 -0.8969727
vn 0.3666992 0.5126953 -0.7763672
vn -0.2729492 0.7426758 -0.6118164
vn 0 1 -1.192093E-07
vn 0 1 -1.192093E-07
vn -0.6899414 0.6870117 -0.2277832
vn -0.6416016 0.7114258 0.2868652
vn 0.2729492 0.7426758 0.6118164
vn -0.2912598 0.6860352 0.6665039
vn 0.8222656 0.5136719 0.244751
vn 0.652832 0.6987305 -0.2919922
vn 0.7587891 0.550293 -0.3486328
vn 0.8149414 0.5581055 0.1542969
vn 0.6113281 0.7880859 0.07122803
vn 0.4770508 0.8427734 -0.25
vn -0.07824707 0.9960938 -0.04650879
vn 0.2573242 0.8662109 0.4287109
vn -0.2573242 0.9604492 -0.1068115
vn -0.3994141 0.8466797 0.3515625
vn 0.5678711 0.7617188 -0.3117676
vn 0.5795898 0.6782227 0.4511719
vn 0.4602051 0.5859375 -0.6669922
vn 0.2983398 0.7851563 -0.5429688
vn 0.2445068 0.8730469 -0.4213867
vn 0.5678711 0.7617188 -0.3117676
vn 0.4770508 0.8427734 -0.25
vn 0.5678711 0.7617188 -0.3117676
vn -0.07824707 0.9960938 -0.04650879
vn 0.4067383 0.4675293 -0.784668
vn 0.1983643 0.9526367 -0.2307129
vn -0.5371094 0.7041016 -0.4645996
vn 0.7978516 0.6005859 0.04696655
vn 0.7080078 0.6879883 -0.1595459
vn 0.5795898 0.6782227 0.4511719
vn 0.7646484 0.1004028 0.6367188
vn -0.1208496 0.5712891 0.8115234
vn 0.5185547 0.7680664 -0.3764648
vn 0.1802979 0.9663086 -0.184082
vn 0.4921875 0.7548828 -0.4338379
vn 0.609375 0.75 -0.2573242
vn 0.6777344 0.6884766 -0.2585449
vn 0.578125 0.8100586 0.09735107
vn 0.4919434 0.7158203 0.4958496
vn -0.04528809 0.9726563 0.2285156
vn 0.2983398 0.7851563 -0.5429688
vn 0.7587891 0.550293 -0.3486328
vn 0.4770508 0.8427734 -0.25
vn 0.2445068 0.8730469 -0.4213867
vn 0.8149414 0.5581055 0.1542969
vn 0.4599609 0.5888672 0.6645508
vn 0.2573242 0.8662109 0.4287109
vn 0.6113281 0.7880859 0.07122803
vn 0.3796387 0.9228516 -0.06396484
vn 0.6777344 0.6884766 -0.2585449
vn 0.5185547 0.7680664 -0.3764648
vn 0.4921875 0.7548828 -0.4338379
vn 0.609375 0.75 -0.2573242
vn -0.05401611 0.9941406 -0.09228516
vn 0.4921875 0.7548828 -0.4338379
vn 0.05999756 0.9980469 0.02729797
vn -0.2858887 0.9575195 0.03649902
vn -0.1395264 0.9833984 0.1160278
vn -0.3928223 0.78125 -0.4851074
vn 0.1212769 0.7880859 -0.6035156
vn -0.317627 0.934082 -0.1638184
vn -0.2304688 0.9301758 -0.2854004
vn 0.3129883 0.8999023 -0.3032227
vn 0.34375 0.9389648 0.009559631
vn -0.2304688 0.9301758 -0.2854004
vn 0.1452637 0.965332 0.2166748
vn 0.4921875 0.7548828 -0.4338379
vn -0.05401611 0.9941406 -0.09228516
vn 0.3796387 0.9228516 -0.06396484
vn 0.1452637 0.965332 0.2166748
vn -0.3469238 0.9038086 0.2512207
vn 0.7294922 0.6821289 -0.04873657
vn 0.5351563 0.671875 0.512207
vn 0.3903809 0.7705078 0.5039063
vn 0.5390625 0.8422852 -0.0003921986
vn 0.1223755 0.9912109 0.0491333
vn 0.1072388 0.8486328 0.5180664
vn -0.4301758 0.887207 0.1668701
vn -0.2318115 0.921875 -0.310791
vn -0.2451172 0.9594727 0.1387939
vn -0.3349609 0.8608398 -0.3830566
vn 0.09606934 0.8833008 -0.4587402
vn 0.1038208 0.7441406 -0.659668
vn -0.2167969 0.7773438 0.590332
vn -0.4301758 0.887207 0.1668701
vn -0.2451172 0.9594727 0.1387939
vn -0.09710693 0.8520508 0.5141602
vn 0.1072388 0.8486328 0.5180664
vn 0.1223755 0.9912109 0.0491333
vn -0.2318115 0.921875 -0.310791
vn 0.09606934 0.8833008 -0.4587402
vn 0.5390625 0.8422852 -0.0003921986
vn 0.4221191 0.8217773 -0.3830566
vn 0.1038208 0.7441406 -0.659668
vn 0.5146484 0.7114258 -0.4790039
vn 0.7294922 0.6821289 -0.04873657
vn 0.609375 0.75 -0.2573242
vn 0.7080078 0.6879883 -0.1595459
vn 0.7646484 0.1004028 0.6367188
vn 0.232666 0.8300781 -0.5068359
vn -0.2573242 0.9604492 -0.1068115
vn -0.8779297 0.02128601 0.4780273
vn -0.1208496 0.5712891 0.8115234
vn 0.5795898 0.6782227 0.4511719
vn 0.05999756 0.9980469 0.02729797
vn 0.609375 0.75 -0.2573242
vn 0.232666 0.8300781 -0.5068359
vn -0.3928223 0.78125 -0.4851074
vn -0.2858887 0.9575195 0.03649902
vn -0.1395264 0.9833984 0.1160278
vn 0.1212769 0.7880859 -0.6035156
vn 0.3129883 0.8999023 -0.3032227
vn 0.1983643 0.9526367 -0.2307129
vn 0.1802979 0.9663086 -0.184082
vn -0.04528809 0.9726563 0.2285156
vn -0.5371094 0.7041016 -0.4645996
vn 0.5795898 0.6782227 0.4511719
vn 0.7978516 0.6005859 0.04696655
vn 0.5678711 0.7617188 -0.3117676
vn 0.4602051 0.5859375 -0.6669922
vn 0.4067383 0.4675293 -0.784668
vn 0.815918 0.4707031 0.3356934
vn 0.2130127 0.762207 0.6113281
vn 0.6738281 0.6972656 0.2437744
vn 0.2443848 0.512207 0.8232422
vn -0.3659668 0.7783203 0.5102539
vn -0.5327148 0.5175781 0.6699219
vn -0.4541016 0.8823242 0.1230469
vn 0.1276855 0.9882813 0.0848999
vn -0.3005371 0.9526367 0.04653931
vn -0.7470703 0.6386719 0.18396
vn -0.5791016 0.809082 0.1004028
vn 0.1850586 0.9819336 0.04278564
vn 0.6591797 0.7519531 -0.009536743
vn 0.3845215 0.7314453 0.5629883
vn 0.1899414 0.7397461 0.6455078
vn 0.7314453 0.6723633 -0.1121826
vn 0.9604492 0.192627 -0.2017822
vn 0.9233398 0.3752441 -0.08288574
vn 0.9912109 0.07952881 -0.1044312
vn 0.90625 0.3764648 0.1923828
vn 0.5507813 0.5571289 0.621582
vn 0.699707 0.7143555 0.0227356
vn -0.008049011 0.9829102 0.1829834
vn 0.324707 0.6289063 0.706543
vn 0.1899414 0.7397461 0.6455078
vn 0.3369141 0.5932617 0.730957
vn 0.6044922 0.7275391 -0.3244629
vn 0.9213867 0.06835938 -0.3823242
vn -0.008049011 0.9829102 0.1829834
vn 0.2724609 0.7890625 -0.5507813
vn 0.4592285 0.3811035 -0.8022461
vn -0.1363525 0.9907227 -0.01251221
vn -0.324707 0.8251953 -0.4619141
vn -0.4135742 0.5288086 -0.7412109
vn -0.1623535 0.7294922 0.6645508
vn 0.324707 0.6289063 0.706543
vn 0.3369141 0.5932617 0.730957
vn -0.6064453 0.7631836 0.22229
vn -0.5605469 0.7851563 -0.263916
vn -0.8300781 0.5170898 -0.2098389
vn -0.7529297 0.4094238 0.5151367
vn -0.3435059 0.6743164 0.6538086
vn -0.1623535 0.7294922 0.6645508
vn 0.1899414 0.7397461 0.6455078
vn 0.1276855 0.9882813 0.0848999
vn 0.6738281 0.6972656 0.2437744
vn 0.2130127 0.762207 0.6113281
vn 0.6591797 0.7519531 -0.009536743
vn 0.9233398 0.3752441 -0.08288574
vn 0.815918 0.4707031 0.3356934
vn -0.5327148 0.5175781 0.6699219
vn -0.7470703 0.6386719 0.18396
vn -0.4541016 0.8823242 0.1230469
vn -0.3659668 0.7783203 0.5102539
vn -0.5791016 0.809082 0.1004028
vn -0.3435059 0.6743164 0.6538086
vn 0.1899414 0.7397461 0.6455078
vn -0.3005371 0.9526367 0.04653931
vn 0.1850586 0.9819336 0.04278564
vn 0.3845215 0.7314453 0.5629883
vn 0.90625 0.3764648 0.1923828
vn 0.7314453 0.6723633 -0.1121826

vt 0.3674316 0.4052734
vt 0.3674316 0.4052734
vt 0.3674316 0.5732422
vt 0.3674316 0.5732422
vt 0.3674316 0.4052734
vt 0.3674316 0.5732422
vt 0.3674316 0.5732422
vt 0.3674316 0.5732422
vt 0.3674316 0.5732422
vt 0.3674316 0.5732422
vt 0.3674316 0.5732422
vt 0.3674316 0.5732422
vt 0.3674316 0.5732422
vt 0.3674316 0.5732422
vt 0.3674316 0.5732422
vt 0.3674316 0.4052734
vt 0.3674316 0.4052734
vt 0.3674316 0.5732422
vt 0.3674316 0.5732422
vt 0.3674316 0.5732422
vt 0.3674316 0.4052734
vt 0.3674316 0.4052734
vt 0.3674316 0.4052734
vt 0.3674316 0.5732422
vt 0.3674316 0.5732422
vt 0.3674316 0.4052734
vt 0.3674316 0.4052734
vt 0.3674316 0.5732422
vt 0.3674316 0.5732422
vt 0.3674316 0.5732422
vt 0.3674316 0.5732422
vt 0.3674316 0.5732422
vt 0.3674316 0.4052734
vt 0.3674316 0.5732422
vt 0.3674316 0.4052734
vt 0.3674316 0.5732422
vt 0.3674316 0.5732422
vt 0.3674316 0.5732422
vt 0.3674316 0.4052734
vt 0.3674316 0.4052734
vt 0.3674316 0.5732422
vt 0.3674316 0.5732422
vt 0.3674316 0.5732422
vt 0.3674316 0.5732422
vt 0.3674316 0.4052734
vt 0.3674316 0.4052734
vt 0.3674316 0.4052734
vt 0.3674316 0.4052734
vt 0.3674316 0.4052734
vt 0.3674316 0.4052734
vt 0.3674316 0.5732422
vt 0.3674316 0.5732422
vt 0.3674316 0.4052734
vt 0.3674316 0.4052734
vt 0.3674316 0.4052734
vt 0.3674316 0.5732422
vt 0.3674316 0.4052734
vt 0.3674316 0.4052734
vt 0.3674316 0.5732422
vt 0.3674316 0.5732422
vt 0.3674316 0.5732422
vt 0.3674316 0.5732422
vt 0.3674316 0.5732422
vt 0.3674316 0.5732422
vt 0.3674316 0.5732422
vt 0.3674316 0.5732422
vt 0.3674316 0.4052734
vt 0.3674316 0.4052734
vt 0.3674316 0.5732422
vt 0.3674316 0.5732422
vt 0.3674316 0.4052734
vt 0.3674316 0.4052734
vt 0.3674316 0.5732422
vt 0.3674316 0.4052734
vt 0.3674316 0.5732422
vt 0.3674316 0.5732422
vt 0.3674316 0.4052734
vt 0.3674316 0.4052734
vt 0.3674316 0.4052734
vt 0.3674316 0.4052734
vt 0.3674316 0.4052734
vt 0.3674316 0.5732422
vt 0.3674316 0.5732422
vt 0.3674316 0.5732422
vt 0.3674316 0.5732422
vt 0.3674316 0.4052734
vt 0.3674316 0.5732422
vt 0.3674316 0.5732422
vt 0.3674316 0.4052734
vt 0.3674316 0.5732422
vt 0.3674316 0.4052734
vt 0.3674316 0.4052734
vt 0.3674316 0.4052734
vt 0.3674316 0.5732422
vt 0.3674316 0.5732422
vt 0.3674316 0.5732422
vt 0.3674316 0.5732422
vt 0.3674316 0.5732422
vt 0.3674316 0.5732422
vt 0.3674316 0.5732422
vt 0.3674316 0.5732422
vt 0.3674316 0.4052734
vt 0.3674316 0.4052734
vt 0.3674316 0.4052734
vt 0.3674316 0.5732422
vt 0.3674316 0.5732422
vt 0.3674316 0.4052734
vt 0.3674316 0.4052734
vt 0.3674316 0.4052734
vt 0.3674316 0.4052734
vt 0.3674316 0.4052734
vt 0.3674316 0.5732422
vt 0.3674316 0.5732422
vt 0.3674316 0.5732422
vt 0.3674316 0.4052734
vt 0.3674316 0.4052734
vt 0.3674316 0.5732422
vt 0.3674316 0.5732422
vt 0.3674316 0.4052734
vt 0.3674316 0.4052734
vt 0.3674316 0.5732422
vt 0.3674316 0.5732422
vt 0.3674316 0.4052734
vt 0.3674316 0.4052734
vt 0.3674316 0.5732422
vt 0.3674316 0.5732422
vt 0.3674316 0.5732422
vt 0.3674316 0.4052734
vt 0.3674316 0.4052734
vt 0.3674316 0.4052734
vt 0.3674316 0.5732422
vt 0.3674316 0.5732422
vt 0.3674316 0.4052734
vt 0.3674316 0.5732422
vt 0.3674316 0.4052734
vt 0.3674316 0.5732422
vt 0.3674316 0.5732422
vt 0.3674316 0.5732422
vt 0.3674316 0.4052734
vt 0.3674316 0.4052734
vt 0.3674316 0.5732422
vt 0.3674316 0.5732422
vt 0.3674316 0.5732422
vt 0.3674316 0.5732422
vt 0.3674316 0.5732422
vt 0.3674316 0.4052734
vt 0.3674316 0.4052734
vt 0.3674316 0.4052734
vt 0.3674316 0.5732422
vt 0.3674316 0.5732422
vt 0.3674316 0.5732422
vt 0.3674316 0.5732422
vt 0.3674316 0.5732422
vt 0.3674316 0.5732422
vt 0.3674316 0.5732422
vt 0.3674316 0.5732422
vt 0.3674316 0.4052734
vt 0.3674316 0.5732422
vt 0.3674316 0.5732422
vt 0.3674316 0.4052734
vt 0.3674316 0.5732422
vt 0.3674316 0.5732422
vt 0.3674316 0.4052734
vt 0.3674316 0.5732422
vt 0.3674316 0.5732422
vt 0.3674316 0.5732422
vt 0.3674316 0.5732422
vt 0.3674316 0.5732422
vt 0.3674316 0.4052734
vt 0.3674316 0.4052734
vt 0.3674316 0.4052734
vt 0.3674316 0.5732422
vt 0.3674316 0.5732422
vt 0.3674316 0.5732422
vt 0.3674316 0.5732422
vt 0.3674316 0.5732422
vt 0.3674316 0.5732422
vt 0.3674316 0.4052734
vt 0.3674316 0.4052734
vt 0.3674316 0.4052734
vt 0.3674316 0.4052734
vt 0.3674316 0.5732422
vt 0.3674316 0.5732422
vt 0.3674316 0.4052734
vt 0.3674316 0.4052734
vt 0.3674316 0.5732422
vt 0.3674316 0.5732422
vt 0.3674316 0.5732422
vt 0.3674316 0.5732422
vt 0.3674316 0.5732422
vt 0.3674316 0.5732422

g Rocks-GEO.033_6889_17
usemtl Rocks-GEO.033_6889_17
usemap Rocks-GEO.033_6889_17
f 1/1/1 3/3/3 2/2/2
f 1/1/1 4/4/4 3/3/3
f 5/5/5 4/4/4 1/1/1
f 5/5/5 6/6/6 4/4/4
f 4/4/4 6/6/6 7/7/7
f 4/4/4 7/7/7 8/8/8
f 9/9/9 7/7/7 10/10/10
f 9/9/9 10/10/10 11/11/11
f 12/12/12 9/9/9 11/11/11
f 12/12/12 11/11/11 13/13/13
f 14/14/14 9/9/9 12/12/12
f 14/14/14 15/15/15 9/9/9
f 16/16/16 18/18/18 17/17/17
f 16/16/16 19/19/19 18/18/18
f 18/18/18 19/19/19 20/20/20
f 18/18/18 20/20/20 21/21/21
f 21/21/21 20/20/20 22/22/22
f 21/21/21 22/22/22 23/23/23
f 20/20/20 24/24/24 22/22/22
f 22/22/22 24/24/24 25/25/25
f 26/26/26 28/28/28 27/27/27
f 26/26/26 29/29/29 28/28/28
f 30/30/30 28/28/28 31/31/31
f 30/30/30 31/31/31 32/32/32
f 33/33/33 35/35/35 34/34/34
f 33/33/33 34/34/34 36/36/36
f 36/36/36 34/34/34 37/37/37
f 36/36/36 37/37/37 38/38/38
f 38/38/38 37/37/37 39/39/39
f 38/38/38 39/39/39 40/40/40
f 41/41/41 37/37/37 34/34/34
f 41/41/41 34/34/34 42/42/42
f 43/43/43 37/37/37 41/41/41
f 43/43/43 44/44/44 37/37/37
f 45/45/45 41/41/41 42/42/42
f 45/45/45 42/42/42 46/46/46
f 42/42/42 47/47/47 46/46/46
f 42/42/42 48/48/48 47/47/47
f 49/49/49 51/51/51 50/50/50
f 49/49/49 52/52/52 51/51/51
f 53/53/53 55/55/55 54/54/54
f 53/53/53 56/56/56 55/55/55
f 57/57/57 59/59/59 58/58/58
f 57/57/57 60/60/60 59/59/59
f 61/61/61 63/63/63 62/62/62
f 61/61/61 62/62/62 64/64/64
f 64/64/64 62/62/62 65/65/65
f 64/64/64 65/65/65 66/66/66
f 66/66/66 67/67/67 64/64/64
f 66/66/66 68/68/68 67/67/67
f 62/62/62 69/69/69 65/65/65
f 62/62/62 70/70/70 69/69/69
f 69/69/69 71/71/71 65/65/65
f 69/69/69 72/72/72 71/71/71
f 73/73/73 72/72/72 69/69/69
f 73/73/73 74/74/74 72/72/72
f 75/75/75 73/73/73 76/76/76
f 75/75/75 77/77/77 73/73/73
f 77/77/77 78/78/78 73/73/73
f 77/77/77 79/79/79 78/78/78
f 80/80/80 82/82/82 81/81/81
f 80/80/80 83/83/83 82/82/82
f 82/82/82 83/83/83 84/84/84
f 82/82/82 84/84/84 85/85/85
f 86/86/86 88/88/88 87/87/87
f 86/86/86 87/87/87 89/89/89
f 89/89/89 87/87/87 90/90/90
f 89/89/89 90/90/90 91/91/91
f 92/92/92 94/94/94 93/93/93
f 92/92/92 95/95/95 94/94/94
f 96/96/96 94/94/94 95/95/95
f 96/96/96 97/97/97 94/94/94
f 97/97/97 98/98/98 94/94/94
f 97/97/97 99/99/99 98/98/98
f 100/100/100 99/99/99 97/97/97
f 100/100/100 101/101/101 99/99/99
f 102/102/102 99/99/99 101/101/101
f 102/102/102 101/101/101 103/103/103
f 103/103/103 101/101/101 100/100/100
f 103/103/103 100/100/100 104/104/104
f 105/105/105 107/107/107 106/106/106
f 105/105/105 108/108/108 107/107/107
f 109/109/109 111/111/111 110/110/110
f 109/109/109 112/112/112 111/111/111
f 113/113/113 115/115/115 114/114/114
f 113/113/113 116/116/116 115/115/115
f 117/117/117 119/119/119 118/118/118
f 117/117/117 120/120/120 119/119/119
f 121/121/121 123/123/123 122/122/122
f 121/121/121 124/124/124 123/123/123
f 125/125/125 127/127/127 126/126/126
f 128/128/128 126/126/126 127/127/127
f 128/128/128 129/129/129 126/126/126
f 130/130/130 132/132/132 131/131/131
f 130/130/130 131/131/131 133/133/133
f 133/133/133 131/131/131 134/134/134
f 133/133/133 134/134/134 135/135/135
f 136/136/136 134/134/134 131/131/131
f 136/136/136 131/131/131 137/137/137
f 138/138/138 136/136/136 137/137/137
f 139/139/139 136/136/136 138/138/138
f 139/139/139 138/138/138 140/140/140
f 138/138/138 137/137/137 141/141/141
f 141/141/141 137/137/137 142/142/142
f 138/138/138 141/141/141 143/143/143
f 138/138/138 143/143/143 144/144/144
f 141/141/141 142/142/142 145/145/145
f 146/146/146 145/145/145 142/142/142
f 146/146/146 142/142/142 147/147/147
f 145/145/145 146/146/146 148/148/148
f 145/145/145 148/148/148 149/149/149
f 143/143/143 149/149/149 150/150/150
f 149/149/149 148/148/148 151/151/151
f 149/149/149 151/151/151 150/150/150
f 152/152/152 150/150/150 151/151/151
f 152/152/152 153/153/153 150/150/150
f 143/143/143 150/150/150 153/153/153
f 154/154/154 143/143/143 153/153/153
f 154/154/154 153/153/153 155/155/155
f 156/156/156 151/151/151 148/148/148
f 156/156/156 148/148/148 157/157/157
f 158/158/158 151/151/151 156/156/156
f 159/159/159 156/156/156 157/157/157
f 159/159/159 157/157/157 160/160/160
f 158/158/158 156/156/156 161/161/161
f 161/161/161 156/156/156 159/159/159
f 162/162/162 159/159/159 160/160/160
f 161/161/161 159/159/159 162/162/162
f 162/162/162 160/160/160 163/163/163
f 164/164/164 158/158/158 161/161/161
f 164/164/164 165/165/165 158/158/158
f 164/164/164 166/166/166 165/165/165
f 167/167/167 161/161/161 162/162/162
f 164/164/164 161/161/161 167/167/167
f 168/168/168 162/162/162 163/163/163
f 167/167/167 162/162/162 168/168/168
f 168/168/168 163/163/163 169/169/169
f 167/167/167 168/168/168 169/169/169
f 167/167/167 169/169/169 170/170/170
f 164/164/164 167/167/167 170/170/170
f 164/164/164 170/170/170 171/171/171
f 171/171/171 155/155/155 172/172/172
f 171/171/171 173/173/173 155/155/155
f 174/174/174 176/176/176 175/175/175
f 174/174/174 175/175/175 177/177/177
f 178/178/178 177/177/177 175/175/175
f 178/178/178 175/175/175 179/179/179
f 180/180/180 182/182/182 181/181/181
f 180/180/180 183/183/183 182/182/182
f 184/184/184 186/186/186 185/185/185
f 184/184/184 187/187/187 186/186/186
f 188/188/188 190/190/190 189/189/189
f 188/188/188 191/191/191 190/190/190
