#Rocks-GEO.001_6586_15.obj

v -2.668251 3.985101 1.342608
v -3.285493 3.878783 1.143256
v -3.178056 4.756104 1.013106
v -2.68506 4.99407 1.08557
v -2.082986 3.878 1.065379
v -2.206071 4.755062 0.9503992
v -2.124363 5.03705 0.4265393
v -2.725638 5.113803 0.465048
v -2.725638 5.113803 0.465048
v -2.273223 4.756101 -0.08300689
v -2.766218 4.994065 -0.1554724
v -3.326916 5.037054 0.5035565
v -3.245207 4.755062 -0.02030127
v -3.178056 4.756104 1.013106
v -2.68506 4.99407 1.08557
v -0.9451023 3.070091 2.645535
v -2.581966 3.049186 2.544179
v -2.399273 3.395981 2.321975
v -0.9837815 3.458059 2.4296
v -1.006805 3.607478 1.337266
v -2.922234 3.498985 1.604998
v -0.6454331 3.396047 0.6699772
v -2.436509 3.393514 0.5923734
v 0.3823814 3.211659 1.32952
v -0.02987808 4.27846 0.7876002
v 0.7915989 3.089783 1.294492
v 0.3768938 3.014322 2.430787
v 0.06386749 3.3704 2.201521
v 0.3823814 3.211659 1.32952
v -0.9837815 3.458059 2.4296
v 0.3823814 3.211659 1.32952
v -1.006805 3.607478 1.337266
v 0.8264415 4.249588 1.271331
v 1.05098 4.501696 0.5606554
v 1.184258 4.311675 0.7514286
v 0.5969697 4.267076 1.227211
v 0.4054604 4.592704 -0.4033656
v -0.02987808 4.27846 0.7876002
v 0.05623469 4.403635 -0.4129227
v -0.2283317 4.065108 -0.3980155
v 1.039626 4.530891 -0.5775848
v 1.501024 4.504989 -0.04248913
v 1.003157 4.98532 -0.6356742
v 0.1996505 5.072448 -0.4782737
v 1.592383 4.580247 -0.7513728
v 1.90819 4.580247 -0.2730853
v 2.117029 4.439517 -0.1051683
v 1.582008 4.378984 0.2046032
v 0.3768938 3.014322 2.430787
v -0.9451023 3.070091 2.645535
v -0.9837815 3.458059 2.4296
v 0.06386749 3.3704 2.201521
v -2.581966 3.049186 2.544179
v -3.168573 3.086642 1.584352
v -2.922234 3.498985 1.604998
v -2.399273 3.395981 2.321975
v 1.646984 4.933231 -0.8306382
v 1.592383 4.580247 -0.7513728
v 1.039626 4.530891 -0.5775848
v 1.003157 4.98532 -0.6356742
v 0.1996505 5.072448 -0.4782737
v 0.6212392 5.000644 -1.305238
v 1.003157 4.98532 -0.6356742
v -0.2493466 5.104307 -1.209068
v 0.3934058 5.030262 -2.150196
v -0.2403516 5.104774 -1.74765
v -0.7838452 5.032571 -1.151739
v -0.6770142 5.02662 -1.758681
v 1.284877 4.923198 -1.92951
v 1.618153 4.906579 -1.422391
v 0.3374516 4.906599 -2.404951
v 1.418556 4.778154 -2.139349
v 1.618153 4.906579 -1.422391
v 1.84956 4.743992 -1.498137
v 1.003157 4.98532 -0.6356742
v 0.6212392 5.000644 -1.305238
v 1.646984 4.933231 -0.8306382
v 1.84956 4.743992 -1.498137
v 1.870188 4.784803 -0.9209347
v 4.326907 3.074877 0.4355994
v 3.921113 3.073869 0.100127
v 4.054738 3.399744 0.01387044
v 4.391911 3.459064 0.213032
v 4.749164 3.685878 -0.522733
v 4.314614 3.55328 -0.498384
v 5.158313 3.498532 -1.725146
v 5.589535 3.620405 -1.197743
v 5.095184 3.684805 -1.356503
v 5.856165 3.444313 -1.375619
v 5.572699 3.568372 -0.3730679
v 5.763972 3.362753 -0.2930114
v 4.586343 3.424062 -1.434532
v 5.158313 3.498532 -1.725146
v 5.095184 3.684805 -1.356503
v 4.658446 3.594785 -1.188078
v 4.314614 3.55328 -0.498384
v 4.749164 3.685878 -0.522733
v 5.589535 3.620405 -1.197743
v 5.572699 3.568372 -0.3730679
v 4.391911 3.459064 0.213032
v 5.166615 3.435438 0.1854931
v 5.763972 3.362753 -0.2930114
v 5.267676 3.227403 0.3863613
v 4.326907 3.074877 0.4355994
v 0.1996505 5.072448 -0.4782737
v 0.4054604 4.592704 -0.4033656
v 0.05623469 4.403635 -0.4129227
v -0.05354797 5.008732 -0.5064632
v -0.6454331 3.396047 0.6699772
v -0.7811304 3.576532 -0.1773422
v -0.2283317 4.065108 -0.3980155
v -0.02987808 4.27846 0.7876002
v -0.2493466 5.104307 -1.209068
v 0.1996505 5.072448 -0.4782737
v -0.05354797 5.008732 -0.5064632
v -0.7838452 5.032571 -1.151739
v 0.3934058 5.030262 -2.150196
v -0.2403516 5.104774 -1.74765
v -0.6770142 5.02662 -1.758681
v 0.3374516 4.906599 -2.404951
v 1.05098 4.501696 0.5606554
v 1.501024 4.504989 -0.04248913
v 1.582008 4.378984 0.2046032
v 1.184258 4.311675 0.7514286
v -0.02987808 4.27846 0.7876002
v 0.5969697 4.267076 1.227211
v 0.3823814 3.211659 1.32952
v 0.7915989 3.089783 1.294492
v 0.8264415 4.249588 1.271331
v -5.400823 4.545496 0.4474452
v -5.569216 4.90197 -0.2289944
v -5.306628 4.792747 0.3760135
v -5.763077 4.603233 -0.2841784
v -5.089892 4.961366 -0.8099952
v -5.117507 4.745463 -0.9018165
v -4.148426 5.109052 -0.8155215
v -4.469553 5.115133 -0.1597602
v -3.335491 5.10392 -0.3273775
v -4.123877 4.878449 -1.004994
v -3.143223 4.927774 -0.4947489
v -3.213427 5.103154 0.371152
v -4.477144 4.903131 0.6026592
v -2.723615 5.185645 0.3447087
v -2.772968 5.204032 -0.09103144
v -3.709601 4.953885 0.8373072
v -3.662155 4.715034 0.8083877
v -4.460654 4.603909 0.8079227
v -2.439483 4.820598 1.005373
v -2.641605 5.015564 0.9006866
v -2.5485 5.655004 0.7626355
v -2.302415 5.802771 1.027189
v -2.337103 5.722478 0.1544998
v -2.583864 5.594984 0.2688238
v -2.772968 5.204032 -0.09103144
v -2.643512 5.554124 -0.155138
v -1.807437 5.743669 1.026022
v -1.77192 4.697505 1.0843
v -2.337103 5.722478 0.1544998
v -1.112978 5.737244 0.8121169
v -0.9158923 5.404882 0.9026416
v -1.780442 5.620585 0.04827477
v -0.9638877 5.612463 0.09067624
v -0.8261387 5.388588 0.09693005
v -2.637175 5.612546 -0.4040479
v -2.583864 5.594984 0.2688238
v -2.643512 5.554124 -0.155138
v -1.898714 5.574558 -0.7418528
v -1.148337 5.536569 -0.4151805
v -1.091694 5.324728 -0.6147946
v -2.053437 5.206542 -0.9063048
v -2.804613 5.088356 -0.4095856
v -2.637175 5.612546 -0.4040479
v -2.772968 5.204032 -0.09103144
v -4.469553 5.115133 -0.1597602
v -5.306628 4.792747 0.3760135
v -5.569216 4.90197 -0.2289944
v -4.477144 4.903131 0.6026592
v -4.460654 4.603909 0.8079227
v -5.400823 4.545496 0.4474452
v -5.117507 4.745463 -0.9018165
v -4.123877 4.878449 -1.004994
v -4.148426 5.109052 -0.8155215
v -5.089892 4.961366 -0.8099952
v -3.143223 4.927774 -0.4947489
v -2.804613 5.088356 -0.4095856
v -2.772968 5.204032 -0.09103144
v -3.335491 5.10392 -0.3273775
v -3.213427 5.103154 0.371152
v -2.723615 5.185645 0.3447087
v -2.641605 5.015564 0.9006866
v -3.709601 4.953885 0.8373072

vn -0.173584 0.2198486 -0.9599609
vn 0.5273438 0.2265625 -0.8188477
vn 0.4343262 0.5136719 -0.7397461
vn -0.1271973 0.6987305 -0.7036133
vn -0.7802734 0.2263184 -0.5830078
vn -0.6660156 0.5126953 -0.5419922
vn -0.6591797 0.7426758 0.1185913
vn 0 1 -1.788139E-07
vn 0 1 -1.788139E-07
vn -0.3862305 0.6870117 0.6157227
vn 0.125 0.7114258 0.6914063
vn 0.6591797 0.7426758 -0.1185913
vn 0.5776367 0.6860352 0.4423828
vn 0.4343262 0.5136719 -0.7397461
vn -0.1271973 0.6987305 -0.7036133
vn -0.1568604 0.550293 -0.8203125
vn 0.3449707 0.5581055 -0.7543945
vn 0.2155762 0.7880859 -0.5766602
vn -0.1286621 0.8427734 -0.5229492
vn -0.06390381 0.9960938 0.06481934
vn 0.4777832 0.8662109 -0.1472168
vn -0.1652832 0.9604492 0.2243652
vn 0.2457275 0.8466797 0.4719238
vn -0.1669922 0.7617188 -0.6259766
vn 0.5766602 0.6782227 -0.454834
vn -0.5375977 0.5859375 -0.6064453
vn -0.4555664 0.7851563 -0.4196777
vn -0.3508301 0.8730469 -0.3383789
vn -0.1669922 0.7617188 -0.6259766
vn -0.1286621 0.8427734 -0.5229492
vn -0.1669922 0.7617188 -0.6259766
vn -0.06390381 0.9960938 0.06481934
vn -0.6645508 0.4675293 -0.5830078
vn -0.1765137 0.9526367 -0.2479248
vn -0.5795898 0.7041016 0.4106445
vn 0.2365723 0.6005859 -0.7636719
vn 0.01451874 0.6879883 -0.7255859
vn 0.5766602 0.6782227 -0.454834
vn 0.8012695 0.1004028 -0.5898438
vn 0.7592773 0.5712891 0.3115234
vn -0.241333 0.7680664 -0.5932617
vn -0.135498 0.9663086 -0.2191162
vn -0.3034668 0.7548828 -0.581543
vn -0.1040649 0.75 -0.6533203
vn -0.08892822 0.6884766 -0.7197266
vn 0.2329102 0.8100586 -0.5380859
vn 0.5991211 0.7158203 -0.3588867
vn 0.2110596 0.9726563 0.09869385
vn -0.4555664 0.7851563 -0.4196777
vn -0.1568604 0.550293 -0.8203125
vn -0.1286621 0.8427734 -0.5229492
vn -0.3508301 0.8730469 -0.3383789
vn 0.3449707 0.5581055 -0.7543945
vn 0.7553711 0.5888672 -0.2875977
vn 0.4777832 0.8662109 -0.1472168
vn 0.2155762 0.7880859 -0.5766602
vn 0.02877808 0.9228516 -0.3840332
vn -0.08892822 0.6884766 -0.7197266
vn -0.241333 0.7680664 -0.5932617
vn -0.3034668 0.7548828 -0.581543
vn -0.1040649 0.75 -0.6533203
vn -0.1025391 0.9941406 0.03036499
vn -0.3034668 0.7548828 -0.581543
vn 0.04086304 0.9980469 -0.05172729
vn -0.03295898 0.9575195 0.286377
vn 0.07928467 0.9833984 0.163208
vn -0.5649414 0.78125 0.2653809
vn -0.5571289 0.7880859 -0.262207
vn -0.2349854 0.934082 0.269043
vn -0.3322754 0.9301758 0.1553955
vn -0.2194824 0.8999023 -0.3764648
vn 0.09155273 0.9389648 -0.331543
vn -0.3322754 0.9301758 0.1553955
vn 0.2451172 0.965332 -0.08917236
vn -0.3034668 0.7548828 -0.581543
vn -0.1025391 0.9941406 0.03036499
vn 0.02877808 0.9228516 -0.3840332
vn 0.2451172 0.965332 -0.08917236
vn 0.1608887 0.9038086 0.3969727
vn 0.1273193 0.6821289 -0.7202148
vn 0.6254883 0.671875 -0.3969727
vn 0.5830078 0.7705078 -0.2583008
vn 0.1286621 0.8422852 -0.5234375
vn 0.07696533 0.9912109 -0.1070557
vn 0.5288086 0.8486328 0.0198822
vn 0.05911255 0.887207 0.4577637
vn -0.3574219 0.921875 0.1506348
vn 0.07611084 0.9594727 0.2712402
vn -0.4519043 0.8608398 0.2335205
vn -0.4223633 0.8833008 -0.203125
vn -0.6157227 0.7441406 -0.2587891
vn 0.5209961 0.7773438 0.3518066
vn 0.05911255 0.887207 0.4577637
vn 0.07611084 0.9594727 0.2712402
vn 0.4758301 0.8520508 0.2172852
vn 0.5288086 0.8486328 0.0198822
vn 0.07696533 0.9912109 -0.1070557
vn -0.3574219 0.921875 0.1506348
vn -0.4223633 0.8833008 -0.203125
vn 0.1286621 0.8422852 -0.5234375
vn -0.2709961 0.8217773 -0.5014648
vn -0.6157227 0.7441406 -0.2587891
vn -0.3417969 0.7114258 -0.6142578
vn 0.1273193 0.6821289 -0.7202148
vn -0.1040649 0.75 -0.6533203
vn 0.01451874 0.6879883 -0.7255859
vn 0.8012695 0.1004028 -0.5898438
vn -0.4365234 0.8300781 -0.347168
vn -0.1652832 0.9604492 0.2243652
vn 0.2541504 0.02128601 0.9667969
vn 0.7592773 0.5712891 0.3115234
vn 0.5766602 0.6782227 -0.454834
vn 0.04086304 0.9980469 -0.05172729
vn -0.1040649 0.75 -0.6533203
vn -0.4365234 0.8300781 -0.347168
vn -0.5649414 0.78125 0.2653809
vn -0.03295898 0.9575195 0.286377
vn 0.07928467 0.9833984 0.163208
vn -0.5571289 0.7880859 -0.262207
vn -0.2194824 0.8999023 -0.3764648
vn -0.1765137 0.9526367 -0.2479248
vn -0.135498 0.9663086 -0.2191162
vn 0.2110596 0.9726563 0.09869385
vn -0.5795898 0.7041016 0.4106445
vn 0.5766602 0.6782227 -0.454834
vn 0.2365723 0.6005859 -0.7636719
vn -0.1669922 0.7617188 -0.6259766
vn -0.5375977 0.5859375 -0.6064453
vn -0.6645508 0.4675293 -0.5830078
vn 0.5209961 0.4707031 -0.7119141
vn 0.6445313 0.762207 -0.06048584
vn 0.3979492 0.6972656 -0.5961914
vn 0.8579102 0.512207 -0.04019165
vn 0.407959 0.7783203 0.4775391
vn 0.5229492 0.5175781 0.6772461
vn 0.01081848 0.8823242 0.4702148
vn 0.1130371 0.9882813 -0.1036377
vn -0.0267334 0.9526367 0.3029785
vn -0.0001243353 0.6386719 0.7695313
vn -0.0411377 0.809082 0.5864258
vn 0.08581543 0.9819336 -0.1694336
vn 0.1484375 0.7519531 -0.6420898
vn 0.6386719 0.7314453 -0.2387695
vn 0.671875 0.7397461 -0.02993774
vn 0.06610107 0.6723633 -0.7373047
vn 0.03393555 0.192627 -0.9804688
vn 0.1405029 0.3752441 -0.9160156
vn 0.1358643 0.07952881 -0.9873047
vn 0.4035645 0.3764648 -0.8339844
vn 0.7353516 0.5571289 -0.3862305
vn 0.1895752 0.7143555 -0.6738281
vn 0.1757813 0.9829102 0.05160522
vn 0.7636719 0.6289063 -0.1461182
vn 0.671875 0.7397461 -0.02993774
vn 0.7905273 0.5932617 -0.1520996
vn -0.1704102 0.7275391 -0.6645508
vn -0.1507568 0.06835938 -0.9863281
vn 0.1757813 0.9829102 0.05160522
vn -0.4694824 0.7890625 -0.3962402
vn -0.6694336 0.3811035 -0.6376953
vn -0.04476929 0.9907227 0.1293945
vn -0.5263672 0.8251953 0.2045898
vn -0.8188477 0.5288086 0.2242432
vn 0.6064453 0.7294922 0.3166504
vn 0.7636719 0.6289063 -0.1461182
vn 0.7905273 0.5932617 -0.1520996
vn 0.07061768 0.7631836 0.6420898
vn -0.3903809 0.7851563 0.480957
vn -0.4023438 0.5170898 0.7553711
vn 0.3198242 0.4094238 0.8544922
vn 0.5522461 0.6743164 0.4899902
vn 0.6064453 0.7294922 0.3166504
vn 0.671875 0.7397461 -0.02993774
vn 0.1130371 0.9882813 -0.1036377
vn 0.3979492 0.6972656 -0.5961914
vn 0.6445313 0.762207 -0.06048584
vn 0.1484375 0.7519531 -0.6420898
vn 0.1405029 0.3752441 -0.9160156
vn 0.5209961 0.4707031 -0.7119141
vn 0.5229492 0.5175781 0.6772461
vn -0.0001243353 0.6386719 0.7695313
vn 0.01081848 0.8823242 0.4702148
vn 0.407959 0.7783203 0.4775391
vn -0.0411377 0.809082 0.5864258
vn 0.5522461 0.6743164 0.4899902
vn 0.671875 0.7397461 -0.02993774
vn -0.0267334 0.9526367 0.3029785
vn 0.08581543 0.9819336 -0.1694336
vn 0.6386719 0.7314453 -0.2387695
vn 0.4035645 0.3764648 -0.8339844
vn 0.06610107 0.6723633 -0.7373047

vt 0.3674316 0.4052734
vt 0.3674316 0.4052734
vt 0.3674316 0.5732422
vt 0.3674316 0.5732422
vt 0.3674316 0.4052734
vt 0.3674316 0.5732422
vt 0.3674316 0.5732422
vt 0.3674316 0.5732422
vt 0.3674316 0.5732422
vt 0.3674316 0.5732422
vt 0.3674316 0.5732422
vt 0.3674316 0.5732422
vt 0.3674316 0.5732422
vt 0.3674316 0.5732422
vt 0.3674316 0.5732422
vt 0.3674316 0.4052734
vt 0.3674316 0.4052734
vt 0.3674316 0.5732422
vt 0.3674316 0.5732422
vt 0.3674316 0.5732422
vt 0.3674316 0.4052734
vt 0.3674316 0.4052734
vt 0.3674316 0.4052734
vt 0.3674316 0.5732422
vt 0.3674316 0.5732422
vt 0.3674316 0.4052734
vt 0.3674316 0.4052734
vt 0.3674316 0.5732422
vt 0.3674316 0.5732422
vt 0.3674316 0.5732422
vt 0.3674316 0.5732422
vt 0.3674316 0.5732422
vt 0.3674316 0.4052734
vt 0.3674316 0.5732422
vt 0.3674316 0.4052734
vt 0.3674316 0.5732422
vt 0.3674316 0.5732422
vt 0.3674316 0.5732422
vt 0.3674316 0.4052734
vt 0.3674316 0.4052734
vt 0.3674316 0.5732422
vt 0.3674316 0.5732422
vt 0.3674316 0.5732422
vt 0.3674316 0.5732422
vt 0.3674316 0.4052734
vt 0.3674316 0.4052734
vt 0.3674316 0.4052734
vt 0.3674316 0.4052734
vt 0.3674316 0.4052734
vt 0.3674316 0.4052734
vt 0.3674316 0.5732422
vt 0.3674316 0.5732422
vt 0.3674316 0.4052734
vt 0.3674316 0.4052734
vt 0.3674316 0.4052734
vt 0.3674316 0.5732422
vt 0.3674316 0.4052734
vt 0.3674316 0.4052734
vt 0.3674316 0.5732422
vt 0.3674316 0.5732422
vt 0.3674316 0.5732422
vt 0.3674316 0.5732422
vt 0.3674316 0.5732422
vt 0.3674316 0.5732422
vt 0.3674316 0.5732422
vt 0.3674316 0.5732422
vt 0.3674316 0.4052734
vt 0.3674316 0.4052734
vt 0.3674316 0.5732422
vt 0.3674316 0.5732422
vt 0.3674316 0.4052734
vt 0.3674316 0.4052734
vt 0.3674316 0.5732422
vt 0.3674316 0.4052734
vt 0.3674316 0.5732422
vt 0.3674316 0.5732422
vt 0.3674316 0.4052734
vt 0.3674316 0.4052734
vt 0.3674316 0.4052734
vt 0.3674316 0.4052734
vt 0.3674316 0.4052734
vt 0.3674316 0.5732422
vt 0.3674316 0.5732422
vt 0.3674316 0.5732422
vt 0.3674316 0.5732422
vt 0.3674316 0.4052734
vt 0.3674316 0.5732422
vt 0.3674316 0.5732422
vt 0.3674316 0.4052734
vt 0.3674316 0.5732422
vt 0.3674316 0.4052734
vt 0.3674316 0.4052734
vt 0.3674316 0.4052734
vt 0.3674316 0.5732422
vt 0.3674316 0.5732422
vt 0.3674316 0.5732422
vt 0.3674316 0.5732422
vt 0.3674316 0.5732422
vt 0.3674316 0.5732422
vt 0.3674316 0.5732422
vt 0.3674316 0.5732422
vt 0.3674316 0.4052734
vt 0.3674316 0.4052734
vt 0.3674316 0.4052734
vt 0.3674316 0.5732422
vt 0.3674316 0.5732422
vt 0.3674316 0.4052734
vt 0.3674316 0.4052734
vt 0.3674316 0.4052734
vt 0.3674316 0.4052734
vt 0.3674316 0.4052734
vt 0.3674316 0.5732422
vt 0.3674316 0.5732422
vt 0.3674316 0.5732422
vt 0.3674316 0.4052734
vt 0.3674316 0.4052734
vt 0.3674316 0.5732422
vt 0.3674316 0.5732422
vt 0.3674316 0.4052734
vt 0.3674316 0.4052734
vt 0.3674316 0.5732422
vt 0.3674316 0.5732422
vt 0.3674316 0.4052734
vt 0.3674316 0.4052734
vt 0.3674316 0.5732422
vt 0.3674316 0.5732422
vt 0.3674316 0.5732422
vt 0.3674316 0.4052734
vt 0.3674316 0.4052734
vt 0.3674316 0.4052734
vt 0.3674316 0.5732422
vt 0.3674316 0.5732422
vt 0.3674316 0.4052734
vt 0.3674316 0.5732422
vt 0.3674316 0.4052734
vt 0.3674316 0.5732422
vt 0.3674316 0.5732422
vt 0.3674316 0.5732422
vt 0.3674316 0.4052734
vt 0.3674316 0.4052734
vt 0.3674316 0.5732422
vt 0.3674316 0.5732422
vt 0.3674316 0.5732422
vt 0.3674316 0.5732422
vt 0.3674316 0.5732422
vt 0.3674316 0.4052734
vt 0.3674316 0.4052734
vt 0.3674316 0.4052734
vt 0.3674316 0.5732422
vt 0.3674316 0.5732422
vt 0.3674316 0.5732422
vt 0.3674316 0.5732422
vt 0.3674316 0.5732422
vt 0.3674316 0.5732422
vt 0.3674316 0.5732422
vt 0.3674316 0.5732422
vt 0.3674316 0.4052734
vt 0.3674316 0.5732422
vt 0.3674316 0.5732422
vt 0.3674316 0.4052734
vt 0.3674316 0.5732422
vt 0.3674316 0.5732422
vt 0.3674316 0.4052734
vt 0.3674316 0.5732422
vt 0.3674316 0.5732422
vt 0.3674316 0.5732422
vt 0.3674316 0.5732422
vt 0.3674316 0.5732422
vt 0.3674316 0.4052734
vt 0.3674316 0.4052734
vt 0.3674316 0.4052734
vt 0.3674316 0.5732422
vt 0.3674316 0.5732422
vt 0.3674316 0.5732422
vt 0.3674316 0.5732422
vt 0.3674316 0.5732422
vt 0.3674316 0.5732422
vt 0.3674316 0.4052734
vt 0.3674316 0.4052734
vt 0.3674316 0.4052734
vt 0.3674316 0.4052734
vt 0.3674316 0.5732422
vt 0.3674316 0.5732422
vt 0.3674316 0.4052734
vt 0.3674316 0.4052734
vt 0.3674316 0.5732422
vt 0.3674316 0.5732422
vt 0.3674316 0.5732422
vt 0.3674316 0.5732422
vt 0.3674316 0.5732422
vt 0.3674316 0.5732422

g Rocks-GEO.001_6586_15
usemtl Rocks-GEO.001_6586_15
usemap Rocks-GEO.001_6586_15
f 1/1/1 3/3/3 2/2/2
f 1/1/1 4/4/4 3/3/3
f 5/5/5 4/4/4 1/1/1
f 5/5/5 6/6/6 4/4/4
f 4/4/4 6/6/6 7/7/7
f 4/4/4 7/7/7 8/8/8
f 9/9/9 7/7/7 10/10/10
f 9/9/9 10/10/10 11/11/11
f 12/12/12 9/9/9 11/11/11
f 12/12/12 11/11/11 13/13/13
f 14/14/14 9/9/9 12/12/12
f 14/14/14 15/15/15 9/9/9
f 16/16/16 18/18/18 17/17/17
f 16/16/16 19/19/19 18/18/18
f 18/18/18 19/19/19 20/20/20
f 18/18/18 20/20/20 21/21/21
f 21/21/21 20/20/20 22/22/22
f 21/21/21 22/22/22 23/23/23
f 20/20/20 24/24/24 22/22/22
f 22/22/22 24/24/24 25/25/25
f 26/26/26 28/28/28 27/27/27
f 26/26/26 29/29/29 28/28/28
f 30/30/30 28/28/28 31/31/31
f 30/30/30 31/31/31 32/32/32
f 33/33/33 35/35/35 34/34/34
f 33/33/33 34/34/34 36/36/36
f 36/36/36 34/34/34 37/37/37
f 36/36/36 37/37/37 38/38/38
f 38/38/38 37/37/37 39/39/39
f 38/38/38 39/39/39 40/40/40
f 41/41/41 37/37/37 34/34/34
f 41/41/41 34/34/34 42/42/42
f 43/43/43 37/37/37 41/41/41
f 43/43/43 44/44/44 37/37/37
f 45/45/45 41/41/41 42/42/42
f 45/45/45 42/42/42 46/46/46
f 42/42/42 47/47/47 46/46/46
f 42/42/42 48/48/48 47/47/47
f 49/49/49 51/51/51 50/50/50
f 49/49/49 52/52/52 51/51/51
f 53/53/53 55/55/55 54/54/54
f 53/53/53 56/56/56 55/55/55
f 57/57/57 59/59/59 58/58/58
f 57/57/57 60/60/60 59/59/59
f 61/61/61 63/63/63 62/62/62
f 61/61/61 62/62/62 64/64/64
f 64/64/64 62/62/62 65/65/65
f 64/64/64 65/65/65 66/66/66
f 66/66/66 67/67/67 64/64/64
f 66/66/66 68/68/68 67/67/67
f 62/62/62 69/69/69 65/65/65
f 62/62/62 70/70/70 69/69/69
f 69/69/69 71/71/71 65/65/65
f 69/69/69 72/72/72 71/71/71
f 73/73/73 72/72/72 69/69/69
f 73/73/73 74/74/74 72/72/72
f 75/75/75 73/73/73 76/76/76
f 75/75/75 77/77/77 73/73/73
f 77/77/77 78/78/78 73/73/73
f 77/77/77 79/79/79 78/78/78
f 80/80/80 82/82/82 81/81/81
f 80/80/80 83/83/83 82/82/82
f 82/82/82 83/83/83 84/84/84
f 82/82/82 84/84/84 85/85/85
f 86/86/86 88/88/88 87/87/87
f 86/86/86 87/87/87 89/89/89
f 89/89/89 87/87/87 90/90/90
f 89/89/89 90/90/90 91/91/91
f 92/92/92 94/94/94 93/93/93
f 92/92/92 95/95/95 94/94/94
f 96/96/96 94/94/94 95/95/95
f 96/96/96 97/97/97 94/94/94
f 97/97/97 98/98/98 94/94/94
f 97/97/97 99/99/99 98/98/98
f 100/100/100 99/99/99 97/97/97
f 100/100/100 101/101/101 99/99/99
f 102/102/102 99/99/99 101/101/101
f 102/102/102 101/101/101 103/103/103
f 103/103/103 101/101/101 100/100/100
f 103/103/103 100/100/100 104/104/104
f 105/105/105 107/107/107 106/106/106
f 105/105/105 108/108/108 107/107/107
f 109/109/109 111/111/111 110/110/110
f 109/109/109 112/112/112 111/111/111
f 113/113/113 115/115/115 114/114/114
f 113/113/113 116/116/116 115/115/115
f 117/117/117 119/119/119 118/118/118
f 117/117/117 120/120/120 119/119/119
f 121/121/121 123/123/123 122/122/122
f 121/121/121 124/124/124 123/123/123
f 125/125/125 127/127/127 126/126/126
f 128/128/128 126/126/126 127/127/127
f 128/128/128 129/129/129 126/126/126
f 130/130/130 132/132/132 131/131/131
f 130/130/130 131/131/131 133/133/133
f 133/133/133 131/131/131 134/134/134
f 133/133/133 134/134/134 135/135/135
f 136/136/136 134/134/134 131/131/131
f 136/136/136 131/131/131 137/137/137
f 138/138/138 136/136/136 137/137/137
f 139/139/139 136/136/136 138/138/138
f 139/139/139 138/138/138 140/140/140
f 138/138/138 137/137/137 141/141/141
f 141/141/141 137/137/137 142/142/142
f 138/138/138 141/141/141 143/143/143
f 138/138/138 143/143/143 144/144/144
f 141/141/141 142/142/142 145/145/145
f 146/146/146 145/145/145 142/142/142
f 146/146/146 142/142/142 147/147/147
f 145/145/145 146/146/146 148/148/148
f 145/145/145 148/148/148 149/149/149
f 143/143/143 149/149/149 150/150/150
f 149/149/149 148/148/148 151/151/151
f 149/149/149 151/151/151 150/150/150
f 152/152/152 150/150/150 151/151/151
f 152/152/152 153/153/153 150/150/150
f 143/143/143 150/150/150 153/153/153
f 154/154/154 143/143/143 153/153/153
f 154/154/154 153/153/153 155/155/155
f 156/156/156 151/151/151 148/148/148
f 156/156/156 148/148/148 157/157/157
f 158/158/158 151/151/151 156/156/156
f 159/159/159 156/156/156 157/157/157
f 159/159/159 157/157/157 160/160/160
f 158/158/158 156/156/156 161/161/161
f 161/161/161 156/156/156 159/159/159
f 162/162/162 159/159/159 160/160/160
f 161/161/161 159/159/159 162/162/162
f 162/162/162 160/160/160 163/163/163
f 164/164/164 158/158/158 161/161/161
f 164/164/164 165/165/165 158/158/158
f 164/164/164 166/166/166 165/165/165
f 167/167/167 161/161/161 162/162/162
f 164/164/164 161/161/161 167/167/167
f 168/168/168 162/162/162 163/163/163
f 167/167/167 162/162/162 168/168/168
f 168/168/168 163/163/163 169/169/169
f 167/167/167 168/168/168 169/169/169
f 167/167/167 169/169/169 170/170/170
f 164/164/164 167/167/167 170/170/170
f 164/164/164 170/170/170 171/171/171
f 171/171/171 155/155/155 172/172/172
f 171/171/171 173/173/173 155/155/155
f 174/174/174 176/176/176 175/175/175
f 174/174/174 175/175/175 177/177/177
f 178/178/178 177/177/177 175/175/175
f 178/178/178 175/175/175 179/179/179
f 180/180/180 182/182/182 181/181/181
f 180/180/180 183/183/183 182/182/182
f 184/184/184 186/186/186 185/185/185
f 184/184/184 187/187/187 186/186/186
f 188/188/188 190/190/190 189/189/189
f 188/188/188 191/191/191 190/190/190
