#Waterfall_Rocks_6732_29.obj

v -1.943306 -7.796071 0.8574303
v -2.536545 4.661995 -0.4964406
v -1.858442 -7.79607 -0.3967967
v -3.066334 6.177181 0.600423
v -3.087773 6.27233 -0.3389317
v -3.161389 6.370368 -0.3242203
v -3.144643 6.2759 0.5940923
v -3.674905 5.846575 1.21635
v -3.647904 -7.79607 2.266021
v -3.144643 6.2759 0.5940923
v -3.740898 5.95271 1.182444
v -3.536282 -7.79607 -2.427228
v -1.858442 -7.79607 -0.3967967
v -2.536545 4.661995 -0.4964406
v -4.089475 -7.79607 -2.73409
v -4.754492 5.668844 -1.403959
v -3.087773 6.27233 -0.3389317
v -4.794168 5.778888 -1.363201
v -3.161389 6.370368 -0.3242203
v -2.272643 -7.71911 1.759719
v -1.208989 5.320595 0.4663957
v -1.077777 -7.71911 1.36909
v -2.510949 8.428799 0.9516652
v -1.657046 8.679735 0.6353997
v -1.694059 8.793183 0.6521001
v -2.539726 8.543168 0.9735864
v 0.1772995 -7.71911 -0.9466335
v -1.077777 -7.71911 1.36909
v -1.208989 5.320595 0.4663957
v 0.2548671 -7.71911 -1.574463
v -1.369148 9.033493 -1.425255
v -1.657046 8.679735 0.6353997
v -1.412438 9.143239 -1.39961
v -1.694059 8.793183 0.6521001
v 2.218546 -5.472667 -2.0844
v 1.835544 -5.472667 0.0921684
v 1.634248 10.06479 -0.8043317
v 1.817466 10.06494 -1.825924
v 1.81471 10.1849 -1.819684
v 1.637582 10.1849 -0.8130835
v 4.616398 -7.731598 1.03824
v 3.039436 -7.731598 4.79298
v 2.97091 3.389302 3.121643
v 3.712257 3.389476 1.370405
v 3.700688 3.479281 1.375165
v 2.971391 3.479281 3.111621
v -4.216752 -7.71911 0.7060462
v -4.370116 -7.71911 -1.235626
v -3.521149 8.480143 -1.215368
v -3.220836 8.30529 0.5905515
v -3.248868 8.420418 0.6097393
v -3.542825 8.5968 -1.1976
v -3.957932 -7.731598 2.156093
v -2.633656 -7.731598 -0.9970025
v -2.276965 3.607193 0.2978986
v -2.867539 3.607031 1.715386
v -2.854633 3.696682 1.7195
v -2.262045 3.696682 0.3085452
v 1.69472 -7.71911 -2.428594
v 3.368005 -7.71911 -2.753369
v 3.622129 7.986201 -2.142127
v 1.894911 8.408881 -1.611788
v 1.93281 8.52038 -1.586194
v 3.652258 8.096468 -2.105008
v -6.0987 4.959604 -0.2519538
v -7.09948 -7.79607 -0.2467825
v -4.089475 -7.79607 -2.73409
v -4.754492 5.668844 -1.403959
v -6.100419 5.089538 -0.2429421
v -4.794168 5.778888 -1.363201
v 4.983948 -7.71911 -2.312314
v 6.659531 -7.71911 -1.514354
v 5.932023 4.328541 -1.418763
v 5.220496 4.60589 -1.741825
v 5.25401 4.719525 -1.722872
v 5.965862 4.441748 -1.397605
v 3.368005 -7.71911 -2.753369
v 5.398057 -7.71911 -1.933631
v 4.752206 7.626528 -1.735093
v 3.622129 7.986201 -2.142127
v 3.652258 8.096468 -2.105008
v 4.777264 7.742176 -1.711205
v 0.9701437 -7.71911 -0.6341987
v 2.021132 6.788211 0.1992398
v 1.42761 -7.71911 0.3662985
v 1.624887 8.390608 -0.7265531
v 2.071235 8.182127 0.07887987
v 2.099788 8.29757 0.09469718
v 1.656214 8.505566 -0.7115756
v 3.564999 -7.71911 1.229379
v 1.42761 -7.71911 0.3662985
v 2.021132 6.788211 0.1992398
v 4.118584 -7.71911 1.234935
v 4.063093 7.631764 0.04211847
v 2.071235 8.182127 0.07887987
v 4.092667 7.747325 0.05495721
v 2.099788 8.29757 0.09469718
v -3.645719 -7.71911 -2.572197
v -2.060195 -7.71911 -2.829186
v -2.25497 8.88248 -1.886218
v -3.346297 8.581274 -1.638369
v -3.366763 8.696063 -1.608657
v -2.285175 8.992172 -1.847396
v -5.505903 -7.79607 1.68168
v -7.09948 -7.79607 -0.2467825
v -6.0987 4.959604 -0.2519538
v -5.339448 5.183606 0.7240131
v -5.355725 5.30797 0.6944152
v -6.100419 5.089538 -0.2429421
v 0.1707998 -5.472667 -3.303808
v 1.527587 -5.472667 -3.201465
v 1.180544 10.17138 -2.790589
v 0.6736442 10.23909 -2.807237
v -1.441676 -5.472667 -2.537603
v -1.146876 10.45955 -1.865505
v -1.135833 10.57905 -1.863268
v 0.6895255 10.35784 -2.801657
v 1.188231 10.29088 -2.780003
v -3.647904 -7.79607 2.266021
v -5.505903 -7.79607 1.68168
v -5.339448 5.183606 0.7240131
v -3.674905 5.846575 1.21635
v -3.740898 5.95271 1.182444
v -5.355725 5.30797 0.6944152
v -2.272643 -7.71911 1.759719
v -4.216752 -7.71911 0.7060462
v -3.220836 8.30529 0.5905515
v -2.510949 8.428799 0.9516652
v -2.539726 8.543168 0.9735864
v -3.248868 8.420418 0.6097393
v -1.763308 -5.472667 -0.7097964
v -1.441676 -5.472667 -2.537603
v -1.146876 10.45955 -1.865505
v -1.289427 10.45948 -1.048374
v -1.279762 10.57905 -1.045357
v -1.135833 10.57905 -1.863268
v 6.506541 -7.71911 1.524368
v 5.245544 -7.71911 1.892004
v 5.043662 3.948039 1.41236
v 6.115019 3.726653 1.023118
v 6.142177 3.84275 1.038547
v 5.077779 4.063092 1.418578
v 0.9701437 -7.71911 -0.6341987
v 1.69472 -7.71911 -2.428594
v 1.894911 8.408881 -1.611788
v 1.624887 8.390608 -0.7265531
v 1.656214 8.505566 -0.7115756
v 1.93281 8.52038 -1.586194
v -1.763308 -5.472667 -0.7097964
v -0.5994434 8.736745 -0.1499365
v -1.0744 -5.472667 0.06611409
v -1.289427 10.45948 -1.048374
v -0.6589411 10.35859 -0.3375212
v -0.6462223 10.47818 -0.3432875
v -1.279762 10.57905 -1.045357
v 1.276341 -5.472667 0.243433
v -1.0744 -5.472667 0.06611409
v -0.5994434 8.736745 -0.1499365
v 1.835544 -5.472667 0.0921684
v 1.634248 10.06479 -0.8043317
v -0.6589411 10.35859 -0.3375212
v 1.637582 10.1849 -0.8130835
v -0.6462223 10.47818 -0.3432875
v 6.967413 -7.71911 0.2441584
v 6.506541 -7.71911 1.524368
v 6.115019 3.726653 1.023118
v 6.276214 3.788581 0.5410529
v 6.659531 -7.71911 -1.514354
v 5.932023 4.328541 -1.418763
v 5.965862 4.441748 -1.397605
v 6.305441 3.902232 0.5658249
v 6.142177 3.84275 1.038547
v 5.245544 -7.71911 1.892004
v 3.250247 -7.71911 0.9417855
v 4.156631 4.294399 1.002505
v 5.043662 3.948039 1.41236
v 5.077779 4.063092 1.418578
v 4.201707 4.404953 1.018274
v -3.957932 -7.731598 2.156093
v -1.805558 -4.122486 3.54498
v -2.847472 -7.731598 3.77124
v -2.867539 3.607031 1.715386
v -1.841845 3.551245 3.190491
v -1.829209 3.641044 3.184353
v -2.854633 3.696682 1.7195
v 1.850659 -7.731598 4.875429
v -2.847472 -7.731598 3.77124
v -1.805558 -4.122486 3.54498
v 3.039436 -7.731598 4.79298
v 2.97091 3.389302 3.121643
v -1.841845 3.551245 3.190491
v 2.971391 3.479281 3.111621
v -1.829209 3.641044 3.184353
v 0.9156725 -7.731598 -1.823535
v 3.627305 -7.731598 -1.186228
v 2.785728 3.44805 -0.5626599
v 1.768665 3.485454 -0.7703149
v -2.633656 -7.731598 -0.9970025
v -2.276965 3.607193 0.2978986
v -2.262045 3.696682 0.3085452
v 1.78201 3.574671 -0.7538258
v 2.784584 3.537741 -0.5480519
v 4.752206 7.626528 -1.735093
v 5.398057 -7.71911 -1.933631
v 4.118584 -7.71911 1.234935
v 4.063093 7.631764 0.04211847
v 4.777264 7.742176 -1.711205
v 4.092667 7.747325 0.05495721
v 4.983948 -7.71911 -2.312314
v 4.13367 2.973872 -1.340173
v 4.052272 -7.71911 -1.855571
v 5.220496 4.60589 -1.741825
v 4.385907 4.74611 -1.300586
v 4.425406 4.857265 -1.276909
v 5.25401 4.719525 -1.722872
v 3.253771 -7.71911 0.3624973
v 4.052272 -7.71911 -1.855571
v 4.13367 2.973872 -1.340173
v 3.250247 -7.71911 0.9417855
v 4.156631 4.294399 1.002505
v 4.385907 4.74611 -1.300586
v 4.201707 4.404953 1.018274
v 4.425406 4.857265 -1.276909
v 1.527587 -5.472667 -3.201465
v 2.218546 -5.472667 -2.0844
v 1.817466 10.06494 -1.825924
v 1.180544 10.17138 -2.790589
v 1.188231 10.29088 -2.780003
v 1.81471 10.1849 -1.819684
v -4.370116 -7.71911 -1.235626
v -3.645719 -7.71911 -2.572197
v -3.346297 8.581274 -1.638369
v -3.521149 8.480143 -1.215368
v -3.542825 8.5968 -1.1976
v -3.366763 8.696063 -1.608657
v -2.060195 -7.71911 -2.829186
v 0.2548671 -7.71911 -1.574463
v -1.369148 9.033493 -1.425255
v -2.25497 8.88248 -1.886218
v -2.285175 8.992172 -1.847396
v -1.412438 9.143239 -1.39961
v 3.627305 -7.731598 -1.186228
v 4.616398 -7.731598 1.03824
v 3.712257 3.389476 1.370405
v 2.785728 3.44805 -0.5626599
v 2.784584 3.537741 -0.5480519
v 3.700688 3.479281 1.375165
v -3.303162 8.700792 -1.530247
v -3.366763 8.696063 -1.608657
v -2.285175 8.992172 -1.847396
v -2.294344 8.976978 -1.752923
v -1.412438 9.143239 -1.39961
v -3.45174 8.617024 -1.183356
v -3.542825 8.5968 -1.1976
v -1.508561 9.112994 -1.34975
v -1.694059 8.793183 0.6521001
v -1.774235 8.782761 0.5857806
v -2.539726 8.543168 0.9735864
v -3.169617 8.447743 0.5512222
v -3.248868 8.420418 0.6097393
v -2.537063 8.557237 0.8757732
v -3.765221 5.953023 1.084599
v -3.740898 5.95271 1.182444
v -5.355725 5.30797 0.6944152
v -5.312092 5.335414 0.6171069
v -6.100419 5.089538 -0.2429421
v -3.226746 6.244894 0.55326
v -3.144643 6.2759 0.5940923
v -3.241853 6.330112 -0.2751305
v -3.161389 6.370368 -0.3242203
v -4.784433 5.771305 -1.256717
v -4.794168 5.778888 -1.363201
v -5.98368 5.138427 -0.2282273
v 2.000896 8.493821 -1.51358
v 1.93281 8.52038 -1.586194
v 3.652258 8.096468 -2.105008
v 3.647985 8.087748 -2.010563
v 4.777264 7.742176 -1.711205
v 1.751102 8.480441 -0.7237169
v 1.656214 8.505566 -0.7115756
v 2.151243 8.292813 0.003606598
v 2.099788 8.29757 0.09469718
v 4.034029 7.772964 -0.03393769
v 4.092667 7.747325 0.05495721
v 4.662546 7.768237 -1.655421
v 1.138338 10.29546 -2.691544
v 1.188231 10.29088 -2.780003
v 1.81471 10.1849 -1.819684
v 1.720091 10.19704 -1.799783
v 1.637582 10.1849 -0.8130835
v 0.7090044 10.3531 -2.710186
v 0.6895255 10.35784 -2.801657
v 1.559902 10.19704 -0.8894418
v -0.6462223 10.47818 -0.3432875
v -0.6139778 10.4762 -0.4422599
v -1.279762 10.57905 -1.045357
v -1.05529 10.56691 -1.80319
v -1.135833 10.57905 -1.863268
v -1.183675 10.56691 -1.073587
v 2.684684 3.539636 -0.443263
v 2.784584 3.537741 -0.5480519
v 3.700688 3.479281 1.375165
v 3.551984 3.48429 1.377504
v 2.971391 3.479281 3.111621
v 1.786929 3.572705 -0.6275217
v 1.78201 3.574671 -0.7538258
v 2.874369 3.48429 2.990908
v -1.829209 3.641044 3.184353
v -1.753251 3.640224 3.061018
v -2.854633 3.696682 1.7195
v -2.156239 3.691671 0.4083441
v -2.262045 3.696682 0.3085452
v -2.70145 3.691671 1.706488
v 6.075054 3.877358 0.9704887
v 6.142177 3.84275 1.038547
v 5.077779 4.063092 1.418578
v 5.086645 4.08197 1.323388
v 4.201707 4.404953 1.018274
v 6.215608 3.928566 0.5635223
v 6.305441 3.902232 0.5658249
v 4.294347 4.391139 0.9613651
v 4.425406 4.857265 -1.276909
v 4.50728 4.82168 -1.223343
v 5.25401 4.719525 -1.722872
v 5.887387 4.450033 -1.334223
v 5.965862 4.441748 -1.397605
v 5.252395 4.697819 -1.62437

vn -0.9018555 0.06445313 -0.4274902
vn -0.9589844 0.1231079 -0.2556152
vn -0.9975586 0.05477905 -0.04351807
vn -0.8193359 0.3884277 -0.4213867
vn -0.8818359 0.4716797 -0.007709503
vn -0.7924805 0.609375 -0.02694702
vn -0.7924805 0.609375 -0.02694702
vn -0.6113281 0.2442627 -0.7524414
vn -0.6699219 0.06292725 -0.7397461
vn -0.4936523 0.4799805 -0.7250977
vn -0.4936523 0.4799805 -0.7250977
vn -0.5786133 0.07733154 0.8120117
vn -0.7548828 0.03683472 0.6547852
vn -0.4467773 0.1447754 0.8828125
vn -0.4099121 0.1071167 0.9057617
vn -0.3964844 0.2741699 0.8764648
vn -0.3999023 0.329834 0.8549805
vn -0.3532715 0.4233398 0.8344727
vn -0.3532715 0.4233398 0.8344727
vn -0.3425293 0.06762695 -0.9370117
vn -0.4611816 0.04696655 -0.8862305
vn -0.3325195 0.06878662 -0.9404297
vn -0.3911133 -0.01829529 -0.9199219
vn -0.378418 -0.02708435 -0.925293
vn -0.3864746 -0.05239868 -0.9208984
vn -0.3864746 -0.05239868 -0.9208984
vn -0.9633789 0.07171631 -0.2580566
vn -0.8896484 0.04180908 -0.454834
vn -0.9887695 0.09619141 -0.1144409
vn -0.9921875 0.09442139 -0.08294678
vn -0.9677734 0.210083 -0.138916
vn -0.9663086 0.2111816 -0.1469727
vn -0.9399414 0.3022461 -0.1589355
vn -0.9399414 0.3022461 -0.1589355
vn -0.9882813 0.0226593 -0.1506348
vn -0.9882813 0.0226593 -0.1506348
vn -0.9882813 0.0115509 -0.151001
vn -0.9882813 0.01134491 -0.151001
vn -0.9882813 -0.0005369186 -0.1512451
vn -0.9882813 -0.0005369186 -0.1512451
vn -0.9287109 0.0635376 -0.3652344
vn -0.9287109 0.0635376 -0.3652344
vn -0.9287109 0.06561279 -0.3652344
vn -0.9287109 0.06567383 -0.3652344
vn -0.9282227 0.0680542 -0.3654785
vn -0.9282227 0.0680542 -0.3654785
vn 0.987793 0.05709839 -0.1463623
vn 0.987793 0.05709839 -0.1463623
vn 0.9838867 -0.08953857 -0.154541
vn 0.984375 -0.08374023 -0.1542969
vn 0.9604492 -0.2285156 -0.1594238
vn 0.9604492 -0.2285156 -0.1594238
vn 0.9287109 0.07324219 0.3632813
vn 0.9287109 0.07324219 0.3632813
vn 0.9248047 0.1208496 0.3613281
vn 0.9243164 0.1216431 0.3613281
vn 0.9174805 0.1724854 0.3581543
vn 0.9174805 0.1724854 0.3581543
vn 0.2612305 0.04690552 0.9643555
vn 0.2612305 0.04690552 0.9643555
vn 0.2467041 0.1748047 0.953125
vn 0.2437744 0.1972656 0.949707
vn 0.223999 0.3234863 0.9194336
vn 0.223999 0.3234863 0.9194336
vn 0.6699219 0.04449463 0.7412109
vn 0.6630859 0.04681396 0.7470703
vn 0.6630859 0.04681396 0.7470703
vn 0.6723633 0.04360962 0.7387695
vn 0.6801758 0.04077148 0.7319336
vn 0.6801758 0.04077148 0.7319336
vn -0.40625 0.03329468 0.9130859
vn -0.40625 0.03329468 0.9130859
vn -0.4050293 0.03347778 0.9135742
vn -0.404541 0.0335083 0.9140625
vn -0.4033203 0.03369141 0.9145508
vn -0.4033203 0.03369141 0.9145508
vn -0.3422852 0.02886963 0.9389648
vn -0.3422852 0.02886963 0.9389648
vn -0.347168 0.0859375 0.9335938
vn -0.3481445 0.09692383 0.9326172
vn -0.3520508 0.1555176 0.9228516
vn -0.3520508 0.1555176 0.9228516
vn 0.8974609 0.04180908 -0.4387207
vn 0.8774414 0.04467773 -0.4775391
vn 0.8984375 0.04196167 -0.4370117
vn 0.8500977 0.1090698 -0.5146484
vn 0.8452148 0.1103516 -0.5234375
vn 0.8354492 0.1525879 -0.527832
vn 0.8354492 0.1525879 -0.527832
vn 0.1351318 0.05401611 -0.9892578
vn 0.3520508 0.02598572 -0.9355469
vn -0.03997803 0.07684326 -0.9960938
vn -0.05734253 0.07598877 -0.9956055
vn -0.03741455 -0.01181793 -0.9990234
vn -0.03540039 -0.02677917 -0.9990234
vn -0.009788513 -0.1196289 -0.9926758
vn -0.009788513 -0.1196289 -0.9926758
vn 0.2145996 0.05651855 0.9750977
vn 0.2145996 0.05651855 0.9750977
vn 0.2575684 0.1462402 0.9550781
vn 0.251709 0.1335449 0.9584961
vn 0.2937012 0.2244873 0.9291992
vn 0.2937012 0.2244873 0.9291992
vn 0.7626953 0.0586853 -0.644043
vn 0.7626953 0.0586853 -0.644043
vn 0.7666016 0.03121948 -0.6416016
vn 0.7670898 0.02610779 -0.6411133
vn 0.7705078 -0.005500793 -0.637207
vn 0.7705078 -0.005500793 -0.637207
vn 0.2232666 0.03781128 0.9741211
vn -0.04083252 0.02854919 0.9985352
vn -0.0322876 0.04464722 0.9985352
vn 0.2330322 0.05603027 0.9707031
vn 0.4641113 0.04421997 0.8847656
vn 0.4675293 0.06292725 0.8818359
vn 0.470459 0.07995605 0.8789063
vn 0.2321777 0.07391357 0.9697266
vn -0.02252197 0.06304932 0.9975586
vn 0.28125 0.07318115 -0.9570313
vn 0.28125 0.07318115 -0.9570313
vn 0.2941895 0.1004639 -0.9506836
vn 0.2971191 0.1068726 -0.9487305
vn 0.3112793 0.1378174 -0.9404297
vn 0.3112793 0.1378174 -0.9404297
vn 0.4501953 0.03640747 -0.8920898
vn 0.4501953 0.03640747 -0.8920898
vn 0.423584 -0.1019287 -0.9003906
vn 0.4196777 -0.1182861 -0.8999023
vn 0.3828125 -0.2573242 -0.887207
vn 0.3828125 -0.2573242 -0.887207
vn 0.9882813 0.02555847 0.1491699
vn 0.9882813 0.02555847 0.1491699
vn 0.9873047 0.05679321 0.1488037
vn 0.9873047 0.05703735 0.1488037
vn 0.9848633 0.08874512 0.1483154
vn 0.9848633 0.08874512 0.1483154
vn -0.3349609 0.04827881 -0.940918
vn -0.3349609 0.04827881 -0.940918
vn -0.3320313 -0.06530762 -0.940918
vn -0.3325195 -0.05288696 -0.9414063
vn -0.3254395 -0.1682129 -0.9306641
vn -0.3254395 -0.1682129 -0.9306641
vn 0.9453125 0.03265381 0.3249512
vn 0.9453125 0.03265381 0.3249512
vn 0.9394531 0.1756592 0.2939453
vn 0.9389648 0.1807861 0.2927246
vn 0.9111328 0.3256836 0.2531738
vn 0.9111328 0.3256836 0.2531738
vn 0.7319336 0.03512573 -0.6806641
vn 0.7392578 0.03845215 -0.6723633
vn 0.7314453 0.0350647 -0.6811523
vn 0.7270508 0.06134033 -0.6835938
vn 0.7246094 0.06210327 -0.6860352
vn 0.7211914 0.07672119 -0.6884766
vn 0.7211914 0.07672119 -0.6884766
vn -0.1259766 0.04077148 -0.9912109
vn 0.05130005 0.01766968 -0.9985352
vn -0.2449951 0.07757568 -0.9663086
vn -0.2736816 0.05938721 -0.9599609
vn -0.2453613 0.06524658 -0.9672852
vn -0.2325439 0.08093262 -0.9692383
vn -0.229248 0.04541016 -0.972168
vn -0.229248 0.04541016 -0.972168
vn -0.996582 0.05664063 -0.05917358
vn -0.9492188 0.0473938 -0.3112793
vn -0.9516602 -0.1040649 -0.2893066
vn -0.9951172 -0.09539795 -0.02241516
vn -0.9804688 0.06201172 0.1871338
vn -0.9702148 -0.09356689 0.2231445
vn -0.9438477 -0.2182617 0.2481689
vn -0.9667969 -0.2546387 -0.003234863
vn -0.9267578 -0.2746582 -0.2558594
vn 0.4018555 0.02862549 -0.9150391
vn 0.4018555 0.02862549 -0.9150391
vn 0.3894043 0.04083252 -0.9204102
vn 0.3916016 0.03857422 -0.9194336
vn 0.378418 0.05136108 -0.9243164
vn 0.378418 0.05136108 -0.9243164
vn 0.7338867 0.2042236 -0.6479492
vn 0.668457 0.1136475 -0.7348633
vn 0.7817383 0.2636719 -0.5654297
vn 0.7875977 0.07788086 -0.6108398
vn 0.8032227 0.07110596 -0.5913086
vn 0.7978516 0.1220093 -0.590332
vn 0.7978516 0.1220093 -0.590332
vn 0.1287842 0.1571045 -0.9790039
vn 0.2037354 0.1260986 -0.9707031
vn 0.1118164 0.1346436 -0.984375
vn 0.1040039 0.1669922 -0.9804688
vn -0.014328 0.08905029 -0.9960938
vn -0.0406189 0.06677246 -0.9970703
vn -0.04147339 0.08825684 -0.9951172
vn -0.04147339 0.08825684 -0.9951172
vn 0.04415894 0.09649658 0.9941406
vn -0.1977539 0.07269287 0.9775391
vn -0.1895752 0.1120605 0.9755859
vn 0.04370117 0.1340332 0.9902344
vn 0.2617188 0.1132202 0.9584961
vn 0.2648926 0.147583 0.953125
vn 0.2678223 0.1833496 0.9458008
vn 0.02986145 0.1722412 0.984375
vn -0.1804199 0.1541748 0.9716797
vn -0.9331055 -0.1115112 -0.3417969
vn -0.9370117 0.03317261 -0.347168
vn -0.9370117 0.03317261 -0.347168
vn -0.9326172 -0.1160278 -0.3413086
vn -0.90625 -0.2675781 -0.3273926
vn -0.90625 -0.2675781 -0.3273926
vn 0.4592285 0.04681396 0.887207
vn 0.4411621 0.05560303 0.8955078
vn 0.4611816 0.04656982 0.8862305
vn 0.4492188 0.1816406 0.8745117
vn 0.4562988 0.1907959 0.8691406
vn 0.4309082 0.296875 0.8520508
vn 0.4309082 0.296875 0.8520508
vn 0.987793 0.05343628 0.1451416
vn 0.9482422 0.02348328 0.315918
vn 0.9946289 0.09454346 0.03955078
vn 0.9970703 0.07641602 0.004016876
vn 0.9750977 0.222168 0.01113892
vn 0.965332 0.2597656 0.02134705
vn 0.9331055 0.3596191 -0.001148224
vn 0.9331055 0.3596191 -0.001148224
vn -0.8300781 0.03173828 0.5566406
vn -0.8300781 0.03173828 0.5566406
vn -0.8271484 0.0267334 0.5615234
vn -0.8266602 0.02636719 0.5615234
vn -0.8237305 0.02119446 0.5668945
vn -0.8237305 0.02119446 0.5668945
vn 0.9013672 0.04476929 0.4311523
vn 0.9013672 0.04476929 0.4311523
vn 0.9135742 -0.02127075 0.4064941
vn 0.9125977 -0.01459503 0.4091797
vn 0.9204102 -0.08319092 0.3813477
vn 0.9204102 -0.08319092 0.3813477
vn -0.4484863 0.05447388 0.8920898
vn -0.4484863 0.05447388 0.8920898
vn -0.4069824 0.2169189 0.887207
vn -0.4101563 0.2060547 0.8881836
vn -0.3537598 0.3745117 0.8569336
vn -0.3537598 0.3745117 0.8569336
vn -0.8950195 0.08868408 0.4372559
vn -0.8950195 0.08868408 0.4372559
vn -0.8916016 0.09887695 0.4421387
vn -0.8916016 0.09875488 0.4421387
vn -0.8876953 0.1095581 0.4472656
vn -0.8876953 0.1095581 0.4472656
vn 0.2313232 0.9628906 -0.1376953
vn 0.2313232 0.9628906 -0.1376953
vn 0.2313232 0.9628906 -0.1376953
vn 0.2313232 0.9628906 -0.1376953
vn 0.2313232 0.9628906 -0.1376953
vn 0.2313232 0.9628906 -0.1376953
vn 0.2313232 0.9628906 -0.1376953
vn 0.2313232 0.9628906 -0.1376953
vn 0.2313232 0.9628906 -0.1376953
vn 0.2313232 0.9628906 -0.1376953
vn 0.2313232 0.9628906 -0.1376953
vn 0.2313232 0.9628906 -0.1376953
vn 0.2313232 0.9628906 -0.1376953
vn 0.2313232 0.9628906 -0.1376953
vn 0.3925781 0.9130859 -0.1105957
vn 0.3925781 0.9130859 -0.1105957
vn 0.3925781 0.9130859 -0.1105957
vn 0.3925781 0.9130859 -0.1105957
vn 0.3925781 0.9130859 -0.1105957
vn 0.3925781 0.9130859 -0.1105957
vn 0.3925781 0.9130859 -0.1105957
vn 0.3925781 0.9130859 -0.1105957
vn 0.3925781 0.9130859 -0.1105957
vn 0.3925781 0.9130859 -0.1105957
vn 0.3925781 0.9130859 -0.1105957
vn 0.3925781 0.9130859 -0.1105957
vn -0.269043 0.9584961 -0.09417725
vn -0.269043 0.9584961 -0.09417725
vn -0.269043 0.9584961 -0.09417725
vn -0.269043 0.9584961 -0.09417725
vn -0.269043 0.9584961 -0.09417725
vn -0.269043 0.9584961 -0.09417725
vn -0.269043 0.9584961 -0.09417725
vn -0.269043 0.9584961 -0.09417725
vn -0.269043 0.9584961 -0.09417725
vn -0.269043 0.9584961 -0.09417725
vn -0.269043 0.9584961 -0.09417725
vn -0.269043 0.9584961 -0.09417725
vn -0.1325684 0.9912109 -0.02006531
vn -0.1325684 0.9912109 -0.02006531
vn -0.1325684 0.9912109 -0.02006531
vn -0.1325684 0.9912109 -0.02006531
vn -0.1325684 0.9912109 -0.02006531
vn -0.1325684 0.9912109 -0.02006531
vn -0.1325684 0.9912109 -0.02006531
vn -0.1325684 0.9912109 -0.02006531
vn -0.1325684 0.9912109 -0.02006531
vn -0.1325684 0.9912109 -0.02006531
vn -0.1325684 0.9912109 -0.02006531
vn -0.1325684 0.9912109 -0.02006531
vn -0.1325684 0.9912109 -0.02006531
vn -0.1325684 0.9912109 -0.02006531
vn -0.03421021 0.9995117 -0.0134201
vn -0.03421021 0.9995117 -0.0134201
vn -0.03421021 0.9995117 -0.0134201
vn -0.03421021 0.9995117 -0.0134201
vn -0.03421021 0.9995117 -0.01341248
vn -0.03421021 0.9995117 -0.0134201
vn -0.03421021 0.9995117 -0.0134201
vn -0.03421021 0.9995117 -0.01341248
vn -0.03421021 0.9995117 -0.01341248
vn -0.03421021 0.9995117 -0.01341248
vn -0.03424072 0.9995117 -0.0134201
vn -0.03421021 0.9995117 -0.0134201
vn -0.03421021 0.9995117 -0.0134201
vn -0.03421021 0.9995117 -0.0134201
vn -0.2749023 0.9394531 -0.2049561
vn -0.2749023 0.9394531 -0.2049561
vn -0.2749023 0.9394531 -0.2049561
vn -0.2749023 0.9394531 -0.2049561
vn -0.2749023 0.9394531 -0.2049561
vn -0.2749023 0.9394531 -0.2049561
vn -0.2749023 0.9394531 -0.2049561
vn -0.2749023 0.9394531 -0.2049561
vn -0.2749023 0.9394531 -0.2049561
vn -0.2749023 0.9394531 -0.2049561
vn -0.2749023 0.9394531 -0.2049561
vn -0.2749023 0.9394531 -0.2049561
vn -0.2749023 0.9394531 -0.2049561
vn -0.2749023 0.9394531 -0.2049561

vt 0.08666992 0.2824707
vt 0.08666992 0.5805664
vt 0.08666992 0.2824707
vt 0.08666992 0.6430664
vt 0.08666992 0.6469727
vt 0.08666992 0.9130859
vt 0.08666992 0.9091797
vt 0.08666992 0.6367188
vt 0.08666992 0.2824707
vt 0.08666992 0.9091797
vt 0.08666992 0.902832
vt 0.08666992 0.2824707
vt 0.08666992 0.2824707
vt 0.08666992 0.5805664
vt 0.08666992 0.2824707
vt 0.08666992 0.6425781
vt 0.08666992 0.6469727
vt 0.08666992 0.9082031
vt 0.08666992 0.9130859
vt 0.08666992 0.2854004
vt 0.08666992 0.5634766
vt 0.08666992 0.2854004
vt 0.08666992 0.6689453
vt 0.08666992 0.6650391
vt 0.08666992 0.9311523
vt 0.08666992 0.9350586
vt 0.08666992 0.2854004
vt 0.08666992 0.2854004
vt 0.08666992 0.5634766
vt 0.08666992 0.2854004
vt 0.08666992 0.6533203
vt 0.08666992 0.6650391
vt 0.08666992 0.9194336
vt 0.08666992 0.9311523
vt 0.08666992 0.3259277
vt 0.08666992 0.3259277
vt 0.08666992 0.6342773
vt 0.08666992 0.6342773
vt 0.08666992 0.9003906
vt 0.08666992 0.9003906
vt 0.08666992 0.2854004
vt 0.08666992 0.2854004
vt 0.08666992 0.565918
vt 0.08666992 0.565918
vt 0.08666992 0.8320313
vt 0.08666992 0.8320313
vt 0.08666992 0.2854004
vt 0.08666992 0.2854004
vt 0.08666992 0.6601563
vt 0.08666992 0.6689453
vt 0.08666992 0.9350586
vt 0.08666992 0.9262695
vt 0.08666992 0.2854004
vt 0.08666992 0.2854004
vt 0.08666992 0.5776367
vt 0.08666992 0.5776367
vt 0.08666992 0.84375
vt 0.08666992 0.84375
vt 0.08666992 0.2854004
vt 0.08666992 0.2854004
vt 0.08666992 0.6352539
vt 0.08666992 0.6420898
vt 0.08666992 0.9082031
vt 0.08666992 0.9013672
vt 0.08666992 0.6298828
vt 0.08666992 0.2824707
vt 0.08666992 0.2824707
vt 0.08666992 0.6425781
vt 0.08666992 0.8959961
vt 0.08666992 0.9082031
vt 0.08666992 0.2854004
vt 0.08666992 0.2854004
vt 0.08666992 0.5878906
vt 0.08666992 0.5878906
vt 0.08666992 0.8540039
vt 0.08666992 0.8540039
vt 0.08666992 0.2854004
vt 0.08666992 0.2854004
vt 0.08666992 0.6352539
vt 0.08666992 0.6352539
vt 0.08666992 0.9013672
vt 0.08666992 0.9013672
vt 0.08666992 0.2854004
vt 0.08666992 0.5961914
vt 0.08666992 0.2854004
vt 0.08666992 0.6479492
vt 0.08666992 0.6523438
vt 0.08666992 0.918457
vt 0.08666992 0.9140625
vt 0.08666992 0.2854004
vt 0.08666992 0.2854004
vt 0.08666992 0.5961914
vt 0.08666992 0.2854004
vt 0.08666992 0.6474609
vt 0.08666992 0.6523438
vt 0.08666992 0.9135742
vt 0.08666992 0.918457
vt 0.08666992 0.2854004
vt 0.08666992 0.2854004
vt 0.08666992 0.6533203
vt 0.08666992 0.6577148
vt 0.08666992 0.9238281
vt 0.08666992 0.9194336
vt 0.08666992 0.2824707
vt 0.08666992 0.2824707
vt 0.08666992 0.6298828
vt 0.08666992 0.6298828
vt 0.08666992 0.8959961
vt 0.08666992 0.8959961
vt 0.08666992 0.3259277
vt 0.08666992 0.3259277
vt 0.08666992 0.6381836
vt 0.08666992 0.6411133
vt 0.08666992 0.3259277
vt 0.08666992 0.6494141
vt 0.08666992 0.9155273
vt 0.08666992 0.9072266
vt 0.08666992 0.9042969
vt 0.08666992 0.2824707
vt 0.08666992 0.2824707
vt 0.08666992 0.6298828
vt 0.08666992 0.6367188
vt 0.08666992 0.902832
vt 0.08666992 0.8959961
vt 0.08666992 0.2854004
vt 0.08666992 0.2854004
vt 0.08666992 0.6689453
vt 0.08666992 0.6689453
vt 0.08666992 0.9350586
vt 0.08666992 0.9350586
vt 0.08666992 0.3259277
vt 0.08666992 0.3259277
vt 0.08666992 0.6494141
vt 0.08666992 0.6494141
vt 0.08666992 0.9155273
vt 0.08666992 0.9155273
vt 0.08666992 0.2854004
vt 0.08666992 0.2854004
vt 0.08666992 0.5727539
vt 0.08666992 0.5766602
vt 0.08666992 0.8427734
vt 0.08666992 0.8388672
vt 0.08666992 0.2854004
vt 0.08666992 0.2854004
vt 0.08666992 0.6420898
vt 0.08666992 0.6479492
vt 0.08666992 0.9140625
vt 0.08666992 0.9082031
vt 0.08666992 0.3259277
vt 0.08666992 0.5820313
vt 0.08666992 0.3259277
vt 0.08666992 0.6494141
vt 0.08666992 0.6455078
vt 0.08666992 0.9116211
vt 0.08666992 0.9155273
vt 0.08666992 0.3259277
vt 0.08666992 0.3259277
vt 0.08666992 0.5820313
vt 0.08666992 0.3259277
vt 0.08666992 0.6342773
vt 0.08666992 0.6455078
vt 0.08666992 0.9003906
vt 0.08666992 0.9116211
vt 0.08666992 0.2854004
vt 0.08666992 0.2854004
vt 0.08666992 0.5766602
vt 0.08666992 0.5795898
vt 0.08666992 0.2854004
vt 0.08666992 0.5878906
vt 0.08666992 0.8540039
vt 0.08666992 0.8457031
vt 0.08666992 0.8427734
vt 0.08666992 0.2854004
vt 0.08666992 0.2854004
vt 0.08666992 0.5727539
vt 0.08666992 0.5727539
vt 0.08666992 0.8388672
vt 0.08666992 0.8388672
vt 0.08666992 0.2854004
vt 0.08666992 0.473877
vt 0.08666992 0.2854004
vt 0.08666992 0.5776367
vt 0.08666992 0.574707
vt 0.08666992 0.8408203
vt 0.08666992 0.84375
vt 0.08666992 0.2854004
vt 0.08666992 0.2854004
vt 0.08666992 0.473877
vt 0.08666992 0.2854004
vt 0.08666992 0.565918
vt 0.08666992 0.574707
vt 0.08666992 0.8320313
vt 0.08666992 0.8408203
vt 0.08666992 0.2854004
vt 0.08666992 0.2854004
vt 0.08666992 0.5693359
vt 0.08666992 0.5712891
vt 0.08666992 0.2854004
vt 0.08666992 0.5776367
vt 0.08666992 0.84375
vt 0.08666992 0.8374023
vt 0.08666992 0.8354492
vt 0.08666992 0.6352539
vt 0.08666992 0.2854004
vt 0.08666992 0.2854004
vt 0.08666992 0.6474609
vt 0.08666992 0.9013672
vt 0.08666992 0.9135742
vt 0.08666992 0.2854004
vt 0.08666992 0.5019531
vt 0.08666992 0.2854004
vt 0.08666992 0.5878906
vt 0.08666992 0.5839844
vt 0.08666992 0.8500977
vt 0.08666992 0.8540039
vt 0.08666992 0.2854004
vt 0.08666992 0.2854004
vt 0.08666992 0.5019531
vt 0.08666992 0.2854004
vt 0.08666992 0.5727539
vt 0.08666992 0.5839844
vt 0.08666992 0.8388672
vt 0.08666992 0.8500977
vt 0.08666992 0.3259277
vt 0.08666992 0.3259277
vt 0.08666992 0.6342773
vt 0.08666992 0.6381836
vt 0.08666992 0.9042969
vt 0.08666992 0.9003906
vt 0.08666992 0.2854004
vt 0.08666992 0.2854004
vt 0.08666992 0.6577148
vt 0.08666992 0.6601563
vt 0.08666992 0.9262695
vt 0.08666992 0.9238281
vt 0.08666992 0.2854004
vt 0.08666992 0.2854004
vt 0.08666992 0.6533203
vt 0.08666992 0.6533203
vt 0.08666992 0.9194336
vt 0.08666992 0.9194336
vt 0.08666992 0.2854004
vt 0.08666992 0.2854004
vt 0.08666992 0.565918
vt 0.08666992 0.5693359
vt 0.08666992 0.8354492
vt 0.08666992 0.8320313
vt 0.08666992 0.6625977
vt 0.08666992 0.9238281
vt 0.08666992 0.9194336
vt 0.08666992 0.6586914
vt 0.08666992 0.9194336
vt 0.08666992 0.6650391
vt 0.08666992 0.9262695
vt 0.08666992 0.6586914
vt 0.08666992 0.9311523
vt 0.08666992 0.6694336
vt 0.08666992 0.9350586
vt 0.08666992 0.6733398
vt 0.08666992 0.9350586
vt 0.08666992 0.6733398
vt 0.08666992 0.6416016
vt 0.08666992 0.902832
vt 0.08666992 0.8959961
vt 0.08666992 0.6352539
vt 0.08666992 0.8959961
vt 0.08666992 0.6474609
vt 0.08666992 0.9091797
vt 0.08666992 0.6508789
vt 0.08666992 0.9130859
vt 0.08666992 0.6464844
vt 0.08666992 0.9082031
vt 0.08666992 0.6352539
vt 0.08666992 0.6469727
vt 0.08666992 0.9082031
vt 0.08666992 0.9013672
vt 0.08666992 0.6401367
vt 0.08666992 0.9013672
vt 0.08666992 0.6523438
vt 0.08666992 0.9140625
vt 0.08666992 0.65625
vt 0.08666992 0.918457
vt 0.08666992 0.6518555
vt 0.08666992 0.9135742
vt 0.08666992 0.6401367
vt 0.08666992 0.6430664
vt 0.08666992 0.9042969
vt 0.08666992 0.9003906
vt 0.08666992 0.6391602
vt 0.08666992 0.9003906
vt 0.08666992 0.6455078
vt 0.08666992 0.9072266
vt 0.08666992 0.6391602
vt 0.08666992 0.9116211
vt 0.08666992 0.6503906
vt 0.08666992 0.9155273
vt 0.08666992 0.6538086
vt 0.08666992 0.9155273
vt 0.08666992 0.6538086
vt 0.08666992 0.5737305
vt 0.08666992 0.8354492
vt 0.08666992 0.8320313
vt 0.08666992 0.5708008
vt 0.08666992 0.8320313
vt 0.08666992 0.5756836
vt 0.08666992 0.8374023
vt 0.08666992 0.5708008
vt 0.08666992 0.8408203
vt 0.08666992 0.5791016
vt 0.08666992 0.84375
vt 0.08666992 0.5820313
vt 0.08666992 0.84375
vt 0.08666992 0.5820313
vt 0.08666992 0.581543
vt 0.08666992 0.8427734
vt 0.08666992 0.8388672
vt 0.08666992 0.5776367
vt 0.08666992 0.8388672
vt 0.08666992 0.5839844
vt 0.08666992 0.8457031
vt 0.08666992 0.5776367
vt 0.08666992 0.8500977
vt 0.08666992 0.5888672
vt 0.08666992 0.8540039
vt 0.08666992 0.5922852
vt 0.08666992 0.8540039
vt 0.08666992 0.5922852

g Waterfall_Rocks_6732_29
usemtl Waterfall_Rocks_6732_29
usemap Waterfall_Rocks_6732_29
f 1/1/1 3/3/3 2/2/2
f 4/4/4 1/1/1 2/2/2
f 2/2/2 5/5/5 4/4/4
f 4/4/4 5/5/5 6/6/6
f 4/4/4 6/6/6 7/7/7
f 1/1/1 4/4/4 8/8/8
f 1/1/1 8/8/8 9/9/9
f 8/8/8 4/4/4 10/10/10
f 8/8/8 10/10/10 11/11/11
f 12/12/12 14/14/14 13/13/13
f 15/15/15 14/14/14 12/12/12
f 15/15/15 16/16/16 14/14/14
f 16/16/16 17/17/17 14/14/14
f 17/17/17 16/16/16 18/18/18
f 17/17/17 18/18/18 19/19/19
f 20/20/20 22/22/22 21/21/21
f 23/23/23 20/20/20 21/21/21
f 21/21/21 24/24/24 23/23/23
f 23/23/23 24/24/24 25/25/25
f 23/23/23 25/25/25 26/26/26
f 27/27/27 29/29/29 28/28/28
f 30/30/30 29/29/29 27/27/27
f 30/30/30 31/31/31 29/29/29
f 31/31/31 32/32/32 29/29/29
f 32/32/32 31/31/31 33/33/33
f 32/32/32 33/33/33 34/34/34
f 35/35/35 37/37/37 36/36/36
f 35/35/35 38/38/38 37/37/37
f 37/37/37 38/38/38 39/39/39
f 37/37/37 39/39/39 40/40/40
f 41/41/41 43/43/43 42/42/42
f 41/41/41 44/44/44 43/43/43
f 43/43/43 44/44/44 45/45/45
f 43/43/43 45/45/45 46/46/46
f 47/47/47 49/49/49 48/48/48
f 47/47/47 50/50/50 49/49/49
f 49/49/49 50/50/50 51/51/51
f 49/49/49 51/51/51 52/52/52
f 53/53/53 55/55/55 54/54/54
f 53/53/53 56/56/56 55/55/55
f 55/55/55 56/56/56 57/57/57
f 55/55/55 57/57/57 58/58/58
f 59/59/59 61/61/61 60/60/60
f 59/59/59 62/62/62 61/61/61
f 61/61/61 62/62/62 63/63/63
f 61/61/61 63/63/63 64/64/64
f 65/65/65 67/67/67 66/66/66
f 65/65/65 68/68/68 67/67/67
f 68/68/68 65/65/65 69/69/69
f 68/68/68 69/69/69 70/70/70
f 71/71/71 73/73/73 72/72/72
f 71/71/71 74/74/74 73/73/73
f 73/73/73 74/74/74 75/75/75
f 73/73/73 75/75/75 76/76/76
f 77/77/77 79/79/79 78/78/78
f 77/77/77 80/80/80 79/79/79
f 79/79/79 80/80/80 81/81/81
f 79/79/79 81/81/81 82/82/82
f 83/83/83 85/85/85 84/84/84
f 86/86/86 83/83/83 84/84/84
f 84/84/84 87/87/87 86/86/86
f 86/86/86 87/87/87 88/88/88
f 86/86/86 88/88/88 89/89/89
f 90/90/90 92/92/92 91/91/91
f 93/93/93 92/92/92 90/90/90
f 93/93/93 94/94/94 92/92/92
f 94/94/94 95/95/95 92/92/92
f 95/95/95 94/94/94 96/96/96
f 95/95/95 96/96/96 97/97/97
f 98/98/98 100/100/100 99/99/99
f 98/98/98 101/101/101 100/100/100
f 100/100/100 101/101/101 102/102/102
f 100/100/100 102/102/102 103/103/103
f 104/104/104 106/106/106 105/105/105
f 104/104/104 107/107/107 106/106/106
f 106/106/106 107/107/107 108/108/108
f 106/106/106 108/108/108 109/109/109
f 110/110/110 112/112/112 111/111/111
f 110/110/110 113/113/113 112/112/112
f 114/114/114 113/113/113 110/110/110
f 114/114/114 115/115/115 113/113/113
f 113/113/113 115/115/115 116/116/116
f 113/113/113 116/116/116 117/117/117
f 112/112/112 113/113/113 117/117/117
f 112/112/112 117/117/117 118/118/118
f 119/119/119 121/121/121 120/120/120
f 119/119/119 122/122/122 121/121/121
f 121/121/121 122/122/122 123/123/123
f 121/121/121 123/123/123 124/124/124
f 125/125/125 127/127/127 126/126/126
f 125/125/125 128/128/128 127/127/127
f 127/127/127 128/128/128 129/129/129
f 127/127/127 129/129/129 130/130/130
f 131/131/131 133/133/133 132/132/132
f 131/131/131 134/134/134 133/133/133
f 133/133/133 134/134/134 135/135/135
f 133/133/133 135/135/135 136/136/136
f 137/137/137 139/139/139 138/138/138
f 137/137/137 140/140/140 139/139/139
f 139/139/139 140/140/140 141/141/141
f 139/139/139 141/141/141 142/142/142
f 143/143/143 145/145/145 144/144/144
f 143/143/143 146/146/146 145/145/145
f 145/145/145 146/146/146 147/147/147
f 145/145/145 147/147/147 148/148/148
f 149/149/149 151/151/151 150/150/150
f 152/152/152 149/149/149 150/150/150
f 150/150/150 153/153/153 152/152/152
f 152/152/152 153/153/153 154/154/154
f 152/152/152 154/154/154 155/155/155
f 156/156/156 158/158/158 157/157/157
f 159/159/159 158/158/158 156/156/156
f 159/159/159 160/160/160 158/158/158
f 160/160/160 161/161/161 158/158/158
f 161/161/161 160/160/160 162/162/162
f 161/161/161 162/162/162 163/163/163
f 164/164/164 166/166/166 165/165/165
f 164/164/164 167/167/167 166/166/166
f 168/168/168 167/167/167 164/164/164
f 168/168/168 169/169/169 167/167/167
f 167/167/167 169/169/169 170/170/170
f 167/167/167 170/170/170 171/171/171
f 166/166/166 167/167/167 171/171/171
f 166/166/166 171/171/171 172/172/172
f 173/173/173 175/175/175 174/174/174
f 173/173/173 176/176/176 175/175/175
f 175/175/175 176/176/176 177/177/177
f 175/175/175 177/177/177 178/178/178
f 179/179/179 181/181/181 180/180/180
f 182/182/182 179/179/179 180/180/180
f 180/180/180 183/183/183 182/182/182
f 182/182/182 183/183/183 184/184/184
f 182/182/182 184/184/184 185/185/185
f 186/186/186 188/188/188 187/187/187
f 189/189/189 188/188/188 186/186/186
f 189/189/189 190/190/190 188/188/188
f 190/190/190 191/191/191 188/188/188
f 191/191/191 190/190/190 192/192/192
f 191/191/191 192/192/192 193/193/193
f 194/194/194 196/196/196 195/195/195
f 194/194/194 197/197/197 196/196/196
f 198/198/198 197/197/197 194/194/194
f 198/198/198 199/199/199 197/197/197
f 197/197/197 199/199/199 200/200/200
f 197/197/197 200/200/200 201/201/201
f 196/196/196 197/197/197 201/201/201
f 196/196/196 201/201/201 202/202/202
f 203/203/203 205/205/205 204/204/204
f 203/203/203 206/206/206 205/205/205
f 206/206/206 203/203/203 207/207/207
f 206/206/206 207/207/207 208/208/208
f 209/209/209 211/211/211 210/210/210
f 212/212/212 209/209/209 210/210/210
f 210/210/210 213/213/213 212/212/212
f 212/212/212 213/213/213 214/214/214
f 212/212/212 214/214/214 215/215/215
f 216/216/216 218/218/218 217/217/217
f 219/219/219 218/218/218 216/216/216
f 219/219/219 220/220/220 218/218/218
f 220/220/220 221/221/221 218/218/218
f 221/221/221 220/220/220 222/222/222
f 221/221/221 222/222/222 223/223/223
f 224/224/224 226/226/226 225/225/225
f 224/224/224 227/227/227 226/226/226
f 226/226/226 227/227/227 228/228/228
f 226/226/226 228/228/228 229/229/229
f 230/230/230 232/232/232 231/231/231
f 230/230/230 233/233/233 232/232/232
f 232/232/232 233/233/233 234/234/234
f 232/232/232 234/234/234 235/235/235
f 236/236/236 238/238/238 237/237/237
f 236/236/236 239/239/239 238/238/238
f 238/238/238 239/239/239 240/240/240
f 238/238/238 240/240/240 241/241/241
f 242/242/242 244/244/244 243/243/243
f 242/242/242 245/245/245 244/244/244
f 244/244/244 245/245/245 246/246/246
f 244/244/244 246/246/246 247/247/247
f 248/248/248 250/250/250 249/249/249
f 248/248/248 251/251/251 250/250/250
f 251/251/251 252/252/252 250/250/250
f 253/253/253 248/248/248 249/249/249
f 251/251/251 248/248/248 253/253/253
f 253/253/253 249/249/249 254/254/254
f 251/251/251 255/255/255 252/252/252
f 255/255/255 256/256/256 252/252/252
f 257/257/257 255/255/255 251/251/251
f 255/255/255 257/257/257 256/256/256
f 253/253/253 257/257/257 251/251/251
f 257/257/257 258/258/258 256/256/256
f 259/259/259 253/253/253 254/254/254
f 253/253/253 259/259/259 257/257/257
f 259/259/259 254/254/254 260/260/260
f 261/261/261 260/260/260 258/258/258
f 257/257/257 261/261/261 258/258/258
f 259/259/259 261/261/261 257/257/257
f 261/261/261 259/259/259 260/260/260
f 262/262/262 264/264/264 263/263/263
f 262/262/262 265/265/265 264/264/264
f 265/265/265 266/266/266 264/264/264
f 267/267/267 262/262/262 263/263/263
f 267/267/267 263/263/263 268/268/268
f 262/262/262 267/267/267 269/269/269
f 269/269/269 267/267/267 268/268/268
f 269/269/269 265/265/265 262/262/262
f 269/269/269 268/268/268 270/270/270
f 271/271/271 269/269/269 270/270/270
f 269/269/269 271/271/271 265/265/265
f 271/271/271 270/270/270 272/272/272
f 265/265/265 273/273/273 266/266/266
f 271/271/271 273/273/273 265/265/265
f 273/273/273 272/272/272 266/266/266
f 273/273/273 271/271/271 272/272/272
f 274/274/274 276/276/276 275/275/275
f 274/274/274 277/277/277 276/276/276
f 277/277/277 278/278/278 276/276/276
f 279/279/279 274/274/274 275/275/275
f 279/279/279 275/275/275 280/280/280
f 274/274/274 279/279/279 281/281/281
f 281/281/281 279/279/279 280/280/280
f 281/281/281 277/277/277 274/274/274
f 281/281/281 280/280/280 282/282/282
f 283/283/283 281/281/281 282/282/282
f 281/281/281 283/283/283 277/277/277
f 283/283/283 282/282/282 284/284/284
f 277/277/277 285/285/285 278/278/278
f 283/283/283 285/285/285 277/277/277
f 285/285/285 284/284/284 278/278/278
f 285/285/285 283/283/283 284/284/284
f 286/286/286 288/288/288 287/287/287
f 286/286/286 289/289/289 288/288/288
f 289/289/289 290/290/290 288/288/288
f 291/291/291 286/286/286 287/287/287
f 289/289/289 286/286/286 291/291/291
f 291/291/291 287/287/287 292/292/292
f 289/289/289 293/293/293 290/290/290
f 293/293/293 294/294/294 290/290/290
f 295/295/295 293/293/293 289/289/289
f 293/293/293 295/295/295 294/294/294
f 291/291/291 295/295/295 289/289/289
f 295/295/295 296/296/296 294/294/294
f 297/297/297 291/291/291 292/292/292
f 291/291/291 297/297/297 295/295/295
f 297/297/297 292/292/292 298/298/298
f 299/299/299 298/298/298 296/296/296
f 295/295/295 299/299/299 296/296/296
f 297/297/297 299/299/299 295/295/295
f 299/299/299 297/297/297 298/298/298
f 300/300/300 302/302/302 301/301/301
f 300/300/300 303/303/303 302/302/302
f 303/303/303 304/304/304 302/302/302
f 305/305/305 300/300/300 301/301/301
f 303/303/303 300/300/300 305/305/305
f 305/305/305 301/301/301 306/306/306
f 303/303/303 307/307/307 304/304/304
f 307/307/307 308/308/308 304/304/304
f 309/309/309 307/307/307 303/303/303
f 307/307/307 309/309/309 308/308/308
f 305/305/305 309/309/309 303/303/303
f 309/309/309 310/310/310 308/308/308
f 311/311/311 305/305/305 306/306/306
f 305/305/305 311/311/311 309/309/309
f 311/311/311 306/306/306 312/312/312
f 313/313/313 312/312/312 310/310/310
f 309/309/309 313/313/313 310/310/310
f 311/311/311 313/313/313 309/309/309
f 313/313/313 311/311/311 312/312/312
f 314/314/314 316/316/316 315/315/315
f 314/314/314 317/317/317 316/316/316
f 317/317/317 318/318/318 316/316/316
f 319/319/319 314/314/314 315/315/315
f 317/317/317 314/314/314 319/319/319
f 319/319/319 315/315/315 320/320/320
f 317/317/317 321/321/321 318/318/318
f 321/321/321 322/322/322 318/318/318
f 323/323/323 321/321/321 317/317/317
f 321/321/321 323/323/323 322/322/322
f 319/319/319 323/323/323 317/317/317
f 323/323/323 324/324/324 322/322/322
f 325/325/325 319/319/319 320/320/320
f 319/319/319 325/325/325 323/323/323
f 325/325/325 320/320/320 326/326/326
f 327/327/327 326/326/326 324/324/324
f 323/323/323 327/327/327 324/324/324
f 325/325/325 327/327/327 323/323/323
f 327/327/327 325/325/325 326/326/326
