#Water_1124_1.obj

v 4 -1.060471E-16 5
v 5 1.355479E-16 4
v 5 1.638929E-17 5
v 4 1.311151E-17 4
v 3 -2.284836E-16 5
v 5 2.547065E-16 3
v 3 -1.09325E-16 4
v 2 -3.509201E-16 5
v 4 1.322701E-16 3
v 5 3.73865E-16 2
v 2 -2.317615E-16 4
v 1 -4.733565E-16 5
v 3 9.833625E-18 3
v 4.000001 2.514287E-16 2
v 5 4.930237E-16 0.9999999
v 1 -3.541979E-16 4
v -7.128332E-08 -5.95793E-16 5
v 2 -1.126029E-16 3
v 3 1.289922E-16 2
v 4 3.705873E-16 0.9999998
v 5 6.121822E-16 -1.468389E-07
v 4.959817E-09 -4.766344E-16 4
v -0.9999999 -7.182294E-16 5
v 1 -2.350393E-16 3
v 2 6.555719E-18 2
v 3 2.481508E-16 0.9999998
v 4.000001 4.897459E-16 7.360447E-08
v 5 7.313409E-16 -1
v -0.9999998 -5.990708E-16 4
v -2 -8.406659E-16 5
v 8.120296E-08 -3.574757E-16 3
v 1 -1.158807E-16 2
v 2 1.257143E-16 0.9999999
v 3 3.673094E-16 -2.441169E-08
v 4 6.089045E-16 -1
v 5 8.504994E-16 -2
v -2 -7.215073E-16 4
v -3 -9.631024E-16 5
v -0.9999999 -4.799122E-16 3
v -1.524861E-07 -2.383172E-16 2
v 1 3.277888E-18 0.9999999
v 2 2.448729E-16 -1.224269E-07
v 3 4.864681E-16 -1
v 4.000001 7.280631E-16 -2
v 5 9.69658E-16 -3
v 4 8.472216E-16 -3
v 5 1.088817E-15 -4
v 3 6.056265E-16 -2
v 2 3.640315E-16 -1
v 1 1.224365E-16 9.801548E-08
v -7.624314E-08 -1.191586E-16 1
v 4 9.663803E-16 -4
v 5 1.207975E-15 -5
v 4 1.085539E-15 -5
v 3 7.247851E-16 -3
v 3 8.439438E-16 -4
v 3 9.631024E-16 -5
v 2 4.831901E-16 -2
v 1 2.415951E-16 -1
v 2 6.023487E-16 -3
v 2 7.215073E-16 -4
v 2 8.406659E-16 -5
v 1 3.607536E-16 -2
v 0 0 0
v 1 4.799123E-16 -3
v 1 5.990709E-16 -4
v 1 7.182294E-16 -5
v 7.624314E-08 1.191586E-16 -1
v 1.524861E-07 2.383172E-16 -2
v -8.120318E-08 3.574757E-16 -3
v -4.959817E-09 4.766344E-16 -4
v 7.128354E-08 5.95793E-16 -5
v -0.9999998 3.54198E-16 -4.000001
v -0.9999999 4.733565E-16 -5
v -0.9999999 2.350394E-16 -3
v -1 1.158807E-16 -2
v -0.9999999 -3.277831E-18 -1
v -0.9999998 -1.224364E-16 -9.801525E-08
v -2 2.317615E-16 -4
v -2 3.509201E-16 -5
v -2 1.126029E-16 -3
v -2 -6.5557E-18 -2
v -2 -1.257142E-16 -1
v -3 1.09325E-16 -4
v -3 2.284836E-16 -5
v -3 -9.833625E-18 -3
v -3 -1.289922E-16 -2
v -4 -1.31114E-17 -4
v -4 1.060472E-16 -5
v -4 -1.3227E-16 -3
v -5 -1.355479E-16 -4
v -5 -1.638925E-17 -5
v -5 -2.547065E-16 -3
v -5 -3.738651E-16 -2
v -4 -2.514287E-16 -2
v -5 -4.930236E-16 -1
v -4 -3.705872E-16 -1
v -5 -6.121823E-16 1.468386E-07
v -3 -2.481507E-16 -1
v -4 -4.897458E-16 -7.360379E-08
v -5 -7.313408E-16 0.9999999
v -3 -3.673094E-16 2.441146E-08
v -4 -6.089044E-16 1
v -5 -8.504994E-16 2
v -2 -2.448729E-16 1.224271E-07
v -4 -7.28063E-16 2
v -5 -9.69658E-16 3
v -3 -4.86468E-16 0.9999998
v -2 -3.640315E-16 0.9999999
v -4 -8.472216E-16 3
v -5 -1.088817E-15 4
v -3 -6.056265E-16 2
v -0.9999999 -2.41595E-16 1
v -4 -9.663802E-16 4
v -5 -1.207975E-15 5
v -4 -1.085539E-15 5
v -3 -7.247851E-16 3
v -2 -4.831901E-16 2
v -1 -3.607536E-16 2
v -3 -8.439438E-16 4
v -2 -6.023487E-16 3

g Water_1124_1
usemtl Water_1124_1
usemap Water_1124_1
f 1 3 2
f 1 2 4
f 5 1 4
f 4 2 6
f 5 4 7
f 8 5 7
f 4 6 9
f 7 4 9
f 9 6 10
f 8 7 11
f 12 8 11
f 7 9 13
f 11 7 13
f 9 10 14
f 13 9 14
f 14 10 15
f 12 11 16
f 17 12 16
f 11 13 18
f 16 11 18
f 13 14 19
f 18 13 19
f 14 15 20
f 19 14 20
f 20 15 21
f 17 16 22
f 23 17 22
f 16 18 24
f 22 16 24
f 18 19 25
f 24 18 25
f 19 20 26
f 25 19 26
f 20 21 27
f 26 20 27
f 27 21 28
f 23 22 29
f 30 23 29
f 22 24 31
f 29 22 31
f 24 25 32
f 31 24 32
f 25 26 33
f 32 25 33
f 26 27 34
f 33 26 34
f 27 28 35
f 34 27 35
f 35 28 36
f 30 29 37
f 38 30 37
f 29 31 39
f 37 29 39
f 31 32 40
f 39 31 40
f 32 33 41
f 40 32 41
f 33 34 42
f 41 33 42
f 34 35 43
f 42 34 43
f 35 36 44
f 43 35 44
f 44 36 45
f 44 45 46
f 46 45 47
f 43 44 48
f 48 44 46
f 42 43 49
f 49 43 48
f 41 42 50
f 50 42 49
f 40 41 51
f 51 41 50
f 46 47 52
f 52 47 53
f 52 53 54
f 48 46 55
f 55 46 52
f 56 52 54
f 55 52 56
f 56 54 57
f 49 48 58
f 58 48 55
f 50 49 59
f 59 49 58
f 60 55 56
f 58 55 60
f 61 56 57
f 60 56 61
f 61 57 62
f 63 58 60
f 59 58 63
f 64 50 59
f 51 50 64
f 65 60 61
f 63 60 65
f 66 61 62
f 65 61 66
f 66 62 67
f 68 59 63
f 64 59 68
f 69 63 65
f 68 63 69
f 70 65 66
f 69 65 70
f 71 66 67
f 70 66 71
f 71 67 72
f 73 71 72
f 73 72 74
f 75 70 71
f 75 71 73
f 76 69 70
f 76 70 75
f 77 68 69
f 77 69 76
f 78 64 68
f 78 68 77
f 79 73 74
f 79 74 80
f 81 75 73
f 81 73 79
f 82 76 75
f 82 75 81
f 83 77 76
f 83 76 82
f 84 79 80
f 84 80 85
f 86 81 79
f 86 79 84
f 87 82 81
f 87 81 86
f 88 84 85
f 88 85 89
f 90 86 84
f 90 84 88
f 91 88 89
f 91 89 92
f 93 88 91
f 93 90 88
f 94 90 93
f 95 86 90
f 94 95 90
f 95 87 86
f 96 95 94
f 96 97 95
f 97 87 95
f 98 97 96
f 97 99 87
f 99 82 87
f 99 83 82
f 98 100 97
f 100 99 97
f 101 100 98
f 102 83 99
f 100 102 99
f 101 103 100
f 103 102 100
f 104 103 101
f 102 105 83
f 105 77 83
f 105 78 77
f 104 106 103
f 107 106 104
f 103 108 102
f 108 105 102
f 106 108 103
f 109 78 105
f 108 109 105
f 107 110 106
f 111 110 107
f 106 112 108
f 112 109 108
f 110 112 106
f 109 113 78
f 113 64 78
f 113 51 64
f 111 114 110
f 115 114 111
f 115 116 114
f 110 117 112
f 114 117 110
f 112 118 109
f 118 113 109
f 117 118 112
f 119 51 113
f 118 119 113
f 119 40 51
f 39 40 119
f 116 120 114
f 114 120 117
f 116 38 120
f 38 37 120
f 117 121 118
f 121 119 118
f 121 39 119
f 120 121 117
f 120 37 121
f 37 39 121
