#Wharf_Pier_6265_0.obj

v -1.723686 1.146759 -2.419945
v -1.723686 0.9163116 -2.419945
v 1.720993 0.9163116 -2.419945
v 1.720993 1.146759 -2.419945
v 1.695979 1.171774 -2.39493
v 1.695979 1.171774 1.608503
v -1.698672 1.171774 1.608503
v -1.698671 1.171774 -2.39493
v -1.723686 0.9163116 -2.419945
v -1.723686 0.9163118 1.633518
v 1.720993 0.9163118 1.633518
v 1.720993 0.9163116 -2.419945
v 1.720993 0.9163116 -2.419945
v 1.720993 0.9163118 1.633518
v 1.720993 1.146759 1.633518
v 1.720993 1.146759 -2.419945
v 1.061109 0.6152382 1.531495
v 1.061109 0.859382 1.531495
v -1.061109 0.859382 1.531493
v -1.061109 0.6152382 1.531493
v 1.061109 0.6152382 2.036183
v -1.061109 0.6152382 2.036184
v -1.061109 0.859382 2.036184
v 1.061109 0.859382 2.036183
v 1.061109 0.859382 1.531495
v 1.061109 0.859382 2.036183
v -1.061109 0.859382 2.036184
v -1.061109 0.859382 1.531493
v 1.061109 0.6152382 1.531495
v 1.061109 0.6152382 2.036183
v 1.061109 0.859382 2.036183
v 1.061109 0.859382 1.531495
v -1.061109 0.6152382 1.531493
v -1.061109 0.6152382 2.036184
v 1.061109 0.6152382 2.036183
v 1.061109 0.6152382 1.531495
v -1.061109 0.859382 1.531493
v -1.061109 0.859382 2.036184
v -1.061109 0.6152382 2.036184
v -1.061109 0.6152382 1.531493
v -1.061109 0.551763 1.975721
v -1.061109 0.5517631 2.480409
v -1.061109 0.3076192 2.480409
v -1.061109 0.3076192 1.975721
v -1.061109 0.3076192 1.975721
v -1.061109 0.3076192 2.480409
v 1.061109 0.3076192 2.480409
v 1.061109 0.3076192 1.97572
v 1.061109 0.3076192 1.97572
v 1.061109 0.3076192 2.480409
v 1.061109 0.5517631 2.480409
v 1.061109 0.551763 1.97572
v 1.061109 0.551763 1.97572
v 1.061109 0.5517631 2.480409
v -1.061109 0.5517631 2.480409
v -1.061109 0.551763 1.975721
v 1.061109 0.3076192 2.480409
v -1.061109 0.3076192 2.480409
v -1.061109 0.5517631 2.480409
v 1.061109 0.5517631 2.480409
v 1.061109 0.3076192 1.97572
v 1.061109 0.551763 1.97572
v -1.061109 0.551763 1.975721
v -1.061109 0.3076192 1.975721
v -1.199082 1.278399E-07 2.924635
v -1.199082 0.2980256 2.924635
v -1.066213 0.2980256 2.924635
v -1.066213 1.278399E-07 2.924635
v 1.066213 1.278399E-07 2.924635
v 1.066213 0.2980256 2.924635
v 1.199082 0.2980256 2.924635
v 1.199082 1.278399E-07 2.924635
v 1.066213 1.278399E-07 2.924635
v 1.199082 1.278399E-07 2.924635
v 1.199082 0.9225435 1.635592
v 1.066213 0.9225435 1.635592
v 1.066213 0.9225435 1.635592
v 1.199082 0.9225435 1.635592
v 1.199082 1.220569 1.635592
v 1.066213 1.220569 1.635592
v -1.199082 0.9225435 1.635593
v -1.066213 0.9225435 1.635593
v -1.066213 1.220569 1.635593
v -1.199082 1.220569 1.635593
v -1.066213 0.2980256 2.924635
v -1.199082 0.2980256 2.924635
v -1.199082 1.220569 1.635593
v -1.066213 1.220569 1.635593
v 1.199082 0.9225435 1.635592
v 1.199082 1.278399E-07 2.924635
v 1.199082 0.2980256 2.924635
v 1.199082 1.220569 1.635592
v 1.066213 0.9225435 1.635592
v 1.066213 1.220569 1.635592
v 1.066213 0.2980256 2.924635
v 1.066213 1.278399E-07 2.924635
v 1.066213 1.220569 1.635592
v 1.199082 1.220569 1.635592
v 1.199082 0.2980256 2.924635
v 1.066213 0.2980256 2.924635
v -1.066213 0.9225435 1.635593
v -1.199082 0.9225435 1.635593
v -1.199082 1.278399E-07 2.924635
v -1.066213 1.278399E-07 2.924635
v -1.199082 1.220569 1.635593
v -1.199082 0.2980256 2.924635
v -1.199082 1.278399E-07 2.924635
v -1.199082 0.9225435 1.635593
v -1.066213 1.220569 1.635593
v -1.066213 0.9225435 1.635593
v -1.066213 1.278399E-07 2.924635
v -1.066213 0.2980256 2.924635
v 1.720993 0.9163118 1.633518
v -1.723686 0.9163118 1.633518
v -1.723686 1.146759 1.633518
v 1.720993 1.146759 1.633518
v 1.061109 1.057792E-07 2.419945
v 1.061109 0.2441438 2.419945
v -1.061109 0.2441438 2.419946
v -1.061109 1.057792E-07 2.419946
v 1.061109 1.278399E-07 2.924635
v -1.061109 1.278399E-07 2.924635
v -1.061109 0.2441439 2.924635
v 1.061109 0.2441439 2.924635
v 1.061109 0.2441438 2.419945
v 1.061109 0.2441439 2.924635
v -1.061109 0.2441439 2.924635
v -1.061109 0.2441438 2.419946
v 1.061109 1.057792E-07 2.419945
v 1.061109 1.278399E-07 2.924635
v 1.061109 0.2441439 2.924635
v 1.061109 0.2441438 2.419945
v -1.061109 1.057792E-07 2.419946
v -1.061109 1.278399E-07 2.924635
v 1.061109 1.278399E-07 2.924635
v 1.061109 1.057792E-07 2.419945
v -1.061109 0.2441438 2.419946
v -1.061109 0.2441439 2.924635
v -1.061109 1.278399E-07 2.924635
v -1.061109 1.057792E-07 2.419946
v 1.385919 1.228741 1.292326
v 1.492638 1.228741 1.248122
v 1.599357 1.228741 1.292326
v 1.341715 1.228741 1.399046
v 1.643561 1.228741 1.399046
v 1.385919 1.228741 1.505764
v 1.599357 1.228741 1.505764
v 1.492638 1.228741 1.549969
v 1.385919 1.228741 -0.4749428
v 1.492638 1.228741 -0.5191476
v 1.599357 1.228741 -0.474943
v 1.643561 1.228741 -0.3682231
v 1.341715 1.228741 -0.3682228
v 1.599357 1.228741 -0.261505
v 1.385919 1.228741 -0.2615047
v 1.492638 1.228741 -0.2173001
v 1.385919 1.228741 -2.297922
v 1.492638 1.228741 -2.342127
v 1.599357 1.228741 -2.297922
v 1.341714 1.228741 -2.191202
v 1.643561 1.228741 -2.191202
v 1.385919 1.228741 -2.084484
v 1.599357 1.228741 -2.084484
v 1.492638 1.228741 -2.040279
v 1.220951 0.9494858 2.039872
v 1.32767 0.9494858 1.995667
v 1.434389 0.9494858 2.039871
v 1.176746 0.9494858 2.146591
v 1.478593 0.9494858 2.146591
v 1.220951 0.9494858 2.25331
v 1.434389 0.9494858 2.253309
v 1.32767 0.9494858 2.297514
v -1.434388 0.9494858 2.039872
v -1.327669 0.9494858 1.995668
v -1.220951 0.9494858 2.039872
v -1.478593 0.9494858 2.146591
v -1.176746 0.9494858 2.14659
v -1.434389 0.9494858 2.25331
v -1.220951 0.9494858 2.25331
v -1.32767 0.9494858 2.297514
v -1.60205 1.228741 1.292326
v -1.49533 1.228741 1.248121
v -1.388611 1.228741 1.292325
v -1.646254 1.228741 1.399046
v -1.344407 1.228741 1.399045
v -1.60205 1.228741 1.505764
v -1.388612 1.228741 1.505765
v -1.495331 1.228741 1.549968
v -1.60205 1.228741 -2.29792
v -1.495331 1.228741 -2.342125
v -1.388612 1.228741 -2.297921
v -1.646255 1.228741 -2.191202
v -1.344407 1.228741 -2.191203
v -1.60205 1.228741 -2.084482
v -1.388612 1.228741 -2.084483
v -1.495331 1.228741 -2.040278
v -1.60205 1.228741 -0.4749434
v -1.495331 1.228741 -0.5191463
v -1.388612 1.228741 -0.4749417
v -1.646254 1.228741 -0.3682234
v -1.344407 1.228741 -0.3682237
v -1.60205 1.228741 -0.2615035
v -1.388612 1.228741 -0.2615037
v -1.495331 1.228741 -0.2172989
v 1.695979 1.171774 -2.39493
v 1.720993 1.146759 -2.419945
v 1.720993 1.146759 1.633518
v 1.695979 1.171774 1.608503
v 1.720993 1.146759 1.633518
v -1.723686 1.146759 1.633518
v -1.698672 1.171774 1.608503
v -1.723686 1.146759 1.633518
v -1.723686 1.146759 -2.419945
v -1.698671 1.171774 -2.39493
v 1.720993 1.146759 -2.419945
v -1.723686 1.146759 -2.419945
v -1.723686 0.9163118 1.633518
v -1.723686 0.9163116 -2.419945
v -1.723686 1.146759 -2.419945
v -1.723686 1.146759 1.633518
v -1.495331 -3.647217 -0.5191461
v -1.60205 1.228741 -0.4749434
v -1.60205 -3.647217 -0.4749432
v -1.646254 -3.647217 -0.3682232
v -1.495331 1.228741 -0.5191463
v -1.646254 1.228741 -0.3682234
v -1.60205 -3.647217 -0.2615032
v -1.60205 1.228741 -0.2615035
v -1.495331 -3.647217 -0.2172987
v -1.495331 1.228741 -0.2172989
v -1.388612 -3.647217 -0.2615035
v -1.388612 1.228741 -0.2615037
v -1.344407 -3.647217 -0.3682235
v -1.344407 1.228741 -0.3682237
v -1.388612 -3.647217 -0.4749415
v -1.388612 1.228741 -0.4749417
v -1.388611 -3.647217 1.292326
v -1.388611 1.228741 1.292325
v -1.49533 1.228741 1.248121
v -1.344407 1.228741 1.399045
v -1.49533 -3.647217 1.248121
v -1.344407 -3.647217 1.399046
v -1.388612 1.228741 1.505765
v -1.388612 -3.647217 1.505764
v -1.495331 1.228741 1.549968
v -1.495331 -3.647217 1.549969
v -1.60205 1.228741 1.505764
v -1.60205 -3.647217 1.505764
v -1.646254 1.228741 1.399046
v -1.646254 -3.647217 1.399046
v -1.60205 1.228741 1.292326
v -1.60205 -3.647217 1.292326
v -1.220951 -3.647217 2.039873
v -1.220951 0.9494858 2.039872
v -1.327669 0.9494858 1.995668
v -1.176746 0.9494858 2.14659
v -1.327669 -3.647217 1.995668
v -1.176746 -3.647217 2.146591
v -1.220951 0.9494858 2.25331
v -1.220951 -3.647217 2.253311
v -1.32767 0.9494858 2.297514
v -1.32767 -3.647217 2.297515
v -1.434389 0.9494858 2.25331
v -1.434389 -3.647217 2.25331
v -1.478593 0.9494858 2.146591
v -1.478593 -3.647217 2.146591
v -1.434388 0.9494858 2.039872
v -1.434388 -3.647217 2.039872
v 1.434389 -3.647217 2.039872
v 1.434389 0.9494858 2.039871
v 1.32767 0.9494858 1.995667
v 1.478593 0.9494858 2.146591
v 1.32767 -3.647217 1.995667
v 1.478593 -3.647217 2.146592
v 1.434389 0.9494858 2.253309
v 1.434389 -3.647217 2.25331
v 1.32767 0.9494858 2.297514
v 1.32767 -3.647217 2.297515
v 1.220951 0.9494858 2.25331
v 1.220951 -3.647217 2.25331
v 1.176746 0.9494858 2.146591
v 1.176746 -3.647217 2.146591
v 1.220951 0.9494858 2.039872
v 1.220951 -3.647217 2.039872
v 1.341715 -3.647217 -0.3682226
v 1.385919 -3.647217 -0.4749426
v 1.385919 1.228741 -0.4749428
v 1.492638 -3.647217 -0.5191474
v 1.341715 1.228741 -0.3682228
v 1.492638 1.228741 -0.5191476
v 1.385919 -3.647217 -0.2615045
v 1.385919 1.228741 -0.2615047
v 1.492638 -3.647217 -0.2172999
v 1.492638 1.228741 -0.2173001
v 1.599357 -3.647217 -0.2615048
v 1.599357 1.228741 -0.261505
v 1.643561 -3.647217 -0.3682229
v 1.643561 1.228741 -0.3682231
v 1.599357 -3.647217 -0.4749428
v 1.599357 1.228741 -0.474943
v 1.341715 -3.647217 1.399047
v 1.385919 -3.647217 1.292327
v 1.385919 1.228741 1.292326
v 1.492638 -3.647217 1.248122
v 1.341715 1.228741 1.399046
v 1.492638 1.228741 1.248122
v 1.385919 -3.647217 1.505765
v 1.385919 1.228741 1.505764
v 1.492638 -3.647217 1.549969
v 1.492638 1.228741 1.549969
v 1.599357 -3.647217 1.505764
v 1.599357 1.228741 1.505764
v 1.643561 -3.647217 1.399046
v 1.643561 1.228741 1.399046
v 1.599357 -3.647217 1.292326
v 1.599357 1.228741 1.292326
v -1.344407 -3.647217 -2.191202
v -1.388612 -3.647217 -2.084482
v -1.388612 1.228741 -2.084483
v -1.344407 1.228741 -2.191203
v -1.495331 1.228741 -2.040278
v -1.388612 -3.647217 -2.29792
v -1.495331 -3.647217 -2.040278
v -1.388612 1.228741 -2.297921
v -1.60205 1.228741 -2.084482
v -1.495331 -3.647217 -2.342125
v -1.60205 -3.647217 -2.084482
v -1.495331 1.228741 -2.342125
v -1.646255 1.228741 -2.191202
v -1.60205 -3.647217 -2.29792
v -1.646255 -3.647217 -2.191202
v -1.60205 1.228741 -2.29792
v 1.341714 -3.647217 -2.191201
v 1.385919 -3.647217 -2.297922
v 1.385919 1.228741 -2.297922
v 1.341714 1.228741 -2.191202
v 1.492638 1.228741 -2.342127
v 1.385919 -3.647217 -2.084484
v 1.492638 -3.647217 -2.342126
v 1.385919 1.228741 -2.084484
v 1.599357 1.228741 -2.297922
v 1.492638 -3.647217 -2.040279
v 1.599357 -3.647217 -2.297922
v 1.492638 1.228741 -2.040279
v 1.643561 1.228741 -2.191202
v 1.599357 -3.647217 -2.084482
v 1.643561 -3.647217 -2.191202
v 1.599357 1.228741 -2.084484

vn -0.9575195 0.2880859 -1.013279E-06
vn -1 5.960464E-08 -1.072884E-06
vn -1 5.960464E-08 -1.072884E-06
vn -0.9575195 0.2880859 -1.013279E-06
vn -0.300293 0.9052734 -0.300293
vn 0.300293 0.9052734 -0.300293
vn 0.300293 0.9052734 0.300293
vn -0.300293 0.9052734 0.300293
vn -5.960464E-08 -1 0
vn -5.960464E-08 -1 0
vn -5.960464E-08 -1 0
vn -5.960464E-08 -1 0
vn 1.072884E-06 0 -1
vn 1.072884E-06 0 -1
vn 1.013279E-06 0.2880859 -0.9575195
vn 1.013279E-06 0.2880859 -0.9575195
vn -1 5.960464E-08 -1.072884E-06
vn -1 5.960464E-08 -1.072884E-06
vn -1 5.960464E-08 -1.072884E-06
vn -1 5.960464E-08 -1.072884E-06
vn 1 -5.960464E-08 1.072884E-06
vn 1 -5.960464E-08 1.072884E-06
vn 1 -5.960464E-08 1.072884E-06
vn 1 -5.960464E-08 1.072884E-06
vn 5.960464E-08 1 0
vn 5.960464E-08 1 0
vn 5.960464E-08 1 0
vn 5.960464E-08 1 0
vn 1.072884E-06 0 -1
vn 1.072884E-06 0 -1
vn 1.072884E-06 0 -1
vn 1.072884E-06 0 -1
vn -5.960464E-08 -1 0
vn -5.960464E-08 -1 0
vn -5.960464E-08 -1 0
vn -5.960464E-08 -1 0
vn -1.072884E-06 0 1
vn -1.072884E-06 0 1
vn -1.072884E-06 0 1
vn -1.072884E-06 0 1
vn -1.072884E-06 0 1
vn -1.072884E-06 0 1
vn -1.072884E-06 0 1
vn -1.072884E-06 0 1
vn -5.960464E-08 -1 0
vn -5.960464E-08 -1 0
vn -5.960464E-08 -1 0
vn -5.960464E-08 -1 0
vn 1.072884E-06 0 -1
vn 1.072884E-06 0 -1
vn 1.072884E-06 0 -1
vn 1.072884E-06 0 -1
vn 5.960464E-08 1 0
vn 5.960464E-08 1 0
vn 5.960464E-08 1 0
vn 5.960464E-08 1 0
vn 1 -5.960464E-08 1.072884E-06
vn 1 -5.960464E-08 1.072884E-06
vn 1 -5.960464E-08 1.072884E-06
vn 1 -5.960464E-08 1.072884E-06
vn -1 5.960464E-08 -1.072884E-06
vn -1 5.960464E-08 -1.072884E-06
vn -1 5.960464E-08 -1.072884E-06
vn -1 5.960464E-08 -1.072884E-06
vn 1 -5.960464E-08 1.072884E-06
vn 1 -5.960464E-08 1.072884E-06
vn 1 -5.960464E-08 1.072884E-06
vn 1 -5.960464E-08 1.072884E-06
vn 1 -5.960464E-08 1.072884E-06
vn 1 -5.960464E-08 1.072884E-06
vn 1 -5.960464E-08 1.072884E-06
vn 1 -5.960464E-08 1.072884E-06
vn -0.5820313 -0.8129883 -5.960464E-07
vn -0.5820313 -0.8129883 -5.960464E-07
vn -0.5820313 -0.8129883 -5.960464E-07
vn -0.5820313 -0.8129883 -5.960464E-07
vn -1 5.960464E-08 -1.072884E-06
vn -1 5.960464E-08 -1.072884E-06
vn -1 5.960464E-08 -1.072884E-06
vn -1 5.960464E-08 -1.072884E-06
vn -1 5.960464E-08 -1.072884E-06
vn -1 5.960464E-08 -1.072884E-06
vn -1 5.960464E-08 -1.072884E-06
vn -1 5.960464E-08 -1.072884E-06
vn 0.5820313 0.8129883 5.960464E-07
vn 0.5820313 0.8129883 5.960464E-07
vn 0.5820313 0.8129883 5.960464E-07
vn 0.5820313 0.8129883 5.960464E-07
vn 1.072884E-06 0 -1
vn 1.072884E-06 0 -1
vn 1.072884E-06 0 -1
vn 1.072884E-06 0 -1
vn -1.072884E-06 0 1
vn -1.072884E-06 0 1
vn -1.072884E-06 0 1
vn -1.072884E-06 0 1
vn 0.5820313 0.8129883 5.960464E-07
vn 0.5820313 0.8129883 5.960464E-07
vn 0.5820313 0.8129883 5.960464E-07
vn 0.5820313 0.8129883 5.960464E-07
vn -0.5820313 -0.8129883 -5.960464E-07
vn -0.5820313 -0.8129883 -5.960464E-07
vn -0.5820313 -0.8129883 -5.960464E-07
vn -0.5820313 -0.8129883 -5.960464E-07
vn -1.072884E-06 0 1
vn -1.072884E-06 0 1
vn -1.072884E-06 0 1
vn -1.072884E-06 0 1
vn 1.072884E-06 0 -1
vn 1.072884E-06 0 -1
vn 1.072884E-06 0 -1
vn 1.072884E-06 0 -1
vn 1 -5.960464E-08 1.072884E-06
vn 1 -5.960464E-08 1.072884E-06
vn 0.9575195 0.2880859 1.013279E-06
vn 0.9575195 0.2880859 1.013279E-06
vn -1 5.960464E-08 -1.072884E-06
vn -1 5.960464E-08 -1.072884E-06
vn -1 5.960464E-08 -1.072884E-06
vn -1 5.960464E-08 -1.072884E-06
vn 1 -5.960464E-08 1.072884E-06
vn 1 -5.960464E-08 1.072884E-06
vn 1 -5.960464E-08 1.072884E-06
vn 1 -5.960464E-08 1.072884E-06
vn 5.960464E-08 1 0
vn 5.960464E-08 1 0
vn 5.960464E-08 1 0
vn 5.960464E-08 1 0
vn 1.072884E-06 0 -1
vn 1.072884E-06 0 -1
vn 1.072884E-06 0 -1
vn 1.072884E-06 0 -1
vn -5.960464E-08 -1 0
vn -5.960464E-08 -1 0
vn -5.960464E-08 -1 0
vn -5.960464E-08 -1 0
vn -1.072884E-06 0 1
vn -1.072884E-06 0 1
vn -1.072884E-06 0 1
vn -1.072884E-06 0 1
vn 5.960464E-08 1 0
vn 5.960464E-08 1 0
vn 5.960464E-08 1 0
vn 5.960464E-08 1 0
vn 5.960464E-08 1 0
vn 5.960464E-08 1 0
vn 5.960464E-08 1 0
vn 5.960464E-08 1 0
vn 5.960464E-08 1 0
vn 5.960464E-08 1 0
vn 5.960464E-08 1 0
vn 5.960464E-08 1 0
vn 5.960464E-08 1 0
vn 5.960464E-08 1 0
vn 5.960464E-08 1 0
vn 5.960464E-08 1 0
vn 5.960464E-08 1 0
vn 5.960464E-08 1 0
vn 5.960464E-08 1 0
vn 5.960464E-08 1 0
vn 5.960464E-08 1 0
vn 5.960464E-08 1 0
vn 5.960464E-08 1 0
vn 5.960464E-08 1 0
vn 5.960464E-08 1 0
vn 5.960464E-08 1 0
vn 5.960464E-08 1 0
vn 5.960464E-08 1 0
vn 5.960464E-08 1 0
vn 5.960464E-08 1 0
vn 5.960464E-08 1 0
vn 5.960464E-08 1 0
vn 5.960464E-08 1 0
vn 5.960464E-08 1 0
vn 5.960464E-08 1 0
vn 5.960464E-08 1 0
vn 5.960464E-08 1 0
vn 5.960464E-08 1 0
vn 5.960464E-08 1 0
vn 5.960464E-08 1 0
vn 5.960464E-08 1 0
vn 5.960464E-08 1 0
vn 5.960464E-08 1 0
vn 5.960464E-08 1 0
vn 5.960464E-08 1 0
vn 5.960464E-08 1 0
vn 5.960464E-08 1 0
vn 5.960464E-08 1 0
vn 5.960464E-08 1 0
vn 5.960464E-08 1 0
vn 5.960464E-08 1 0
vn 5.960464E-08 1 0
vn 5.960464E-08 1 0
vn 5.960464E-08 1 0
vn 5.960464E-08 1 0
vn 5.960464E-08 1 0
vn 5.960464E-08 1 0
vn 5.960464E-08 1 0
vn 5.960464E-08 1 0
vn 5.960464E-08 1 0
vn 5.960464E-08 1 0
vn 5.960464E-08 1 0
vn 5.960464E-08 1 0
vn 5.960464E-08 1 0
vn -0.300293 0.9052734 -0.300293
vn 1.013279E-06 0.2880859 -0.9575195
vn 1.013279E-06 0.2880859 -0.9575195
vn 0.300293 0.9052734 -0.300293
vn 0.9575195 0.2880859 1.013279E-06
vn 0.9575195 0.2880859 1.013279E-06
vn 0.300293 0.9052734 0.300293
vn -1.013279E-06 0.2880859 0.9575195
vn -1.013279E-06 0.2880859 0.9575195
vn -0.300293 0.9052734 0.300293
vn -0.9575195 0.2880859 -1.013279E-06
vn -0.9575195 0.2880859 -1.013279E-06
vn -1.072884E-06 0 1
vn -1.072884E-06 0 1
vn -1.013279E-06 0.2880859 0.9575195
vn -1.013279E-06 0.2880859 0.9575195
vn -1 5.960464E-08 -1.072884E-06
vn -0.7070313 5.960464E-08 0.7070313
vn -0.7070313 5.960464E-08 0.7070313
vn -1.072884E-06 0 1
vn -1 5.960464E-08 -1.072884E-06
vn -1.072884E-06 0 1
vn 0.7070313 -5.960464E-08 0.7070313
vn 0.7070313 -5.960464E-08 0.7070313
vn 1 -5.960464E-08 1.072884E-06
vn 1 -5.960464E-08 1.072884E-06
vn 0.7070313 -5.960464E-08 -0.7070313
vn 0.7070313 -5.960464E-08 -0.7070313
vn 1.072884E-06 0 -1
vn 1.072884E-06 0 -1
vn -0.7070313 5.960464E-08 -0.7070313
vn -0.7070313 5.960464E-08 -0.7070313
vn -0.7070313 5.960464E-08 -0.7070313
vn -0.7070313 5.960464E-08 -0.7070313
vn -1 5.960464E-08 -1.072884E-06
vn 1.072884E-06 0 -1
vn -1 5.960464E-08 -1.072884E-06
vn 1.072884E-06 0 -1
vn 0.7070313 -5.960464E-08 -0.7070313
vn 0.7070313 -5.960464E-08 -0.7070313
vn 1 -5.960464E-08 1.072884E-06
vn 1 -5.960464E-08 1.072884E-06
vn 0.7070313 -5.960464E-08 0.7070313
vn 0.7070313 -5.960464E-08 0.7070313
vn -1.072884E-06 0 1
vn -1.072884E-06 0 1
vn -0.7070313 5.960464E-08 0.7070313
vn -0.7070313 5.960464E-08 0.7070313
vn -0.7070313 5.960464E-08 -0.7070313
vn -0.7070313 5.960464E-08 -0.7070313
vn -1 5.960464E-08 -1.072884E-06
vn 1.072884E-06 0 -1
vn -1 5.960464E-08 -1.072884E-06
vn 1.072884E-06 0 -1
vn 0.7070313 -5.960464E-08 -0.7070313
vn 0.7070313 -5.960464E-08 -0.7070313
vn 1 -5.960464E-08 1.072884E-06
vn 1 -5.960464E-08 1.072884E-06
vn 0.7070313 -5.960464E-08 0.7070313
vn 0.7070313 -5.960464E-08 0.7070313
vn -1.072884E-06 0 1
vn -1.072884E-06 0 1
vn -0.7070313 5.960464E-08 0.7070313
vn -0.7070313 5.960464E-08 0.7070313
vn -0.7070313 5.960464E-08 -0.7070313
vn -0.7070313 5.960464E-08 -0.7070313
vn -1 5.960464E-08 -1.072884E-06
vn 1.072884E-06 0 -1
vn -1 5.960464E-08 -1.072884E-06
vn 1.072884E-06 0 -1
vn 0.7070313 -5.960464E-08 -0.7070313
vn 0.7070313 -5.960464E-08 -0.7070313
vn 1 -5.960464E-08 1.072884E-06
vn 1 -5.960464E-08 1.072884E-06
vn 0.7070313 -5.960464E-08 0.7070313
vn 0.7070313 -5.960464E-08 0.7070313
vn -1.072884E-06 0 1
vn -1.072884E-06 0 1
vn -0.7070313 5.960464E-08 0.7070313
vn -0.7070313 5.960464E-08 0.7070313
vn -1.072884E-06 0 1
vn -0.7070313 5.960464E-08 0.7070313
vn -0.7070313 5.960464E-08 0.7070313
vn -1 5.960464E-08 -1.072884E-06
vn -1.072884E-06 0 1
vn -1 5.960464E-08 -1.072884E-06
vn 0.7070313 -5.960464E-08 0.7070313
vn 0.7070313 -5.960464E-08 0.7070313
vn 1 -5.960464E-08 1.072884E-06
vn 1 -5.960464E-08 1.072884E-06
vn 0.7070313 -5.960464E-08 -0.7070313
vn 0.7070313 -5.960464E-08 -0.7070313
vn 1.072884E-06 0 -1
vn 1.072884E-06 0 -1
vn -0.7070313 5.960464E-08 -0.7070313
vn -0.7070313 5.960464E-08 -0.7070313
vn -1.072884E-06 0 1
vn -0.7070313 5.960464E-08 0.7070313
vn -0.7070313 5.960464E-08 0.7070313
vn -1 5.960464E-08 -1.072884E-06
vn -1.072884E-06 0 1
vn -1 5.960464E-08 -1.072884E-06
vn 0.7070313 -5.960464E-08 0.7070313
vn 0.7070313 -5.960464E-08 0.7070313
vn 1 -5.960464E-08 1.072884E-06
vn 1 -5.960464E-08 1.072884E-06
vn 0.7070313 -5.960464E-08 -0.7070313
vn 0.7070313 -5.960464E-08 -0.7070313
vn 1.072884E-06 0 -1
vn 1.072884E-06 0 -1
vn -0.7070313 5.960464E-08 -0.7070313
vn -0.7070313 5.960464E-08 -0.7070313
vn 1.072884E-06 0 -1
vn 0.7070313 -5.960464E-08 -0.7070313
vn 0.7070313 -5.960464E-08 -0.7070313
vn 1.072884E-06 0 -1
vn 1 -5.960464E-08 1.072884E-06
vn -0.7070313 5.960464E-08 -0.7070313
vn 1 -5.960464E-08 1.072884E-06
vn -0.7070313 5.960464E-08 -0.7070313
vn 0.7070313 -5.960464E-08 0.7070313
vn -1 5.960464E-08 -1.072884E-06
vn 0.7070313 -5.960464E-08 0.7070313
vn -1 5.960464E-08 -1.072884E-06
vn -1.072884E-06 0 1
vn -0.7070313 5.960464E-08 0.7070313
vn -1.072884E-06 0 1
vn -0.7070313 5.960464E-08 0.7070313
vn -1.072884E-06 0 1
vn -0.7070313 5.960464E-08 0.7070313
vn -0.7070313 5.960464E-08 0.7070313
vn -1.072884E-06 0 1
vn -1 5.960464E-08 -1.072884E-06
vn 0.7070313 -5.960464E-08 0.7070313
vn -1 5.960464E-08 -1.072884E-06
vn 0.7070313 -5.960464E-08 0.7070313
vn -0.7070313 5.960464E-08 -0.7070313
vn 1 -5.960464E-08 1.072884E-06
vn -0.7070313 5.960464E-08 -0.7070313
vn 1 -5.960464E-08 1.072884E-06
vn 1.072884E-06 0 -1
vn 0.7070313 -5.960464E-08 -0.7070313
vn 1.072884E-06 0 -1
vn 0.7070313 -5.960464E-08 -0.7070313

vt 0.3586426 0.7915039
vt 0.3586426 0.7915039
vt 0.3586426 0.7915039
vt 0.3586426 0.7915039
vt 0.3374023 0.8232422
vt 0.3374023 0.8232422
vt 0.3374023 0.8232422
vt 0.3374023 0.8232422
vt 0.3374023 0.8232422
vt 0.3374023 0.8232422
vt 0.3374023 0.8232422
vt 0.3374023 0.8232422
vt 0.3586426 0.7915039
vt 0.3586426 0.7915039
vt 0.3586426 0.7915039
vt 0.3586426 0.7915039
vt 0.3586426 0.7915039
vt 0.3586426 0.7915039
vt 0.3586426 0.7915039
vt 0.3586426 0.7915039
vt 0.3586426 0.7915039
vt 0.3586426 0.7915039
vt 0.3586426 0.7915039
vt 0.3586426 0.7915039
vt 0.3374023 0.8232422
vt 0.3374023 0.8232422
vt 0.3374023 0.8232422
vt 0.3374023 0.8232422
vt 0.3586426 0.7915039
vt 0.3586426 0.7915039
vt 0.3586426 0.7915039
vt 0.3586426 0.7915039
vt 0.3374023 0.8232422
vt 0.3374023 0.8232422
vt 0.3374023 0.8232422
vt 0.3374023 0.8232422
vt 0.3586426 0.7915039
vt 0.3586426 0.7915039
vt 0.3586426 0.7915039
vt 0.3586426 0.7915039
vt 0.3586426 0.7915039
vt 0.3586426 0.7915039
vt 0.3586426 0.7915039
vt 0.3586426 0.7915039
vt 0.3374023 0.8232422
vt 0.3374023 0.8232422
vt 0.3374023 0.8232422
vt 0.3374023 0.8232422
vt 0.3586426 0.7915039
vt 0.3586426 0.7915039
vt 0.3586426 0.7915039
vt 0.3586426 0.7915039
vt 0.3374023 0.8232422
vt 0.3374023 0.8232422
vt 0.3374023 0.8232422
vt 0.3374023 0.8232422
vt 0.3586426 0.7915039
vt 0.3586426 0.7915039
vt 0.3586426 0.7915039
vt 0.3586426 0.7915039
vt 0.3586426 0.7915039
vt 0.3586426 0.7915039
vt 0.3586426 0.7915039
vt 0.3586426 0.7915039
vt 0.1097412 0.9731445
vt 0.1097412 0.9731445
vt 0.1097412 0.9731445
vt 0.1097412 0.9731445
vt 0.1097412 0.9731445
vt 0.1097412 0.9731445
vt 0.1097412 0.9731445
vt 0.1097412 0.9731445
vt 0.1097412 0.9731445
vt 0.1097412 0.9731445
vt 0.1097412 0.9731445
vt 0.1097412 0.9731445
vt 0.1097412 0.9731445
vt 0.1097412 0.9731445
vt 0.1097412 0.9731445
vt 0.1097412 0.9731445
vt 0.1097412 0.9731445
vt 0.1097412 0.9731445
vt 0.1097412 0.9731445
vt 0.1097412 0.9731445
vt 0.1097412 0.9731445
vt 0.1097412 0.9731445
vt 0.1097412 0.9731445
vt 0.1097412 0.9731445
vt 0.1582031 0.7924805
vt 0.1582031 0.7924805
vt 0.1582031 0.7924805
vt 0.1582031 0.7924805
vt 0.1582031 0.7924805
vt 0.1582031 0.7924805
vt 0.1582031 0.7924805
vt 0.1582031 0.7924805
vt 0.1097412 0.9731445
vt 0.1097412 0.9731445
vt 0.1097412 0.9731445
vt 0.1097412 0.9731445
vt 0.1097412 0.9731445
vt 0.1097412 0.9731445
vt 0.1097412 0.9731445
vt 0.1097412 0.9731445
vt 0.1582031 0.7924805
vt 0.1582031 0.7924805
vt 0.1582031 0.7924805
vt 0.1582031 0.7924805
vt 0.1582031 0.7924805
vt 0.1582031 0.7924805
vt 0.1582031 0.7924805
vt 0.1582031 0.7924805
vt 0.3586426 0.7915039
vt 0.3586426 0.7915039
vt 0.3586426 0.7915039
vt 0.3586426 0.7915039
vt 0.3586426 0.7915039
vt 0.3586426 0.7915039
vt 0.3586426 0.7915039
vt 0.3586426 0.7915039
vt 0.3586426 0.7915039
vt 0.3586426 0.7915039
vt 0.3586426 0.7915039
vt 0.3586426 0.7915039
vt 0.3374023 0.8232422
vt 0.3374023 0.8232422
vt 0.3374023 0.8232422
vt 0.3374023 0.8232422
vt 0.3586426 0.7915039
vt 0.3586426 0.7915039
vt 0.3586426 0.7915039
vt 0.3586426 0.7915039
vt 0.3374023 0.8232422
vt 0.3374023 0.8232422
vt 0.3374023 0.8232422
vt 0.3374023 0.8232422
vt 0.3586426 0.7915039
vt 0.3586426 0.7915039
vt 0.3586426 0.7915039
vt 0.3586426 0.7915039
vt 0.109436 0.9736328
vt 0.109436 0.9736328
vt 0.109436 0.9736328
vt 0.109436 0.9736328
vt 0.109436 0.9736328
vt 0.109436 0.9736328
vt 0.109436 0.9736328
vt 0.109436 0.9736328
vt 0.109436 0.9736328
vt 0.109436 0.9736328
vt 0.109436 0.9736328
vt 0.109436 0.9736328
vt 0.109436 0.9736328
vt 0.109436 0.9736328
vt 0.109436 0.9736328
vt 0.109436 0.9736328
vt 0.109436 0.9736328
vt 0.109436 0.9736328
vt 0.109436 0.9736328
vt 0.109436 0.9736328
vt 0.109436 0.9736328
vt 0.109436 0.9736328
vt 0.109436 0.9736328
vt 0.109436 0.9736328
vt 0.109436 0.9736328
vt 0.109436 0.9736328
vt 0.109436 0.9736328
vt 0.109436 0.9736328
vt 0.109436 0.9736328
vt 0.109436 0.9736328
vt 0.109436 0.9736328
vt 0.109436 0.9736328
vt 0.109436 0.9736328
vt 0.109436 0.9736328
vt 0.109436 0.9736328
vt 0.109436 0.9736328
vt 0.109436 0.9736328
vt 0.109436 0.9736328
vt 0.109436 0.9736328
vt 0.109436 0.9736328
vt 0.109436 0.9736328
vt 0.109436 0.9736328
vt 0.109436 0.9736328
vt 0.109436 0.9736328
vt 0.109436 0.9736328
vt 0.109436 0.9736328
vt 0.109436 0.9736328
vt 0.109436 0.9736328
vt 0.109436 0.9736328
vt 0.109436 0.9736328
vt 0.109436 0.9736328
vt 0.109436 0.9736328
vt 0.109436 0.9736328
vt 0.109436 0.9736328
vt 0.109436 0.9736328
vt 0.109436 0.9736328
vt 0.109436 0.9736328
vt 0.109436 0.9736328
vt 0.109436 0.9736328
vt 0.109436 0.9736328
vt 0.109436 0.9736328
vt 0.109436 0.9736328
vt 0.109436 0.9736328
vt 0.109436 0.9736328
vt 0.3586426 0.8251953
vt 0.3586426 0.8251953
vt 0.3586426 0.8251953
vt 0.3586426 0.8251953
vt 0.3586426 0.8251953
vt 0.3586426 0.8251953
vt 0.3586426 0.8251953
vt 0.3586426 0.8251953
vt 0.3586426 0.8251953
vt 0.3586426 0.8251953
vt 0.3586426 0.8251953
vt 0.3586426 0.8251953
vt 0.3586426 0.7915039
vt 0.3586426 0.7915039
vt 0.3586426 0.7915039
vt 0.3586426 0.7915039
vt 0.1582031 0.7924805
vt 0.1582031 0.7924805
vt 0.1582031 0.7924805
vt 0.1582031 0.7924805
vt 0.1582031 0.7924805
vt 0.1582031 0.7924805
vt 0.1582031 0.7924805
vt 0.1582031 0.7924805
vt 0.1582031 0.7924805
vt 0.1582031 0.7924805
vt 0.1582031 0.7924805
vt 0.1582031 0.7924805
vt 0.1582031 0.7924805
vt 0.1582031 0.7924805
vt 0.1582031 0.7924805
vt 0.1582031 0.7924805
vt 0.1582031 0.7924805
vt 0.1582031 0.7924805
vt 0.1582031 0.7924805
vt 0.1582031 0.7924805
vt 0.1582031 0.7924805
vt 0.1582031 0.7924805
vt 0.1582031 0.7924805
vt 0.1582031 0.7924805
vt 0.1582031 0.7924805
vt 0.1582031 0.7924805
vt 0.1582031 0.7924805
vt 0.1582031 0.7924805
vt 0.1582031 0.7924805
vt 0.1582031 0.7924805
vt 0.1582031 0.7924805
vt 0.1582031 0.7924805
vt 0.1582031 0.7924805
vt 0.1582031 0.7924805
vt 0.1582031 0.7924805
vt 0.1582031 0.7924805
vt 0.1582031 0.7924805
vt 0.1582031 0.7924805
vt 0.1582031 0.7924805
vt 0.1582031 0.7924805
vt 0.1582031 0.7924805
vt 0.1582031 0.7924805
vt 0.1582031 0.7924805
vt 0.1582031 0.7924805
vt 0.1582031 0.7924805
vt 0.1582031 0.7924805
vt 0.1582031 0.7924805
vt 0.1582031 0.7924805
vt 0.1582031 0.7924805
vt 0.1582031 0.7924805
vt 0.1582031 0.7924805
vt 0.1582031 0.7924805
vt 0.1582031 0.7924805
vt 0.1582031 0.7924805
vt 0.1582031 0.7924805
vt 0.1582031 0.7924805
vt 0.1582031 0.7924805
vt 0.1582031 0.7924805
vt 0.1582031 0.7924805
vt 0.1582031 0.7924805
vt 0.1582031 0.7924805
vt 0.1582031 0.7924805
vt 0.1582031 0.7924805
vt 0.1582031 0.7924805
vt 0.1582031 0.7924805
vt 0.1582031 0.7924805
vt 0.1582031 0.7924805
vt 0.1582031 0.7924805
vt 0.1582031 0.7924805
vt 0.1582031 0.7924805
vt 0.1582031 0.7924805
vt 0.1582031 0.7924805
vt 0.1582031 0.7924805
vt 0.1582031 0.7924805
vt 0.1582031 0.7924805
vt 0.1582031 0.7924805
vt 0.1582031 0.7924805
vt 0.1582031 0.7924805
vt 0.1582031 0.7924805
vt 0.1582031 0.7924805
vt 0.1582031 0.7924805
vt 0.1582031 0.7924805
vt 0.1582031 0.7924805
vt 0.1582031 0.7924805
vt 0.1582031 0.7924805
vt 0.1582031 0.7924805
vt 0.1582031 0.7924805
vt 0.1582031 0.7924805
vt 0.1582031 0.7924805
vt 0.1582031 0.7924805
vt 0.1582031 0.7924805
vt 0.1582031 0.7924805
vt 0.1582031 0.7924805
vt 0.1582031 0.7924805
vt 0.1582031 0.7924805
vt 0.1582031 0.7924805
vt 0.1582031 0.7924805
vt 0.1582031 0.7924805
vt 0.1582031 0.7924805
vt 0.1582031 0.7924805
vt 0.1582031 0.7924805
vt 0.1582031 0.7924805
vt 0.1582031 0.7924805
vt 0.1582031 0.7924805
vt 0.1582031 0.7924805
vt 0.1582031 0.7924805
vt 0.1582031 0.7924805
vt 0.1582031 0.7924805
vt 0.1582031 0.7924805
vt 0.1582031 0.7924805
vt 0.1582031 0.7924805
vt 0.1582031 0.7924805
vt 0.1582031 0.7924805
vt 0.1582031 0.7924805
vt 0.1582031 0.7924805
vt 0.1582031 0.7924805
vt 0.1582031 0.7924805
vt 0.1582031 0.7924805
vt 0.1582031 0.7924805
vt 0.1582031 0.7924805
vt 0.1582031 0.7924805
vt 0.1582031 0.7924805
vt 0.1582031 0.7924805
vt 0.1582031 0.7924805
vt 0.1582031 0.7924805
vt 0.1582031 0.7924805
vt 0.1582031 0.7924805
vt 0.1582031 0.7924805

g Wharf_Pier_6265_0
usemtl Wharf_Pier_6265_0
usemap Wharf_Pier_6265_0
f 1/1/1 3/3/3 2/2/2
f 1/1/1 4/4/4 3/3/3
f 5/5/5 7/7/7 6/6/6
f 5/5/5 8/8/8 7/7/7
f 9/9/9 11/11/11 10/10/10
f 9/9/9 12/12/12 11/11/11
f 13/13/13 15/15/15 14/14/14
f 13/13/13 16/16/16 15/15/15
f 17/17/17 19/19/19 18/18/18
f 17/17/17 20/20/20 19/19/19
f 21/21/21 23/23/23 22/22/22
f 21/21/21 24/24/24 23/23/23
f 25/25/25 27/27/27 26/26/26
f 25/25/25 28/28/28 27/27/27
f 29/29/29 31/31/31 30/30/30
f 29/29/29 32/32/32 31/31/31
f 33/33/33 35/35/35 34/34/34
f 33/33/33 36/36/36 35/35/35
f 37/37/37 39/39/39 38/38/38
f 37/37/37 40/40/40 39/39/39
f 41/41/41 43/43/43 42/42/42
f 41/41/41 44/44/44 43/43/43
f 45/45/45 47/47/47 46/46/46
f 45/45/45 48/48/48 47/47/47
f 49/49/49 51/51/51 50/50/50
f 49/49/49 52/52/52 51/51/51
f 53/53/53 55/55/55 54/54/54
f 53/53/53 56/56/56 55/55/55
f 57/57/57 59/59/59 58/58/58
f 57/57/57 60/60/60 59/59/59
f 61/61/61 63/63/63 62/62/62
f 61/61/61 64/64/64 63/63/63
f 65/65/65 67/67/67 66/66/66
f 65/65/65 68/68/68 67/67/67
f 69/69/69 71/71/71 70/70/70
f 69/69/69 72/72/72 71/71/71
f 73/73/73 75/75/75 74/74/74
f 73/73/73 76/76/76 75/75/75
f 77/77/77 79/79/79 78/78/78
f 77/77/77 80/80/80 79/79/79
f 81/81/81 83/83/83 82/82/82
f 81/81/81 84/84/84 83/83/83
f 85/85/85 87/87/87 86/86/86
f 85/85/85 88/88/88 87/87/87
f 89/89/89 91/91/91 90/90/90
f 89/89/89 92/92/92 91/91/91
f 93/93/93 95/95/95 94/94/94
f 93/93/93 96/96/96 95/95/95
f 97/97/97 99/99/99 98/98/98
f 97/97/97 100/100/100 99/99/99
f 101/101/101 103/103/103 102/102/102
f 101/101/101 104/104/104 103/103/103
f 105/105/105 107/107/107 106/106/106
f 105/105/105 108/108/108 107/107/107
f 109/109/109 111/111/111 110/110/110
f 109/109/109 112/112/112 111/111/111
f 113/113/113 115/115/115 114/114/114
f 113/113/113 116/116/116 115/115/115
f 117/117/117 119/119/119 118/118/118
f 117/117/117 120/120/120 119/119/119
f 121/121/121 123/123/123 122/122/122
f 121/121/121 124/124/124 123/123/123
f 125/125/125 127/127/127 126/126/126
f 125/125/125 128/128/128 127/127/127
f 129/129/129 131/131/131 130/130/130
f 129/129/129 132/132/132 131/131/131
f 133/133/133 135/135/135 134/134/134
f 133/133/133 136/136/136 135/135/135
f 137/137/137 139/139/139 138/138/138
f 137/137/137 140/140/140 139/139/139
f 141/141/141 143/143/143 142/142/142
f 143/143/143 141/141/141 144/144/144
f 143/143/143 144/144/144 145/145/145
f 145/145/145 144/144/144 146/146/146
f 145/145/145 146/146/146 147/147/147
f 147/147/147 146/146/146 148/148/148
f 149/149/149 151/151/151 150/150/150
f 151/151/151 149/149/149 152/152/152
f 152/152/152 149/149/149 153/153/153
f 152/152/152 153/153/153 154/154/154
f 154/154/154 153/153/153 155/155/155
f 154/154/154 155/155/155 156/156/156
f 157/157/157 159/159/159 158/158/158
f 159/159/159 157/157/157 160/160/160
f 159/159/159 160/160/160 161/161/161
f 161/161/161 160/160/160 162/162/162
f 161/161/161 162/162/162 163/163/163
f 163/163/163 162/162/162 164/164/164
f 165/165/165 167/167/167 166/166/166
f 167/167/167 165/165/165 168/168/168
f 167/167/167 168/168/168 169/169/169
f 169/169/169 168/168/168 170/170/170
f 169/169/169 170/170/170 171/171/171
f 171/171/171 170/170/170 172/172/172
f 173/173/173 175/175/175 174/174/174
f 175/175/175 173/173/173 176/176/176
f 175/175/175 176/176/176 177/177/177
f 177/177/177 176/176/176 178/178/178
f 177/177/177 178/178/178 179/179/179
f 179/179/179 178/178/178 180/180/180
f 181/181/181 183/183/183 182/182/182
f 183/183/183 181/181/181 184/184/184
f 183/183/183 184/184/184 185/185/185
f 185/185/185 184/184/184 186/186/186
f 185/185/185 186/186/186 187/187/187
f 187/187/187 186/186/186 188/188/188
f 189/189/189 191/191/191 190/190/190
f 191/191/191 189/189/189 192/192/192
f 191/191/191 192/192/192 193/193/193
f 193/193/193 192/192/192 194/194/194
f 193/193/193 194/194/194 195/195/195
f 195/195/195 194/194/194 196/196/196
f 197/197/197 199/199/199 198/198/198
f 199/199/199 197/197/197 200/200/200
f 199/199/199 200/200/200 201/201/201
f 201/201/201 200/200/200 202/202/202
f 201/201/201 202/202/202 203/203/203
f 203/203/203 202/202/202 204/204/204
f 205/205/205 207/207/207 206/206/206
f 205/205/205 208/208/208 207/207/207
f 208/208/208 210/210/210 209/209/209
f 208/208/208 211/211/211 210/210/210
f 211/211/211 213/213/213 212/212/212
f 211/211/211 214/214/214 213/213/213
f 214/214/214 205/205/205 215/215/215
f 214/214/214 215/215/215 216/216/216
f 217/217/217 219/219/219 218/218/218
f 217/217/217 220/220/220 219/219/219
f 221/221/221 223/223/223 222/222/222
f 222/222/222 223/223/223 224/224/224
f 221/221/221 222/222/222 225/225/225
f 222/222/222 224/224/224 226/226/226
f 226/226/226 224/224/224 227/227/227
f 226/226/226 227/227/227 228/228/228
f 228/228/228 227/227/227 229/229/229
f 228/228/228 229/229/229 230/230/230
f 230/230/230 229/229/229 231/231/231
f 230/230/230 231/231/231 232/232/232
f 233/233/233 232/232/232 231/231/231
f 233/233/233 234/234/234 232/232/232
f 235/235/235 221/221/221 225/225/225
f 235/235/235 234/234/234 233/233/233
f 235/235/235 225/225/225 236/236/236
f 235/235/235 236/236/236 234/234/234
f 237/237/237 239/239/239 238/238/238
f 237/237/237 238/238/238 240/240/240
f 237/237/237 241/241/241 239/239/239
f 237/237/237 240/240/240 242/242/242
f 242/242/242 240/240/240 243/243/243
f 242/242/242 243/243/243 244/244/244
f 245/245/245 244/244/244 243/243/243
f 245/245/245 246/246/246 244/244/244
f 247/247/247 246/246/246 245/245/245
f 247/247/247 248/248/248 246/246/246
f 249/249/249 248/248/248 247/247/247
f 249/249/249 250/250/250 248/248/248
f 241/241/241 251/251/251 239/239/239
f 251/251/251 250/250/250 249/249/249
f 241/241/241 252/252/252 251/251/251
f 251/251/251 252/252/252 250/250/250
f 253/253/253 255/255/255 254/254/254
f 253/253/253 254/254/254 256/256/256
f 253/253/253 257/257/257 255/255/255
f 253/253/253 256/256/256 258/258/258
f 258/258/258 256/256/256 259/259/259
f 258/258/258 259/259/259 260/260/260
f 261/261/261 260/260/260 259/259/259
f 261/261/261 262/262/262 260/260/260
f 263/263/263 262/262/262 261/261/261
f 263/263/263 264/264/264 262/262/262
f 265/265/265 264/264/264 263/263/263
f 265/265/265 266/266/266 264/264/264
f 257/257/257 267/267/267 255/255/255
f 267/267/267 266/266/266 265/265/265
f 257/257/257 268/268/268 267/267/267
f 267/267/267 268/268/268 266/266/266
f 269/269/269 271/271/271 270/270/270
f 269/269/269 270/270/270 272/272/272
f 269/269/269 273/273/273 271/271/271
f 269/269/269 272/272/272 274/274/274
f 274/274/274 272/272/272 275/275/275
f 274/274/274 275/275/275 276/276/276
f 277/277/277 276/276/276 275/275/275
f 277/277/277 278/278/278 276/276/276
f 279/279/279 278/278/278 277/277/277
f 279/279/279 280/280/280 278/278/278
f 281/281/281 280/280/280 279/279/279
f 281/281/281 282/282/282 280/280/280
f 273/273/273 283/283/283 271/271/271
f 283/283/283 282/282/282 281/281/281
f 273/273/273 284/284/284 283/283/283
f 283/283/283 284/284/284 282/282/282
f 285/285/285 287/287/287 286/286/286
f 288/288/288 286/286/286 287/287/287
f 285/285/285 289/289/289 287/287/287
f 288/288/288 287/287/287 290/290/290
f 291/291/291 289/289/289 285/285/285
f 291/291/291 292/292/292 289/289/289
f 293/293/293 292/292/292 291/291/291
f 293/293/293 294/294/294 292/292/292
f 295/295/295 294/294/294 293/293/293
f 295/295/295 296/296/296 294/294/294
f 296/296/296 295/295/295 297/297/297
f 296/296/296 297/297/297 298/298/298
f 299/299/299 288/288/288 290/290/290
f 298/298/298 297/297/297 299/299/299
f 299/299/299 290/290/290 300/300/300
f 298/298/298 299/299/299 300/300/300
f 301/301/301 303/303/303 302/302/302
f 304/304/304 302/302/302 303/303/303
f 301/301/301 305/305/305 303/303/303
f 304/304/304 303/303/303 306/306/306
f 307/307/307 305/305/305 301/301/301
f 307/307/307 308/308/308 305/305/305
f 308/308/308 307/307/307 309/309/309
f 308/308/308 309/309/309 310/310/310
f 310/310/310 309/309/309 311/311/311
f 310/310/310 311/311/311 312/312/312
f 312/312/312 311/311/311 313/313/313
f 312/312/312 313/313/313 314/314/314
f 315/315/315 304/304/304 306/306/306
f 314/314/314 313/313/313 315/315/315
f 315/315/315 306/306/306 316/316/316
f 314/314/314 315/315/315 316/316/316
f 317/317/317 319/319/319 318/318/318
f 317/317/317 320/320/320 319/319/319
f 321/321/321 318/318/318 319/319/319
f 322/322/322 320/320/320 317/317/317
f 321/321/321 323/323/323 318/318/318
f 322/322/322 324/324/324 320/320/320
f 325/325/325 323/323/323 321/321/321
f 324/324/324 322/322/322 326/326/326
f 325/325/325 327/327/327 323/323/323
f 324/324/324 326/326/326 328/328/328
f 329/329/329 327/327/327 325/325/325
f 328/328/328 326/326/326 330/330/330
f 329/329/329 331/331/331 327/327/327
f 328/328/328 330/330/330 332/332/332
f 332/332/332 331/331/331 329/329/329
f 332/332/332 330/330/330 331/331/331
f 333/333/333 335/335/335 334/334/334
f 333/333/333 336/336/336 335/335/335
f 337/337/337 334/334/334 335/335/335
f 338/338/338 336/336/336 333/333/333
f 337/337/337 339/339/339 334/334/334
f 338/338/338 340/340/340 336/336/336
f 341/341/341 339/339/339 337/337/337
f 340/340/340 338/338/338 342/342/342
f 341/341/341 343/343/343 339/339/339
f 340/340/340 342/342/342 344/344/344
f 345/345/345 343/343/343 341/341/341
f 344/344/344 342/342/342 346/346/346
f 345/345/345 347/347/347 343/343/343
f 344/344/344 346/346/346 348/348/348
f 348/348/348 347/347/347 345/345/345
f 348/348/348 346/346/346 347/347/347
